kitchen : [378,731] : [286,715,471,747] : [55] : match : 0
wc : [1824,715] : [1789,687,1859,744] : [62] : match : 0
bed 3 : [1629,781] : [1569,765,1689,797] : [90] : match : 0
bath : [1954,782] : [1899,766,2010,798] : [88] : match : 0
bed 4 : [2241,778] : [2181,763,2301,794] : [86] : match : 0
meals : [483,1000] : [404,980,562,1020] : [74] : match : 0
wic : [1814,1312] : [1773,1281,1855,1344] : [51] : match : 1
wc : [819,1683] : [779,1651,860,1715] : [66] : match : 1
ens : [1062,1692] : [1016,1673,1108,1711] : [78] : match : 0
ens : [2292,1695] : [2246,1679,2338,1712] : [78] : match : 0
family : [1677,1732] : [1600,1716,1754,1748] : [94] : match : 0
retreat : [1677,1789] : [1582,1774,1773,1805] : [83] : match : 0
entry : [707,1829] : [638,1803,777,1856] : [66] : match : 0
porch : [670,2099] : [596,2083,744,2116] : [87] : match : 0
cl : [1494,1546] : [1481,1537,1508,1555] : [68] : match : 1
3500x3250 : [1627,825] : [1534,811,1720,839] : [89] : none : -1
3500x3250 : [2239,822] : [2146,809,2332,836] : [89] : none : -1
, , : [349,1251] : [318,1251,381,1252] : [65] : none : -1
. . : [455,1342] : [439,1341,471,1343] : [74] : none : -1
. . : [666,1342] : [650,1341,682,1343] : [74] : none : -1
. . : [731,1342] : [710,1341,753,1343] : [74] : none : -1
3960x5400 : [2149,1300] : [2057,1286,2241,1314] : [65] : none : -1
I I : [277,1405] : [247,1385,307,1425] : [72] : none : -1
I I : [952,1734] : [921,1733,983,1736] : [66] : none : -1
I I : [1027,1734] : [1012,1733,1043,1736] : [66] : none : -1
I I : [1118,1734] : [1103,1733,1134,1736] : [66] : none : -1
6430x4350 : [1675,1844] : [1583,1830,1768,1858] : [88] : none : -1
_. : [639,1951] : [624,1943,654,1959] : [90] : none : -1
._ : [743,1950] : [728,1941,758,1959] : [83] : none : -1
wipi : [668,733] : [620,708,716,758] : [60] : none : -1
eggxjfog : [964,816] : [872,779,1056,854] : [48] : none : -1
ix : [457,1025] : [348,980,567,1071] : [84] : none : -1
ewir : [1551,988] : [1507,970,1596,1007] : [81] : none : -1
iwmi : [2297,988] : [2237,970,2358,1006] : [54] : none : -1
lj : [2023,1037] : [1996,1031,2051,1044] : [52] : none : -1
familyx : [966,1205] : [882,1168,1050,1242] : [82] : none : -1
bedmm : [1639,1262] : [1558,1226,1721,1299] : [74] : none : -1
kidsactivity : [2151,1255] : [2002,1239,2301,1272] : [86] : none : -1
lidry : [320,1320] : [258,1298,382,1343] : [57] : none : -1
db : [550,1398] : [516,1370,584,1426] : [63] : none : -1
garageoooxio : [330,1754] : [240,1717,421,1791] : [88] : none : -1
guestix : [982,1980] : [901,1942,1064,2018] : [88] : none : -1
masterix : [2166,1971] : [2077,1934,2255,2008] : [72] : none : -1
A : [1552,873] : [1538,865,1566,882] : [61] : none : -1
=' : [1711,1181] : [1654,1168,1768,1195] : [75] : none : -1
D' ' : [1885,1170] : [1833,1168,1938,1172] : [69] : none : -1
__I : [1771,2003] : [1754,1996,1789,2010] : [74] : none : -1
No Text Detected
