Wall : 2303,5067,2472,5140
Wall : 1619,3858,1864,3931
Wall : 1625,5068,1870,5140
Wall : 1065,3822,1131,3945
Wall : 2533,3784,2658,3847
Wall : 2015,2819,2078,2942
Wall : 2226,4500,2288,4623
Wall : 2533,3513,2658,3570
Wall : 2515,3165,2640,3223
Wall : 1007,2851,2077,2905
Wall : 217,2850,864,2904
Wall : 2377,2833,3419,2883
Wall : 1586,3983,1711,4036
Wall : 1623,3858,1674,5297
Wall : 1873,4500,1926,4623
Wall : 2452,3419,2577,3470
Wall : 2452,3274,2577,3327
Wall : 2515,2899,2640,2951
Wall : 2377,2819,2430,2942
Wall : 334,5183,842,5233
Wall : 1166,5183,1662,5231
Wall : 3376,686,3418,4588
Wall : 1949,2863,1991,3743
Wall : 2638,3354,3419,3392
Wall : 1393,686,1432,2897
Wall : 1392,686,3419,722
Wall : 337,2865,373,5297
Wall : 2639,3187,2675,3518
Wall : 2666,3811,3419,3847
Wall : 2380,3811,2526,3848
Wall : 2388,4141,2424,5140
Wall : 2496,3411,2532,3548
Wall : 2496,3218,2532,3335
Wall : 217,1764,1430,1800
Wall : 218,1764,253,2901
Wall : 2235,4552,3419,4587
Wall : 1825,4551,1926,4588
Wall : 336,3862,1132,3898
Wall : 1629,4551,1721,4588
Wall : 2293,4588,1981,4301
Wall : 2831,3640,2572,3816
Wall : 2806,3110,2559,2882
Wall : 2553,3298,2359,3374
Wall : 2322,3140,2004,2855
Wall : 2188,4141,3419,4168
Wall : 2847,3811,2874,4168
Wall : 2418,3842,2317,3892
Wall : 1990,3720,1785,3911
Wall : 2181,4166,2131,4098
Wall : 1164,5294,1181,5310
Wall : 334,5221,1661,5237
Wall : 617,5183,632,5364
Wall : 445,3822,460,3937
Wall : 616,5295,1401,5310
Wall : 2691,3175,2516,3186
Wall : 1952,4380,1921,4421
Wall : 2413,3416,2577,3431
Wall : 2356,3088,2311,3128
Wall : 1983,4324,1942,4363
Wall : 2776,3134,2724,3148
Wall : 2784,3127,2732,3142
Wall : 7123,2596,7202,2667
Wall : 7115,2914,7240,2976
Wall : 8040,2202,8165,2264
Wall : 6530,2327,6584,2653
Wall : 6530,809,6584,1348
Wall : 6529,1556,6585,2118
Wall : 7552,2713,7677,2768
Wall : 8040,1944,8165,1995
Wall : 7607,2977,7659,3900
Wall : 8372,1493,8425,1616
Wall : 8105,1493,8157,1616
Wall : 7124,3309,7249,3362
Wall : 7597,2551,7650,2674
Wall : 7124,3042,7249,3095
Wall : 6187,2610,6933,2660
Wall : 8291,2696,8718,2746
Wall : 7609,2693,8098,2742
Wall : 7552,2990,7677,3038
Wall : 8675,1008,8718,2293
Wall : 8403,1008,8718,1047
Wall : 7634,1007,8209,1047
Wall : 5209,2617,5245,3935
Wall : 7577,4589,8172,4625
Wall : 8681,3636,8717,4624
Wall : 5208,3869,7194,3905
Wall : 8681,2517,8718,3011
Wall : 6956,4589,7404,4625
Wall : 8346,4589,8718,4625
Wall : 6944,3869,6980,4639
Wall : 7164,2551,7200,2674
Wall : 5208,2617,5564,2652
Wall : 7070,2683,7240,2717
Wall : 6539,2999,6572,3905
Wall : 6538,2999,7194,3032
Wall : 8296,2028,8101,2240
Wall : 7554,2344,7156,2570
Wall : 7834,2934,7610,2706
Wall : 8315,1330,8078,1573
Wall : 7173,3002,6997,2727
Wall : 7216,3058,6951,3240
Wall : 7164,3301,7193,3901
Wall : 7817,1881,8117,1908
Wall : 7613,3874,8718,3902
Wall : 7649,2532,8718,2558
Wall : 8089,2203,8116,2558
Wall : 6529,2371,7194,2398
Wall : 7818,1881,7844,2558
Wall : 7817,1554,8158,1582
Wall : 7167,2371,7193,2541
Wall : 8372,1554,8718,1583
Wall : 8089,1881,8116,2005
Wall : 6524,811,7940,836
Wall : 6528,1025,6852,1044
Wall : 7246,3347,7069,3302
Wall : 7729,2994,7553,3005
Wall : 8227,2007,8043,1958
Wall : 7570,2409,7547,2329
Wall : 8265,2022,8215,1987
Wall : 7551,2338,7368,2419
Wall : 8293,1356,8292,1308
Wall : 8206,1482,8140,1501
Wall : 8354,1409,8347,1366
Wall : 7049,3311,7021,3280
Wall : 7783,2972,7748,2971
Wall : 6677,2667,6676,2597
Wall : 8579,1730,8595,1753
Wall : 8579,2067,8595,2090
Wall : 6830,3731,6881,3755
Wall : 1439,3791,1455,3813
Wall : 1283,3793,1299,3814
Wall : 5220,5337,5262,5354
Wall : 7167,2915,7185,3103
Wall : 8292,2688,8338,2754
Wall : 8105,1531,8167,1553
Wall : 8363,1523,8425,1553
Wall : 7588,2581,7650,2618
Wall : 6678,2597,6727,2666
Wall : 7607,2683,7635,2778
Wall : 8118,1945,8135,2005
Wall : 7842,2688,7892,2754
Wall : 646,2841,700,2913
Wall : 2570,3158,2610,3223
Wall : 2368,2874,3419,2899
Wall : 2588,3513,2630,3578
Wall : 1008,2841,1063,2913
Wall : 453,3822,496,3945
Wall : 1825,4551,1935,4567
Wall : 1873,4530,1935,4550
Wall : 1586,4436,1711,4484
Wall : 2303,5067,2472,5140
Wall : 1619,3858,1864,3931
Wall : 1625,5068,1870,5140
Wall : 1065,3822,1131,3945
Wall : 2533,3784,2658,3847
Wall : 2015,2819,2078,2942
Wall : 2226,4500,2288,4623
Wall : 2533,3513,2658,3570
Wall : 2515,3165,2640,3223
Wall : 1007,2851,2077,2905
Wall : 217,2850,864,2904
Wall : 2377,2833,3419,2883
Wall : 1586,3983,1711,4036
Wall : 1623,3858,1674,5297
Wall : 1873,4500,1926,4623
Wall : 2452,3419,2577,3470
Wall : 2452,3274,2577,3327
Wall : 2515,2899,2640,2951
Wall : 2377,2819,2430,2942
Wall : 334,5183,842,5233
Wall : 1166,5183,1662,5231
Wall : 3376,686,3418,4588
Wall : 1949,2863,1991,3743
Wall : 2638,3354,3419,3392
Wall : 1393,686,1432,2897
Wall : 1392,686,3419,722
Wall : 337,2865,373,5297
Wall : 2639,3187,2675,3518
Wall : 2666,3811,3419,3847
Wall : 2380,3811,2526,3848
Wall : 2388,4141,2424,5140
Wall : 2496,3411,2532,3548
Wall : 2496,3218,2532,3335
Wall : 217,1764,1430,1800
Wall : 218,1764,253,2901
Wall : 2235,4552,3419,4587
Wall : 1825,4551,1926,4588
Wall : 336,3862,1132,3898
Wall : 1629,4551,1721,4588
Wall : 2293,4588,1981,4301
Wall : 2831,3640,2572,3816
Wall : 2806,3110,2559,2882
Wall : 2553,3298,2359,3374
Wall : 2322,3140,2004,2855
Wall : 2188,4141,3419,4168
Wall : 2847,3811,2874,4168
Wall : 2418,3842,2317,3892
Wall : 1990,3720,1785,3911
Wall : 2181,4166,2131,4098
Wall : 1164,5294,1181,5310
Wall : 334,5221,1661,5237
Wall : 617,5183,632,5364
Wall : 445,3822,460,3937
Wall : 616,5295,1401,5310
Wall : 2691,3175,2516,3186
Wall : 1952,4380,1921,4421
Wall : 2413,3416,2577,3431
Wall : 2356,3088,2311,3128
Wall : 1983,4324,1942,4363
Wall : 2776,3134,2724,3148
Wall : 2784,3127,2732,3142
Wall : 7123,2596,7202,2667
Wall : 7115,2914,7240,2976
Wall : 8040,2202,8165,2264
Wall : 6530,2327,6584,2653
Wall : 6530,809,6584,1348
Wall : 6529,1556,6585,2118
Wall : 7552,2713,7677,2768
Wall : 8040,1944,8165,1995
Wall : 7607,2977,7659,3900
Wall : 8372,1493,8425,1616
Wall : 8105,1493,8157,1616
Wall : 7124,3309,7249,3362
Wall : 7597,2551,7650,2674
Wall : 7124,3042,7249,3095
Wall : 6187,2610,6933,2660
Wall : 8291,2696,8718,2746
Wall : 7609,2693,8098,2742
Wall : 7552,2990,7677,3038
Wall : 8675,1008,8718,2293
Wall : 8403,1008,8718,1047
Wall : 7634,1007,8209,1047
Wall : 5209,2617,5245,3935
Wall : 7577,4589,8172,4625
Wall : 8681,3636,8717,4624
Wall : 5208,3869,7194,3905
Wall : 8681,2517,8718,3011
Wall : 6956,4589,7404,4625
Wall : 8346,4589,8718,4625
Wall : 6944,3869,6980,4639
Wall : 7164,2551,7200,2674
Wall : 5208,2617,5564,2652
Wall : 7070,2683,7240,2717
Wall : 6539,2999,6572,3905
Wall : 6538,2999,7194,3032
Wall : 8296,2028,8101,2240
Wall : 7554,2344,7156,2570
Wall : 7834,2934,7610,2706
Wall : 8315,1330,8078,1573
Wall : 7173,3002,6997,2727
Wall : 7216,3058,6951,3240
Wall : 7164,3301,7193,3901
Wall : 7817,1881,8117,1908
Wall : 7613,3874,8718,3902
Wall : 7649,2532,8718,2558
Wall : 8089,2203,8116,2558
Wall : 6529,2371,7194,2398
Wall : 7818,1881,7844,2558
Wall : 7817,1554,8158,1582
Wall : 7167,2371,7193,2541
Wall : 8372,1554,8718,1583
Wall : 8089,1881,8116,2005
Wall : 6524,811,7940,836
Wall : 6528,1025,6852,1044
Wall : 7246,3347,7069,3302
Wall : 7729,2994,7553,3005
Wall : 8227,2007,8043,1958
Wall : 7570,2409,7547,2329
Wall : 8265,2022,8215,1987
Wall : 7551,2338,7368,2419
Wall : 8293,1356,8292,1308
Wall : 8206,1482,8140,1501
Wall : 8354,1409,8347,1366
Wall : 7049,3311,7021,3280
Wall : 7783,2972,7748,2971
Wall : 6677,2667,6676,2597
Wall : 8579,1730,8595,1753
Wall : 8579,2067,8595,2090
Wall : 6830,3731,6881,3755
Wall : 1439,3791,1455,3813
Wall : 1283,3793,1299,3814
Wall : 5220,5337,5262,5354
Wall : 7167,2915,7185,3103
Wall : 8292,2688,8338,2754
Wall : 8105,1531,8167,1553
Wall : 8363,1523,8425,1553
Wall : 7588,2581,7650,2618
Wall : 6678,2597,6727,2666
Wall : 7607,2683,7635,2778
Wall : 8118,1945,8135,2005
Wall : 7842,2688,7892,2754
Wall : 646,2841,700,2913
Wall : 2570,3158,2610,3223
Wall : 2368,2874,3419,2899
Wall : 2588,3513,2630,3578
Wall : 1008,2841,1063,2913
Wall : 453,3822,496,3945
Wall : 1825,4551,1935,4567
Wall : 1873,4530,1935,4550
Wall : 1586,4436,1711,4484
Wall : 1854,3831,1859,3937
Wall : 1028,3857,1866,3862
Wall : 1065,3922,1873,3930
Wall : 1028,3899,1132,3910
Wall : 2587,3775,2676,3782
Wall : 2716,3578,2536,3531
Wall : 1207,2865,1212,3060
Wall : 1969,2624,1974,3740
Wall : 1698,2863,1703,3096
Wall : 1369,2865,1378,3096
Wall : 2580,2856,2591,2959
Wall : 3195,2856,3200,3392
Wall : 2377,2819,2391,3006
Wall : 1619,3918,1876,3926
Wall : 1625,5131,2472,5140
Wall : 1625,5068,2472,5078
Wall : 2482,3411,2493,3471
Wall : 2496,3187,2506,3335
Wall : 2573,2899,2579,2959
Wall : 2368,2900,2430,2913
Wall : 1386,5183,1400,5364
Wall : 3194,3119,3419,3124
Wall : 2366,3840,3419,3847
Wall : 1740,3501,1991,3506
Wall : 1740,3302,1991,3307
Wall : 2667,3187,2675,3548
Wall : 1392,2624,1975,2629
Wall : 2296,4369,3133,4374
Wall : 1911,4438,1925,4623
Wall : 2569,2955,2664,2960
Wall : 3126,4082,3133,4374
Wall : 616,5350,1401,5364
Wall : 2515,3168,2703,3173
Wall : 1921,4405,1934,4465
Wall : 7203,2540,7210,2620
Wall : 7186,2924,7192,3103
Wall : 6529,2487,6606,2494
Wall : 7552,2987,7740,2992
Wall : 8363,1554,8718,1562
Wall : 7817,1554,8167,1562
Wall : 7154,3301,7163,3361
Wall : 7597,2619,7674,2627
Wall : 6674,2602,6727,2610
Wall : 8518,2532,8530,2732
Wall : 8493,2225,8718,2231
Wall : 7817,1132,8718,1137
Wall : 5156,2629,5206,2641
Wall : 8258,4242,8718,4248
Wall : 7597,2532,8718,2546
Wall : 7123,2611,7211,2617
Wall : 7123,2601,7211,2607
Wall : 7149,2571,7230,2577
Wall : 7149,2578,7217,2589
Wall : 7149,2550,7253,2563
Wall : 6538,3424,6651,3429
Wall : 6538,3243,6753,3249
Wall : 6538,3611,7194,3617
Wall : 6747,2999,6752,3249
Wall : 8259,3875,8271,4579
Wall : 8651,2559,8160,2300
Wall : 8354,2531,8366,2709
Wall : 7135,2487,7194,2494
Wall : 8577,1132,8582,1580
Wall : 8494,1555,8500,2231
Wall : 8373,1442,8387,1616
Wall : 6539,762,6551,1341
Wall : 7063,3316,6981,3257
Wall : 7814,2952,7754,2970
Wall : 7597,2475,7611,2674
Wall : 1208,3745,1215,3861
Wall : 1521,3745,1528,3861
Wall : 2800,3622,2724,3565
Wall : 1206,3055,1379,3060
Wall : 1371,3091,1704,3097
Wall : 1741,3302,1746,3506
Wall : 8461,4061,8468,4326
Wall : 7636,4275,8272,4287
Wall : 7636,4203,8272,4215
Wall : 7577,4061,8468,4068
Wall : 8592,2312,8155,2517
Wall : 8142,2303,8640,2308
Wall : 8142,2520,8640,2525
Wall : 1208,3853,1528,3861
Wall : 1208,3745,1528,3750
Wall : 7637,4203,7648,4287
Wall : 8143,2303,8149,2525
Wall : 8633,2303,8639,2525
