25
7
2.64575131106
2
unknown
15
77
14
66
41.8688428309
0.0
0.0
0.0
0.0
0.0
0.0
0.0
0.0
0.0
0.0
0.010101010101
0.131313131313
0.0656565656566
0.0606060606061
0.0555555555556
0.0353535353535
0.156565656566
0.0808080808081
0.0707070707071
0.0606060606061
0.111111111111
0.0707070707071
0.0505050505051
0.020202020202
0.0151515151515
0.171066698094
0.0454545454545
0.0454545454545
0.0505050505051
0.0505050505051
0.0555555555556
0.0454545454545
0.0353535353535
0.0252525252525
0.0353535353535
0.020202020202
0.0252525252525
0.020202020202
0.020202020202
0.010101010101
0.0151515151515
0.010101010101
0.020202020202
0.0151515151515
0.0252525252525
0.030303030303
0.0252525252525
0.020202020202
0.020202020202
0.0151515151515
0.0151515151515
7
unknown
84
139
19
66
38.9486841883
0.0
0.0
0.0
0.037037037037
0.0222222222222
0.0666666666667
0.103703703704
0.0888888888889
0.037037037037
0.0444444444444
0.0444444444444
0.0592592592593
0.0666666666667
0.037037037037
0.0444444444444
0.0518518518519
0.0518518518519
0.037037037037
0.037037037037
0.0444444444444
0.0444444444444
0.0222222222222
0.0148148148148
0.0222222222222
0.0148148148148
0.0677308675246
0.0222222222222
0.0222222222222
0.0222222222222
0.0296296296296
0.0444444444444
0.0666666666667
0.118518518519
0.0888888888889
0.037037037037
0.037037037037
0.0148148148148
0.0148148148148
0.00740740740741
0.00740740740741
0.0
0.00740740740741
0.0
0.00740740740741
0.0
0.00740740740741
0.0
0.00740740740741
0.00740740740741
0.00740740740741
0.0
8
unknown
89
143
19
122
72.2772439984
0.0
0.0
0.0
0.0
0.038062283737
0.0588235294118
0.0968858131488
0.0588235294118
0.0484429065744
0.107266435986
0.0519031141869
0.138408304498
0.0726643598616
0.0519031141869
0.0484429065744
0.0415224913495
0.0276816608997
0.0207612456747
0.0207612456747
0.0173010380623
0.0207612456747
0.0242214532872
0.0173010380623
0.0207612456747
0.0138408304498
0.0816453824806
0.0173010380623
0.0138408304498
0.0207612456747
0.0138408304498
0.0276816608997
0.0207612456747
0.0415224913495
0.0726643598616
0.083044982699
0.0934256055363
0.138408304498
0.0865051903114
0.038062283737
0.0173010380623
0.00692041522491
0.00346020761246
0.00692041522491
0.00692041522491
0.00346020761246
0.0103806228374
0.00692041522491
0.00692041522491
0.00346020761246
0.00692041522491
0.00692041522491
9
unknown
15
77
43
120
50.2493781056
0.0
0.0
0.0
0.0
0.0
0.0
0.0
0.010152284264
0.111675126904
0.0710659898477
0.0609137055838
0.0456852791878
0.0710659898477
0.106598984772
0.0558375634518
0.0456852791878
0.0456852791878
0.0456852791878
0.0558375634518
0.0558375634518
0.0558375634518
0.0456852791878
0.0609137055838
0.0355329949239
0.0152284263959
0.11372687316
0.0355329949239
0.0406091370558
0.0406091370558
0.0406091370558
0.0355329949239
0.0456852791878
0.0710659898477
0.0456852791878
0.0304568527919
0.0304568527919
0.0253807106599
0.0203045685279
0.0203045685279
0.010152284264
0.010152284264
0.010152284264
0.010152284264
0.010152284264
0.010152284264
0.0152284263959
0.0152284263959
0.0152284263959
0.0253807106599
0.0152284263959
0.0152284263959
3
unknown
80
136
14
38
37.6563407675
0.0
0.0
0.0
0.0
0.0375939849624
0.0977443609023
0.0751879699248
0.0526315789474
0.0676691729323
0.0526315789474
0.0526315789474
0.0601503759398
0.135338345865
0.0526315789474
0.0601503759398
0.0601503759398
0.015037593985
0.0225563909774
0.0225563909774
0.0225563909774
0.0225563909774
0.0225563909774
0.0225563909774
0.0225563909774
0.015037593985
0.0895931923921
0.0977443609023
0.165413533835
0.0827067669173
0.0451127819549
0.0375939849624
0.0225563909774
0.0300751879699
0.00751879699248
0.015037593985
0.015037593985
0.015037593985
0.015037593985
0.00751879699248
0.00751879699248
0.00751879699248
0.00751879699248
0.00751879699248
0.00751879699248
0.015037593985
0.015037593985
0.0225563909774
0.0375939849624
0.0225563909774
0.015037593985
0.015037593985
10
unknown
18
110
70
122
56.8594759033
0.0
0.0
0.0
0.0
0.0
0.0
0.0
0.0574162679426
0.0382775119617
0.0191387559809
0.172248803828
0.124401913876
0.066985645933
0.0717703349282
0.0574162679426
0.0526315789474
0.0526315789474
0.0430622009569
0.0478468899522
0.0526315789474
0.0526315789474
0.0287081339713
0.0191387559809
0.0239234449761
0.0143540669856
0.110561347535
0.0334928229665
0.0382775119617
0.0382775119617
0.0430622009569
0.0526315789474
0.0526315789474
0.0478468899522
0.0430622009569
0.0382775119617
0.0334928229665
0.0382775119617
0.0287081339713
0.0191387559809
0.00956937799043
0.00956937799043
0.00956937799043
0.00478468899522
0.00956937799043
0.00478468899522
0.00956937799043
0.00478468899522
0.0143540669856
0.00956937799043
0.0143540669856
0.00956937799043
6
unknown
80
134
19
64
40.8166632639
0.0
0.0
0.0
0.0546875
0.078125
0.0546875
0.0703125
0.046875
0.0390625
0.046875
0.046875
0.0859375
0.0703125
0.0625
0.046875
0.046875
0.0546875
0.0390625
0.0234375
0.0234375
0.015625
0.03125
0.015625
0.0234375
0.015625
0.0661710083436
0.03125
0.0234375
0.0390625
0.078125
0.1640625
0.078125
0.03125
0.03125
0.0234375
0.0078125
0.015625
0.015625
0.0078125
0.0078125
0.0
0.0078125
0.0078125
0.0078125
0.0
0.0078125
0.015625
0.0
0.015625
0.015625
0.0234375
14
2
9
1
1
0.993701129453
touch
2
3
1
1
0.275195482189
touch
2
6
1
1
0.268027801911
touch
7
8
1
1
0.268129571578
touch
3
7
1
1
0.987529228371
touch
7
10
1
1
0.249077848961
floor
6
7
1
1
0.961808261886
touch
8
10
1
1
0.92894583576
floor
3
9
1
1
0.27693989071
touch
9
10
1
1
0.888177052999
floor
6
9
1
1
0.269726775956
touch
3
6
1
1
0.973954222573
touch
8
9
1
1
0.956112852665
floor
7
9
1
1
0.28043715847
floor
