25
2
1.25750399082
2
unknown
15
107
6
49
50.5667875191
0.0
0.0
0.0
0.0
0.0
0.0
0.0
0.0
0.0554371002132
0.0341151385928
0.0980810234542
0.0682302771855
0.0511727078891
0.0426439232409
0.0511727078891
0.0426439232409
0.0426439232409
0.0426439232409
0.0874200426439
0.0788912579957
0.0639658848614
0.089552238806
0.0341151385928
0.0660980810235
0.046908315565
0.0348122733113
0.0
0.0554371002132
0.0511727078891
0.0831556503198
0.0724946695096
0.046908315565
0.0383795309168
0.0341151385928
0.0298507462687
0.0213219616205
0.0170575692964
0.0213219616205
0.0170575692964
0.0106609808102
0.00852878464819
0.0106609808102
0.0149253731343
0.0170575692964
0.0191897654584
0.0234541577825
0.0362473347548
0.046908315565
0.0213219616205
0.0213219616205
0.0191897654584
3
rectangle
25
101
12
43
41.1096095822
0.0
0.0
0.0
0.0
0.0
0.0
0.0
0.0
0.0414746543779
0.0691244239631
0.073732718894
0.0460829493088
0.0552995391705
0.036866359447
0.036866359447
0.036866359447
0.036866359447
0.036866359447
0.0276497695853
0.036866359447
0.0783410138249
0.0829493087558
0.124423963134
0.0967741935484
0.0783410138249
0.166427363638
0.10599078341
0.0599078341014
0.0460829493088
0.0829493087558
0.0599078341014
0.0460829493088
0.0322580645161
0.0276497695853
0.0230414746544
0.0184331797235
0.0184331797235
0.0184331797235
0.00921658986175
0.00921658986175
0.00921658986175
0.00921658986175
0.00921658986175
0.0138248847926
0.0138248847926
0.0230414746544
0.0276497695853
0.0414746543779
0.0184331797235
0.0230414746544
0.0184331797235
1
2
3
1
1
0.419559791241
floor
