[398,543],[563,543],[563,559],[398,559]
[399,543],[563,543],[563,559],[399,559]
[1328,578],[1345,578],[1345,651],[1328,651]
[252,1038],[324,1038],[324,1054],[252,1054]
[398,543],[562,543],[562,559],[398,559]
[399,543],[562,543],[562,559],[399,559]
[656,116],[672,116],[672,279],[656,279]
[228,109],[299,109],[299,125],[228,125]
[912,1149],[1296,1149],[1296,1166],[912,1166]
[831,109],[888,109],[888,119],[831,119]
[392,710],[408,710],[408,1007],[392,1007]
[452,1029],[523,1029],[523,1046],[452,1046]
[583,543],[642,543],[642,559],[583,559]
[171,1038],[242,1038],[242,1054],[171,1054]
[640,1149],[831,1149],[831,1166],[640,1166]
[471,109],[542,109],[542,125],[471,125]
