UTILITY/ STORAGE : [532,332] : [466,303,598,361] : 70
2CAR GARAGE : [1228,540] : [1144,497,1313,583] : 75
TANKLESS HEATER : [903,581] : [812,553,994,610] : 82
WATER : [817,599] : [766,588,869,610] : 77
O : [1338,1027] : [1307,1002,1370,1052] : 64
BATH 3 : [1431,1120] : [1348,1102,1514,1138] : 84
BEDROOM 4 : [837,1196] : [693,1177,982,1216] : 87
COATS : [1028,1455] : [981,1432,1076,1478] : 68
UP : [1210,1443] : [1184,1429,1237,1457] : 74
MICRO 1 : [1306,1569] : [1254,1561,1358,1578] : 85
REE : [1416,1557] : [1388,1546,1445,1568] : 62
7] : [1571,1577] : [1560,1568,1582,1587] : 64
KITCHEN : [1354,1696] : [1244,1678,1464,1715] : 82
II'DW : [1327,1811] : [1281,1782,1373,1840] : 76
LIVING ROOM : [916,1839] : [836,1797,997,1882] : 80
OO : [1578,1812] : [1548,1799,1609,1825] : 82
u : [831,2152] : [819,2144,843,2160] : 73
DINING ROOM : [1290,2179] : [1208,2137,1372,2222] : 84
PORCH : [828,2266] : [760,2252,896,2281] : 82
D : [431,2336] : [399,2304,464,2368] : 63
FIRST FLOOR : [1037,2608] : [831,2584,1244,2632] : 85
,30,,, : [1338,1275] : [1290,1233,1386,1317] : 46
,77777 : [494,1454] : [400,1422,589,1486] : 67
,5,937, : [1414,1603] : [1356,1580,1473,1626] : 49
O : [1127,562] : [1111,580,1144,544] : 68
I : [1345,1923] : [1307,1982,1383,1864] : 88
no : [1463,2179] : [1451,2207,1475,2151] : 69
']II : [1548,839] : [1539,944,1558,734] : 72
_Q : [1561,1766] : [1548,1788,1575,1744] : 74
,30,,, : [1338,1275] : [1290,1233,1386,1317] : 46
,77777 : [494,1454] : [400,1422,589,1486] : 67
,5,937, : [1414,1603] : [1356,1580,1473,1626] : 49
53,3 : [570,1494] : [542,1471,599,1517] : 61
No Text Detected
