Living Area : [1619,515] : [1433,489,1806,542] : 88
Store : [1465,919] : [1412,903,1518,935] : 90
Area : [1833,1001] : [1754,975,1913,1027] : 88
OO : [1955,1422] : [1912,1402,1998,1442] : 79
Cloaks : [1366,1608] : [1300,1592,1432,1625] : 89
Kitchen : [1849,1605] : [1724,1578,1975,1633] : 87
00 : [1954,1469] : [1911,1449,1998,1490] : 71
2  : [1825,919] : [1799,946,1851,893] : 71
:5 : [1878,927] : [1862,946,1895,908] : 72
(Q : [1921,935] : [1904,963,1939,908] : 71
00 : [1954,1469] : [1911,1449,1998,1490] : 71
No Text Detected
