
          ground floor
         : [549,3226] :[344,3184,757,3267] :100

          in
         : [1031,2729] :[969,2698,1097,2764] :100

          t
         : [2118,1295] :[2059,1264,2177,1326] :100

          first floor
         : [2101,2899] :[1924,2861,2278,2941] :100

          b
         : [2111,1396] :[2076,1372,2149,1424] :100

          approximate gross internal area 
         : [1274,205] :[986,174,1566,240] :100

          (including reduced headroom)
         : [1274,253] :[1003,222,1549,285] :100

          ground floor = 74.9 sq m / 806 sq ft
         : [1274,295] :[969,264,1580,330] :100

          first floor = 51.5 sq m / 554 sq ft
         : [1274,344] :[993,313,1559,375] :100

          second floor = 39.7 sq m / 427 sq ft
         : [1274,389] :[972,358,1580,420] :100

          total = 166.1 sq m / 1788 sq ft
         : [1274,434] :[1014,403,1538,465] :100

          n
         : [2031,417] :[1972,385,2090,451] :100

          tybenham road
         : [1319,118] :[986,66,1653,170] :100

          whilst every attempt has been made to ensure the accuracy of this floor plan : [NaN,NaN] :[NaN,NaN,3417,490] :100

          windows and rooms are approximate and no 
         : [2038,3444] :[1719,3417,2358,3476] :100

          responsibility is taken for any error or omission. this illustration is for identification purposes 
         : [1045,3479] :[431,3451,1663,3510] :100

          only. measured and drawn in accordance with rics guidelines.
         : [1990,3479] :[1563,3451,2417,3510] :100

          not drawn to scale : [2056,NaN] :[3490,NaN,622,1906] :100

          icated by the arrow heads.
         : [2017,3517] :[1813,3490,2226,3549] :100

          viewmedia © 2016
         : [1417,3337] :[1236,3306,1597,3368] :100

          viewmedia.co.uk
         : [1417,3382] :[1247,3351,1587,3413] :100

          second floor
         : [2069,1563] :[1861,1524,2278,1604] :100

          driveway
         : [569,2924] :[438,2892,701,2955] :100

          24'0 x 20'0
         : [566,2969] :[444,2938,691,3003] :100

          7.32m x 6.10m
         : [566,3014] :[417,2983,719,3049] :100

          (approx)
         : [566,3063] :[444,3031,688,3094] :100

          = reduced headroom below 1.5 m / 5'0
         : [1434,3243] :[1073,3212,1795,3274] :100

          kitchen / 
         : [747,1611] :[618,1580,875,1646] :100

          family /
         : [743,1660] :[632,1628,858,1691] :100

          dining room
         : [743,1705] :[590,1674,899,1736] :100

          21'10 x 20'0
         : [747,1750] :[615,1719,878,1781] :100

          6.66m x 6.10m
         : [743,1795] :[594,1764,896,1830] :100

          reception room
         : [701,2420] :[514,2389,892,2455] :100

          16'3 x 13'11
         : [701,2469] :[569,2438,833,2500] :100

          4.96m x 4.25m
         : [701,2514] :[552,2483,854,2545] :100

          bedroom
         : [1649,2434] :[1521,2403,1778,2465] :100

          16'6 x 12'5
         : [1649,2479] :[1528,2448,1774,2514] :100

          5.04m x 3.79m
         : [1649,2524] :[1500,2493,1799,2559] :100

          bedroom
         : [2010,2465] :[1882,2434,2139,2497] :100

          9'7 x 7'6
         : [2007,2510] :[1903,2479,2115,2542] :100

          2.93m x 2.29m
         : [2007,2556] :[1858,2524,2160,2587] :100

          bedroom
         : [1608,1903] :[1479,1872,1736,1934] :100

          13'0 x 11'5
         : [1604,1948] :[1483,1917,1729,1983] :100

          3.97m x 3.49m
         : [1604,1993] :[1455,1962,1757,2028] :100

          bedroom
         : [1608,1024] :[1479,993,1736,1056] :100

          21'11 x 11'2
         : [1608,1069] :[1476,1038,1740,1104] :100

          6.69m x 3.41m
         : [1604,1115] :[1455,1083,1757,1149] :100

          garden
         : [997,847] :[882,816,1111,882] :100

          66'0 x 23'0
         : [997,892] :[875,861,1118,927] :100

          20.12m x 7.01m
         : [997,941] :[837,910,1156,972] :100

          (approx)
         : [993,986] :[875,955,1115,1017] :100

          utility
         : [545,2066] :[438,2035,653,2097] :100

          room
         : [545,2111] :[448,2080,642,2146] :100

          up
         : [1118,2469] :[1049,2438,1191,2500] :100

          up
         : [1958,2247] :[1889,2215,2031,2281] :100

          dn
         : [1951,2108] :[1882,2076,2024,2139] :100

          dn
         : [1948,1063] :[1878,1031,2017,1097] :100

          store
         : [1986,1431] :[1875,1399,2097,1462] :100
