Door : 1567,3157,1711,3178
Door : 1757,3395,1886,3416
Door : 1757,3395,1886,3416
Door : 2360,3702,2490,3723
Door : 2360,3702,2490,3723
Door : 1473,2440,1610,2453
Door : 1473,2440,1610,2453
Door : 1473,2440,1610,2453
Door : 2118,2873,2247,2891
Door : 2118,2873,2247,2891
Door : 1052,2026,1072,2165
Door : 1052,2026,1072,2165
Door : 927,2745,948,2884
Door : 981,3433,999,3572
Door : 981,3433,999,3572
Door : 1738,2699,1758,2823
Door : 1738,2699,1758,2823
Door : 2279,3217,2288,3356
Door : 2113,3437,2134,3576
Door : 2113,3437,2134,3576
