25
2
1.41421356237
3
rectangle
18
91
13
39
38.275318418
0.0
0.0
0.0
0.0
0.0
0.0
0.0
0.0257731958763
0.0876288659794
0.0721649484536
0.0412371134021
0.0412371134021
0.0515463917526
0.0412371134021
0.0309278350515
0.0412371134021
0.0412371134021
0.0309278350515
0.0412371134021
0.0309278350515
0.0309278350515
0.0412371134021
0.0309278350515
0.185567010309
0.123711340206
0.162843236058
0.0463917525773
0.0515463917526
0.0773195876289
0.0927835051546
0.0567010309278
0.0412371134021
0.0309278350515
0.020618556701
0.020618556701
0.020618556701
0.0154639175258
0.020618556701
0.00515463917526
0.0103092783505
0.00515463917526
0.0103092783505
0.0103092783505
0.0103092783505
0.0154639175258
0.020618556701
0.0257731958763
0.0463917525773
0.0412371134021
0.0257731958763
0.020618556701
2
rectangle
13
95
9
133
74.3303437366
0.0
0.0
0.0
0.0
0.0
0.0
0.0
0.0
7.94533608772e-05
0.000261061042882
0.000136205761504
0.000113504801253
0.000136205761504
0.000590224966516
0.000499421125514
0.000385916324261
0.000295112483258
0.000306462963383
0.000272411523007
0.000295112483258
0.00074913168827
0.000771832648521
0.000590224966516
0.00101019273115
0.000544823046015
0.0
0.0
0.0
0.0
0.0
0.0
0.0
0.0
7.94533608772e-05
0.000261061042882
0.000136205761504
0.000113504801253
0.000136205761504
0.000590224966516
0.000499421125514
0.000385916324261
0.000295112483258
0.000306462963383
0.000272411523007
0.000295112483258
0.00074913168827
0.000771832648521
0.000590224966516
0.00101019273115
0.000544823046015
0.192523110903
0.000249710562757
0.000227009602506
0.000261061042882
0.00036321536401
0.000317813443509
0.000317813443509
0.000329163923634
0.000385916324261
0.000283762003133
0.000261061042882
0.000238360082631
0.000227009602506
0.000136205761504
0.000113504801253
0.000113504801253
0.000136205761504
0.000136205761504
0.000181607682005
0.000158906721754
0.000158906721754
0.000158906721754
0.000181607682005
0.000113504801253
0.000124855281378
0.000102154321128
0.000249710562757
0.000227009602506
0.000261061042882
0.00036321536401
0.000317813443509
0.000317813443509
0.000329163923634
0.000385916324261
0.000283762003133
0.000261061042882
0.000238360082631
0.000227009602506
0.000136205761504
0.000113504801253
0.000113504801253
0.000136205761504
0.000136205761504
0.000181607682005
0.000158906721754
0.000158906721754
0.000158906721754
0.000181607682005
0.000113504801253
0.000124855281378
0.000102154321128
1
2
3
1
1
0.182389299828
floor
