25
3
4.24264068712
4
unknown
342
431
349
432
51.8844870843
0.0
0.0
0.0
0.048128342246
0.0534759358289
0.048128342246
0.0427807486631
0.0427807486631
0.0320855614973
0.0427807486631
0.0267379679144
0.0427807486631
0.0374331550802
0.0320855614973
0.0320855614973
0.0374331550802
0.0320855614973
0.0427807486631
0.0320855614973
0.0320855614973
0.0374331550802
0.0320855614973
0.0427807486631
0.149732620321
0.0748663101604
0.0666381774593
0.0213903743316
0.0213903743316
0.0320855614973
0.0695187165775
0.0641711229947
0.0267379679144
0.0320855614973
0.112299465241
0.0641711229947
0.0267379679144
0.0160427807487
0.0160427807487
0.00534759358289
0.00534759358289
0.00534759358289
0.0
0.00534759358289
0.00534759358289
0.0
0.00534759358289
0.0
0.00534759358289
0.00534759358289
0.0
0.00534759358289
3
circle
65
442
54
430
188.533816595
0.0
0.0
0.0
0.0
0.0
0.0
0.0
0.0
0.0
0.0
0.0
0.0
0.0
0.0
0.0
0.0
0.0
0.0
0.0
0.0
0.0
0.0
0.0
0.0
0.998116760829
0.250814185986
0.0442561205273
0.0433145009416
0.0423728813559
0.0404896421846
0.0376647834275
0.0338983050847
0.0329566854991
0.0357815442561
0.0395480225989
0.0404896421846
0.0423728813559
0.045197740113
0.0320150659134
0.0225988700565
0.0207156308851
0.0207156308851
0.0197740112994
0.0178907721281
0.0160075329567
0.0169491525424
0.0188323917137
0.0207156308851
0.0207156308851
0.0216572504708
0.0216572504708
2
unknown
76
165
51
134
51.8652099196
0.0
0.0
0.0
0.0432432432432
0.0648648648649
0.0486486486486
0.0432432432432
0.0324324324324
0.0378378378378
0.0378378378378
0.0324324324324
0.0378378378378
0.0378378378378
0.0324324324324
0.0432432432432
0.0324324324324
0.0324324324324
0.0324324324324
0.0486486486486
0.0216216216216
0.0378378378378
0.0432432432432
0.0324324324324
0.151351351351
0.0702702702703
0.0665212335282
0.0216216216216
0.0162162162162
0.0324324324324
0.151351351351
0.0324324324324
0.0216216216216
0.027027027027
0.0810810810811
0.0486486486486
0.0216216216216
0.0216216216216
0.0162162162162
0.00540540540541
0.00540540540541
0.00540540540541
0.00540540540541
0.00540540540541
0.00540540540541
0.00540540540541
0.0
0.0108108108108
0.00540540540541
0.00540540540541
0.00540540540541
0.00540540540541
2
3
4
1
1
0.0156082099997
floor
2
3
1
1
0.0155450005869
floor
