g : [424,1424] :[392,1368,458,1483] :100
r : [465,1424] :[438,1368,493,1483] :100
a : [500,1424] :[469,1368,531,1483] :100
n : [542,1424] :[510,1368,576,1483] :100
d : [590,1424] :[559,1368,625,1483] :100
s : [653,1424] :[625,1368,684,1483] :100
l : [677,1424] :[660,1368,698,1483] :100
e : [712,1424] :[681,1368,743,1483] :100
e : [757,1424] :[726,1368,788,1483] :100
p : [802,1424] :[767,1368,837,1483] :100
sleep : [2656,2962] :[2535,2903,2781,3021] :100
r : [2569,1955] :[2545,1899,2597,2014] :100
e : [2604,1955] :[2573,1899,2635,2014] :100
l : [2632,1955] :[2615,1899,2653,2014] :100
a : [2667,1955] :[2635,1899,2698,2014] :100
x : [2705,1955] :[2677,1899,2736,2014] :100
r : [531,3708] :[507,3653,559,3767] :100
e : [566,3708] :[535,3653,597,3767] :100
a : [608,3708] :[576,3653,639,3767] :100
d : [653,3708] :[622,3653,688,3767] :100
sleep : [1931,4017] :[1809,3962,2052,4076] :100
splash : [715,2438] :[569,2382,865,2497] :100
splash : [2580,3799] :[2431,3743,2729,3858] :100
splash : [2007,2729] :[1858,2674,2156,2788] :100
g : [1201,3490] :[1167,3431,1236,3549] :100
r : [1240,3490] :[1215,3431,1267,3549] :100
e : [1274,3490] :[1243,3431,1306,3549] :100
e : [1319,3490] :[1288,3431,1351,3549] :100
t : [1354,3490] :[1330,3431,1378,3549] :100
a : [1191,4115] :[1160,4056,1222,4174] :100
r : [1226,4115] :[1201,4056,1253,4174] :100
r : [1257,4115] :[1233,4056,1285,4174] :100
i : [1278,4115] :[1260,4056,1299,4174] :100
v : [1309,4115] :[1281,4056,1337,4174] :100
e : [1354,4115] :[1323,4056,1385,4174] :100
r : [1569,1007] :[1545,951,1597,1066] :100
e : [1604,1007] :[1573,951,1635,1066] :100
l : [1635,1007] :[1618,951,1656,1066] :100
a : [1670,1007] :[1639,951,1701,1066] :100
x : [1708,1007] :[1681,951,1740,1066] :100
e : [1608,1583] :[1576,1524,1639,1642] :100
a : [1653,1583] :[1622,1524,1684,1642] :100
t : [1684,1583] :[1663,1524,1708,1642] :100
c : [1573,2333] :[1545,2278,1604,2392] :100
o : [1615,2333] :[1583,2278,1646,2392] :100
o : [1663,2333] :[1632,2278,1694,2392] :100
k : [1712,2333] :[1681,2278,1743,2392] :100
view : [1653,372] :[1549,316,1757,431] :100
d : [472,2938] :[441,2882,507,2997] :100
r : [514,2938] :[490,2882,542,2997] :100
e : [549,2938] :[517,2882,580,2997] :100
s : [587,2938] :[559,2882,618,2997] :100
s : [622,2938] :[594,2882,653,2997] :100
d : [2684,3580] :[2649,3524,2719,3639] :100
r : [2726,3580] :[2698,3524,2753,3639] :100
e : [2757,3580] :[2726,3524,2788,3639] :100
s : [2799,3580] :[2771,3524,2830,3639] :100
s : [2833,3580] :[2806,3524,2861,3639] :100
d : [1535,2872] :[1503,2816,1569,2931] :100
r : [1576,2872] :[1552,2816,1604,2931] :100
e : [1611,2872] :[1580,2816,1642,2931] :100
s : [1649,2872] :[1622,2816,1681,2931] :100
s : [1684,2872] :[1656,2816,1715,2931] :100
w : [979,3128] :[931,3073,1031,3188] :100
d : [979,3233] :[941,3177,1017,3292] :100
