25
7
1.42504457341
15
rectangle
769
778
571
577
5.83095189485
0.0
0.0
0.0
0.0
0.0
0.0
0.0
0.0
0.04
0.08
0.0
0.0
0.16
0.2
0.0
0.16
0.0
0.04
0.08
0.0
0.0
0.16
0.0
0.04
0.0
0.279105540526
0.04
0.12
0.04
0.04
0.04
0.04
0.08
0.04
0.04
0.04
0.0
0.0
0.04
0.0
0.0
0.0
0.04
0.0
0.04
0.0
0.04
0.0
0.04
0.0
0.0
20
unknown
706
762
695
755
41.2310562562
0.0
0.0
0.0
0.0
0.0
0.0
0.0
0.0
0.0
0.0
0.0
0.0
0.0
0.0357142857143
0.158163265306
0.127551020408
0.137755102041
0.0918367346939
0.0969387755102
0.0765306122449
0.0714285714286
0.0663265306122
0.0510204081633
0.0510204081633
0.030612244898
0.189816749657
0.0357142857143
0.0357142857143
0.0357142857143
0.0408163265306
0.0408163265306
0.0459183673469
0.0459183673469
0.0357142857143
0.030612244898
0.0357142857143
0.0357142857143
0.030612244898
0.0204081632653
0.0204081632653
0.0255102040816
0.0255102040816
0.0255102040816
0.0408163265306
0.030612244898
0.0255102040816
0.0204081632653
0.015306122449
0.0204081632653
0.015306122449
0.0102040816327
12
rectangle
853
929
390
393
38.0131556175
0.0392156862745
0.0261437908497
0.0522875816993
0.0261437908497
0.0522875816993
0.0522875816993
0.0261437908497
0.0522875816993
0.0261437908497
0.0522875816993
0.0261437908497
0.0522875816993
0.0261437908497
0.0522875816993
0.0261437908497
0.0522875816993
0.0261437908497
0.0522875816993
0.0261437908497
0.0522875816993
0.0261437908497
0.0522875816993
0.0261437908497
0.0522875816993
0.0326797385621
0.0346875719571
0.411764705882
0.0522875816993
0.0130718954248
0.0130718954248
0.0
0.0
0.0130718954248
0.0
0.0
0.0
0.0
0.0
0.00653594771242
0.0
0.0
0.0
0.0
0.0
0.00653594771242
0.0
0.0
0.00653594771242
0.00653594771242
0.0261437908497
0.183006535948
0
unknown
0
1274
0
1847
9.43398113206
0.0
6.17783308366e-25
5.18937979028e-23
4.01559150438e-23
7.89218176438e-23
6.98095138454e-23
6.59483681681e-23
2.0494961255e-22
1.5877031025e-22
1.45796860774e-22
9.57564127968e-23
8.95785797131e-23
1.0038978761e-22
1.34831207051e-22
2.14988591311e-22
2.73369113952e-22
2.42634394361e-22
1.77149363674e-22
1.60314768521e-22
1.90277258977e-22
2.38927694511e-22
2.00316237738e-22
1.15988816146e-22
9.25130504278e-23
7.16628637705e-23
0.0
6.17783308366e-25
5.18937979028e-23
4.01559150438e-23
7.89218176438e-23
6.98095138454e-23
6.59483681681e-23
2.0494961255e-22
1.5877031025e-22
1.45796860774e-22
9.57564127968e-23
8.95785797131e-23
1.0038978761e-22
1.34831207051e-22
2.14988591311e-22
2.73369113952e-22
2.42634394361e-22
1.77149363674e-22
1.60314768521e-22
1.90277258977e-22
2.38927694511e-22
2.00316237738e-22
1.15988816146e-22
9.25130504278e-23
7.16628637705e-23
0.0
6.17783308366e-25
5.18937979028e-23
4.01559150438e-23
7.89218176438e-23
6.98095138454e-23
6.59483681681e-23
2.0494961255e-22
1.5877031025e-22
1.45796860774e-22
9.57564127968e-23
8.95785797131e-23
1.0038978761e-22
1.34831207051e-22
2.14988591311e-22
2.73369113952e-22
2.42634394361e-22
1.77149363674e-22
1.60314768521e-22
1.90277258977e-22
2.38927694511e-22
2.00316237738e-22
1.15988816146e-22
9.25130504278e-23
7.16628637705e-23
0.0
6.17783308366e-25
5.18937979028e-23
4.01559150438e-23
7.89218176438e-23
6.98095138454e-23
6.59483681681e-23
2.0494961255e-22
1.5877031025e-22
1.45796860774e-22
9.57564127968e-23
8.95785797131e-23
1.0038978761e-22
1.34831207051e-22
2.14988591311e-22
2.73369113952e-22
2.42634394361e-22
1.77149363674e-22
1.60314768521e-22
1.90277258977e-22
2.38927694511e-22
2.00316237738e-22
1.15988816146e-22
9.25130504278e-23
7.16628637705e-23
0.0
6.17783308366e-25
5.18937979028e-23
4.01559150438e-23
7.89218176438e-23
6.98095138454e-23
6.59483681681e-23
2.0494961255e-22
1.5877031025e-22
1.45796860774e-22
9.57564127968e-23
8.95785797131e-23
1.0038978761e-22
1.34831207051e-22
2.14988591311e-22
2.73369113952e-22
2.42634394361e-22
1.77149363674e-22
1.60314768521e-22
1.90277258977e-22
2.38927694511e-22
2.00316237738e-22
1.15988816146e-22
9.25130504278e-23
7.16628637705e-23
0.0
6.17783308366e-25
5.18937979028e-23
4.01559150438e-23
7.89218176438e-23
6.98095138454e-23
6.59483681681e-23
2.0494961255e-22
1.5877031025e-22
1.45796860774e-22
9.57564127968e-23
8.95785797131e-23
1.0038978761e-22
1.34831207051e-22
2.14988591311e-22
2.73369113952e-22
2.42634394361e-22
1.77149363674e-22
1.60314768521e-22
1.90277258977e-22
2.38927694511e-22
2.00316237738e-22
1.15988816146e-22
9.25130504278e-23
7.16628637705e-23
0.0
6.17783308366e-25
5.18937979028e-23
4.01559150438e-23
7.89218176438e-23
6.98095138454e-23
6.59483681681e-23
2.0494961255e-22
1.5877031025e-22
1.45796860774e-22
9.57564127968e-23
8.95785797131e-23
1.0038978761e-22
1.34831207051e-22
2.14988591311e-22
2.73369113952e-22
2.42634394361e-22
1.77149363674e-22
1.60314768521e-22
1.90277258977e-22
2.38927694511e-22
2.00316237738e-22
1.15988816146e-22
9.25130504278e-23
7.16628637705e-23
0.0
6.17783308366e-25
5.18937979028e-23
4.01559150438e-23
7.89218176438e-23
6.98095138454e-23
6.59483681681e-23
2.0494961255e-22
1.5877031025e-22
1.45796860774e-22
9.57564127968e-23
8.95785797131e-23
1.0038978761e-22
1.34831207051e-22
2.14988591311e-22
2.73369113952e-22
2.42634394361e-22
1.77149363674e-22
1.60314768521e-22
1.90277258977e-22
2.38927694511e-22
2.00316237738e-22
1.15988816146e-22
9.25130504278e-23
7.16628637705e-23
0.0
6.17783308366e-25
5.18937979028e-23
4.01559150438e-23
7.89218176438e-23
6.98095138454e-23
6.59483681681e-23
2.0494961255e-22
1.5877031025e-22
1.45796860774e-22
9.57564127968e-23
8.95785797131e-23
1.0038978761e-22
1.34831207051e-22
2.14988591311e-22
2.73369113952e-22
2.42634394361e-22
1.77149363674e-22
1.60314768521e-22
1.90277258977e-22
2.38927694511e-22
2.00316237738e-22
1.15988816146e-22
9.25130504278e-23
7.16628637705e-23
0.443851884245
5.09671229402e-23
6.36316807617e-23
6.59483681681e-23
7.01184054996e-23
7.28984303872e-23
7.76862510271e-23
8.13929508772e-23
1.04868716595e-22
1.30197832238e-22
1.31587844682e-22
8.32463008023e-23
7.90762634709e-23
1.09193199754e-22
5.05037854589e-23
1.26645578215e-23
1.71434868072e-23
2.56380072972e-23
2.59468989514e-23
4.09281441793e-23
6.71839347848e-23
5.79171851593e-23
6.16238850095e-23
6.93461763641e-23
7.10450804621e-23
1.69272626492e-22
5.09671229402e-23
6.36316807617e-23
6.59483681681e-23
7.01184054996e-23
7.28984303872e-23
7.76862510271e-23
8.13929508772e-23
1.04868716595e-22
1.30197832238e-22
1.31587844682e-22
8.32463008023e-23
7.90762634709e-23
1.09193199754e-22
5.05037854589e-23
1.26645578215e-23
1.71434868072e-23
2.56380072972e-23
2.59468989514e-23
4.09281441793e-23
6.71839347848e-23
5.79171851593e-23
6.16238850095e-23
6.93461763641e-23
7.10450804621e-23
1.69272626492e-22
5.09671229402e-23
6.36316807617e-23
6.59483681681e-23
7.01184054996e-23
7.28984303872e-23
7.76862510271e-23
8.13929508772e-23
1.04868716595e-22
1.30197832238e-22
1.31587844682e-22
8.32463008023e-23
7.90762634709e-23
1.09193199754e-22
5.05037854589e-23
1.26645578215e-23
1.71434868072e-23
2.56380072972e-23
2.59468989514e-23
4.09281441793e-23
6.71839347848e-23
5.79171851593e-23
6.16238850095e-23
6.93461763641e-23
7.10450804621e-23
1.69272626492e-22
5.09671229402e-23
6.36316807617e-23
6.59483681681e-23
7.01184054996e-23
7.28984303872e-23
7.76862510271e-23
8.13929508772e-23
1.04868716595e-22
1.30197832238e-22
1.31587844682e-22
8.32463008023e-23
7.90762634709e-23
1.09193199754e-22
5.05037854589e-23
1.26645578215e-23
1.71434868072e-23
2.56380072972e-23
2.59468989514e-23
4.09281441793e-23
6.71839347848e-23
5.79171851593e-23
6.16238850095e-23
6.93461763641e-23
7.10450804621e-23
1.69272626492e-22
5.09671229402e-23
6.36316807617e-23
6.59483681681e-23
7.01184054996e-23
7.28984303872e-23
7.76862510271e-23
8.13929508772e-23
1.04868716595e-22
1.30197832238e-22
1.31587844682e-22
8.32463008023e-23
7.90762634709e-23
1.09193199754e-22
5.05037854589e-23
1.26645578215e-23
1.71434868072e-23
2.56380072972e-23
2.59468989514e-23
4.09281441793e-23
6.71839347848e-23
5.79171851593e-23
6.16238850095e-23
6.93461763641e-23
7.10450804621e-23
1.69272626492e-22
5.09671229402e-23
6.36316807617e-23
6.59483681681e-23
7.01184054996e-23
7.28984303872e-23
7.76862510271e-23
8.13929508772e-23
1.04868716595e-22
1.30197832238e-22
1.31587844682e-22
8.32463008023e-23
7.90762634709e-23
1.09193199754e-22
5.05037854589e-23
1.26645578215e-23
1.71434868072e-23
2.56380072972e-23
2.59468989514e-23
4.09281441793e-23
6.71839347848e-23
5.79171851593e-23
6.16238850095e-23
6.93461763641e-23
7.10450804621e-23
1.69272626492e-22
5.09671229402e-23
6.36316807617e-23
6.59483681681e-23
7.01184054996e-23
7.28984303872e-23
7.76862510271e-23
8.13929508772e-23
1.04868716595e-22
1.30197832238e-22
1.31587844682e-22
8.32463008023e-23
7.90762634709e-23
1.09193199754e-22
5.05037854589e-23
1.26645578215e-23
1.71434868072e-23
2.56380072972e-23
2.59468989514e-23
4.09281441793e-23
6.71839347848e-23
5.79171851593e-23
6.16238850095e-23
6.93461763641e-23
7.10450804621e-23
1.69272626492e-22
5.09671229402e-23
6.36316807617e-23
6.59483681681e-23
7.01184054996e-23
7.28984303872e-23
7.76862510271e-23
8.13929508772e-23
1.04868716595e-22
1.30197832238e-22
1.31587844682e-22
8.32463008023e-23
7.90762634709e-23
1.09193199754e-22
5.05037854589e-23
1.26645578215e-23
1.71434868072e-23
2.56380072972e-23
2.59468989514e-23
4.09281441793e-23
6.71839347848e-23
5.79171851593e-23
6.16238850095e-23
6.93461763641e-23
7.10450804621e-23
1.69272626492e-22
5.09671229402e-23
6.36316807617e-23
6.59483681681e-23
7.01184054996e-23
7.28984303872e-23
7.76862510271e-23
8.13929508772e-23
1.04868716595e-22
1.30197832238e-22
1.31587844682e-22
8.32463008023e-23
7.90762634709e-23
1.09193199754e-22
5.05037854589e-23
1.26645578215e-23
1.71434868072e-23
2.56380072972e-23
2.59468989514e-23
4.09281441793e-23
6.71839347848e-23
5.79171851593e-23
6.16238850095e-23
6.93461763641e-23
7.10450804621e-23
1.69272626492e-22
11
rectangle
759
836
390
393
38.0131556175
0.0387096774194
0.0258064516129
0.0516129032258
0.0258064516129
0.0516129032258
0.0516129032258
0.0258064516129
0.0516129032258
0.0258064516129
0.0516129032258
0.0258064516129
0.0516129032258
0.0258064516129
0.0516129032258
0.0258064516129
0.0516129032258
0.0258064516129
0.0516129032258
0.0258064516129
0.0516129032258
0.0258064516129
0.0516129032258
0.0258064516129
0.0516129032258
0.0387096774194
0.034692654981
0.406451612903
0.0516129032258
0.0129032258065
0.0129032258065
0.0
0.0
0.0129032258065
0.0
0.0
0.0
0.0
0.0
0.00645161290323
0.0
0.0
0.0
0.0
0.0
0.00645161290323
0.0
0.0
0.00645161290323
0.00645161290323
0.0258064516129
0.187096774194
14
rectangle
769
777
562
567
4.472135955
0.0
0.0
0.0
0.0
0.0
0.0
0.0
0.0
0.0
0.0
0.0
0.0952380952381
0.190476190476
0.0
0.0
0.190476190476
0.047619047619
0.0952380952381
0.0
0.0
0.190476190476
0.0
0.047619047619
0.0952380952381
0.0
0.338276950442
0.047619047619
0.0952380952381
0.0
0.047619047619
0.0952380952381
0.0
0.0952380952381
0.0
0.0952380952381
0.0
0.0
0.0
0.047619047619
0.0
0.0
0.0
0.047619047619
0.0
0.047619047619
0.0
0.047619047619
0.0
0.047619047619
0.0
0.0
13
rectangle
687
1002
391
755
244.591496173
0.0
0.0
0.0
0.0
0.0
0.0
0.0
0.0
0.0
0.0
0.0
0.0
0.0
2.51424740194e-05
3.35232986926e-05
0.000536372779081
0.00136607442172
0.0013409319477
0.00216225276567
0.00208682534361
0.00175997318136
0.00142474019444
0.00130740864901
0.00120683875293
0.000527991954408
0.0
0.0
0.0
0.0
0.0
0.0
0.0
0.0
0.0
0.0
0.0
0.0
0.0
2.51424740194e-05
3.35232986926e-05
0.000536372779081
0.00136607442172
0.0013409319477
0.00216225276567
0.00208682534361
0.00175997318136
0.00142474019444
0.00130740864901
0.00120683875293
0.000527991954408
0.17380813113
0.000351994636272
0.000351994636272
0.000368756285619
0.000419041233657
0.000486087831043
0.00058665772712
0.000703989272544
0.000628561850486
0.000527991954408
0.000494468655716
0.000419041233657
0.000419041233657
0.00031847133758
0.000201139792156
0.000201139792156
0.000234663090848
0.000284948038887
0.000310090512906
0.000351994636272
0.000301709688233
0.000251424740194
0.000209520616829
0.000192758967482
0.000184378142809
0.000175997318136
0.000351994636272
0.000351994636272
0.000368756285619
0.000419041233657
0.000486087831043
0.00058665772712
0.000703989272544
0.000628561850486
0.000527991954408
0.000494468655716
0.000419041233657
0.000419041233657
0.00031847133758
0.000201139792156
0.000201139792156
0.000234663090848
0.000284948038887
0.000310090512906
0.000351994636272
0.000301709688233
0.000251424740194
0.000209520616829
0.000192758967482
0.000184378142809
0.000175997318136
6
13
15
1
1
0.000339384943979
floor
13
20
1
1
0.0234944883885
floor
12
13
1
1
0.00134396437816
floor
11
13
1
1
0.0013620649085
floor
13
14
1
1
0.000248882292251
floor
11
12
1
1
0.986710963455
floor
