25
1
0
1
ellipse
1
144
1
110
72.2495674728
0.0
0.0
0.0
0.0
0.0
0.0
0.0
0.0
0.0
0.0
0.0
0.0
0.0
0.0
0.0
0.0
0.0
0.0
0.220670391061
0.153631284916
0.100558659218
0.106145251397
0.100558659218
0.125698324022
0.187150837989
0.21765875046
0.0474860335196
0.0502793296089
0.0446927374302
0.036312849162
0.036312849162
0.0391061452514
0.0391061452514
0.0418994413408
0.0391061452514
0.0391061452514
0.0335195530726
0.0391061452514
0.0279329608939
0.0195530726257
0.0167597765363
0.0195530726257
0.0195530726257
0.0195530726257
0.0167597765363
0.0195530726257
0.0167597765363
0.0195530726257
0.0223463687151
0.0223463687151
0.0223463687151
0
