balcony : [1532,451] : [1355,422,1709,481] : [92] : match : 0
bedroom : [556,1118] : [372,1089,741,1148] : [75] : match : 0
living : [1373,1095] : [1240,1066,1506,1124] : [85] : match : 0
dining : [1681,1095] : [1543,1066,1820,1124] : [83] : match : 0
bedroom : [1336,3009] : [1167,2983,1505,3036] : [82] : match : 0
cl : [932,3254] : [910,3236,954,3273] : [41] : match : 1
wc : [2235,3283] : [2215,3274,2255,3293] : [71] : match : 1
v _. : [2865,894] : [2833,889,2897,900] : [62] : none : -1
, . : [2861,1034] : [2832,1030,2890,1039] : [91] : none : -1
., : [2053,1119] : [2036,1105,2071,1134] : [70] : none : -1
8'7"x10'11" : [558,1182] : [454,1168,663,1196] : [86] : none : -1
9'1"x8'11" : [2463,1235] : [2369,1221,2557,1249] : [86] : none : -1
,{ : [2857,1242] : [2837,1224,2878,1260] : [65] : none : -1
,j . : [2856,1284] : [2832,1267,2881,1302] : [66] : none : -1
' i : [2046,1864] : [2028,1851,2064,1878] : [72] : none : -1
" : [2858,2009] : [2839,1993,2877,2025] : [74] : none : -1
1 , : [2860,2066] : [2841,2050,2879,2082] : [74] : none : -1
9'11"x90" : [1337,3071] : [1244,3057,1431,3085] : [85] : none : -1
master : [2464,1073] : [2324,1044,2604,1102] : [75] : none : -1
ri : [2061,1416] : [2045,1402,2077,1431] : [59] : none : -1
uh : [2861,1958] : [2830,1935,2892,1981] : [27] : none : -1
st : [2866,2116] : [2834,2094,2899,2138] : [52] : none : -1
dw : [1407,2429] : [1391,2420,1423,2439] : [88] : none : -1
hm : [2686,3253] : [2665,3232,2708,3274] : [21] : none : -1
. 4 : [591,918] : [563,916,619,921] : [81] : none : -1
~'. : [723,938] : [691,924,755,952] : [73] : none : -1
00000 : [1610,1102] : [1580,1098,1641,1107] : [70] : none : -1
_| : [2738,1433] : [2725,1429,2751,1438] : [70] : none : -1
w : [2737,1456] : [2724,1448,2751,1465] : [74] : none : -1
\l : [2737,1487] : [2724,1479,2751,1495] : [80] : none : -1
_| : [2738,1559] : [2725,1555,2751,1564] : [70] : none : -1
\1 : [2738,1587] : [2724,1575,2753,1599] : [69] : none : -1
. . : [2102,2035] : [2071,2032,2134,2038] : [72] : none : -1
.1 .u. : [2275,2036] : [2218,2028,2333,2045] : [64] : none : -1
. q : [2411,2038] : [2356,2031,2466,2045] : [72] : none : -1
. A- : [2720,2044] : [2690,2030,2751,2059] : [69] : none : -1
. . : [2118,2047] : [2086,2038,2150,2057] : [76] : none : -1
.. : [1979,2050] : [1964,2047,1994,2053] : [70] : none : -1
-.1 >. : [2541,2852] : [2519,2832,2564,2873] : [61] : none : -1
_- : [2832,2840] : [2808,2832,2857,2848] : [81] : none : -1
.\ _\ : [2941,2852] : [2898,2835,2984,2869] : [65] : none : -1
' - : [3058,2835] : [3030,2828,3087,2842] : [82] : none : -1
. .. : [2739,2885] : [2716,2871,2763,2899] : [83] : none : -1
yispvt : [2114,2059] : [1772,2038,2457,2080] : [59] : none : -1
gig : [601,2681] : [581,2665,622,2698] : [39] : none : -1
oxnv : [2361,2849] : [2140,2828,2583,2870] : [50] : none : -1
uo : [2007,2878] : [1991,2867,2023,2890] : [72] : none : -1
No Text Detected
