<?xml version="1.0" encoding="utf-8"?>
<!DOCTYPE svg PUBLIC "-//W3C//DTD SVG 1.1//EN" "http://www.w3.org/Graphics/SVG/1.1/DTD/svg11.dtd">

<svg version="1.1" id="Layer_1" xmlns="http://www.w3.org/2000/svg" xmlns:xlink="http://www.w3.org/1999/xlink" x="0px" y="0px"
	 width="550px" height="200px" viewBox="0 0 550 200" enable-background="new 0 0 550 200" xml:space="preserve">

<text id ="t1" transform="matrix(1.0236 0 0 1 51.1411 94.6411)" font-family="'CenturyGothic-Bold'" font-size="12.3217">MASTER BEDROOM</text>
<text id ="t2" transform="matrix(1.0236 0 0 1 307.7148 150.6938)" font-family="'CenturyGothic-Bold'" font-size="12.3217">DINING</text>
<text id ="t3" transform="matrix(1.0236 0 0 1 431.4062 99.0947)" font-family="'CenturyGothic-Bold'" font-size="12.3217">KITCHEN</text>

</svg>

