Wall : 96,110,103,372
Wall : 95,110,229,117
Wall : 299,110,309,117
Wall : 1039,328,1049,686
Wall : 1129,247,1137,334
Wall : 1042,110,1050,254
Wall : 523,1039,600,1046
Wall : 1338,110,1345,579
Wall : 830,679,1346,686
Wall : 95,679,401,686
Wall : 95,544,400,552
Wall : 657,279,664,551
Wall : 1338,651,1345,1166
Wall : 592,1039,599,1166
Wall : 562,543,584,551
Wall : 542,110,774,117
Wall : 1117,328,1227,334
Wall : 576,679,583,1046
Wall : 888,110,1346,117
Wall : 96,408,103,938
Wall : 324,1039,453,1046
Wall : 805,544,1050,550
Wall : 1114,247,1219,254
Wall : 393,679,400,711
Wall : 1211,110,1218,254
Wall : 831,1159,913,1166
Wall : 575,679,768,686
Wall : 392,544,399,605
Wall : 96,1011,103,1046
Wall : 1296,1159,1346,1166
Wall : 223,544,230,616
Wall : 591,1159,641,1166
Wall : 1279,328,1346,334
Wall : 838,619,846,686
Wall : 95,1039,172,1046
Wall : 563,376,570,551
Wall : 392,1007,400,1046
Wall : 642,544,727,551
Wall : 839,544,846,559
Wall : 1041,328,1059,336
Wall : 242,1039,253,1046
Wall : 1041,246,1061,254
Wall : 461,110,472,117
Wall : 384,597,400,605
Wall : 223,672,230,686
Wall : 222,600,326,605
Wall : 259,844,264,850
Wall : 265,854,271,860
Wall : 285,843,290,848
Wall : 1005,182,1011,188
Wall : 96,110,103,372
Wall : 95,110,229,117
Wall : 299,110,309,117
Wall : 1039,328,1049,686
Wall : 1129,247,1137,334
Wall : 1042,110,1050,254
Wall : 523,1039,600,1046
Wall : 1338,110,1345,579
Wall : 830,679,1346,686
Wall : 95,679,401,686
Wall : 95,544,400,552
Wall : 657,279,664,551
Wall : 1338,651,1345,1166
Wall : 592,1039,599,1166
Wall : 562,543,584,551
Wall : 542,110,774,117
Wall : 1117,328,1227,334
Wall : 576,679,583,1046
Wall : 888,110,1346,117
Wall : 96,408,103,938
Wall : 324,1039,453,1046
Wall : 805,544,1050,550
Wall : 1114,247,1219,254
Wall : 393,679,400,711
Wall : 1211,110,1218,254
Wall : 831,1159,913,1166
Wall : 575,679,768,686
Wall : 392,544,399,605
Wall : 96,1011,103,1046
Wall : 1296,1159,1346,1166
Wall : 223,544,230,616
Wall : 591,1159,641,1166
Wall : 1279,328,1346,334
Wall : 838,619,846,686
Wall : 95,1039,172,1046
Wall : 563,376,570,551
Wall : 392,1007,400,1046
Wall : 642,544,727,551
Wall : 839,544,846,559
Wall : 1041,328,1059,336
Wall : 242,1039,253,1046
Wall : 1041,246,1061,254
Wall : 461,110,472,117
Wall : 384,597,400,605
Wall : 223,672,230,686
Wall : 222,600,326,605
Wall : 259,844,264,850
Wall : 265,854,271,860
Wall : 285,843,290,848
Wall : 1005,182,1011,188
Wall : 775,110,832,114
Wall : 263,850,267,854
Wall : 284,851,292,855
Wall : 288,851,291,858
Wall : 280,843,288,846
Wall : 279,857,289,860
Wall : 278,856,282,859
Wall : 275,847,278,856
