double garage : [1017,1865] :[837,1837,1198,1892] :100
entry : [556,1997] :[483,1969,628,2028] :100
ensuite : [271,1826] :[177,1799,368,1858] :100
robe : [201,1962] :[167,1938,236,1986] :100
coat : [635,1708] :[601,1684,670,1733] :100
pantry : [219,1101] :[174,1076,267,1125] :100
laundry : [302,1285] :[198,1257,406,1313] :100
family : [323,406] :[257,378,392,438] :100
sitting : [813,1160] :[722,1132,903,1188] :100
dining : [809,875] :[726,847,892,903] :100
kitchen : [281,795] :[184,767,378,826] :100
w.c. : [313,1701] :[274,1674,351,1729] :100
linen : [399,1090] :[361,1066,441,1115] :100
outdoor room : [872,267] :[694,240,1049,295] :100
sliding door : [594,257] :[569,170,618,344] :100
sliding door : [826,528] :[743,503,913,552] :100
portico : [524,2486] :[431,2458,622,2514] :100
guest room/ study : [313,2073] :[160,2021,465,2125] :100
