25
2
1.73205080757
3
unknown
54
167
39
90
59.3043000127
0.0
0.0
0.0
0.0
0.0
0.0
0.0
0.0
0.0
0.0337837837838
0.118243243243
0.0777027027027
0.0574324324324
0.0472972972973
0.0540540540541
0.0371621621622
0.0405405405405
0.0405405405405
0.0405405405405
0.0337837837838
0.0405405405405
0.0945945945946
0.135135135135
0.0337837837838
0.111486486486
0.155174236412
0.121621621622
0.0472972972973
0.0709459459459
0.0709459459459
0.0472972972973
0.0337837837838
0.0337837837838
0.027027027027
0.0202702702703
0.0202702702703
0.0202702702703
0.0202702702703
0.0135135135135
0.0101351351351
0.0135135135135
0.0101351351351
0.0135135135135
0.0135135135135
0.0168918918919
0.0202702702703
0.027027027027
0.0304054054054
0.0202702702703
0.0236486486486
0.0202702702703
2
unknown
50
172
34
96
73.8241153012
0.0
0.0
0.0
0.0
0.0
0.0
0.0
0.0
0.0550458715596
0.039755351682
0.0978593272171
0.0703363914373
0.0596330275229
0.0565749235474
0.0474006116208
0.0474006116208
0.0474006116208
0.0840978593272
0.0779816513761
0.0550458715596
0.0519877675841
0.0321100917431
0.0993883792049
0.0474006116208
0.0290519877676
0.0318977661538
0.0366972477064
0.039755351682
0.0412844036697
0.0504587155963
0.0642201834862
0.0474006116208
0.0366972477064
0.0305810397554
0.025993883792
0.0229357798165
0.0244648318043
0.0214067278287
0.0122324159021
0.0122324159021
0.0122324159021
0.0137614678899
0.0137614678899
0.0183486238532
0.0214067278287
0.025993883792
0.0351681957187
0.0412844036697
0.025993883792
0.025993883792
0.0244648318043
1
2
3
1
1
0.420166229221
floor
