25
10
1.0
8
unknown
105
122
51
55
9.0
0.0
0.0
0.030303030303
0.0606060606061
0.0
0.030303030303
0.151515151515
0.030303030303
0.0909090909091
0.0
0.030303030303
0.121212121212
0.0
0.030303030303
0.0909090909091
0.0
0.121212121212
0.0
0.0
0.121212121212
0.0
0.0
0.0606060606061
0.0
0.0
0.136574074074
0.151515151515
0.181818181818
0.030303030303
0.030303030303
0.030303030303
0.0
0.0606060606061
0.0
0.030303030303
0.0
0.0
0.0
0.030303030303
0.0
0.0
0.0
0.0
0.0
0.030303030303
0.0
0.0
0.030303030303
0.030303030303
0.030303030303
0.0
7
unknown
53
69
45
53
8.94427191
0.0
0.0
0.0333333333333
0.0666666666667
0.0
0.0333333333333
0.133333333333
0.0666666666667
0.0666666666667
0.0
0.0
0.133333333333
0.0
0.0666666666667
0.0333333333333
0.0333333333333
0.0666666666667
0.0666666666667
0.0666666666667
0.0
0.0
0.0666666666667
0.0333333333333
0.0
0.0
0.12845496892
0.0333333333333
0.0333333333333
0.0333333333333
0.166666666667
0.0666666666667
0.0333333333333
0.1
0.0
0.0333333333333
0.0
0.0
0.0
0.0333333333333
0.0
0.0
0.0
0.0333333333333
0.0
0.0666666666667
0.0333333333333
0.0333333333333
0.0666666666667
0.0333333333333
0.0666666666667
0.0
3
unknown
51
87
25
55
21.9317121995
0.0
0.0
0.0
0.0
0.0
0.0
0.0
0.0
0.0
0.0
0.0
0.0
0.0272727272727
0.0818181818182
0.0818181818182
0.0545454545455
0.0272727272727
0.0636363636364
0.136363636364
0.1
0.1
0.127272727273
0.1
0.0636363636364
0.0272727272727
0.17318142346
0.0454545454545
0.0363636363636
0.0363636363636
0.0363636363636
0.0454545454545
0.0727272727273
0.0454545454545
0.0363636363636
0.0454545454545
0.0363636363636
0.0272727272727
0.0363636363636
0.0181818181818
0.0181818181818
0.00909090909091
0.0181818181818
0.0181818181818
0.0181818181818
0.0272727272727
0.0272727272727
0.0272727272727
0.0272727272727
0.0272727272727
0.0181818181818
0.0181818181818
9
unknown
80
98
54
58
9.05538513814
0.0
0.0
0.0285714285714
0.0571428571429
0.0
0.0285714285714
0.114285714286
0.0571428571429
0.0571428571429
0.0571428571429
0.0
0.0571428571429
0.0571428571429
0.0571428571429
0.0571428571429
0.0
0.0571428571429
0.0571428571429
0.0
0.114285714286
0.0
0.0
0.114285714286
0.0
0.0
0.145304639572
0.171428571429
0.0571428571429
0.0571428571429
0.0857142857143
0.0285714285714
0.0
0.0571428571429
0.0
0.0285714285714
0.0
0.0
0.0
0.0285714285714
0.0
0.0
0.0
0.0
0.0
0.0285714285714
0.0
0.0
0.0285714285714
0.0285714285714
0.0285714285714
0.0
6
unknown
51
65
45
62
10.0498756211
0.0
0.0
0.0
0.0
0.0
0.0
0.0
0.0697674418605
0.0697674418605
0.0
0.139534883721
0.046511627907
0.139534883721
0.0232558139535
0.046511627907
0.116279069767
0.046511627907
0.046511627907
0.093023255814
0.0232558139535
0.0232558139535
0.046511627907
0.046511627907
0.0
0.0
0.160585209905
0.116279069767
0.093023255814
0.0232558139535
0.046511627907
0.0
0.0232558139535
0.046511627907
0.0232558139535
0.0232558139535
0.0
0.046511627907
0.0
0.0232558139535
0.0232558139535
0.0
0.093023255814
0.046511627907
0.0232558139535
0.0232558139535
0.0
0.0232558139535
0.0
0.0232558139535
0.0
0.0
11
unknown
51
87
55
66
18.4390889146
0.0
0.0
0.0
0.0
0.0
0.0405405405405
0.0540540540541
0.0405405405405
0.108108108108
0.0810810810811
0.0675675675676
0.0135135135135
0.0675675675676
0.0405405405405
0.0540540540541
0.0540540540541
0.027027027027
0.0540540540541
0.0405405405405
0.0405405405405
0.027027027027
0.0540540540541
0.027027027027
0.0675675675676
0.027027027027
0.128220064415
0.0675675675676
0.0810810810811
0.0810810810811
0.0810810810811
0.0405405405405
0.027027027027
0.027027027027
0.027027027027
0.027027027027
0.0135135135135
0.0135135135135
0.0135135135135
0.0135135135135
0.0135135135135
0.0
0.0135135135135
0.0135135135135
0.0135135135135
0.0135135135135
0.0135135135135
0.0135135135135
0.0135135135135
0.027027027027
0.027027027027
0.0135135135135
2
unknown
40
136
23
74
57.1401785086
0.0
0.0
0.0
0.0
0.0191780821918
0.027397260274
0.0164383561644
0.0520547945205
0.0438356164384
0.0383561643836
0.027397260274
0.0328767123288
0.027397260274
0.0328767123288
0.0219178082192
0.027397260274
0.027397260274
0.142465753425
0.0465753424658
0.0438356164384
0.0876712328767
0.153424657534
0.0493150684932
0.041095890411
0.0383561643836
0.0438308834496
0.0657534246575
0.0602739726027
0.0849315068493
0.0876712328767
0.0739726027397
0.0465753424658
0.0164383561644
0.0191780821918
0.0109589041096
0.0109589041096
0.00821917808219
0.0109589041096
0.00821917808219
0.0
0.0
0.0
0.0
0.0
0.0
0.0246575342466
0.041095890411
0.0356164383562
0.0301369863014
0.0356164383562
0.0246575342466
4
unknown
89
125
25
55
23.0217288664
0.0
0.0
0.0
0.0
0.0
0.0
0.0
0.0
0.0
0.0
0.0
0.0
0.0238095238095
0.0555555555556
0.103174603175
0.031746031746
0.0793650793651
0.150793650794
0.111111111111
0.0714285714286
0.126984126984
0.111111111111
0.0714285714286
0.0396825396825
0.015873015873
0.172071064408
0.0396825396825
0.031746031746
0.047619047619
0.047619047619
0.0634920634921
0.0714285714286
0.047619047619
0.0238095238095
0.0238095238095
0.031746031746
0.0238095238095
0.031746031746
0.00793650793651
0.015873015873
0.015873015873
0.015873015873
0.015873015873
0.00793650793651
0.0238095238095
0.0238095238095
0.0238095238095
0.015873015873
0.015873015873
0.015873015873
0.015873015873
10
unknown
116
125
54
62
5.83095189485
0.0
0.0
0.0
0.0
0.0434782608696
0.0
0.0434782608696
0.0
0.0434782608696
0.173913043478
0.0
0.0
0.0869565217391
0.217391304348
0.0
0.0869565217391
0.0
0.0869565217391
0.0434782608696
0.0434782608696
0.0
0.0869565217391
0.0
0.0
0.0
0.216629791759
0.0434782608696
0.0
0.0869565217391
0.0
0.0869565217391
0.0
0.0869565217391
0.0434782608696
0.130434782609
0.0434782608696
0.0
0.0
0.0434782608696
0.0
0.0
0.0
0.0
0.0
0.0434782608696
0.0
0.0
0.0434782608696
0.0434782608696
0.0434782608696
0.0
12
unknown
89
125
56
66
18.4390889146
0.0
0.0
0.0
0.0
0.0
0.0405405405405
0.0945945945946
0.0810810810811
0.0540540540541
0.0675675675676
0.0675675675676
0.0135135135135
0.0675675675676
0.027027027027
0.0540540540541
0.0540540540541
0.027027027027
0.0540540540541
0.027027027027
0.0540540540541
0.027027027027
0.0540540540541
0.027027027027
0.0675675675676
0.027027027027
0.124970807222
0.0810810810811
0.0810810810811
0.0945945945946
0.0540540540541
0.0405405405405
0.027027027027
0.027027027027
0.027027027027
0.027027027027
0.0135135135135
0.027027027027
0.0
0.0135135135135
0.0
0.0135135135135
0.0135135135135
0.0135135135135
0.0135135135135
0.0135135135135
0.0
0.027027027027
0.0
0.0405405405405
0.027027027027
0.027027027027
26
4
8
1
1
0.0348571428571
touch
8
10
1
1
0.83606557377
touch
8
12
1
1
0.128151260504
touch
3
7
1
1
0.0376670716889
touch
6
7
1
1
0.394904458599
touch
7
11
1
1
0.122529644269
touch
3
9
1
1
0.046780072904
touch
3
6
1
1
0.095382746051
touch
3
11
1
1
0.307411907655
touch
2
3
1
1
0.653433902342
floor
3
4
1
1
0.940571428571
touch
9
11
1
1
0.152173913043
touch
4
9
1
1
0.044
touch
9
12
1
1
0.161764705882
touch
6
11
1
1
0.310276679842
touch
2
6
1
1
0.0623263199682
floor
2
11
1
1
0.200873362445
floor
11
12
1
1
0.940711462451
touch
2
4
1
1
0.694720127035
floor
2
10
1
1
0.0202461294164
floor
2
12
1
1
0.188963874553
floor
4
10
1
1
0.0291428571429
touch
4
12
1
1
0.272
touch
10
12
1
1
0.107142857143
touch
3
12
1
1
0.289185905225
floor
4
11
1
1
0.289142857143
floor
