25
2
0
24
unknown
8180
8568
2422
2519
196.786686542
0.0
0.0
0.0
0.0
0.0555555555556
0.031007751938
0.0284237726098
0.147286821705
0.0633074935401
0.0503875968992
0.0490956072351
0.0426356589147
0.0439276485788
0.0439276485788
0.0426356589147
0.0400516795866
0.0413436692506
0.0413436692506
0.0413436692506
0.0387596899225
0.0413436692506
0.0387596899225
0.0439276485788
0.0387596899225
0.0348837209302
0.068623050214
0.0878552971576
0.138242894057
0.0762273901809
0.0426356589147
0.0297157622739
0.0232558139535
0.0193798449612
0.0180878552972
0.0142118863049
0.015503875969
0.0129198966408
0.015503875969
0.0116279069767
0.0103359173127
0.0077519379845
0.0077519379845
0.00904392764858
0.00904392764858
0.0077519379845
0.0103359173127
0.0116279069767
0.0129198966408
0.0167958656331
0.0232558139535
0.031007751938
0
unknown
0
9027
0
5774
22.8473193176
5.97405424815e-148
6.49809409448e-148
8.7752854267e-148
1.67311630937e-147
3.72639970726e-147
4.3066547371e-147
3.71877730949e-147
4.81354418846e-147
6.10268221043e-147
6.45902930593e-147
7.13837550672e-147
7.36037784162e-147
6.47332130174e-147
6.05694782384e-147
6.25798856489e-147
9.64042757301e-147
8.02162084771e-147
7.8081937103e-147
8.51326550354e-147
8.47705911416e-147
7.09549951929e-147
6.50952769112e-147
4.69634982283e-147
6.86206358774e-147
6.41234211962e-147
5.97405424815e-148
6.49809409448e-148
8.7752854267e-148
1.67311630937e-147
3.72639970726e-147
4.3066547371e-147
3.71877730949e-147
4.81354418846e-147
6.10268221043e-147
6.45902930593e-147
7.13837550672e-147
7.36037784162e-147
6.47332130174e-147
6.05694782384e-147
6.25798856489e-147
9.64042757301e-147
8.02162084771e-147
7.8081937103e-147
8.51326550354e-147
8.47705911416e-147
7.09549951929e-147
6.50952769112e-147
4.69634982283e-147
6.86206358774e-147
6.41234211962e-147
5.97405424815e-148
6.49809409448e-148
8.7752854267e-148
1.67311630937e-147
3.72639970726e-147
4.3066547371e-147
3.71877730949e-147
4.81354418846e-147
6.10268221043e-147
6.45902930593e-147
7.13837550672e-147
7.36037784162e-147
6.47332130174e-147
6.05694782384e-147
6.25798856489e-147
9.64042757301e-147
8.02162084771e-147
7.8081937103e-147
8.51326550354e-147
8.47705911416e-147
7.09549951929e-147
6.50952769112e-147
4.69634982283e-147
6.86206358774e-147
6.41234211962e-147
5.97405424815e-148
6.49809409448e-148
8.7752854267e-148
1.67311630937e-147
3.72639970726e-147
4.3066547371e-147
3.71877730949e-147
4.81354418846e-147
6.10268221043e-147
6.45902930593e-147
7.13837550672e-147
7.36037784162e-147
6.47332130174e-147
6.05694782384e-147
6.25798856489e-147
9.64042757301e-147
8.02162084771e-147
7.8081937103e-147
8.51326550354e-147
8.47705911416e-147
7.09549951929e-147
6.50952769112e-147
4.69634982283e-147
6.86206358774e-147
6.41234211962e-147
5.97405424815e-148
6.49809409448e-148
8.7752854267e-148
1.67311630937e-147
3.72639970726e-147
4.3066547371e-147
3.71877730949e-147
4.81354418846e-147
6.10268221043e-147
6.45902930593e-147
7.13837550672e-147
7.36037784162e-147
6.47332130174e-147
6.05694782384e-147
6.25798856489e-147
9.64042757301e-147
8.02162084771e-147
7.8081937103e-147
8.51326550354e-147
8.47705911416e-147
7.09549951929e-147
6.50952769112e-147
4.69634982283e-147
6.86206358774e-147
6.41234211962e-147
5.97405424815e-148
6.49809409448e-148
8.7752854267e-148
1.67311630937e-147
3.72639970726e-147
4.3066547371e-147
3.71877730949e-147
4.81354418846e-147
6.10268221043e-147
6.45902930593e-147
7.13837550672e-147
7.36037784162e-147
6.47332130174e-147
6.05694782384e-147
6.25798856489e-147
9.64042757301e-147
8.02162084771e-147
7.8081937103e-147
8.51326550354e-147
8.47705911416e-147
7.09549951929e-147
6.50952769112e-147
4.69634982283e-147
6.86206358774e-147
6.41234211962e-147
5.97405424815e-148
6.49809409448e-148
8.7752854267e-148
1.67311630937e-147
3.72639970726e-147
4.3066547371e-147
3.71877730949e-147
4.81354418846e-147
6.10268221043e-147
6.45902930593e-147
7.13837550672e-147
7.36037784162e-147
6.47332130174e-147
6.05694782384e-147
6.25798856489e-147
9.64042757301e-147
8.02162084771e-147
7.8081937103e-147
8.51326550354e-147
8.47705911416e-147
7.09549951929e-147
6.50952769112e-147
4.69634982283e-147
6.86206358774e-147
6.41234211962e-147
5.97405424815e-148
6.49809409448e-148
8.7752854267e-148
1.67311630937e-147
3.72639970726e-147
4.3066547371e-147
3.71877730949e-147
4.81354418846e-147
6.10268221043e-147
6.45902930593e-147
7.13837550672e-147
7.36037784162e-147
6.47332130174e-147
6.05694782384e-147
6.25798856489e-147
9.64042757301e-147
8.02162084771e-147
7.8081937103e-147
8.51326550354e-147
8.47705911416e-147
7.09549951929e-147
6.50952769112e-147
4.69634982283e-147
6.86206358774e-147
6.41234211962e-147
5.97405424815e-148
6.49809409448e-148
8.7752854267e-148
1.67311630937e-147
3.72639970726e-147
4.3066547371e-147
3.71877730949e-147
4.81354418846e-147
6.10268221043e-147
6.45902930593e-147
7.13837550672e-147
7.36037784162e-147
6.47332130174e-147
6.05694782384e-147
6.25798856489e-147
9.64042757301e-147
8.02162084771e-147
7.8081937103e-147
8.51326550354e-147
8.47705911416e-147
7.09549951929e-147
6.50952769112e-147
4.69634982283e-147
6.86206358774e-147
6.41234211962e-147
5.97405424815e-148
6.49809409448e-148
8.7752854267e-148
1.67311630937e-147
3.72639970726e-147
4.3066547371e-147
3.71877730949e-147
4.81354418846e-147
6.10268221043e-147
6.45902930593e-147
7.13837550672e-147
7.36037784162e-147
6.47332130174e-147
6.05694782384e-147
6.25798856489e-147
9.64042757301e-147
8.02162084771e-147
7.8081937103e-147
8.51326550354e-147
8.47705911416e-147
7.09549951929e-147
6.50952769112e-147
4.69634982283e-147
6.86206358774e-147
6.41234211962e-147
5.97405424815e-148
6.49809409448e-148
8.7752854267e-148
1.67311630937e-147
3.72639970726e-147
4.3066547371e-147
3.71877730949e-147
4.81354418846e-147
6.10268221043e-147
6.45902930593e-147
7.13837550672e-147
7.36037784162e-147
6.47332130174e-147
6.05694782384e-147
6.25798856489e-147
9.64042757301e-147
8.02162084771e-147
7.8081937103e-147
8.51326550354e-147
8.47705911416e-147
7.09549951929e-147
6.50952769112e-147
4.69634982283e-147
6.86206358774e-147
6.41234211962e-147
5.97405424815e-148
6.49809409448e-148
8.7752854267e-148
1.67311630937e-147
3.72639970726e-147
4.3066547371e-147
3.71877730949e-147
4.81354418846e-147
6.10268221043e-147
6.45902930593e-147
7.13837550672e-147
7.36037784162e-147
6.47332130174e-147
6.05694782384e-147
6.25798856489e-147
9.64042757301e-147
8.02162084771e-147
7.8081937103e-147
8.51326550354e-147
8.47705911416e-147
7.09549951929e-147
6.50952769112e-147
4.69634982283e-147
6.86206358774e-147
6.41234211962e-147
5.97405424815e-148
6.49809409448e-148
8.7752854267e-148
1.67311630937e-147
3.72639970726e-147
4.3066547371e-147
3.71877730949e-147
4.81354418846e-147
6.10268221043e-147
6.45902930593e-147
7.13837550672e-147
7.36037784162e-147
6.47332130174e-147
6.05694782384e-147
6.25798856489e-147
9.64042757301e-147
8.02162084771e-147
7.8081937103e-147
8.51326550354e-147
8.47705911416e-147
7.09549951929e-147
6.50952769112e-147
4.69634982283e-147
6.86206358774e-147
6.41234211962e-147
5.97405424815e-148
6.49809409448e-148
8.7752854267e-148
1.67311630937e-147
3.72639970726e-147
4.3066547371e-147
3.71877730949e-147
4.81354418846e-147
6.10268221043e-147
6.45902930593e-147
7.13837550672e-147
7.36037784162e-147
6.47332130174e-147
6.05694782384e-147
6.25798856489e-147
9.64042757301e-147
8.02162084771e-147
7.8081937103e-147
8.51326550354e-147
8.47705911416e-147
7.09549951929e-147
6.50952769112e-147
4.69634982283e-147
6.86206358774e-147
6.41234211962e-147
5.97405424815e-148
6.49809409448e-148
8.7752854267e-148
1.67311630937e-147
3.72639970726e-147
4.3066547371e-147
3.71877730949e-147
4.81354418846e-147
6.10268221043e-147
6.45902930593e-147
7.13837550672e-147
7.36037784162e-147
6.47332130174e-147
6.05694782384e-147
6.25798856489e-147
9.64042757301e-147
8.02162084771e-147
7.8081937103e-147
8.51326550354e-147
8.47705911416e-147
7.09549951929e-147
6.50952769112e-147
4.69634982283e-147
6.86206358774e-147
6.41234211962e-147
5.97405424815e-148
6.49809409448e-148
8.7752854267e-148
1.67311630937e-147
3.72639970726e-147
4.3066547371e-147
3.71877730949e-147
4.81354418846e-147
6.10268221043e-147
6.45902930593e-147
7.13837550672e-147
7.36037784162e-147
6.47332130174e-147
6.05694782384e-147
6.25798856489e-147
9.64042757301e-147
8.02162084771e-147
7.8081937103e-147
8.51326550354e-147
8.47705911416e-147
7.09549951929e-147
6.50952769112e-147
4.69634982283e-147
6.86206358774e-147
6.41234211962e-147
5.97405424815e-148
6.49809409448e-148
8.7752854267e-148
1.67311630937e-147
3.72639970726e-147
4.3066547371e-147
3.71877730949e-147
4.81354418846e-147
6.10268221043e-147
6.45902930593e-147
7.13837550672e-147
7.36037784162e-147
6.47332130174e-147
6.05694782384e-147
6.25798856489e-147
9.64042757301e-147
8.02162084771e-147
7.8081937103e-147
8.51326550354e-147
8.47705911416e-147
7.09549951929e-147
6.50952769112e-147
4.69634982283e-147
6.86206358774e-147
6.41234211962e-147
5.97405424815e-148
6.49809409448e-148
8.7752854267e-148
1.67311630937e-147
3.72639970726e-147
4.3066547371e-147
3.71877730949e-147
4.81354418846e-147
6.10268221043e-147
6.45902930593e-147
7.13837550672e-147
7.36037784162e-147
6.47332130174e-147
6.05694782384e-147
6.25798856489e-147
9.64042757301e-147
8.02162084771e-147
7.8081937103e-147
8.51326550354e-147
8.47705911416e-147
7.09549951929e-147
6.50952769112e-147
4.69634982283e-147
6.86206358774e-147
6.41234211962e-147
5.97405424815e-148
6.49809409448e-148
8.7752854267e-148
1.67311630937e-147
3.72639970726e-147
4.3066547371e-147
3.71877730949e-147
4.81354418846e-147
6.10268221043e-147
6.45902930593e-147
7.13837550672e-147
7.36037784162e-147
6.47332130174e-147
6.05694782384e-147
6.25798856489e-147
9.64042757301e-147
8.02162084771e-147
7.8081937103e-147
8.51326550354e-147
8.47705911416e-147
7.09549951929e-147
6.50952769112e-147
4.69634982283e-147
6.86206358774e-147
6.41234211962e-147
5.97405424815e-148
6.49809409448e-148
8.7752854267e-148
1.67311630937e-147
3.72639970726e-147
4.3066547371e-147
3.71877730949e-147
4.81354418846e-147
6.10268221043e-147
6.45902930593e-147
7.13837550672e-147
7.36037784162e-147
6.47332130174e-147
6.05694782384e-147
6.25798856489e-147
9.64042757301e-147
8.02162084771e-147
7.8081937103e-147
8.51326550354e-147
8.47705911416e-147
7.09549951929e-147
6.50952769112e-147
4.69634982283e-147
6.86206358774e-147
6.41234211962e-147
5.97405424815e-148
6.49809409448e-148
8.7752854267e-148
1.67311630937e-147
3.72639970726e-147
4.3066547371e-147
3.71877730949e-147
4.81354418846e-147
6.10268221043e-147
6.45902930593e-147
7.13837550672e-147
7.36037784162e-147
6.47332130174e-147
6.05694782384e-147
6.25798856489e-147
9.64042757301e-147
8.02162084771e-147
7.8081937103e-147
8.51326550354e-147
8.47705911416e-147
7.09549951929e-147
6.50952769112e-147
4.69634982283e-147
6.86206358774e-147
6.41234211962e-147
5.97405424815e-148
6.49809409448e-148
8.7752854267e-148
1.67311630937e-147
3.72639970726e-147
4.3066547371e-147
3.71877730949e-147
4.81354418846e-147
6.10268221043e-147
6.45902930593e-147
7.13837550672e-147
7.36037784162e-147
6.47332130174e-147
6.05694782384e-147
6.25798856489e-147
9.64042757301e-147
8.02162084771e-147
7.8081937103e-147
8.51326550354e-147
8.47705911416e-147
7.09549951929e-147
6.50952769112e-147
4.69634982283e-147
6.86206358774e-147
6.41234211962e-147
5.97405424815e-148
6.49809409448e-148
8.7752854267e-148
1.67311630937e-147
3.72639970726e-147
4.3066547371e-147
3.71877730949e-147
4.81354418846e-147
6.10268221043e-147
6.45902930593e-147
7.13837550672e-147
7.36037784162e-147
6.47332130174e-147
6.05694782384e-147
6.25798856489e-147
9.64042757301e-147
8.02162084771e-147
7.8081937103e-147
8.51326550354e-147
8.47705911416e-147
7.09549951929e-147
6.50952769112e-147
4.69634982283e-147
6.86206358774e-147
6.41234211962e-147
5.97405424815e-148
6.49809409448e-148
8.7752854267e-148
1.67311630937e-147
3.72639970726e-147
4.3066547371e-147
3.71877730949e-147
4.81354418846e-147
6.10268221043e-147
6.45902930593e-147
7.13837550672e-147
7.36037784162e-147
6.47332130174e-147
6.05694782384e-147
6.25798856489e-147
9.64042757301e-147
8.02162084771e-147
7.8081937103e-147
8.51326550354e-147
8.47705911416e-147
7.09549951929e-147
6.50952769112e-147
4.69634982283e-147
6.86206358774e-147
6.41234211962e-147
5.97405424815e-148
6.49809409448e-148
8.7752854267e-148
1.67311630937e-147
3.72639970726e-147
4.3066547371e-147
3.71877730949e-147
4.81354418846e-147
6.10268221043e-147
6.45902930593e-147
7.13837550672e-147
7.36037784162e-147
6.47332130174e-147
6.05694782384e-147
6.25798856489e-147
9.64042757301e-147
8.02162084771e-147
7.8081937103e-147
8.51326550354e-147
8.47705911416e-147
7.09549951929e-147
6.50952769112e-147
4.69634982283e-147
6.86206358774e-147
6.41234211962e-147
5.97405424815e-148
6.49809409448e-148
8.7752854267e-148
1.67311630937e-147
3.72639970726e-147
4.3066547371e-147
3.71877730949e-147
4.81354418846e-147
6.10268221043e-147
6.45902930593e-147
7.13837550672e-147
7.36037784162e-147
6.47332130174e-147
6.05694782384e-147
6.25798856489e-147
9.64042757301e-147
8.02162084771e-147
7.8081937103e-147
8.51326550354e-147
8.47705911416e-147
7.09549951929e-147
6.50952769112e-147
4.69634982283e-147
6.86206358774e-147
6.41234211962e-147
5.97405424815e-148
6.49809409448e-148
8.7752854267e-148
1.67311630937e-147
3.72639970726e-147
4.3066547371e-147
3.71877730949e-147
4.81354418846e-147
6.10268221043e-147
6.45902930593e-147
7.13837550672e-147
7.36037784162e-147
6.47332130174e-147
6.05694782384e-147
6.25798856489e-147
9.64042757301e-147
8.02162084771e-147
7.8081937103e-147
8.51326550354e-147
8.47705911416e-147
7.09549951929e-147
6.50952769112e-147
4.69634982283e-147
6.86206358774e-147
6.41234211962e-147
5.97405424815e-148
6.49809409448e-148
8.7752854267e-148
1.67311630937e-147
3.72639970726e-147
4.3066547371e-147
3.71877730949e-147
4.81354418846e-147
6.10268221043e-147
6.45902930593e-147
7.13837550672e-147
7.36037784162e-147
6.47332130174e-147
6.05694782384e-147
6.25798856489e-147
9.64042757301e-147
8.02162084771e-147
7.8081937103e-147
8.51326550354e-147
8.47705911416e-147
7.09549951929e-147
6.50952769112e-147
4.69634982283e-147
6.86206358774e-147
6.41234211962e-147
5.97405424815e-148
6.49809409448e-148
8.7752854267e-148
1.67311630937e-147
3.72639970726e-147
4.3066547371e-147
3.71877730949e-147
4.81354418846e-147
6.10268221043e-147
6.45902930593e-147
7.13837550672e-147
7.36037784162e-147
6.47332130174e-147
6.05694782384e-147
6.25798856489e-147
9.64042757301e-147
8.02162084771e-147
7.8081937103e-147
8.51326550354e-147
8.47705911416e-147
7.09549951929e-147
6.50952769112e-147
4.69634982283e-147
6.86206358774e-147
6.41234211962e-147
5.97405424815e-148
6.49809409448e-148
8.7752854267e-148
1.67311630937e-147
3.72639970726e-147
4.3066547371e-147
3.71877730949e-147
4.81354418846e-147
6.10268221043e-147
6.45902930593e-147
7.13837550672e-147
7.36037784162e-147
6.47332130174e-147
6.05694782384e-147
6.25798856489e-147
9.64042757301e-147
8.02162084771e-147
7.8081937103e-147
8.51326550354e-147
8.47705911416e-147
7.09549951929e-147
6.50952769112e-147
4.69634982283e-147
6.86206358774e-147
6.41234211962e-147
5.97405424815e-148
6.49809409448e-148
8.7752854267e-148
1.67311630937e-147
3.72639970726e-147
4.3066547371e-147
3.71877730949e-147
4.81354418846e-147
6.10268221043e-147
6.45902930593e-147
7.13837550672e-147
7.36037784162e-147
6.47332130174e-147
6.05694782384e-147
6.25798856489e-147
9.64042757301e-147
8.02162084771e-147
7.8081937103e-147
8.51326550354e-147
8.47705911416e-147
7.09549951929e-147
6.50952769112e-147
4.69634982283e-147
6.86206358774e-147
6.41234211962e-147
5.97405424815e-148
6.49809409448e-148
8.7752854267e-148
1.67311630937e-147
3.72639970726e-147
4.3066547371e-147
3.71877730949e-147
4.81354418846e-147
6.10268221043e-147
6.45902930593e-147
7.13837550672e-147
7.36037784162e-147
6.47332130174e-147
6.05694782384e-147
6.25798856489e-147
9.64042757301e-147
8.02162084771e-147
7.8081937103e-147
8.51326550354e-147
8.47705911416e-147
7.09549951929e-147
6.50952769112e-147
4.69634982283e-147
6.86206358774e-147
6.41234211962e-147
5.97405424815e-148
6.49809409448e-148
8.7752854267e-148
1.67311630937e-147
3.72639970726e-147
4.3066547371e-147
3.71877730949e-147
4.81354418846e-147
6.10268221043e-147
6.45902930593e-147
7.13837550672e-147
7.36037784162e-147
6.47332130174e-147
6.05694782384e-147
6.25798856489e-147
9.64042757301e-147
8.02162084771e-147
7.8081937103e-147
8.51326550354e-147
8.47705911416e-147
7.09549951929e-147
6.50952769112e-147
4.69634982283e-147
6.86206358774e-147
6.41234211962e-147
5.97405424815e-148
6.49809409448e-148
8.7752854267e-148
1.67311630937e-147
3.72639970726e-147
4.3066547371e-147
3.71877730949e-147
4.81354418846e-147
6.10268221043e-147
6.45902930593e-147
7.13837550672e-147
7.36037784162e-147
6.47332130174e-147
6.05694782384e-147
6.25798856489e-147
9.64042757301e-147
8.02162084771e-147
7.8081937103e-147
8.51326550354e-147
8.47705911416e-147
7.09549951929e-147
6.50952769112e-147
4.69634982283e-147
6.86206358774e-147
6.41234211962e-147
5.97405424815e-148
6.49809409448e-148
8.7752854267e-148
1.67311630937e-147
3.72639970726e-147
4.3066547371e-147
3.71877730949e-147
4.81354418846e-147
6.10268221043e-147
6.45902930593e-147
7.13837550672e-147
7.36037784162e-147
6.47332130174e-147
6.05694782384e-147
6.25798856489e-147
9.64042757301e-147
8.02162084771e-147
7.8081937103e-147
8.51326550354e-147
8.47705911416e-147
7.09549951929e-147
6.50952769112e-147
4.69634982283e-147
6.86206358774e-147
6.41234211962e-147
5.97405424815e-148
6.49809409448e-148
8.7752854267e-148
1.67311630937e-147
3.72639970726e-147
4.3066547371e-147
3.71877730949e-147
4.81354418846e-147
6.10268221043e-147
6.45902930593e-147
7.13837550672e-147
7.36037784162e-147
6.47332130174e-147
6.05694782384e-147
6.25798856489e-147
9.64042757301e-147
8.02162084771e-147
7.8081937103e-147
8.51326550354e-147
8.47705911416e-147
7.09549951929e-147
6.50952769112e-147
4.69634982283e-147
6.86206358774e-147
6.41234211962e-147
5.97405424815e-148
6.49809409448e-148
8.7752854267e-148
1.67311630937e-147
3.72639970726e-147
4.3066547371e-147
3.71877730949e-147
4.81354418846e-147
6.10268221043e-147
6.45902930593e-147
7.13837550672e-147
7.36037784162e-147
6.47332130174e-147
6.05694782384e-147
6.25798856489e-147
9.64042757301e-147
8.02162084771e-147
7.8081937103e-147
8.51326550354e-147
8.47705911416e-147
7.09549951929e-147
6.50952769112e-147
4.69634982283e-147
6.86206358774e-147
6.41234211962e-147
5.97405424815e-148
6.49809409448e-148
8.7752854267e-148
1.67311630937e-147
3.72639970726e-147
4.3066547371e-147
3.71877730949e-147
4.81354418846e-147
6.10268221043e-147
6.45902930593e-147
7.13837550672e-147
7.36037784162e-147
6.47332130174e-147
6.05694782384e-147
6.25798856489e-147
9.64042757301e-147
8.02162084771e-147
7.8081937103e-147
8.51326550354e-147
8.47705911416e-147
7.09549951929e-147
6.50952769112e-147
4.69634982283e-147
6.86206358774e-147
6.41234211962e-147
5.97405424815e-148
6.49809409448e-148
8.7752854267e-148
1.67311630937e-147
3.72639970726e-147
4.3066547371e-147
3.71877730949e-147
4.81354418846e-147
6.10268221043e-147
6.45902930593e-147
7.13837550672e-147
7.36037784162e-147
6.47332130174e-147
6.05694782384e-147
6.25798856489e-147
9.64042757301e-147
8.02162084771e-147
7.8081937103e-147
8.51326550354e-147
8.47705911416e-147
7.09549951929e-147
6.50952769112e-147
4.69634982283e-147
6.86206358774e-147
6.41234211962e-147
5.97405424815e-148
6.49809409448e-148
8.7752854267e-148
1.67311630937e-147
3.72639970726e-147
4.3066547371e-147
3.71877730949e-147
4.81354418846e-147
6.10268221043e-147
6.45902930593e-147
7.13837550672e-147
7.36037784162e-147
6.47332130174e-147
6.05694782384e-147
6.25798856489e-147
9.64042757301e-147
8.02162084771e-147
7.8081937103e-147
8.51326550354e-147
8.47705911416e-147
7.09549951929e-147
6.50952769112e-147
4.69634982283e-147
6.86206358774e-147
6.41234211962e-147
5.97405424815e-148
6.49809409448e-148
8.7752854267e-148
1.67311630937e-147
3.72639970726e-147
4.3066547371e-147
3.71877730949e-147
4.81354418846e-147
6.10268221043e-147
6.45902930593e-147
7.13837550672e-147
7.36037784162e-147
6.47332130174e-147
6.05694782384e-147
6.25798856489e-147
9.64042757301e-147
8.02162084771e-147
7.8081937103e-147
8.51326550354e-147
8.47705911416e-147
7.09549951929e-147
6.50952769112e-147
4.69634982283e-147
6.86206358774e-147
6.41234211962e-147
5.97405424815e-148
6.49809409448e-148
8.7752854267e-148
1.67311630937e-147
3.72639970726e-147
4.3066547371e-147
3.71877730949e-147
4.81354418846e-147
6.10268221043e-147
6.45902930593e-147
7.13837550672e-147
7.36037784162e-147
6.47332130174e-147
6.05694782384e-147
6.25798856489e-147
9.64042757301e-147
8.02162084771e-147
7.8081937103e-147
8.51326550354e-147
8.47705911416e-147
7.09549951929e-147
6.50952769112e-147
4.69634982283e-147
6.86206358774e-147
6.41234211962e-147
5.97405424815e-148
6.49809409448e-148
8.7752854267e-148
1.67311630937e-147
3.72639970726e-147
4.3066547371e-147
3.71877730949e-147
4.81354418846e-147
6.10268221043e-147
6.45902930593e-147
7.13837550672e-147
7.36037784162e-147
6.47332130174e-147
6.05694782384e-147
6.25798856489e-147
9.64042757301e-147
8.02162084771e-147
7.8081937103e-147
8.51326550354e-147
8.47705911416e-147
7.09549951929e-147
6.50952769112e-147
4.69634982283e-147
6.86206358774e-147
6.41234211962e-147
5.97405424815e-148
6.49809409448e-148
8.7752854267e-148
1.67311630937e-147
3.72639970726e-147
4.3066547371e-147
3.71877730949e-147
4.81354418846e-147
6.10268221043e-147
6.45902930593e-147
7.13837550672e-147
7.36037784162e-147
6.47332130174e-147
6.05694782384e-147
6.25798856489e-147
9.64042757301e-147
8.02162084771e-147
7.8081937103e-147
8.51326550354e-147
8.47705911416e-147
7.09549951929e-147
6.50952769112e-147
4.69634982283e-147
6.86206358774e-147
6.41234211962e-147
5.97405424815e-148
6.49809409448e-148
8.7752854267e-148
1.67311630937e-147
3.72639970726e-147
4.3066547371e-147
3.71877730949e-147
4.81354418846e-147
6.10268221043e-147
6.45902930593e-147
7.13837550672e-147
7.36037784162e-147
6.47332130174e-147
6.05694782384e-147
6.25798856489e-147
9.64042757301e-147
8.02162084771e-147
7.8081937103e-147
8.51326550354e-147
8.47705911416e-147
7.09549951929e-147
6.50952769112e-147
4.69634982283e-147
6.86206358774e-147
6.41234211962e-147
5.97405424815e-148
6.49809409448e-148
8.7752854267e-148
1.67311630937e-147
3.72639970726e-147
4.3066547371e-147
3.71877730949e-147
4.81354418846e-147
6.10268221043e-147
6.45902930593e-147
7.13837550672e-147
7.36037784162e-147
6.47332130174e-147
6.05694782384e-147
6.25798856489e-147
9.64042757301e-147
8.02162084771e-147
7.8081937103e-147
8.51326550354e-147
8.47705911416e-147
7.09549951929e-147
6.50952769112e-147
4.69634982283e-147
6.86206358774e-147
6.41234211962e-147
5.97405424815e-148
6.49809409448e-148
8.7752854267e-148
1.67311630937e-147
3.72639970726e-147
4.3066547371e-147
3.71877730949e-147
4.81354418846e-147
6.10268221043e-147
6.45902930593e-147
7.13837550672e-147
7.36037784162e-147
6.47332130174e-147
6.05694782384e-147
6.25798856489e-147
9.64042757301e-147
8.02162084771e-147
7.8081937103e-147
8.51326550354e-147
8.47705911416e-147
7.09549951929e-147
6.50952769112e-147
4.69634982283e-147
6.86206358774e-147
6.41234211962e-147
5.97405424815e-148
6.49809409448e-148
8.7752854267e-148
1.67311630937e-147
3.72639970726e-147
4.3066547371e-147
3.71877730949e-147
4.81354418846e-147
6.10268221043e-147
6.45902930593e-147
7.13837550672e-147
7.36037784162e-147
6.47332130174e-147
6.05694782384e-147
6.25798856489e-147
9.64042757301e-147
8.02162084771e-147
7.8081937103e-147
8.51326550354e-147
8.47705911416e-147
7.09549951929e-147
6.50952769112e-147
4.69634982283e-147
6.86206358774e-147
6.41234211962e-147
5.97405424815e-148
6.49809409448e-148
8.7752854267e-148
1.67311630937e-147
3.72639970726e-147
4.3066547371e-147
3.71877730949e-147
4.81354418846e-147
6.10268221043e-147
6.45902930593e-147
7.13837550672e-147
7.36037784162e-147
6.47332130174e-147
6.05694782384e-147
6.25798856489e-147
9.64042757301e-147
8.02162084771e-147
7.8081937103e-147
8.51326550354e-147
8.47705911416e-147
7.09549951929e-147
6.50952769112e-147
4.69634982283e-147
6.86206358774e-147
6.41234211962e-147
5.97405424815e-148
6.49809409448e-148
8.7752854267e-148
1.67311630937e-147
3.72639970726e-147
4.3066547371e-147
3.71877730949e-147
4.81354418846e-147
6.10268221043e-147
6.45902930593e-147
7.13837550672e-147
7.36037784162e-147
6.47332130174e-147
6.05694782384e-147
6.25798856489e-147
9.64042757301e-147
8.02162084771e-147
7.8081937103e-147
8.51326550354e-147
8.47705911416e-147
7.09549951929e-147
6.50952769112e-147
4.69634982283e-147
6.86206358774e-147
6.41234211962e-147
5.97405424815e-148
6.49809409448e-148
8.7752854267e-148
1.67311630937e-147
3.72639970726e-147
4.3066547371e-147
3.71877730949e-147
4.81354418846e-147
6.10268221043e-147
6.45902930593e-147
7.13837550672e-147
7.36037784162e-147
6.47332130174e-147
6.05694782384e-147
6.25798856489e-147
9.64042757301e-147
8.02162084771e-147
7.8081937103e-147
8.51326550354e-147
8.47705911416e-147
7.09549951929e-147
6.50952769112e-147
4.69634982283e-147
6.86206358774e-147
6.41234211962e-147
0.665639432481
4.62298424434e-147
4.32094673291e-147
4.36953951866e-147
5.18227768033e-147
5.47859839344e-147
5.35949842836e-147
5.62723514985e-147
6.59337406654e-147
7.32417145223e-147
6.6886540386e-147
7.94634966978e-147
7.03166193801e-147
5.00124573342e-147
1.27961002476e-147
1.92751383477e-147
1.57211953899e-147
1.71408669736e-147
2.14761057023e-147
2.0675753937e-147
1.92941943421e-147
2.12379057721e-147
2.48680727076e-147
2.86030476123e-147
4.13896198628e-147
3.78166209105e-147
4.62298424434e-147
4.32094673291e-147
4.36953951866e-147
5.18227768033e-147
5.47859839344e-147
5.35949842836e-147
5.62723514985e-147
6.59337406654e-147
7.32417145223e-147
6.6886540386e-147
7.94634966978e-147
7.03166193801e-147
5.00124573342e-147
1.27961002476e-147
1.92751383477e-147
1.57211953899e-147
1.71408669736e-147
2.14761057023e-147
2.0675753937e-147
1.92941943421e-147
2.12379057721e-147
2.48680727076e-147
2.86030476123e-147
4.13896198628e-147
3.78166209105e-147
4.62298424434e-147
4.32094673291e-147
4.36953951866e-147
5.18227768033e-147
5.47859839344e-147
5.35949842836e-147
5.62723514985e-147
6.59337406654e-147
7.32417145223e-147
6.6886540386e-147
7.94634966978e-147
7.03166193801e-147
5.00124573342e-147
1.27961002476e-147
1.92751383477e-147
1.57211953899e-147
1.71408669736e-147
2.14761057023e-147
2.0675753937e-147
1.92941943421e-147
2.12379057721e-147
2.48680727076e-147
2.86030476123e-147
4.13896198628e-147
3.78166209105e-147
4.62298424434e-147
4.32094673291e-147
4.36953951866e-147
5.18227768033e-147
5.47859839344e-147
5.35949842836e-147
5.62723514985e-147
6.59337406654e-147
7.32417145223e-147
6.6886540386e-147
7.94634966978e-147
7.03166193801e-147
5.00124573342e-147
1.27961002476e-147
1.92751383477e-147
1.57211953899e-147
1.71408669736e-147
2.14761057023e-147
2.0675753937e-147
1.92941943421e-147
2.12379057721e-147
2.48680727076e-147
2.86030476123e-147
4.13896198628e-147
3.78166209105e-147
4.62298424434e-147
4.32094673291e-147
4.36953951866e-147
5.18227768033e-147
5.47859839344e-147
5.35949842836e-147
5.62723514985e-147
6.59337406654e-147
7.32417145223e-147
6.6886540386e-147
7.94634966978e-147
7.03166193801e-147
5.00124573342e-147
1.27961002476e-147
1.92751383477e-147
1.57211953899e-147
1.71408669736e-147
2.14761057023e-147
2.0675753937e-147
1.92941943421e-147
2.12379057721e-147
2.48680727076e-147
2.86030476123e-147
4.13896198628e-147
3.78166209105e-147
4.62298424434e-147
4.32094673291e-147
4.36953951866e-147
5.18227768033e-147
5.47859839344e-147
5.35949842836e-147
5.62723514985e-147
6.59337406654e-147
7.32417145223e-147
6.6886540386e-147
7.94634966978e-147
7.03166193801e-147
5.00124573342e-147
1.27961002476e-147
1.92751383477e-147
1.57211953899e-147
1.71408669736e-147
2.14761057023e-147
2.0675753937e-147
1.92941943421e-147
2.12379057721e-147
2.48680727076e-147
2.86030476123e-147
4.13896198628e-147
3.78166209105e-147
4.62298424434e-147
4.32094673291e-147
4.36953951866e-147
5.18227768033e-147
5.47859839344e-147
5.35949842836e-147
5.62723514985e-147
6.59337406654e-147
7.32417145223e-147
6.6886540386e-147
7.94634966978e-147
7.03166193801e-147
5.00124573342e-147
1.27961002476e-147
1.92751383477e-147
1.57211953899e-147
1.71408669736e-147
2.14761057023e-147
2.0675753937e-147
1.92941943421e-147
2.12379057721e-147
2.48680727076e-147
2.86030476123e-147
4.13896198628e-147
3.78166209105e-147
4.62298424434e-147
4.32094673291e-147
4.36953951866e-147
5.18227768033e-147
5.47859839344e-147
5.35949842836e-147
5.62723514985e-147
6.59337406654e-147
7.32417145223e-147
6.6886540386e-147
7.94634966978e-147
7.03166193801e-147
5.00124573342e-147
1.27961002476e-147
1.92751383477e-147
1.57211953899e-147
1.71408669736e-147
2.14761057023e-147
2.0675753937e-147
1.92941943421e-147
2.12379057721e-147
2.48680727076e-147
2.86030476123e-147
4.13896198628e-147
3.78166209105e-147
4.62298424434e-147
4.32094673291e-147
4.36953951866e-147
5.18227768033e-147
5.47859839344e-147
5.35949842836e-147
5.62723514985e-147
6.59337406654e-147
7.32417145223e-147
6.6886540386e-147
7.94634966978e-147
7.03166193801e-147
5.00124573342e-147
1.27961002476e-147
1.92751383477e-147
1.57211953899e-147
1.71408669736e-147
2.14761057023e-147
2.0675753937e-147
1.92941943421e-147
2.12379057721e-147
2.48680727076e-147
2.86030476123e-147
4.13896198628e-147
3.78166209105e-147
4.62298424434e-147
4.32094673291e-147
4.36953951866e-147
5.18227768033e-147
5.47859839344e-147
5.35949842836e-147
5.62723514985e-147
6.59337406654e-147
7.32417145223e-147
6.6886540386e-147
7.94634966978e-147
7.03166193801e-147
5.00124573342e-147
1.27961002476e-147
1.92751383477e-147
1.57211953899e-147
1.71408669736e-147
2.14761057023e-147
2.0675753937e-147
1.92941943421e-147
2.12379057721e-147
2.48680727076e-147
2.86030476123e-147
4.13896198628e-147
3.78166209105e-147
4.62298424434e-147
4.32094673291e-147
4.36953951866e-147
5.18227768033e-147
5.47859839344e-147
5.35949842836e-147
5.62723514985e-147
6.59337406654e-147
7.32417145223e-147
6.6886540386e-147
7.94634966978e-147
7.03166193801e-147
5.00124573342e-147
1.27961002476e-147
1.92751383477e-147
1.57211953899e-147
1.71408669736e-147
2.14761057023e-147
2.0675753937e-147
1.92941943421e-147
2.12379057721e-147
2.48680727076e-147
2.86030476123e-147
4.13896198628e-147
3.78166209105e-147
4.62298424434e-147
4.32094673291e-147
4.36953951866e-147
5.18227768033e-147
5.47859839344e-147
5.35949842836e-147
5.62723514985e-147
6.59337406654e-147
7.32417145223e-147
6.6886540386e-147
7.94634966978e-147
7.03166193801e-147
5.00124573342e-147
1.27961002476e-147
1.92751383477e-147
1.57211953899e-147
1.71408669736e-147
2.14761057023e-147
2.0675753937e-147
1.92941943421e-147
2.12379057721e-147
2.48680727076e-147
2.86030476123e-147
4.13896198628e-147
3.78166209105e-147
4.62298424434e-147
4.32094673291e-147
4.36953951866e-147
5.18227768033e-147
5.47859839344e-147
5.35949842836e-147
5.62723514985e-147
6.59337406654e-147
7.32417145223e-147
6.6886540386e-147
7.94634966978e-147
7.03166193801e-147
5.00124573342e-147
1.27961002476e-147
1.92751383477e-147
1.57211953899e-147
1.71408669736e-147
2.14761057023e-147
2.0675753937e-147
1.92941943421e-147
2.12379057721e-147
2.48680727076e-147
2.86030476123e-147
4.13896198628e-147
3.78166209105e-147
4.62298424434e-147
4.32094673291e-147
4.36953951866e-147
5.18227768033e-147
5.47859839344e-147
5.35949842836e-147
5.62723514985e-147
6.59337406654e-147
7.32417145223e-147
6.6886540386e-147
7.94634966978e-147
7.03166193801e-147
5.00124573342e-147
1.27961002476e-147
1.92751383477e-147
1.57211953899e-147
1.71408669736e-147
2.14761057023e-147
2.0675753937e-147
1.92941943421e-147
2.12379057721e-147
2.48680727076e-147
2.86030476123e-147
4.13896198628e-147
3.78166209105e-147
4.62298424434e-147
4.32094673291e-147
4.36953951866e-147
5.18227768033e-147
5.47859839344e-147
5.35949842836e-147
5.62723514985e-147
6.59337406654e-147
7.32417145223e-147
6.6886540386e-147
7.94634966978e-147
7.03166193801e-147
5.00124573342e-147
1.27961002476e-147
1.92751383477e-147
1.57211953899e-147
1.71408669736e-147
2.14761057023e-147
2.0675753937e-147
1.92941943421e-147
2.12379057721e-147
2.48680727076e-147
2.86030476123e-147
4.13896198628e-147
3.78166209105e-147
4.62298424434e-147
4.32094673291e-147
4.36953951866e-147
5.18227768033e-147
5.47859839344e-147
5.35949842836e-147
5.62723514985e-147
6.59337406654e-147
7.32417145223e-147
6.6886540386e-147
7.94634966978e-147
7.03166193801e-147
5.00124573342e-147
1.27961002476e-147
1.92751383477e-147
1.57211953899e-147
1.71408669736e-147
2.14761057023e-147
2.0675753937e-147
1.92941943421e-147
2.12379057721e-147
2.48680727076e-147
2.86030476123e-147
4.13896198628e-147
3.78166209105e-147
4.62298424434e-147
4.32094673291e-147
4.36953951866e-147
5.18227768033e-147
5.47859839344e-147
5.35949842836e-147
5.62723514985e-147
6.59337406654e-147
7.32417145223e-147
6.6886540386e-147
7.94634966978e-147
7.03166193801e-147
5.00124573342e-147
1.27961002476e-147
1.92751383477e-147
1.57211953899e-147
1.71408669736e-147
2.14761057023e-147
2.0675753937e-147
1.92941943421e-147
2.12379057721e-147
2.48680727076e-147
2.86030476123e-147
4.13896198628e-147
3.78166209105e-147
4.62298424434e-147
4.32094673291e-147
4.36953951866e-147
5.18227768033e-147
5.47859839344e-147
5.35949842836e-147
5.62723514985e-147
6.59337406654e-147
7.32417145223e-147
6.6886540386e-147
7.94634966978e-147
7.03166193801e-147
5.00124573342e-147
1.27961002476e-147
1.92751383477e-147
1.57211953899e-147
1.71408669736e-147
2.14761057023e-147
2.0675753937e-147
1.92941943421e-147
2.12379057721e-147
2.48680727076e-147
2.86030476123e-147
4.13896198628e-147
3.78166209105e-147
4.62298424434e-147
4.32094673291e-147
4.36953951866e-147
5.18227768033e-147
5.47859839344e-147
5.35949842836e-147
5.62723514985e-147
6.59337406654e-147
7.32417145223e-147
6.6886540386e-147
7.94634966978e-147
7.03166193801e-147
5.00124573342e-147
1.27961002476e-147
1.92751383477e-147
1.57211953899e-147
1.71408669736e-147
2.14761057023e-147
2.0675753937e-147
1.92941943421e-147
2.12379057721e-147
2.48680727076e-147
2.86030476123e-147
4.13896198628e-147
3.78166209105e-147
4.62298424434e-147
4.32094673291e-147
4.36953951866e-147
5.18227768033e-147
5.47859839344e-147
5.35949842836e-147
5.62723514985e-147
6.59337406654e-147
7.32417145223e-147
6.6886540386e-147
7.94634966978e-147
7.03166193801e-147
5.00124573342e-147
1.27961002476e-147
1.92751383477e-147
1.57211953899e-147
1.71408669736e-147
2.14761057023e-147
2.0675753937e-147
1.92941943421e-147
2.12379057721e-147
2.48680727076e-147
2.86030476123e-147
4.13896198628e-147
3.78166209105e-147
4.62298424434e-147
4.32094673291e-147
4.36953951866e-147
5.18227768033e-147
5.47859839344e-147
5.35949842836e-147
5.62723514985e-147
6.59337406654e-147
7.32417145223e-147
6.6886540386e-147
7.94634966978e-147
7.03166193801e-147
5.00124573342e-147
1.27961002476e-147
1.92751383477e-147
1.57211953899e-147
1.71408669736e-147
2.14761057023e-147
2.0675753937e-147
1.92941943421e-147
2.12379057721e-147
2.48680727076e-147
2.86030476123e-147
4.13896198628e-147
3.78166209105e-147
4.62298424434e-147
4.32094673291e-147
4.36953951866e-147
5.18227768033e-147
5.47859839344e-147
5.35949842836e-147
5.62723514985e-147
6.59337406654e-147
7.32417145223e-147
6.6886540386e-147
7.94634966978e-147
7.03166193801e-147
5.00124573342e-147
1.27961002476e-147
1.92751383477e-147
1.57211953899e-147
1.71408669736e-147
2.14761057023e-147
2.0675753937e-147
1.92941943421e-147
2.12379057721e-147
2.48680727076e-147
2.86030476123e-147
4.13896198628e-147
3.78166209105e-147
4.62298424434e-147
4.32094673291e-147
4.36953951866e-147
5.18227768033e-147
5.47859839344e-147
5.35949842836e-147
5.62723514985e-147
6.59337406654e-147
7.32417145223e-147
6.6886540386e-147
7.94634966978e-147
7.03166193801e-147
5.00124573342e-147
1.27961002476e-147
1.92751383477e-147
1.57211953899e-147
1.71408669736e-147
2.14761057023e-147
2.0675753937e-147
1.92941943421e-147
2.12379057721e-147
2.48680727076e-147
2.86030476123e-147
4.13896198628e-147
3.78166209105e-147
4.62298424434e-147
4.32094673291e-147
4.36953951866e-147
5.18227768033e-147
5.47859839344e-147
5.35949842836e-147
5.62723514985e-147
6.59337406654e-147
7.32417145223e-147
6.6886540386e-147
7.94634966978e-147
7.03166193801e-147
5.00124573342e-147
1.27961002476e-147
1.92751383477e-147
1.57211953899e-147
1.71408669736e-147
2.14761057023e-147
2.0675753937e-147
1.92941943421e-147
2.12379057721e-147
2.48680727076e-147
2.86030476123e-147
4.13896198628e-147
3.78166209105e-147
4.62298424434e-147
4.32094673291e-147
4.36953951866e-147
5.18227768033e-147
5.47859839344e-147
5.35949842836e-147
5.62723514985e-147
6.59337406654e-147
7.32417145223e-147
6.6886540386e-147
7.94634966978e-147
7.03166193801e-147
5.00124573342e-147
1.27961002476e-147
1.92751383477e-147
1.57211953899e-147
1.71408669736e-147
2.14761057023e-147
2.0675753937e-147
1.92941943421e-147
2.12379057721e-147
2.48680727076e-147
2.86030476123e-147
4.13896198628e-147
3.78166209105e-147
4.62298424434e-147
4.32094673291e-147
4.36953951866e-147
5.18227768033e-147
5.47859839344e-147
5.35949842836e-147
5.62723514985e-147
6.59337406654e-147
7.32417145223e-147
6.6886540386e-147
7.94634966978e-147
7.03166193801e-147
5.00124573342e-147
1.27961002476e-147
1.92751383477e-147
1.57211953899e-147
1.71408669736e-147
2.14761057023e-147
2.0675753937e-147
1.92941943421e-147
2.12379057721e-147
2.48680727076e-147
2.86030476123e-147
4.13896198628e-147
3.78166209105e-147
4.62298424434e-147
4.32094673291e-147
4.36953951866e-147
5.18227768033e-147
5.47859839344e-147
5.35949842836e-147
5.62723514985e-147
6.59337406654e-147
7.32417145223e-147
6.6886540386e-147
7.94634966978e-147
7.03166193801e-147
5.00124573342e-147
1.27961002476e-147
1.92751383477e-147
1.57211953899e-147
1.71408669736e-147
2.14761057023e-147
2.0675753937e-147
1.92941943421e-147
2.12379057721e-147
2.48680727076e-147
2.86030476123e-147
4.13896198628e-147
3.78166209105e-147
4.62298424434e-147
4.32094673291e-147
4.36953951866e-147
5.18227768033e-147
5.47859839344e-147
5.35949842836e-147
5.62723514985e-147
6.59337406654e-147
7.32417145223e-147
6.6886540386e-147
7.94634966978e-147
7.03166193801e-147
5.00124573342e-147
1.27961002476e-147
1.92751383477e-147
1.57211953899e-147
1.71408669736e-147
2.14761057023e-147
2.0675753937e-147
1.92941943421e-147
2.12379057721e-147
2.48680727076e-147
2.86030476123e-147
4.13896198628e-147
3.78166209105e-147
4.62298424434e-147
4.32094673291e-147
4.36953951866e-147
5.18227768033e-147
5.47859839344e-147
5.35949842836e-147
5.62723514985e-147
6.59337406654e-147
7.32417145223e-147
6.6886540386e-147
7.94634966978e-147
7.03166193801e-147
5.00124573342e-147
1.27961002476e-147
1.92751383477e-147
1.57211953899e-147
1.71408669736e-147
2.14761057023e-147
2.0675753937e-147
1.92941943421e-147
2.12379057721e-147
2.48680727076e-147
2.86030476123e-147
4.13896198628e-147
3.78166209105e-147
4.62298424434e-147
4.32094673291e-147
4.36953951866e-147
5.18227768033e-147
5.47859839344e-147
5.35949842836e-147
5.62723514985e-147
6.59337406654e-147
7.32417145223e-147
6.6886540386e-147
7.94634966978e-147
7.03166193801e-147
5.00124573342e-147
1.27961002476e-147
1.92751383477e-147
1.57211953899e-147
1.71408669736e-147
2.14761057023e-147
2.0675753937e-147
1.92941943421e-147
2.12379057721e-147
2.48680727076e-147
2.86030476123e-147
4.13896198628e-147
3.78166209105e-147
4.62298424434e-147
4.32094673291e-147
4.36953951866e-147
5.18227768033e-147
5.47859839344e-147
5.35949842836e-147
5.62723514985e-147
6.59337406654e-147
7.32417145223e-147
6.6886540386e-147
7.94634966978e-147
7.03166193801e-147
5.00124573342e-147
1.27961002476e-147
1.92751383477e-147
1.57211953899e-147
1.71408669736e-147
2.14761057023e-147
2.0675753937e-147
1.92941943421e-147
2.12379057721e-147
2.48680727076e-147
2.86030476123e-147
4.13896198628e-147
3.78166209105e-147
4.62298424434e-147
4.32094673291e-147
4.36953951866e-147
5.18227768033e-147
5.47859839344e-147
5.35949842836e-147
5.62723514985e-147
6.59337406654e-147
7.32417145223e-147
6.6886540386e-147
7.94634966978e-147
7.03166193801e-147
5.00124573342e-147
1.27961002476e-147
1.92751383477e-147
1.57211953899e-147
1.71408669736e-147
2.14761057023e-147
2.0675753937e-147
1.92941943421e-147
2.12379057721e-147
2.48680727076e-147
2.86030476123e-147
4.13896198628e-147
3.78166209105e-147
4.62298424434e-147
4.32094673291e-147
4.36953951866e-147
5.18227768033e-147
5.47859839344e-147
5.35949842836e-147
5.62723514985e-147
6.59337406654e-147
7.32417145223e-147
6.6886540386e-147
7.94634966978e-147
7.03166193801e-147
5.00124573342e-147
1.27961002476e-147
1.92751383477e-147
1.57211953899e-147
1.71408669736e-147
2.14761057023e-147
2.0675753937e-147
1.92941943421e-147
2.12379057721e-147
2.48680727076e-147
2.86030476123e-147
4.13896198628e-147
3.78166209105e-147
4.62298424434e-147
4.32094673291e-147
4.36953951866e-147
5.18227768033e-147
5.47859839344e-147
5.35949842836e-147
5.62723514985e-147
6.59337406654e-147
7.32417145223e-147
6.6886540386e-147
7.94634966978e-147
7.03166193801e-147
5.00124573342e-147
1.27961002476e-147
1.92751383477e-147
1.57211953899e-147
1.71408669736e-147
2.14761057023e-147
2.0675753937e-147
1.92941943421e-147
2.12379057721e-147
2.48680727076e-147
2.86030476123e-147
4.13896198628e-147
3.78166209105e-147
4.62298424434e-147
4.32094673291e-147
4.36953951866e-147
5.18227768033e-147
5.47859839344e-147
5.35949842836e-147
5.62723514985e-147
6.59337406654e-147
7.32417145223e-147
6.6886540386e-147
7.94634966978e-147
7.03166193801e-147
5.00124573342e-147
1.27961002476e-147
1.92751383477e-147
1.57211953899e-147
1.71408669736e-147
2.14761057023e-147
2.0675753937e-147
1.92941943421e-147
2.12379057721e-147
2.48680727076e-147
2.86030476123e-147
4.13896198628e-147
3.78166209105e-147
4.62298424434e-147
4.32094673291e-147
4.36953951866e-147
5.18227768033e-147
5.47859839344e-147
5.35949842836e-147
5.62723514985e-147
6.59337406654e-147
7.32417145223e-147
6.6886540386e-147
7.94634966978e-147
7.03166193801e-147
5.00124573342e-147
1.27961002476e-147
1.92751383477e-147
1.57211953899e-147
1.71408669736e-147
2.14761057023e-147
2.0675753937e-147
1.92941943421e-147
2.12379057721e-147
2.48680727076e-147
2.86030476123e-147
4.13896198628e-147
3.78166209105e-147
4.62298424434e-147
4.32094673291e-147
4.36953951866e-147
5.18227768033e-147
5.47859839344e-147
5.35949842836e-147
5.62723514985e-147
6.59337406654e-147
7.32417145223e-147
6.6886540386e-147
7.94634966978e-147
7.03166193801e-147
5.00124573342e-147
1.27961002476e-147
1.92751383477e-147
1.57211953899e-147
1.71408669736e-147
2.14761057023e-147
2.0675753937e-147
1.92941943421e-147
2.12379057721e-147
2.48680727076e-147
2.86030476123e-147
4.13896198628e-147
3.78166209105e-147
4.62298424434e-147
4.32094673291e-147
4.36953951866e-147
5.18227768033e-147
5.47859839344e-147
5.35949842836e-147
5.62723514985e-147
6.59337406654e-147
7.32417145223e-147
6.6886540386e-147
7.94634966978e-147
7.03166193801e-147
5.00124573342e-147
1.27961002476e-147
1.92751383477e-147
1.57211953899e-147
1.71408669736e-147
2.14761057023e-147
2.0675753937e-147
1.92941943421e-147
2.12379057721e-147
2.48680727076e-147
2.86030476123e-147
4.13896198628e-147
3.78166209105e-147
4.62298424434e-147
4.32094673291e-147
4.36953951866e-147
5.18227768033e-147
5.47859839344e-147
5.35949842836e-147
5.62723514985e-147
6.59337406654e-147
7.32417145223e-147
6.6886540386e-147
7.94634966978e-147
7.03166193801e-147
5.00124573342e-147
1.27961002476e-147
1.92751383477e-147
1.57211953899e-147
1.71408669736e-147
2.14761057023e-147
2.0675753937e-147
1.92941943421e-147
2.12379057721e-147
2.48680727076e-147
2.86030476123e-147
4.13896198628e-147
3.78166209105e-147
4.62298424434e-147
4.32094673291e-147
4.36953951866e-147
5.18227768033e-147
5.47859839344e-147
5.35949842836e-147
5.62723514985e-147
6.59337406654e-147
7.32417145223e-147
6.6886540386e-147
7.94634966978e-147
7.03166193801e-147
5.00124573342e-147
1.27961002476e-147
1.92751383477e-147
1.57211953899e-147
1.71408669736e-147
2.14761057023e-147
2.0675753937e-147
1.92941943421e-147
2.12379057721e-147
2.48680727076e-147
2.86030476123e-147
4.13896198628e-147
3.78166209105e-147
4.62298424434e-147
4.32094673291e-147
4.36953951866e-147
5.18227768033e-147
5.47859839344e-147
5.35949842836e-147
5.62723514985e-147
6.59337406654e-147
7.32417145223e-147
6.6886540386e-147
7.94634966978e-147
7.03166193801e-147
5.00124573342e-147
1.27961002476e-147
1.92751383477e-147
1.57211953899e-147
1.71408669736e-147
2.14761057023e-147
2.0675753937e-147
1.92941943421e-147
2.12379057721e-147
2.48680727076e-147
2.86030476123e-147
4.13896198628e-147
3.78166209105e-147
4.62298424434e-147
4.32094673291e-147
4.36953951866e-147
5.18227768033e-147
5.47859839344e-147
5.35949842836e-147
5.62723514985e-147
6.59337406654e-147
7.32417145223e-147
6.6886540386e-147
7.94634966978e-147
7.03166193801e-147
5.00124573342e-147
1.27961002476e-147
1.92751383477e-147
1.57211953899e-147
1.71408669736e-147
2.14761057023e-147
2.0675753937e-147
1.92941943421e-147
2.12379057721e-147
2.48680727076e-147
2.86030476123e-147
4.13896198628e-147
3.78166209105e-147
4.62298424434e-147
4.32094673291e-147
4.36953951866e-147
5.18227768033e-147
5.47859839344e-147
5.35949842836e-147
5.62723514985e-147
6.59337406654e-147
7.32417145223e-147
6.6886540386e-147
7.94634966978e-147
7.03166193801e-147
5.00124573342e-147
1.27961002476e-147
1.92751383477e-147
1.57211953899e-147
1.71408669736e-147
2.14761057023e-147
2.0675753937e-147
1.92941943421e-147
2.12379057721e-147
2.48680727076e-147
2.86030476123e-147
4.13896198628e-147
3.78166209105e-147
4.62298424434e-147
4.32094673291e-147
4.36953951866e-147
5.18227768033e-147
5.47859839344e-147
5.35949842836e-147
5.62723514985e-147
6.59337406654e-147
7.32417145223e-147
6.6886540386e-147
7.94634966978e-147
7.03166193801e-147
5.00124573342e-147
1.27961002476e-147
1.92751383477e-147
1.57211953899e-147
1.71408669736e-147
2.14761057023e-147
2.0675753937e-147
1.92941943421e-147
2.12379057721e-147
2.48680727076e-147
2.86030476123e-147
4.13896198628e-147
3.78166209105e-147
4.62298424434e-147
4.32094673291e-147
4.36953951866e-147
5.18227768033e-147
5.47859839344e-147
5.35949842836e-147
5.62723514985e-147
6.59337406654e-147
7.32417145223e-147
6.6886540386e-147
7.94634966978e-147
7.03166193801e-147
5.00124573342e-147
1.27961002476e-147
1.92751383477e-147
1.57211953899e-147
1.71408669736e-147
2.14761057023e-147
2.0675753937e-147
1.92941943421e-147
2.12379057721e-147
2.48680727076e-147
2.86030476123e-147
4.13896198628e-147
3.78166209105e-147
4.62298424434e-147
4.32094673291e-147
4.36953951866e-147
5.18227768033e-147
5.47859839344e-147
5.35949842836e-147
5.62723514985e-147
6.59337406654e-147
7.32417145223e-147
6.6886540386e-147
7.94634966978e-147
7.03166193801e-147
5.00124573342e-147
1.27961002476e-147
1.92751383477e-147
1.57211953899e-147
1.71408669736e-147
2.14761057023e-147
2.0675753937e-147
1.92941943421e-147
2.12379057721e-147
2.48680727076e-147
2.86030476123e-147
4.13896198628e-147
3.78166209105e-147
4.62298424434e-147
4.32094673291e-147
4.36953951866e-147
5.18227768033e-147
5.47859839344e-147
5.35949842836e-147
5.62723514985e-147
6.59337406654e-147
7.32417145223e-147
6.6886540386e-147
7.94634966978e-147
7.03166193801e-147
5.00124573342e-147
1.27961002476e-147
1.92751383477e-147
1.57211953899e-147
1.71408669736e-147
2.14761057023e-147
2.0675753937e-147
1.92941943421e-147
2.12379057721e-147
2.48680727076e-147
2.86030476123e-147
4.13896198628e-147
3.78166209105e-147
4.62298424434e-147
4.32094673291e-147
4.36953951866e-147
5.18227768033e-147
5.47859839344e-147
5.35949842836e-147
5.62723514985e-147
6.59337406654e-147
7.32417145223e-147
6.6886540386e-147
7.94634966978e-147
7.03166193801e-147
5.00124573342e-147
1.27961002476e-147
1.92751383477e-147
1.57211953899e-147
1.71408669736e-147
2.14761057023e-147
2.0675753937e-147
1.92941943421e-147
2.12379057721e-147
2.48680727076e-147
2.86030476123e-147
4.13896198628e-147
3.78166209105e-147
4.62298424434e-147
4.32094673291e-147
4.36953951866e-147
5.18227768033e-147
5.47859839344e-147
5.35949842836e-147
5.62723514985e-147
6.59337406654e-147
7.32417145223e-147
6.6886540386e-147
7.94634966978e-147
7.03166193801e-147
5.00124573342e-147
1.27961002476e-147
1.92751383477e-147
1.57211953899e-147
1.71408669736e-147
2.14761057023e-147
2.0675753937e-147
1.92941943421e-147
2.12379057721e-147
2.48680727076e-147
2.86030476123e-147
4.13896198628e-147
3.78166209105e-147
4.62298424434e-147
4.32094673291e-147
4.36953951866e-147
5.18227768033e-147
5.47859839344e-147
5.35949842836e-147
5.62723514985e-147
6.59337406654e-147
7.32417145223e-147
6.6886540386e-147
7.94634966978e-147
7.03166193801e-147
5.00124573342e-147
1.27961002476e-147
1.92751383477e-147
1.57211953899e-147
1.71408669736e-147
2.14761057023e-147
2.0675753937e-147
1.92941943421e-147
2.12379057721e-147
2.48680727076e-147
2.86030476123e-147
4.13896198628e-147
3.78166209105e-147
4.62298424434e-147
4.32094673291e-147
4.36953951866e-147
5.18227768033e-147
5.47859839344e-147
5.35949842836e-147
5.62723514985e-147
6.59337406654e-147
7.32417145223e-147
6.6886540386e-147
7.94634966978e-147
7.03166193801e-147
5.00124573342e-147
1.27961002476e-147
1.92751383477e-147
1.57211953899e-147
1.71408669736e-147
2.14761057023e-147
2.0675753937e-147
1.92941943421e-147
2.12379057721e-147
2.48680727076e-147
2.86030476123e-147
4.13896198628e-147
3.78166209105e-147
0
