25
7
1.0
3
rectangle
52
120
36
63
36.4005494464
0.0
0.0
0.0
0.0
0.0
0.0
0.0
0.0
0.0322580645161
0.10752688172
0.0645161290323
0.0430107526882
0.0430107526882
0.0430107526882
0.0430107526882
0.0430107526882
0.0430107526882
0.0215053763441
0.0430107526882
0.0430107526882
0.0215053763441
0.0430107526882
0.0806451612903
0.198924731183
0.0752688172043
0.174917755181
0.0483870967742
0.0430107526882
0.0645161290323
0.0967741935484
0.0645161290323
0.0430107526882
0.0322580645161
0.0215053763441
0.0215053763441
0.0215053763441
0.0215053763441
0.0215053763441
0.00537634408602
0.010752688172
0.010752688172
0.010752688172
0.010752688172
0.010752688172
0.0161290322581
0.0215053763441
0.0322580645161
0.0483870967742
0.0268817204301
0.0215053763441
0.0215053763441
7
rectangle
52
120
147
174
36.4005494464
0.0
0.0
0.0
0.0
0.0
0.0
0.0
0.0
0.0322580645161
0.10752688172
0.0645161290323
0.0430107526882
0.0430107526882
0.0430107526882
0.0430107526882
0.0430107526882
0.0430107526882
0.0215053763441
0.0430107526882
0.0430107526882
0.0215053763441
0.0430107526882
0.0806451612903
0.198924731183
0.0752688172043
0.174917755181
0.0483870967742
0.0430107526882
0.0645161290323
0.0967741935484
0.0645161290323
0.0430107526882
0.0322580645161
0.0215053763441
0.0215053763441
0.0215053763441
0.0215053763441
0.0215053763441
0.00537634408602
0.010752688172
0.010752688172
0.010752688172
0.010752688172
0.010752688172
0.0161290322581
0.0215053763441
0.0322580645161
0.0483870967742
0.0268817204301
0.0215053763441
0.0215053763441
2
rectangle
52
120
8
35
36.4005494464
0.0
0.0
0.0
0.0
0.0
0.0
0.0
0.0
0.0322580645161
0.10752688172
0.0645161290323
0.0430107526882
0.0430107526882
0.0430107526882
0.0430107526882
0.0430107526882
0.0430107526882
0.0215053763441
0.0430107526882
0.0430107526882
0.0215053763441
0.0430107526882
0.0806451612903
0.198924731183
0.0752688172043
0.174917755181
0.0483870967742
0.0430107526882
0.0645161290323
0.0967741935484
0.0645161290323
0.0430107526882
0.0322580645161
0.0215053763441
0.0215053763441
0.0215053763441
0.0215053763441
0.0215053763441
0.00537634408602
0.010752688172
0.010752688172
0.010752688172
0.010752688172
0.010752688172
0.0161290322581
0.0215053763441
0.0322580645161
0.0483870967742
0.0268817204301
0.0215053763441
0.0215053763441
4
rectangle
52
120
64
91
36.4005494464
0.0
0.0
0.0
0.0
0.0
0.0
0.0
0.0
0.0322580645161
0.10752688172
0.0645161290323
0.0430107526882
0.0430107526882
0.0430107526882
0.0430107526882
0.0430107526882
0.0430107526882
0.0215053763441
0.0430107526882
0.0430107526882
0.0215053763441
0.0430107526882
0.0806451612903
0.198924731183
0.0752688172043
0.174917755181
0.0483870967742
0.0430107526882
0.0645161290323
0.0967741935484
0.0645161290323
0.0430107526882
0.0322580645161
0.0215053763441
0.0215053763441
0.0215053763441
0.0215053763441
0.0215053763441
0.00537634408602
0.010752688172
0.010752688172
0.010752688172
0.010752688172
0.010752688172
0.0161290322581
0.0215053763441
0.0322580645161
0.0483870967742
0.0268817204301
0.0215053763441
0.0215053763441
8
rectangle
52
120
175
202
36.4005494464
0.0
0.0
0.0
0.0
0.0
0.0
0.0
0.0
0.0322580645161
0.10752688172
0.0645161290323
0.0430107526882
0.0430107526882
0.0430107526882
0.0430107526882
0.0430107526882
0.0430107526882
0.0215053763441
0.0430107526882
0.0430107526882
0.0215053763441
0.0430107526882
0.0806451612903
0.198924731183
0.0752688172043
0.174917755181
0.0483870967742
0.0430107526882
0.0645161290323
0.0967741935484
0.0645161290323
0.0430107526882
0.0322580645161
0.0215053763441
0.0215053763441
0.0215053763441
0.0215053763441
0.0215053763441
0.00537634408602
0.010752688172
0.010752688172
0.010752688172
0.010752688172
0.010752688172
0.0161290322581
0.0215053763441
0.0322580645161
0.0483870967742
0.0268817204301
0.0215053763441
0.0215053763441
6
rectangle
52
120
120
146
36.4005494464
0.0
0.0
0.0
0.0
0.0
0.0
0.0
0.0
0.0760869565217
0.0869565217391
0.054347826087
0.0434782608696
0.0434782608696
0.0434782608696
0.0434782608696
0.0326086956522
0.0434782608696
0.0326086956522
0.0326086956522
0.0434782608696
0.0326086956522
0.0326086956522
0.0923913043478
0.190217391304
0.070652173913
0.169680696642
0.0489130434783
0.0434782608696
0.070652173913
0.0978260869565
0.0597826086957
0.0434782608696
0.0326086956522
0.0217391304348
0.0217391304348
0.0217391304348
0.0163043478261
0.0217391304348
0.0054347826087
0.0108695652174
0.0054347826087
0.0108695652174
0.0108695652174
0.0108695652174
0.0163043478261
0.0217391304348
0.0271739130435
0.0489130434783
0.0326086956522
0.0217391304348
0.0217391304348
5
rectangle
52
120
92
119
36.4005494464
0.0
0.0
0.0
0.0
0.0
0.0
0.0
0.0
0.0322580645161
0.10752688172
0.0645161290323
0.0430107526882
0.0430107526882
0.0430107526882
0.0430107526882
0.0430107526882
0.0430107526882
0.0215053763441
0.0430107526882
0.0430107526882
0.0215053763441
0.0430107526882
0.0806451612903
0.198924731183
0.0752688172043
0.174917755181
0.0483870967742
0.0430107526882
0.0645161290323
0.0967741935484
0.0645161290323
0.0430107526882
0.0322580645161
0.0215053763441
0.0215053763441
0.0215053763441
0.0215053763441
0.0215053763441
0.00537634408602
0.010752688172
0.010752688172
0.010752688172
0.010752688172
0.010752688172
0.0161290322581
0.0215053763441
0.0322580645161
0.0483870967742
0.0268817204301
0.0215053763441
0.0215053763441
7
2
3
1
1
1.0
floor
3
4
1
1
1.0
floor
7
8
1
1
1.0
touch
6
7
1
1
0.961538461538
touch
4
5
1
1
1.0
touch
5
6
1
1
0.961538461538
touch
2
4
1
1
1.0
floor
