dn : [4321,3071] : [4253,3036,4390,3106] : confidence,dict,original_word,difference : [89,DM,None,0]
bar : [1205,3291] : [1101,3256,1309,3326] : confidence,dict,original_word,difference : [80,DM,None,0]
opentobelow : [3698,4400] : [3533,4244,3864,4556] : confidence,dict,original_word,difference : [83,DM,None,0]
No Text Detected
