Opt  Extended : [605,50] : [550,44,660,56] : 73
Covered Paiia : [720,50] : [666,44,775,57] : 76
[/7DW : [581,213] : [558,208,604,218] : 77
DW : [836,213] : [825,208,847,219] : 75
OWNER'S : [270,244] : [189,231,351,257] : 91
SUITE : [270,277] : [221,264,320,290] : 80
Opt  Raised : [993,267] : [929,258,1057,277] : 80
Ceiling : [1100,270] : [1064,258,1137,282] : 83
Op! : [46,292] : [33,284,59,300] : 84
XCeiling : [313,321] : [265,302,361,341] : 85
Opt  Tray : [231,329] : [182,318,281,341] : 81
GREATROOM : [684,411] : [580,400,789,423] : 90
1T: : [992,409] : [963,394,1021,425] : 61
Opt  Raised : [645,456] : [582,447,709,465] : 83
Ceiling : [753,458] : [717,447,789,470] : 83
a : [999,466] : [985,453,1014,479] : 65
op : [1131,501] : [1110,486,1152,516] : 61
oo : [1131,528] : [1110,519,1152,537] : 88
V : [134,590] : [108,569,160,612] : 74
'OWNER'S : [227,625] : [165,616,290,634] : 92
p  : [923,619] : [911,610,936,629] : 86
aise : [985,617] : [964,610,1007,625] : 83
eimg : [1074,620] : [1047,611,1102,630] : 85
BATH : [233,646] : [203,637,264,655] : 77
iOpi H : [479,712] : [446,700,513,725] : 71
IW : [464,733] : [446,728,482,738] : 86
WALK IN CLOSET : [233,754] : [198,738,268,770] : 82
LAUN : [406,757] : [375,748,438,766] : 83
FAMILY FOYER : [1072,796] : [1031,776,1114,816] : 89
O : [483,921] : [465,906,502,936] : 78
BATH : [440,946] : [409,938,471,955] : 85
BEDROOM 2 : [246,964] : [153,953,339,976] : 89
op; : [1131,973] : [1110,959,1153,987] : 61
poo; : [1125,990] : [1106,981,1145,1000] : 68
3:: : [1411,1016] : [1397,1004,1425,1029] : 61
FOYER : [602,1058] : [561,1049,643,1067] : 89
GARAGE : [928,1114] : [861,1102,996,1126] : 83
WIC : [143,1177] : [126,1171,160,1184] : 84
PORCH : [599,1227] : [557,1218,641,1236] : 80
BEDROOM 3 : [369,1265] : [276,1254,462,1277] : 88
iWIc : [152,1314] : [122,1304,183,1325] : 75
Opi 4' : [852,1444] : [827,1438,878,1451] : 80
Front Garage : [934,1446] : [883,1438,985,1455] : 70
Ext  : [1004,1444] : [991,1438,1018,1451] : 69
,95,, : [563,203] : [543,189,584,218] : 44
18 : [647,190] : [636,181,659,199] : 89
10,,9,,,11,,4,,, : [1035,250] : [960,238,1111,262] : 75
14,,1, : [227,306] : [198,297,256,315] : 89
14,6, : [315,306] : [286,297,344,315] : 69
18,,16,,4,,, : [695,438] : [627,427,763,450] : 73
15,, : [479,780] : [446,766,513,795] : 41
12,,12, : [246,989] : [203,980,290,998] : 84
,31, : [1250,1090] : [1235,1077,1265,1104] : 59
19,6, : [885,1139] : [855,1130,915,1148] : 62
1958, : [973,1139] : [943,1130,1003,1148] : 48
52, : [1248,1170] : [1232,1155,1265,1185] : 51
12,,12, : [369,1290] : [326,1282,412,1299] : 86
Lmen : [113,509] : [107,529,119,489] : 83
OpLFrIepa : [509,420] : [501,465,518,376] : 69
xg : [676,177] : [661,196,692,158] : 61
O : [920,848] : [903,866,938,831] : 81
Ill : [954,653] : [951,669,958,637] : 83
:0_l : [962,598] : [947,621,978,576] : 69
U : [988,219] : [979,231,998,208] : 76
Q: or" : [1024,599] : [1003,622,1046,576] : 66
Iz : [1058,592] : [1046,608,1071,576] : 81
Opt  : [1240,1204] : [1232,1219,1249,1189] : 67
ideGa : [1239,1127] : [1232,1152,1246,1102] : 81
'2:::x; : [1261,1254] : [1254,1323,1268,1185] : 66
,95,, : [563,203] : [543,189,584,218] : 44
18 : [647,190] : [636,181,659,199] : 89
10,,9,,,11,,4,,, : [1035,250] : [960,238,1111,262] : 75
14,,1, : [227,306] : [198,297,256,315] : 89
14,6, : [315,306] : [286,297,344,315] : 69
18,,16,,4,,, : [695,438] : [627,427,763,450] : 73
15,, : [479,780] : [446,766,513,795] : 41
12,,12, : [246,989] : [203,980,290,998] : 84
,31, : [1250,1090] : [1235,1077,1265,1104] : 59
19,6, : [885,1139] : [855,1130,915,1148] : 62
1958, : [973,1139] : [943,1130,1003,1148] : 48
52, : [1248,1170] : [1232,1155,1265,1185] : 51
12,,12, : [369,1290] : [326,1282,412,1299] : 86
031,, : [1316,703] : [1297,692,1335,714] : 62
3,0 : [1244,1202] : [1229,1195,1259,1210] : 73
,22, : [366,1260] : [342,1256,391,1265] : 67
No Text Detected
