25
2
3.09663064209
2
unknown
32
270
17
255
148.922798792
0.0
0.0
0.0
0.0
0.0
0.0
0.0
0.0
0.0
0.0
0.0
0.0
0.0
0.0
0.0193236714976
0.0517598343685
0.0814354727398
0.0835058661146
0.168391994479
0.138026224983
0.117322291235
0.153899240856
0.0841959972395
0.0420979986197
0.0593512767426
0.0302363463175
0.040027605245
0.0407177363699
0.0386473429952
0.0379572118703
0.0386473429952
0.031746031746
0.0358868184955
0.0379572118703
0.0379572118703
0.0351966873706
0.0365769496204
0.0386473429952
0.0276052449965
0.0207039337474
0.0213940648723
0.0234644582471
0.024154589372
0.0220841959972
0.0186335403727
0.0255348516218
0.024154589372
0.0220841959972
0.0193236714976
0.0186335403727
0.0172532781228
3
unknown
52
251
36
235
129.073622402
0.0
0.0
0.0
0.0
0.0
0.0
0.0
0.0
0.0
0.000107486429838
0.000340373694488
0.00023288726465
0.00017914404973
0.000161229644757
0.000161229644757
0.000447860124326
0.000770319413841
0.000609089769083
0.00261550312606
0.00170186847244
0.00261550312606
0.00164812525752
0.00157646763763
0.00137940918292
0.00114652191827
0.0
0.0
0.0
0.0
0.0
0.0
0.0
0.0
0.0
0.000107486429838
0.000340373694488
0.00023288726465
0.00017914404973
0.000161229644757
0.000161229644757
0.000447860124326
0.000770319413841
0.000609089769083
0.00261550312606
0.00170186847244
0.00261550312606
0.00164812525752
0.00157646763763
0.00137940918292
0.00114652191827
0.133589687192
0.000537432149191
0.000483688934272
0.000501603339245
0.000501603339245
0.000483688934272
0.000429945719353
0.000429945719353
0.000537432149191
0.000465774529299
0.000501603339245
0.000429945719353
0.000519517744218
0.000340373694488
0.000268716074596
0.000268716074596
0.000304544884542
0.000322459289515
0.000304544884542
0.000250801669623
0.000322459289515
0.000322459289515
0.000268716074596
0.000268716074596
0.000250801669623
0.000214972859676
0.000537432149191
0.000483688934272
0.000501603339245
0.000501603339245
0.000483688934272
0.000429945719353
0.000429945719353
0.000537432149191
0.000465774529299
0.000501603339245
0.000429945719353
0.000519517744218
0.000340373694488
0.000268716074596
0.000268716074596
0.000304544884542
0.000322459289515
0.000304544884542
0.000250801669623
0.000322459289515
0.000322459289515
0.000268716074596
0.000268716074596
0.000250801669623
0.000214972859676
1
2
3
1
1
0.398199690236
floor
