DINING ROOM : [455,404] : [400,377,510,431] : 91
COVERED PATIO : [958,404] : [907,381,1010,428] : 83
EMASTER : [1747,388] : [1680,374,1814,402] : 67
BATH : [1766,415] : [1736,407,1796,423] : 86
IWALK IN CLOSET : [1562,451] : [1511,428,1614,474] : 79
H I : [477,675] : [451,659,504,691] : 82
IH : [477,711] : [451,697,504,726] : 75
H I : [477,745] : [451,729,504,761] : 83
GREAT ROOM : [975,752] : [920,726,1031,779] : 87
MASTER BEDROOM : [2294,756] : [2218,729,2370,783] : 84
BEDROOM 2 : [1648,800] : [1553,789,1744,811] : 89
KITCHEN : [468,850] : [393,839,543,862] : 90
I : [354,913] : [343,906,365,920] : 71
BATH : [1982,914] : [1926,893,2038,936] : 82
PANTRY : [526,941] : [494,936,558,947] : 80
STORAGE : [588,1016] : [542,1009,634,1023] : 87
0@ : [764,1010] : [734,982,795,1039] : 67
UP : [967,1024] : [951,1016,984,1033] : 80
STORAGE : [1213,1122] : [1167,1116,1259,1129] : 84
BONUS ROOM : [1670,1133] : [1618,1104,1723,1163] : 87
OPENTO BELOW : [2343,1128] : [2291,1107,2395,1150] : 81
CAR : [517,1279] : [483,1268,551,1291] : 93
DN : [2365,1240] : [2347,1231,2383,1249] : 79
BATH 3 : [1125,1289] : [1071,1278,1180,1300] : 90
LAUNDR\I : [1932,1336] : [1885,1322,1979,1351] : 66
ENTRY : [870,1380] : [827,1371,914,1389] : 84
m'INK : [1932,1403] : [1914,1389,1951,1418] : 76
BEDROOM 3 : [1670,1466] : [1575,1455,1765,1477] : 89
BEDROOM 4 : [1127,1565] : [1032,1554,1223,1576] : 93
COVERED PORCH : [1032,1779] : [976,1756,1088,1803] : 86
FIRST FLOOR : [728,1934] : [621,1923,835,1945] : 91
SECOND FLOOR : [2003,1934] : [1877,1923,2130,1945] : 91
,31, : [1977,598] : [1954,584,2001,613] : 45
00 : [268,716] : [250,708,286,725] : 69
911,, : [1959,1460] : [1904,1452,2015,1469] : 58
on  mmawn CABINETS : [273,971] : [254,994,293,949] : 71
on  LOWER : [265,400] : [253,420,277,380] : 73
L:L : [444,632] : [436,663,452,601] : 76
N : [463,1277] : [456,1288,470,1266] : 74
l_ : [479,937] : [473,956,485,918] : 96
C: : [1156,1224] : [1136,1249,1177,1200] : 66
O) : [1944,991] : [1926,1012,1963,970] : 67
or : [1966,1553] : [1959,1569,1974,1537] : 61
_ I : [1978,1244] : [1972,1264,1984,1224] : 70
EE' : [1969,675] : [1963,693,1975,658] : 72
II : [1983,1291] : [1972,1305,1995,1277] : 67
m : [2210,769] : [2202,780,2218,759] : 65
NENII : [2235,1107] : [2228,1137,2242,1077] : 63
,31, : [1977,598] : [1954,584,2001,613] : 45
00 : [268,716] : [250,708,286,725] : 69
911,, : [1959,1460] : [1904,1452,2015,1469] : 58
,43 : [1192,427] : [1169,405,1216,449] : 54
,42 : [1248,1894] : [1232,1887,1264,1902] : 57
1,10 : [884,2029] : [865,2023,903,2036] : 63
,01 : [1020,2257] : [997,2250,1043,2264] : 77
No Text Detected
