walkincloset : [658,96] : [618,66,698,127] : confidence,dict,original_word,difference : [88,DM,None,0]
masterbedroom : [271,166] : [213,137,330,196] : confidence,dict,original_word,difference : [79,DM,None,0]
bedroom 1 : [1083,160] : [1016,149,1151,172] : confidence,dict,original_word,difference : [89,DM,None,0]
bath : [221,533] : [193,522,249,545] : confidence,dict,original_word,difference : [89,DM,None,0]
shower : [94,724] : [46,713,143,736] : confidence,dict,original_word,difference : [88,DM,None,0]
laundry : [785,760] : [732,745,838,775] : confidence,dict,original_word,difference : [90,DM,None,0]
bedroom : [203,962] : [134,951,273,974] : confidence,dict,original_word,difference : [89,DM,None,0]
cl : [1238,1460] : [1222,1447,1254,1474] : confidence,dict,original_word,difference : [61,SG,cd,1]
No Text Detected
