pantry : [1130,129] : [1106,121,1155,138] : confidence,dict,original_word,difference : [68,DM,None,0]
nook : [838,208] : [802,199,874,217] : confidence,dict,original_word,difference : [90,DM,None,0]
wic : [1255,232] : [1238,226,1272,239] : confidence,dict,original_word,difference : [88,DM,None,0]
up : [612,278] : [602,270,623,286] : confidence,dict,original_word,difference : [71,DM,None,0]
greatroom : [331,324] : [249,315,414,333] : confidence,dict,original_word,difference : [87,DM,None,0]
kitchen : [848,457] : [795,448,902,467] : confidence,dict,original_word,difference : [86,DM,None,0]
den : [1198,508] : [1174,499,1222,517] : confidence,dict,original_word,difference : [85,DM,None,0]
cargarage : [976,901] : [894,892,1058,910] : confidence,dict,original_word,difference : [84,DM,None,0]
coveredporch : [489,1097] : [447,1080,531,1115] : confidence,dict,original_word,difference : [85,DM,None,0]
No Text Detected
