Opl  Vl/meWS : [382,85] : [328,79,437,92] : 72
Pantry : [1130,129] : [1106,121,1155,138] : 68
NOOK : [838,208] : [802,199,874,217] : 90
WIC : [1255,232] : [1238,226,1272,239] : 88
UP : [612,278] : [602,270,623,286] : 71
GREAT ROOM : [331,324] : [249,315,414,333] : 87
om Island : [857,385] : [815,379,900,392] : 72
KITCHEN : [848,457] : [795,448,902,467] : 86
OO : [910,503] : [886,495,935,512] : 88
DEN : [1198,508] : [1174,499,1222,517] : 85
[:1 : [134,562] : [113,553,156,572] : 65
(Q) : [190,576] : [167,559,214,593] : 68
L: 1 : [1020,630] : [1006,618,1035,642] : 68
mm : [147,649] : [116,642,179,657] : 62
DININGx : [232,862] : [209,843,255,882] : 88
2STORY FYER : [485,882] : [447,865,524,900] : 79
CAR GARAGE : [976,901] : [894,892,1058,910] : 84
COVERED PORCH : [489,1097] : [447,1080,531,1115] : 85
15,,10,,9,,1, : [837,230] : [774,222,901,238] : 82
19,,2,,17,,9, : [332,346] : [269,339,396,354] : 66
12,,14,,4, : [1198,529] : [1148,522,1249,537] : 80
353, : [1311,789] : [1292,774,1330,804] : 57
12,1, : [212,874] : [187,867,238,882] : 71
14,,8, : [289,874] : [263,867,315,882] : 65
31,,5,,20, : [966,923] : [915,915,1017,931] : 83
15,,10,,9,,1, : [837,230] : [774,222,901,238] : 82
19,,2,,17,,9, : [332,346] : [269,339,396,354] : 66
12,,14,,4, : [1198,529] : [1148,522,1249,537] : 80
353, : [1311,789] : [1292,774,1330,804] : 57
12,1, : [212,874] : [187,867,238,882] : 71
14,,8, : [289,874] : [263,867,315,882] : 65
31,,5,,20, : [966,923] : [915,915,1017,931] : 83
,01, : [223,58] : [209,49,238,67] : 41
11, : [1088,343] : [1074,330,1103,356] : 41
No Text Detected
