ac : [456.021353747,276.557436082] : [446.514907333,271.948145481,465.815874295,281.166726683] : [91] : match
cl : [683.023771152,383.147281239] : [678.414585012,380.554555275,687.632957293,385.740007202] : [18] : match
bed : [467.256244964,388.620813828] : [450.547945205,384.299603889,483.964544722,392.942023767] : [95] : match
pdr : [91.0314262691,417.716960749] : [77.4919419823,413.39575081,104.570910556,422.038170688] : [75] : match
entry : [197.906929895,532.084983795] : [178.605962933,527.763773857,217.207896857,536.406193734] : [72] : match
bed 1 : [649.607171636,583.363341736] : [633.763094279,579.042131797,665.451248993,587.972632337] : [80] : match
porch : [195.890410959,619.949585884] : [175.437147462,615.628375945,216.63174859,624.558876485] : [86] : match
0 : [103.994762288,210.298883687] : [99.673650282,206.553835074,108.603948429,214.332012964] : [84] : none
4750x5840 : [228.730862208,224.126755492] : [205.396857373,220.669787541,252.064867043,227.583723443] : [91] : none
2 : [103.994762288,235.07382067] : [99.9617244158,231.616852719,108.315874295,238.818869283] : [80] : none
"P : [105.147058824,305.077421678] : [92.471796938,300.756211739,118.110394843,309.398631617] : [61] : none
, , : [447.379129734,318.329132157] : [438.448831587,316.888728844,456.597502015,319.76953547] : [70] : none
' n : [556.55922643,406.193734246] : [551.373892023,405.61757292,561.744560838,406.769895571] : [61] : none
:1"::;" : [619.071313457,418.581202737] : [613.021756648,414.548073461,625.4089444,422.614332013] : [70] : none
I: : [33.4165995165,596.038890889] : [28.8074133763,592.293842276,38.3138597905,600.072020166] : [79] : none
4500x3710 : [650.183319903,596.326971552] : [626.849315068,592.581922938,673.805398872,600.072020166] : [82] : none
bedmn : [481.948025786,200.50414116] : [462.35898469,190.133237306,501.825141015,210.875045013] : [70] : none
famhavmeals : [229.018936342,211.451206338] : [185.519742143,206.841915736,272.51813054,216.060496939] : [53] : none
lhsurex : [592.568493151,215.196254951] : [568.946414182,204.825351098,616.478646253,225.855239467] : [79] : none
bathj : [487.133360193,313.719841556] : [466.96817083,308.822470292,507.298549557,318.905293482] : [66] : none
bedxi : [652.19983884,331.004681311] : [632.610797744,320.633777458,672.076954069,341.375585164] : [86] : none
theatre : [272.51813054,340.511343176] : [245.7272361,336.190133237,299.597099114,344.832553115] : [84] : none
iflon : [84.6937953263,381.706877926] : [70.578162772,371.04789341,98.8094278807,392.365862441] : [30] : none
vlii : [85.2699435939,399.855959669] : [78.0680902498,395.246669067,92.471796938,404.753330933] : [45] : none
ix : [176.877518131,430.680590565] : [169.675664786,423.766654663,184.367445608,437.594526467] : [43] : none
ensure : [658.537469782,427.511703277] : [634.051168413,422.902412676,683.023771152,432.120993878] : [72] : none
ubraryxi : [276.839242546,459.488656824] : [252.929089444,449.117752971,300.749395649,469.859560677] : [84] : none
garagex : [93.3360193392,516.528628016] : [69.4258662369,506.157724163,117.246172442,526.899531869] : [83] : none
retreatxi : [570.098710717,543.608210299] : [545.324335214,533.237306446,594.873086221,553.979114152] : [83] : none
loungexi : [282.888799355,572.416276557] : [259.266720387,562.045372704,306.798952458,582.787180411] : [84] : none
l_- : [441.041498791,91.8977313648] : [436.720386785,87.8646020886,445.362610798,96.2189413036] : [65] : none
.< : [441.329572925,117.824990997] : [437.008460919,114.079942384,445.650684932,121.858120274] : [85] : none
o : [447.667203868,267.626935542] : [444.210314263,265.322290241,451.124093473,269.931580843] : [88] : none
N : [447.667203868,282.895210659] : [444.498388396,280.878646021,451.124093473,285.19985596] : [75] : none
o : [447.667203868,288.368743248] : [444.210314263,286.064097947,451.124093473,290.673388549] : [72] : none
o : [447.667203868,293.842275837] : [444.210314263,291.537630537,451.124093473,296.146921138] : [87] : none
W : [399.558823529,471.876125315] : [396.101933924,469.571480014,403.015713135,474.468851278] : [65] : none
o : [399.558823529,477.349657904] : [396.101933924,475.045012604,403.015713135,479.654303205] : [73] : none
o : [399.558823529,488.00864242] : [396.101933924,485.703997119,403.015713135,490.313287721] : [75] : none
_ : [461.494762288,487.720561757] : [456.885576148,487.432481095,466.103948429,488.296723082] : [93] : none
_' : [263.011684126,596.903132877] : [258.690572119,595.174648902,267.620870266,598.631616853] : [62] : none
____________ : [449.683722804,594.886568239] : [427.213940371,594.598487577,472.441579371,595.174648902] : [83] : none
ij : [566.353746978,76.3413755852] : [549.64544722,73.7486496219,583.062046737,79.222182211] : [64] : none
eihim : [591.128122482,103.997119193] : [570.098710717,99.9639899172,612.157534247,108.318329132] : [74] : none
him : [355.483481064,622.254231185] : [345.112812248,619.373424559,365.854149879,625.423118473] : [29] : none
