pdr : [293.472,89.856] : [271.584,83.808,315.36,95.904] : [91] : match
ldy : [225.504,239.616] : [210.528,228.96,240.48,250.272] : [34] : match
greatroom : [410.688,237.888] : [328.032,230.112,493.344,245.952] : [82] : match
pan : [76.032,342.144] : [60.192,337.536,91.872,346.752] : [89] : match
dining : [168.768,401.472] : [122.976,393.984,214.848,409.248] : [86] : match
office : [351.648,514.08] : [307.584,506.304,395.712,521.856] : [80] : match
O : [146.016,139.968] : [141.696,135.648,150.624,144.576] : [90] : none
micro : [86.976,244.224] : [61.056,239.616,113.184,248.832] : [91] : none
rec : [167.04,265.536] : [151.488,260.928,182.88,270.144] : [89] : none
ref : [79.776,290.016] : [65.088,283.68,94.464,296.352] : [78] : none
opseich : [360.864,397.728] : [313.344,386.496,408.672,409.248] : [57] : none
opt : [95.328,420.48] : [79.776,415.872,111.168,425.376] : [88] : none
cabinets : [95.328,433.728] : [59.904,429.12,131.04,438.624] : [88] : none
dn : [465.696,434.592] : [455.04,429.984,476.352,439.2] : [94] : none
up : [522.432,448.416] : [513.504,443.808,531.648,453.024] : [89] : none
californiaterrace : [151.488,569.952] : [97.056,553.824,206.208,586.08] : [76] : none
casdsiieet : [400.896,583.776] : [368.928,572.544,433.152,595.296] : [41] : none
secondfloor : [191.52,694.368] : [51.552,682.56,331.488,706.176] : [72] : none
O : [670.464,165.312] : [666.144,160.992,675.072,169.632] : [86] : none
=' : [284.544,436.896] : [271.872,434.016,297.216,439.776] : [80] : none
lla : [297.504,522.72] : [256.32,518.112,338.976,527.328] : [78] : none
No Text Detected
