path : class-st0;d-M564.388,458.541c-1.693,0-3.123,0.813-3.85,2.221l-0.219-1.957h-1.408v10.686h1.738v-6.023   c0-2.045,1.385-3.453,3.232-3.453c1.648,0,2.814,1.143,2.814,2.77v6.707h1.758v-6.971   C568.454,460.168,566.761,458.541,564.388,458.541z; : BBData-558.4666748046875,458.0333251953125,568.0500183105469,469.0166473388672
path : class-st0;d-M539.747,458.541c-1.627,0-3.012,0.791-3.738,2.133v-6.662h-1.736v15.479h1.736v-6.023   c0-2.045,1.387-3.453,3.232-3.453c1.648,0,2.815,1.143,2.815,2.77v6.707h1.76v-6.971   C543.816,460.168,542.122,458.541,539.747,458.541z; : BBData-533.86669921875,453.51666259765625,543.4167022705078,469.01666259765625
path : class-st0;d-M528.286,459.99c0.988,0,1.912,0.332,2.836,0.969l0.727-1.209c-1.211-0.814-2.486-1.209-3.783-1.209   c-3.145,0-5.387,2.33-5.387,5.605c0,3.299,2.242,5.608,5.387,5.608c1.297,0,2.572-0.397,3.783-1.209l-0.727-1.209   c-0.924,0.639-1.848,0.988-2.836,0.988c-2.244,0-3.805-1.713-3.805-4.178C524.482,461.686,526.042,459.99,528.286,459.99z; : BBData-522.2833251953125,458.0333251953125,531.4666442871094,469.2833251953125
path : class-st0;d-M519.794,468.324c-1.1,0-1.846-0.746-1.846-1.846v-6.289h3.363v-1.385h-3.363v-3.166h-1.738v3.166h-2.221   v1.385h2.221v6.443c0,1.846,1.297,3.121,3.211,3.121c0.682,0,1.385-0.088,2.131-0.285l-0.24-1.363   C520.763,468.236,520.255,468.324,519.794,468.324z; : BBData-513.5999755859375,455.1499938964844,521.1999664306641,469.28334045410156
path : class-st0;d-M510.822,454.385c-0.703,0-1.188,0.484-1.188,1.166c0,0.68,0.484,1.166,1.188,1.166   c0.682,0,1.166-0.486,1.166-1.166C511.987,454.869,511.503,454.385,510.822,454.385z; : BBData-509.26666259765625,453.8999938964844,511.6333312988281,456.26666259765625
rect : x-509.941;y-458.805;class-st0;width-1.738;height-10.686; : BBData-509.566650390625,458.29998779296875,511.316650390625,469.0166473388672
polygon : class-st0;points-507.736,454.715 505.579,454.715 498.015,462.52 498.015,454.715 496.257,454.715 496.257,469.49    498.015,469.49 498.015,464.477 499.775,462.719 505.866,469.49 508.042,469.49 501.005,461.619  ; : BBData-495.8833312988281,454.2166748046875,507.6999969482422,469.0166778564453
path : class-st0;d-M411.996,465.447c0-2.453-3.668-1.504-3.668-3.088c0-0.592,0.541-0.988,1.373-0.988   c0.553,0,1.186,0.145,1.846,0.422l0.238-0.779c-0.752-0.303-1.49-0.447-2.164-0.447c-1.371,0-2.334,0.752-2.334,1.793   c0,2.4,3.68,1.465,3.68,3.088c0,0.619-0.566,1.041-1.424,1.041c-0.621,0-1.32-0.156-2.059-0.461l-0.252,0.779   c0.846,0.33,1.65,0.486,2.389,0.486C411.033,467.293,411.996,466.529,411.996,465.447z; : BBData-406.95001220703125,460.066650390625,411.75001525878906,466.816650390625
polygon : class-st0;points-406.359,460.725 405.133,460.725 402.097,463.904 402.097,457.848 401.082,457.848 401.082,467.137    402.097,467.137 402.097,465.037 402.783,464.352 405.224,467.137 406.465,467.137 403.47,463.719  ; : BBData-400.79998779296875,457.33331298828125,406.2166442871094,466.6666564941406
path : class-st0;d-M399.799,466.477c-0.371,0-0.58-0.225-0.58-0.58v-3.102c0-1.332-1.004-2.228-2.455-2.228   c-0.818,0-1.635,0.172-2.531,0.514l0.289,0.766c0.738-0.316,1.438-0.475,2.123-0.475c0.938,0,1.57,0.58,1.57,1.398v0.658   c-0.5-0.131-0.99-0.184-1.438-0.184c-1.82,0-2.93,0.779-2.93,2.123c0,1.096,0.965,1.926,2.23,1.926   c0.885,0,1.715-0.395,2.229-1.066c0.08,0.658,0.529,1.066,1.228,1.066c0.236,0,0.475-0.025,0.686-0.064l-0.078-0.793   C400.062,466.449,399.904,466.477,399.799,466.477z M398.215,464.604c0,1.133-0.777,1.926-1.887,1.926   c-0.83,0-1.451-0.527-1.451-1.227c0-0.871,0.752-1.398,2.02-1.398c0.436,0,0.871,0.053,1.318,0.156V464.604z; : BBData-393.58331298828125,460.066650390625,399.9833221435547,466.816650390625
path : class-st0;d-M389.584,460.566c-1.914,0-3.273,1.385-3.273,3.363c0,1.979,1.359,3.363,3.273,3.363   c1.9,0,3.258-1.385,3.258-3.363C392.841,461.951,391.484,460.566,389.584,460.566z M389.584,466.449   c-1.293,0-2.191-1.029-2.191-2.52c0-1.477,0.898-2.52,2.191-2.52c1.279,0,2.19,1.043,2.19,2.52   C391.773,465.42,390.863,466.449,389.584,466.449z; : BBData-386.04998779296875,460.04998779296875,392.6166534423828,466.816650390625
path : class-st0;d-M384.859,466.436c-0.475,0-0.779-0.303-0.779-0.777v-7.811h-1.041v7.902c0,0.951,0.605,1.543,1.596,1.543   c0.289,0,0.633-0.037,0.988-0.117l-0.131-0.832C385.267,466.396,385.043,466.436,384.859,466.436z; : BBData-382.79998779296875,457.33331298828125,385.3999786376953,466.816650390625
path : class-st0;d-M378.64,459.01c0.816,0,1.648,0.289,2.389,0.816l0.461-0.738c-0.938-0.646-1.978-0.975-2.994-0.975   c-2.586,0-4.367,1.885-4.367,4.59s1.781,4.59,4.367,4.59c1.016,0,2.057-0.328,2.994-0.975l-0.461-0.738   c-0.74,0.527-1.572,0.816-2.389,0.816c-2.02,0-3.391-1.504-3.391-3.693C375.25,460.514,376.621,459.01,378.64,459.01z; : BBData-373.8833312988281,457.6000061035156,381.28334045410156,466.81666564941406
path : class-st0;d-M434.121,268.656c0.711,0,1.529-0.199,2.373-0.621l-0.33-0.725c-0.685,0.369-1.357,0.541-1.938,0.541   c-1.348,0-2.297-0.938-2.389-2.297h4.961c0.012-0.131,0.012-0.25,0.012-0.381c0-1.914-1.186-3.246-2.902-3.246   c-1.832,0-3.127,1.385-3.127,3.365C430.781,267.271,432.168,268.656,434.121,268.656z M433.908,262.732   c1.082,0,1.848,0.885,1.887,2.15h-3.957C431.943,263.59,432.762,262.732,433.908,262.732z; : BBData-430.48333740234375,261.6333312988281,436.53334045410156,268.3833312988281
path : class-st0;d-M427.388,265.027c0-1.293,0.752-2.176,1.848-2.176c0.25,0,0.514,0.039,0.764,0.092l0.121-0.857   c-0.277-0.066-0.568-0.105-0.805-0.105c-0.924,0-1.676,0.502-1.994,1.318l-0.131-1.213h-0.846v6.412h1.043V265.027z; : BBData-426.04998779296875,261.683349609375,429.8666534423828,268.2166748046875
path : class-st0;d-M421.99,268.656c1.9,0,3.258-1.385,3.258-3.363c0-1.98-1.357-3.365-3.258-3.365   c-1.914,0-3.273,1.385-3.273,3.365C418.716,267.271,420.076,268.656,421.99,268.656z M421.99,262.771   c1.279,0,2.189,1.043,2.189,2.522c0,1.488-0.91,2.518-2.189,2.518c-1.293,0-2.191-1.029-2.191-2.518   C419.799,263.814,420.697,262.771,421.99,262.771z; : BBData-418.41668701171875,261.6333312988281,424.9833526611328,268.3833312988281
path : class-st0;d-M414.836,266.781c0,1.109,0.777,1.875,1.926,1.875c0.408,0,0.832-0.053,1.279-0.172l-0.145-0.818   c-0.33,0.08-0.633,0.133-0.91,0.133c-0.66,0-1.107-0.449-1.107-1.109v-3.772h2.018v-0.832h-2.018v-1.9h-1.043v1.9h-1.332v0.832   h1.332V266.781z; : BBData-413.23333740234375,259.8999938964844,417.78334045410156,268.3833312988281
path : class-st0;d-M407.509,261.848c0-0.896,0.844-1.49,2.111-1.49c0.752,0,1.596,0.185,2.492,0.555l0.266-0.846   c-1.002-0.395-1.953-0.592-2.836-0.592c-1.836,0-3.102,0.975-3.102,2.373c0,3.273,5.172,1.953,5.172,4.381   c0,0.924-0.844,1.545-2.15,1.545c-0.805,0-1.809-0.266-2.81-0.662l-0.264,0.846c1.135,0.461,2.217,0.699,3.154,0.699   c1.871,0,3.152-0.99,3.152-2.428C412.695,262.877,407.509,264.223,407.509,261.848z; : BBData-406.1166687011719,259.183349609375,412.4499969482422,268.3833465576172
path : class-st0;d-M540.603,284.877l0.484,1.275c1.23-0.529,2.396-0.793,3.539-0.793c1.561,0,2.617,0.969,2.617,2.332v1.098   c-0.836-0.219-1.648-0.307-2.397-0.307c-3.035,0-4.881,1.297-4.881,3.539c0,1.826,1.605,3.211,3.715,3.211   c1.473,0,2.859-0.658,3.717-1.781c0.131,1.1,0.879,1.781,2.045,1.781c0.395,0,0.791-0.043,1.143-0.109l-0.131-1.32   c-0.133,0.023-0.396,0.066-0.572,0.066c-0.615,0-0.969-0.373-0.969-0.967v-5.168c0-2.221-1.67-3.715-4.088-3.715   C543.462,284.02,542.099,284.305,540.603,284.877z M547.243,290.746c0,1.891-1.297,3.211-3.145,3.211   c-1.385,0-2.418-0.879-2.418-2.045c0-1.451,1.254-2.33,3.363-2.33c0.727,0,1.451,0.088,2.199,0.264V290.746z; : BBData-539.5499877929688,283.7166748046875,550.1999816894531,294.933349609375
path : class-st0;d-M533.714,295.232c1.188,0,2.551-0.33,3.959-1.033l-0.551-1.209c-1.143,0.615-2.264,0.9-3.232,0.9   c-2.242,0-3.826-1.561-3.981-3.826h8.268c0.023-0.219,0.023-0.416,0.023-0.637c0-3.188-1.979-5.408-4.838-5.408   c-3.057,0-5.211,2.309-5.211,5.605C528.152,292.924,530.46,295.232,533.714,295.232z M533.362,285.359   c1.803,0,3.078,1.475,3.145,3.586h-6.598C530.087,286.789,531.448,285.359,533.362,285.359z; : BBData-527.75,283.7166748046875,537.8166656494141,294.933349609375
path : class-st0;d-M522.386,286.305l-0.221-2.021h-1.406v10.686h1.736v-5.783c0-2.154,1.254-3.629,3.08-3.629   c0.416,0,0.856,0.066,1.273,0.156l0.199-1.43c-0.463-0.111-0.945-0.178-1.342-0.178   C524.167,284.105,522.913,284.941,522.386,286.305z; : BBData-520.36669921875,283.79998779296875,526.6667022705078,294.6833190917969
path : class-st0;d-M510.79,280.193l-6.092,14.775h1.848l1.627-4.045h6.926l1.629,4.045h1.846l-6.09-14.775H510.79z    M508.679,289.537l2.947-7.277l2.945,7.277H508.679z; : BBData-504.316650390625,279.8833312988281,518.2166442871094,294.68333435058594
path : class-st0;d-M552.876,273.232c1.516,0,2.791-0.703,3.539-1.936v1.936c0,1.869-1.518,3.166-3.65,3.166   c-0.988,0-2.242-0.285-3.562-0.857l-0.527,1.32c1.518,0.637,2.969,0.945,4.223,0.945c3.057,0,5.277-1.936,5.277-4.641v-10.883   h-1.408l-0.219,1.779c-0.77-1.318-2.09-2.043-3.672-2.043c-2.814,0-4.838,2.33-4.838,5.605   C548.038,270.902,550.062,273.232,552.876,273.232z M553.294,263.447c1.846,0,3.144,1.387,3.144,3.32v1.715   c0,1.957-1.299,3.32-3.144,3.32c-2.023,0-3.453-1.715-3.453-4.178C549.841,265.186,551.271,263.447,553.294,263.447z; : BBData-547.61669921875,261.73333740234375,557.7666931152344,277.53334045410156
path : class-st0;d-M537.718,266.945c0-2.047,1.387-3.453,3.232-3.453c1.648,0,2.815,1.143,2.815,2.77v6.707h1.76v-6.971   c0-2.353-1.693-3.978-4.068-3.978c-1.693,0-3.123,0.812-3.848,2.221l-0.221-1.957h-1.406v10.686h1.736V266.945z; : BBData-535.566650390625,261.73333740234375,545.1333160400391,272.6999969482422
rect : x-530.767;y-262.283;class-st0;width-1.738;height-10.686; : BBData-530.36669921875,261.98333740234375,532.1333618164062,272.6999969482422
path : class-st0;d-M531.648,260.193c0.68,0,1.164-0.484,1.164-1.164c0-0.684-0.484-1.166-1.164-1.166   c-0.705,0-1.19,0.482-1.19,1.166C530.458,259.709,530.943,260.193,531.648,260.193z; : BBData-530.0499877929688,257.566650390625,532.4333190917969,259.9333190917969
path : class-st0;d-M517.943,262.283v10.686h1.736v-6.023c0-2.047,1.387-3.453,3.232-3.453c1.648,0,2.814,1.143,2.814,2.77v6.707   h1.758v-6.971c0-2.353-1.691-3.978-4.066-3.978c-1.693,0-3.123,0.812-3.848,2.221l-0.221-1.957H517.943z; : BBData-517.5499877929688,261.73333740234375,527.0999908447266,272.6999969482422
rect : x-512.728;y-262.283;class-st0;width-1.736;height-10.686; : BBData-512.3333129882812,261.98333740234375,514.0999908447266,272.6999969482422
path : class-st0;d-M513.609,257.863c-0.705,0-1.189,0.482-1.189,1.166c0,0.68,0.484,1.164,1.189,1.164   c0.68,0,1.164-0.484,1.164-1.164C514.773,258.346,514.288,257.863,513.609,257.863z; : BBData-512.0333251953125,257.566650390625,514.4166564941406,259.9333190917969
path : class-st0;d-M497.372,258.193v14.775h4.99c4.486,0,7.522-3.035,7.522-7.387c0-4.398-3.035-7.389-7.522-7.389H497.372z    M508.036,265.582c0,3.494-2.396,5.957-5.85,5.957h-3.012v-11.918h3.012C505.64,259.621,508.036,262.084,508.036,265.582z; : BBData-497,257.8999938964844,509.5500030517578,272.6999969482422
path : class-st0;d-M513.804,148.879c-3.035,0-4.883,1.297-4.883,3.539c0,1.826,1.605,3.211,3.717,3.211   c1.473,0,2.857-0.658,3.715-1.781c0.133,1.1,0.881,1.781,2.047,1.781c0.395,0,0.791-0.043,1.143-0.109l-0.133-1.32   c-0.133,0.023-0.394,0.066-0.572,0.066c-0.615,0-0.967-0.373-0.967-0.967v-5.168c0-2.221-1.67-3.715-4.09-3.715   c-1.363,0-2.727,0.285-4.221,0.857l0.484,1.275c1.23-0.527,2.396-0.793,3.539-0.793c1.561,0,2.617,0.969,2.617,2.332v1.098   C515.365,148.967,514.55,148.879,513.804,148.879z M516.2,151.145c0,1.891-1.299,3.209-3.144,3.209c-1.387,0-2.42-0.879-2.42-2.045   c0-1.451,1.254-2.33,3.365-2.33c0.725,0,1.451,0.088,2.199,0.264V151.145z; : BBData-508.54998779296875,144.23333740234375,519.1833190917969,155.48333740234375
path : class-st0;d-M502.669,155.629c1.189,0,2.553-0.33,3.959-1.033l-0.549-1.209c-1.145,0.615-2.266,0.9-3.232,0.9   c-2.244,0-3.826-1.561-3.98-3.826h8.268c0.021-0.219,0.021-0.416,0.021-0.637c0-3.188-1.978-5.408-4.836-5.408   c-3.057,0-5.211,2.309-5.211,5.605C497.109,153.32,499.415,155.629,502.669,155.629z M502.32,145.756   c1.801,0,3.076,1.475,3.143,3.586h-6.596C499.042,147.186,500.405,145.756,502.32,145.756z; : BBData-496.73333740234375,144.23333740234375,506.81666564941406,155.48333740234375
path : class-st0;d-M491.452,149.582c0-2.154,1.254-3.629,3.078-3.629c0.418,0,0.857,0.068,1.275,0.156l0.197-1.43   c-0.461-0.109-0.945-0.178-1.34-0.178c-1.539,0-2.793,0.836-3.32,2.199l-0.221-2.021h-1.408v10.686h1.738V149.582z; : BBData-489.3500061035156,144.3333282470703,495.6666717529297,155.21665954589844
path : class-st0;d-M477.131,151.32h6.925l1.627,4.045h1.848l-6.091-14.775h-1.693l-6.09,14.775h1.848L477.131,151.32z    M480.582,142.656l2.947,7.277h-5.893L480.582,142.656z; : BBData-473.316650390625,140.43333435058594,487.1999816894531,155.21665954589844
path : class-st0;d-M461.267,155.629c1.518,0,2.793-0.703,3.541-1.936v1.936c0,1.869-1.517,3.166-3.65,3.166   c-0.99,0-2.242-0.285-3.562-0.857l-0.527,1.32c1.518,0.637,2.969,0.945,4.221,0.945c3.057,0,5.277-1.936,5.277-4.641V144.68h-1.406   l-0.221,1.781c-0.77-1.32-2.088-2.045-3.672-2.045c-2.814,0-4.836,2.33-4.836,5.605   C456.431,153.299,458.453,155.629,461.267,155.629z M461.685,145.844c1.848,0,3.145,1.387,3.145,3.32v1.715   c0,1.957-1.297,3.32-3.145,3.32c-2.022,0-3.451-1.715-3.451-4.178C458.234,147.582,459.664,145.844,461.685,145.844z; : BBData-456.1000061035156,144.23333740234375,466.26666259765625,160.0500030517578
path : class-st0;d-M446.55,149.342c0-2.047,1.387-3.453,3.232-3.453c1.65,0,2.814,1.143,2.814,2.77v6.707h1.76v-6.971   c0-2.352-1.693-3.979-4.068-3.979c-1.691,0-3.123,0.813-3.848,2.221l-0.221-1.957h-1.406v10.686h1.736V149.342z; : BBData-444.5,144.23333740234375,454.06666564941406,155.21665954589844
path : class-st0;d-M440.48,142.59c0.68,0,1.164-0.484,1.164-1.164c0-0.684-0.484-1.166-1.164-1.166   c-0.705,0-1.189,0.482-1.189,1.166C439.291,142.105,439.775,142.59,440.48,142.59z; : BBData-438.98333740234375,140.10000610351562,441.3666687011719,142.4499969482422
rect : x-439.599;y-144.68;class-st0;width-1.738;height-10.686; : BBData-439.2833251953125,144.5,441.066650390625,155.21665954589844
polygon : class-st0;points-433.416,155.365 437.814,144.68 435.966,144.68 432.603,153.342 429.216,144.68 427.392,144.68    431.789,155.365  ; : BBData-427.1000061035156,144.5,437.53334045410156,155.21665954589844
path : class-st0;d-M424.289,142.59c0.68,0,1.164-0.484,1.164-1.164c0-0.684-0.484-1.166-1.164-1.166   c-0.705,0-1.189,0.482-1.189,1.166C423.099,142.105,423.584,142.59,424.289,142.59z; : BBData-422.79998779296875,140.10000610351562,425.1999816894531,142.4499969482422
rect : x-423.408;y-144.68;class-st0;width-1.736;height-10.686; : BBData-423.1166687011719,144.5,424.8833312988281,155.21665954589844
polygon : class-st0;points-421.094,153.938 413.926,153.938 413.926,140.59 412.123,140.59 412.123,155.365 421.094,155.365  ; : BBData-411.8500061035156,140.43333435058594,420.8333282470703,155.21665954589844
path : class-st0;d-M543.392,488.18h-48.43c-2.658,0-4.82,2.16-4.82,4.818v18.162c0,2.652,2.162,4.809,4.82,4.809h48.43   c2.652,0,4.811-2.156,4.811-4.809v-18.162C548.202,490.34,546.044,488.18,543.392,488.18z M547.654,511.16   c0,2.35-1.912,4.258-4.262,4.258h-48.43c-2.354,0-4.271-1.908-4.271-4.258v-18.162c0-2.353,1.918-4.268,4.271-4.268h48.43   c2.35,0,4.262,1.914,4.262,4.268V511.16z; : BBData-489.7833251953125,487.6499938964844,547.816650390625,515.4499969482422
path : class-st0;d-M520.693,493.023h-3.027c-1.82,0-3.303,1.482-3.303,3.305v11.498c0,1.824,1.482,3.309,3.303,3.309h3.027   c1.818,0,3.297-1.484,3.297-3.309v-11.498C523.99,494.506,522.511,493.023,520.693,493.023z M523.441,507.826   c0,1.521-1.234,2.758-2.748,2.758h-3.027c-1.518,0-2.752-1.236-2.752-2.758v-11.498c0-1.52,1.234-2.754,2.752-2.754h3.027   c1.514,0,2.748,1.234,2.748,2.754V507.826z; : BBData-513.9666748046875,492.48333740234375,523.6333465576172,510.6166687011719
path : class-st0;d-M541.88,491.205h-12.109c-1.818,0-3.297,1.483-3.297,3.305v15.139c0,1.814,1.479,3.291,3.297,3.291h12.109   c1.82,0,3.301-1.477,3.301-3.291V494.51C545.181,492.688,543.7,491.205,541.88,491.205z M544.63,509.648   c0,1.512-1.232,2.74-2.75,2.74h-12.109c-1.514,0-2.748-1.229-2.748-2.74V494.51c0-1.518,1.234-2.754,2.748-2.754h12.109   c1.518,0,2.75,1.236,2.75,2.754V509.648z; : BBData-526.066650390625,490.66668701171875,544.7833251953125,512.4166870117188
path : class-st0;d-M569.38,416.729c-3.17,0-5.748,2.582-5.748,5.754c0,3.17,2.578,5.75,5.748,5.75c3.174,0,5.756-2.58,5.756-5.75   C575.136,419.311,572.554,416.729,569.38,416.729z M569.38,427.682c-2.865,0-5.197-2.332-5.197-5.199   c0-2.869,2.332-5.203,5.197-5.203c2.871,0,5.205,2.334,5.205,5.203C574.585,425.35,572.251,427.682,569.38,427.682z; : BBData-563.183349609375,416.26666259765625,574.7166748046875,427.78334045410156
path : class-st0;d-M570.269,403.553c-2.693,0-4.885,2.193-4.885,4.889c0,2.693,2.191,4.887,4.885,4.887   c2.695,0,4.889-2.193,4.889-4.887C575.157,405.746,572.964,403.553,570.269,403.553z M570.269,412.777   c-2.389,0-4.334-1.945-4.334-4.336c0-2.393,1.945-4.338,4.334-4.338c2.393,0,4.338,1.945,4.338,4.338   C574.607,410.832,572.661,412.777,570.269,412.777z; : BBData-564.9500122070312,403.1166687011719,574.7333526611328,412.8999938964844
path : class-st0;d-M554.986,418.248c-2.693,0-4.885,2.193-4.885,4.891c0,2.695,2.191,4.887,4.885,4.887   c2.695,0,4.887-2.191,4.887-4.887C559.872,420.441,557.681,418.248,554.986,418.248z M554.986,427.477   c-2.391,0-4.336-1.947-4.336-4.338c0-2.395,1.945-4.34,4.336-4.34c2.393,0,4.338,1.945,4.338,4.34   C559.323,425.529,557.378,427.477,554.986,427.477z; : BBData-549.683349609375,417.7833251953125,559.4666748046875,427.58331298828125
path : class-st0;d-M556.095,403.121c-3.176,0-5.758,2.584-5.758,5.76c0,3.17,2.582,5.75,5.758,5.75   c3.172,0,5.754-2.58,5.754-5.75C561.849,405.705,559.267,403.121,556.095,403.121z M556.095,414.08   c-2.873,0-5.209-2.332-5.209-5.199c0-2.873,2.336-5.209,5.209-5.209c2.869,0,5.205,2.336,5.205,5.209   C561.3,411.748,558.964,414.08,556.095,414.08z; : BBData-549.9166870117188,402.683349609375,561.433349609375,414.20001220703125
path : class-st0;d-M518.325,40.828v-4.619c0-0.15-0.123-0.273-0.275-0.273h-6.615v-1.621V0.275c0-0.152-0.123-0.275-0.273-0.275   h-3.617c-0.035,0-0.062,0.025-0.094,0.039c-11.453,0.934-22.051,6.092-29.847,14.535c-5.598,6.063-9.365,13.436-11.068,21.361   h-1.551c-1.705-7.926-5.471-15.299-11.068-21.361c-7.799-8.443-18.398-13.602-29.854-14.535C424.029,0.025,424.004,0,423.966,0   h-3.613c-0.15,0-0.273,0.123-0.273,0.275v34.039v1.621h-7.326c-0.152,0-0.275,0.123-0.275,0.273v4.619h-88.397V58.43h16.869   v463.467h-16.133v17.6h39.918v3.803c0,0.152,0.123,0.275,0.273,0.275h37.633c0.152,0,0.275-0.123,0.275-0.275v-3.803h20.395v-0.092   h52.785v0.092h22.472v3.803c0,0.152,0.123,0.275,0.275,0.275h61.832c0.15,0,0.275-0.123,0.275-0.275v-3.803h39.598v-17.6V58.43   V40.828H518.325z M517.777,36.484v4.344h-3.426l0.1,4.459h-3.016v-4.816v-3.986H517.777z M510.366,49.451h0.795   c0.15,0,0.273-0.125,0.273-0.275v-3.338h3.029l0.15,6.674h-4.248V49.451z M507.82,36.484h3.066v3.986v4.816h-3.066V36.484z    M510.886,34.314v1.621h-3.066V0.551h3.066V34.314z M478.006,14.949c7.654-8.289,18.037-13.363,29.265-14.334v35.32h-40.162   C468.804,28.15,472.506,20.908,478.006,14.949z M466.406,36.484c-0.269,1.338-0.496,2.688-0.646,4.053   c-0.15-1.365-0.377-2.715-0.647-4.053H466.406z M464.41,35.936h-40.168V0.615c11.23,0.971,21.617,6.045,29.27,14.334   C459.013,20.906,462.715,28.15,464.41,35.936z M420.629,34.314V0.551h3.062v35.385h-3.062V34.314z M421.15,52.512h-4.656v-2.988   c0.15-0.002,0.271-0.123,0.271-0.273v-3.412h3.314v3.338c0,0.15,0.123,0.275,0.273,0.275h0.797V52.512z M420.629,40.471v-3.986   h3.062v8.803h-3.062V40.471z M413.027,36.484h7.053v3.986v4.816h-3.314v-0.963V44.15c0-0.15-0.121-0.271-0.271-0.273v-3.049h-3.467   V36.484z M358.551,58.43h57.943v-5.367h4.932c0.15,0,0.275-0.123,0.275-0.275v-3.611c0-0.152-0.125-0.275-0.275-0.275h-0.797   v-3.062h3.338c0.152,0,0.275-0.123,0.275-0.275v-9.078h40.299c0.605,2.965,0.943,6,0.943,9.078c0,0.152,0.123,0.275,0.275,0.275   c0.15,0,0.275-0.123,0.275-0.275c0-3.078,0.336-6.113,0.943-9.078h40.292v9.078c0,0.152,0.123,0.275,0.273,0.275h3.342V48.9h-0.795   c-0.15,0-0.273,0.123-0.273,0.275v3.611c0,0.152,0.123,0.275,0.273,0.275h4.535l0.121,5.367h68.203v272.191H473.267v0.121h-1.73   c-0.072-13.1-5.158-25.371-14.365-34.576c-6.912-6.906-15.543-11.492-24.947-13.389c4.767-2.008,9.146-4.924,12.9-8.678   c7.654-7.664,11.871-17.883,11.871-28.777h-0.275v-0.275h-40.096v-1.422h1.24v-6.6h-59.314V58.43z M547.056,367.504v93.664   c-0.457,0.846-0.727,1.848-0.727,2.978c0,1.09,0.271,2.057,0.727,2.883v18.043h-64.214v-44.639h-0.266v-1.49   c13.099-0.072,25.373-5.158,34.578-14.365c8.883-8.891,13.891-20.635,14.301-33.207c0.047-0.049,0.078-0.117,0.078-0.191   c0-0.06-0.031-0.107-0.062-0.154c0.012-0.436,0.062-0.865,0.062-1.303c0-0.152-0.123-0.275-0.273-0.275h-48.683v-1.865h0.266   v-50.361H582.95v30.283H547.056z M472.248,530.633h0.853v2.24h-0.853V530.633z M472.248,482.256   c0.285-0.008,0.566-0.041,0.853-0.043v46.471h-0.853V482.256z M473.65,529.232h2.447v5.039h-2.447V529.232z M473.65,528.684v-46.76   c0-0.15-0.123-0.273-0.275-0.273c-3.432,0-6.834,0.414-10.16,1.146c-2.057-8.854-6.48-16.98-13.037-23.541   c-9.205-9.207-21.477-14.295-34.578-14.365v-1.674h0.152v-26.92h6.98v-6.602h-7.26l-0.004-2.799v-42.711   c0-2.533-2.047-4.592-4.572-4.615v-2.453c0-0.152-0.123-0.275-0.275-0.275h-0.422v-16.926h0.422c0.152,0,0.275-0.123,0.275-0.275   v-2.42h9.44v-0.111h1.98v-0.275h0.275v-1.18h1.182v-0.275h0.273v-2.904h-0.273v-0.275h-1.182v-0.906h1.182v-0.275h0.273v-45.781   c2.467-0.465,4.861-1.168,7.176-2.07c9.645,1.758,18.51,6.344,25.561,13.389c9.168,9.166,14.217,21.404,14.217,34.463v1.182h-1.182   v0.275h-0.275v2.904h0.275v0.275H471v1.18h0.275v0.275h1.992v0.111h2.975v50.248c-0.01,0.027-0.033,0.047-0.033,0.076v2.178   c0,0.15,0.125,0.275,0.275,0.275h1.18v1.182c0,0.15,0.123,0.273,0.275,0.273h2.904c0.152,0,0.275-0.123,0.275-0.273v-1.182h0.906   v1.182c0,0.15,0.123,0.273,0.275,0.273H530.9c-0.43,12.395-5.375,23.969-14.137,32.736c-9.166,9.168-21.404,14.217-34.462,14.217   h-1.182v-1.182c0-0.152-0.123-0.275-0.275-0.275h-2.904c-0.152,0-0.275,0.123-0.275,0.275v1.182h-1.18   c-0.15,0-0.275,0.123-0.275,0.275v2.176c0,0.029,0.023,0.049,0.031,0.074l-0.143,80.965v6.787H473.65z M413.594,446.334h-2.355   v-0.906h2.355V446.334z M409.783,444.877v-1.627h5.268v1.627H409.783z M395.638,423.504c-0.371,3-2.604,5.428-5.559,6.043   c-1.807,0.293-3.668,0.445-5.529,0.449c-1.855-0.004-3.713-0.156-5.52-0.449c-2.961-0.617-5.197-3.045-5.57-6.043v-7.207h22.178   V423.504z M358.551,409.695V299.004l2.01,1.293v106.6c0,0.07,0.027,0.141,0.082,0.195c0.053,0.053,0.123,0.08,0.193,0.08h54.082   l0.004,2.523H358.551z M404.978,290.316c0.055,0.053,0.125,0.08,0.195,0.08v4.004l-44.062-18.248v-29.701L404.978,290.316z    M391.248,246.174l18.205,43.947h-4.004c0-0.068-0.027-0.141-0.082-0.193l-43.865-43.863L391.248,246.174z M456.4,246.248h-39.775   v-0.65h39.809C456.431,245.816,456.406,246.031,456.4,246.248z M411.83,243.803h0.723h3h0.522v1.244h-4.244V243.803z    M414.873,245.598v0.65h-1.846v-0.65H414.873z M412.754,246.523v0.275h2.395v-0.275h0.275v-0.926h0.65v0.926h0.275v0.275h40.025   c-0.365,10.187-4.436,19.701-11.639,26.91c-3.924,3.926-8.539,6.908-13.57,8.893c-2.893-0.518-5.846-0.816-8.85-0.816v0.275h-0.275   v2.916c-1.873,0.264-3.766,0.441-5.691,0.441h-0.926v-0.926h-0.275v-0.273h-2.395v0.273h-0.275v0.926h-0.924v0.275h-0.275v1.795   h0.275v0.076h-0.938v2.557h-0.611c0-0.035,0.014-0.068,0-0.105l-18.162-43.84l20.635,0.076v0.271H412.754z M423.498,330.742h-0.906   v-45.291c0.301-0.045,0.605-0.08,0.906-0.133V330.742z M423.498,335.105h-0.906v-2.355h0.906V335.105z M422.041,336.559h-1.627   v-0.936v-3.639v-0.691h1.627V336.559z M405.449,339.365v-4.893h4.898v4.893H405.449z M414.918,406.621h-23.121l18.141-43.783h0.684   c0.152,0,0.275-0.123,0.275-0.275v-2.443c2.223,0.025,4.022,1.838,4.022,4.066V406.621z M361.5,406.621l43.787-43.783h4.053   l-18.141,43.783H361.5z M406.697,295.568v4.305h-45.586V276.75l43.957,18.203c0.035,0.014,0.07,0.022,0.105,0.022v0.594H406.697z    M410.617,295.568v35.148l-1.17-0.748v-34.4H410.617z M411.83,285.969h4.244v1.244h-4.244V285.969z M413.027,284.768h1.846v0.65   h-1.846V284.768z M408.896,329.617l-1.65-1.055v-32.994h1.65V329.617z M407.246,333.924v-4.709l1.65,1.057v3.652H407.246z    M406.697,339.916v16.926h-0.555v-16.926H406.697z M408.551,339.916v16.926h-1.305v-16.926H408.551z M405.174,356.842   c-0.152,0-0.275,0.123-0.275,0.275v0.684l-43.787,18.135v-23.125h44.48v4.031H405.174z M404.203,326.619h2.494v1.592   L404.203,326.619z M406.697,326.068h-3.353l-10.229-6.535c-0.029-0.018-0.061-0.01-0.092-0.016   c-0.037-0.008-0.068-0.025-0.105-0.018c-0.035,0.004-0.057,0.031-0.086,0.051c-0.029,0.016-0.064,0.021-0.086,0.049l-4.842,6.469   h-3.516v-10.949c0-0.012-0.01-0.02-0.012-0.029c-0.002-0.035-0.021-0.061-0.037-0.092c-0.018-0.033-0.031-0.062-0.061-0.086   c-0.008-0.006-0.008-0.02-0.016-0.023l-2.125-1.367h24.559V326.068z M384.388,326.619h3.103l-3.103,4.143V326.619z    M393.033,320.135l9.287,5.934h-13.73L393.033,320.135z M406.697,312.971h-25.414l-19.512-12.549h44.926V312.971z M383.84,315.268   v10.801h-22.729v-12.547h20.012L383.84,315.268z M405.591,352.262h-44.48v-12.547h43.818c0.035,0.111,0.121,0.201,0.244,0.201   h0.418V352.262z M405.174,333.924c-0.152,0-0.275,0.123-0.275,0.273v4.969h-43.787v-12.547h22.729v4.969   c0,0.008,0.008,0.012,0.008,0.019c0.002,0.035,0.023,0.062,0.039,0.096c0.017,0.031,0.025,0.064,0.053,0.086   c0.006,0.006,0.004,0.014,0.012,0.02c0.049,0.035,0.105,0.055,0.164,0.055c0.084,0,0.152-0.043,0.203-0.104   c0.004-0.004,0.012-0.002,0.016-0.008l3.844-5.133h15.004l3.516,2.246v5.059H405.174z M380.269,312.971h-19.158v-12.32   L380.269,312.971z M361.111,376.533l43.787-18.137v4.053l-43.787,43.783V376.533z M410.347,362.287h-4.898v-4.897h4.898V362.287z    M409.101,356.842v-16.926h0.547v16.926H409.101z M410.621,333.924h-1.174v-3.303l1.027,0.656c0.045,0.029,0.094,0.041,0.142,0.043   v2.6h0.004V333.924z M416.349,287.564v-0.076h0.275v-1.533c1.832-0.012,3.633-0.176,5.416-0.422v45.209h-1.705v-0.121h-3.119   v-43.057H416.349z M422.591,284.896v-2.549c0.305,0.002,0.602,0.037,0.906,0.045v2.371   C423.197,284.816,422.892,284.85,422.591,284.896z M424.047,282.418c2.031,0.07,4.037,0.266,6.016,0.576   c-1.955,0.705-3.955,1.293-6.016,1.689V282.418z M473.175,336.559h-1.627v-5.266h1.627V336.559z M470.093,332.75H471v2.355h-0.906   V332.75z M530.927,390.904h-48.351v-0.906h48.394C530.968,390.303,530.933,390.6,530.927,390.904z M480.568,390.904h-2.353v-0.906   h2.353V390.904z M476.759,389.447v-1.627h0.936h3.639h0.691v1.627H476.759z M476.759,440.434v-1.479h5.266v1.479H476.759z    M478.215,437.5h2.353v0.906h-2.353V437.5z M411.279,243.625v1.697h0.275v0.275h0.924v0.105l-20.897-0.078   c-0.074-0.088-0.191-0.139-0.303-0.092c-0.043,0.018-0.062,0.059-0.092,0.092l-30.35-0.113h-0.002c-0.102,0-0.174,0.066-0.223,0.15   c-0.008,0.01-0.025,0.008-0.031,0.02c-0.004,0.014,0.012,0.023,0.008,0.037c-0.008,0.025-0.029,0.043-0.029,0.068v53.857   l-2.01-1.295v-54.725H411.279z M402.367,543.023h-37.082v-3.527h4.248v-4.035h28.277v4.035h4.557V543.023z M390.683,508.057   c-4.74,0.957-9.688,0.959-14.432-0.002c-0.416-0.082-0.76-0.371-0.916-0.775c-1.287-3.277-1.94-6.719-1.94-10.232   c0-3.975,1.754-7.711,4.815-10.252c1.478-1.213,3.344-1.883,5.258-1.883c1.912,0,3.777,0.67,5.258,1.883   c2.541,2.102,4.201,5.064,4.672,8.342c0.096,0.67,0.141,1.293,0.141,1.91c0,3.52-0.65,6.961-1.935,10.234   C391.447,507.682,391.103,507.973,390.683,508.057z M383.469,509.328c2.318,0,4.641-0.238,6.918-0.672   c-0.277,0.363-0.541,0.729-0.863,1.08c-0.322,0.342-0.508,0.793-0.525,1.27l-0.022,0.621c-1.832-0.133-3.695-0.178-5.523-0.133   c-1.941,0.002-3.779,0.041-5.518,0.135l-0.023-0.625c-0.01-0.475-0.197-0.928-0.522-1.27c-0.322-0.354-0.586-0.721-0.865-1.084   C378.81,509.09,381.142,509.328,383.469,509.328z M377.922,512.18c1.676-0.092,3.451-0.137,5.283-0.137c0.086,0,0.17,0,0.254,0   c1.832-0.045,3.688,0,5.537,0.137c1.688,0,3.315,0.266,4.861,0.824c1.908,0.873,3.143,2.791,3.148,4.889v4.096h-27.109v-4.094   c0.01-2.102,1.246-4.019,3.131-4.883C374.59,512.445,376.203,512.172,377.922,512.18z M373.758,534.912v-1.914h19.443v1.914   H373.758z M369.533,534.912v-4.373h3.674v4.373H369.533z M393.201,530.539v1.908h-19.443v-1.908H393.201z M393.75,530.539h4.061   v4.373h-4.061V530.539z M397.81,529.99h-28.277v-7.451h28.277V529.99z M409.152,521.896H397.81v0.092h-0.256v-4.096   c-0.004-2.314-1.365-4.43-3.49-5.396c-1.463-0.529-3.002-0.779-4.537-0.824l0.021-0.646c0.012-0.344,0.145-0.668,0.379-0.918   c0.525-0.57,0.996-1.16,1.398-1.75l-0.016-0.012c0.35-0.201,0.654-0.475,0.805-0.865c1.311-3.334,1.975-6.846,1.975-10.434   c0-0.645-0.049-1.293-0.147-1.986c-0.49-3.414-2.219-6.5-4.867-8.691c-1.578-1.293-3.57-2.008-5.607-2.008   c-2.041,0-4.031,0.715-5.607,2.01c-3.188,2.645-5.016,6.537-5.016,10.676c0,3.582,0.666,7.092,1.979,10.432   c0.15,0.387,0.443,0.656,0.783,0.857l-0.023,0.018c0.408,0.59,0.881,1.182,1.404,1.754c0.23,0.244,0.367,0.574,0.373,0.914   l0.023,0.645c-1.557,0.043-3.088,0.303-4.564,0.84c-2.1,0.957-3.463,3.072-3.475,5.387v4.004h-10.795v-105.6h14.359v7.229h0.275   l-0.273,0.033c0.398,3.242,2.814,5.865,6.012,6.529l0.057-0.27l-0.045,0.272c1.838,0.299,3.727,0.451,5.613,0.455l0.002-0.273   l0.002,0.273c1.891-0.004,3.783-0.156,5.623-0.455l-0.043-0.272l0.055,0.27c3.193-0.664,5.604-3.287,6-6.529l-0.273-0.033h0.275   v-7.229h12.963v26.92h0.082v1.936c0,0.15,0.123,0.275,0.275,0.275h1.18v1.182c0,0.15,0.123,0.273,0.273,0.273h2.906   c0.15,0,0.273-0.123,0.273-0.273v-1.182h1.182c13.059,0,25.299,5.049,34.465,14.217c6.484,6.488,10.859,14.529,12.895,23.285   c-7.082,1.647-13.764,4.854-19.389,9.449h-27.971c-0.15,0-0.273,0.123-0.273,0.275v1.182h-0.908v-1.182   c0-0.152-0.123-0.275-0.273-0.275h-2.906c-0.15,0-0.273,0.123-0.273,0.275v1.182h-1.18c-0.152,0-0.275,0.123-0.275,0.275v1.957   h-0.082V521.896z M415.051,494.385v1.627h-0.693h-3.637h-0.938v-1.627H415.051z M411.238,492.93h2.355v0.906h-2.355V492.93z    M415.599,492.93h27.086c-0.344,0.291-0.668,0.605-1.004,0.906h-26.082V492.93z M443.508,492.93h20.443   c0.008,0.303,0.043,0.602,0.045,0.906h-21.494C442.841,493.539,443.16,493.215,443.508,492.93z M444.215,492.379   c5.441-4.309,11.828-7.342,18.602-8.916c0.641,2.904,1.004,5.885,1.107,8.916H444.215z M415.599,496.068v-1.684h25.473   c-0.391,0.365-0.812,0.697-1.191,1.078c-8.717,8.865-13.732,20.961-13.807,33.221h-2.762v-6.787h-7.561v-25.828H415.599z    M427.459,532.873h-0.848v-2.24h0.848V532.873z M423.312,534.271v-5.039h2.748v5.039H423.312z M423.312,538.854v-4.031h3.023   c0.15,0,0.275-0.123,0.275-0.275v-1.125h1.123c0.152,0,0.275-0.121,0.275-0.273v-2.791c0-0.152-0.123-0.275-0.275-0.275h-1.123   v-1.123c0-12.213,4.979-24.279,13.66-33.107c0.518-0.516,1.082-0.977,1.623-1.467h22.389c0.152,0,0.275-0.121,0.275-0.273   c0-0.439-0.051-0.869-0.062-1.305c0.031-0.045,0.062-0.092,0.062-0.152c0-0.076-0.031-0.145-0.08-0.193   c-0.1-3.105-0.473-6.158-1.129-9.131c2.736-0.603,5.529-0.943,8.348-1.047v46.676h0.275v0.273h1.129v0.85h-1.129v0.275h-0.275   v2.791h0.275v0.273h1.129v1.125h0.273v0.275h2.723v4.031H423.312z M560.402,543.023H499.12v-3.527h4.166v-4.035h52.531v4.035h4.584   V543.023z M532.156,534.912v-1.914h19.443v1.914H532.156z M527.81,534.912v-4.373h3.797v4.373H527.81z M507.816,534.912v-1.914   h19.443v1.914H507.816z M503.286,534.912v-4.373h3.98v4.373H503.286z M527.259,530.539v1.908h-19.443v-1.908H527.259z    M551.599,530.539v1.908h-19.443v-1.908H551.599z M552.15,530.539h3.668v4.373h-3.668V530.539z M555.818,529.99h-52.531v-7.463   h52.531V529.99z M555.818,521.896v0.082h-52.531v-0.082h-20.445v-36.273h64.763v-17.787c0.992,1.191,2.484,1.918,4.287,1.918   c1.188,0,2.551-0.328,3.959-1.033l-0.551-1.209c-1.143,0.615-2.264,0.9-3.232,0.9c-2.242,0-3.826-1.561-3.98-3.826h8.268   c0.023-0.219,0.023-0.416,0.023-0.637c0-3.188-1.979-5.408-4.838-5.408c-1.641,0-3.008,0.682-3.936,1.809v-29.221h32.436V400.6   h-32.436v-32.547h35.346v153.844H555.818z M548.087,463.467c0.178-2.156,1.541-3.586,3.453-3.586c1.803,0,3.078,1.475,3.145,3.586   H548.087z M547.761,430.578v-29.43h31.73v29.43H547.761z; : BBData-323.8833312988281,0,600.1000061035156,543.0166625976562
g :  : BBData-323.8833312988281,0,600.1000061035156,543.0166625976562
style : type-text/css; : BBData-0,0,0,0
svg : version-1.0;id-kilnwood_x5F_floorplan_x5F_tavy_x5F_ground;x-0px;y-0px;width-924.632px;height-543.574px;viewBox-0 0 924.632 543.574;style-enable-background:new 0 0 924.632 543.574;; : BBData-0,0,924,543
