g : [178,178] :[171,166,186,191] :[100] : match
r : [188,178] :[182,166,194,191] :[100] : match
a : [194,178] :[188,166,201,191] :[100] : match
n : [203,178] :[196,166,211,191] :[100] : match
d : [214,178] :[207,166,222,191] :[100] : match
  : [221,178] :[217,166,226,191] :[100] : match
s : [227,178] :[221,166,233,191] :[100] : match
l : [232,178] :[228,166,237,191] :[100] : match
e : [239,178] :[233,166,246,191] :[100] : match
e : [249,178] :[242,166,256,191] :[100] : match
p : [258,178] :[251,166,266,191] :[100] : match
r : [453,261] :[447,248,459,274] :[100] : match
e : [459,261] :[453,248,466,274] :[100] : match
l : [466,261] :[462,248,471,274] :[100] : match
a : [473,261] :[466,248,480,274] :[100] : match
x : [482,261] :[475,248,489,274] :[100] : match
view : [452,99] :[429,86,476,112] :[100] : match
c : [487,528] :[480,515,494,541] :[100] : match
o : [495,528] :[488,515,502,541] :[100] : match
o : [505,528] :[498,515,512,541] :[100] : match
k : [515,528] :[509,515,522,541] :[100] : match
e : [460,395] :[453,383,467,408] :[100] : match
a : [469,395] :[462,383,476,408] :[100] : match
t : [476,395] :[471,383,482,408] :[100] : match
d : [314,400] :[307,388,322,413] :[100] : match
r : [323,400] :[317,388,329,413] :[100] : match
e : [330,400] :[323,388,337,413] :[100] : match
s : [338,400] :[332,388,345,413] :[100] : match
s : [346,400] :[340,388,352,413] :[100] : match
d : [179,291] :[172,278,187,304] :[100] : match
r : [188,291] :[182,278,194,304] :[100] : match
e : [195,291] :[188,278,202,304] :[100] : match
s : [203,291] :[197,278,210,304] :[100] : match
s : [211,291] :[205,278,217,304] :[100] : match
splash : [241,381] :[211,369,272,394] :[100] : match
splash : [239,492] :[209,479,270,505] :[100] : match
sleep : [486,756] :[461,743,512,769] :[100] : match
sleep : [191,589] :[166,577,217,602] :[100] : match
g : [383,580] :[376,568,391,593] :[100] : match
r : [392,580] :[386,568,398,593] :[100] : match
e : [398,580] :[392,568,405,593] :[100] : match
e : [408,580] :[401,568,415,593] :[100] : match
t : [415,580] :[410,568,421,593] :[100] : match
a : [328,670] :[322,657,335,683] :[100] : match
r : [337,670] :[331,657,343,683] :[100] : match
r : [343,670] :[337,657,349,683] :[100] : match
i : [347,670] :[343,657,352,683] :[100] : match
v : [354,670] :[347,657,361,683] :[100] : match
e : [363,670] :[356,657,370,683] :[100] : match
dn : [365,856] :[348,844,382,869] :[100] : match
d : [139,497] :[132,485,147,510] :[100] : match
r : [149,497] :[143,485,155,510] :[100] : match
e : [155,497] :[149,485,162,510] :[100] : match
s : [164,497] :[158,485,170,510] :[100] : match
s : [171,497] :[165,485,177,510] :[100] : match
d : [509,625] :[502,612,517,638] :[100] : match
r : [519,625] :[513,612,525,638] :[100] : match
e : [525,625] :[519,612,532,638] :[100] : match
s : [534,625] :[528,612,540,638] :[100] : match
s : [541,625] :[535,612,547,638] :[100] : match
splash : [553,646] :[522,634,584,659] :[100] : match
w : [470,585] :[459,573,481,598] :[100] : match
d : [469,608] :[460,596,478,621] :[100] : match
