text : transform-matrix(1.0445 0 0 1 304.957 75.5832);font-family-'CenturyGothic';font-size-6.6994; : BBData-303.5333251953125,67.64999389648438,321.4499816894531,79.69999694824219
g :  : BBData-303.5333251953125,67.64999389648438,321.4499816894531,79.69999694824219
g :  : BBData-303.5333251953125,67.64999389648438,321.4499816894531,79.69999694824219
text : transform-matrix(1.0445 0 0 1 304.957 83.6656);font-family-'CenturyGothic';font-size-6.6994; : BBData-303.5333251953125,75.75,341.59999084472656,87.78334045410156
g :  : BBData-303.5333251953125,75.75,341.59999084472656,87.78334045410156
g :  : BBData-303.5333251953125,75.75,341.59999084472656,87.78334045410156
text : transform-matrix(1 0 0 1.018 257.9887 82.1846);font-family-'CenturyGothic';font-size-9.8465; : BBData-256.6333312988281,70.06666564941406,265.6000061035156,86.78334045410156
text : transform-matrix(1 0 0 1.018 249.2646 82.1846);font-family-'CenturyGothic';font-size-9.8465; : BBData-247.89999389648438,70.06666564941406,259.8500061035156,86.78334045410156
text : transform-matrix(1 0 0 1.018 245.8085 82.1846);font-family-'CenturyGothic';font-size-9.8465; : BBData-244.4499969482422,70.06666564941406,250.4499969482422,86.78334045410156
text : transform-matrix(1 0 0 1.018 235.6274 82.1846);font-family-'CenturyGothic';font-size-9.8465; : BBData-234.26666259765625,70.06666564941406,249.18333435058594,86.78334045410156
text : transform-matrix(1 0 0 1.018 230.8618 82.1846);font-family-'CenturyGothic';font-size-9.8465; : BBData-229.5,70.06666564941406,238.46665954589844,86.78334045410156
text : transform-matrix(1 0 0 1.018 222.1376 82.1846);font-family-'CenturyGothic';font-size-9.8465; : BBData-220.76666259765625,70.06666564941406,232.71665954589844,86.78334045410156
text : transform-matrix(1 0 0 1.018 218.6816 82.1846);font-family-'CenturyGothic';font-size-9.8465; : BBData-217.31666564941406,70.06666564941406,223.31666564941406,86.78334045410156
text : transform-matrix(1 0 0 1.018 213.2265 82.1846);font-family-'CenturyGothic';font-size-9.8465; : BBData-211.85000610351562,70.06666564941406,220.81666564941406,86.78334045410156
g :  : BBData-211.85000610351562,70.06666564941406,265.6000061035156,86.78334045410156
g :  : BBData-211.85000610351562,70.06666564941406,265.6000061035156,86.78334045410156
text : transform-matrix(1 0 0 1.018 482.2461 111.4082);font-family-'CenturyGothic';font-size-9.8465; : BBData-480.933349609375,99.30000305175781,489.90000915527344,116
text : transform-matrix(1 0 0 1.018 468.0674 111.4082);font-family-'CenturyGothic';font-size-9.8465; : BBData-466.75,99.30000305175781,484.6499938964844,116
text : transform-matrix(1 0 0 1.018 464.6113 111.4082);font-family-'CenturyGothic';font-size-9.8465; : BBData-463.29998779296875,99.30000305175781,469.29998779296875,116
text : transform-matrix(1 0 0 1.018 454.4296 111.4082);font-family-'CenturyGothic';font-size-9.8465; : BBData-453.1166687011719,99.30000305175781,468.03334045410156,116
text : transform-matrix(1 0 0 1.018 449.664 111.4082);font-family-'CenturyGothic';font-size-9.8465; : BBData-448.3500061035156,99.30000305175781,457.31666564941406,116
text : transform-matrix(1 0 0 1.018 440.9404 111.4082);font-family-'CenturyGothic';font-size-9.8465; : BBData-439.6166687011719,99.30000305175781,451.56666564941406,116
text : transform-matrix(1 0 0 1.018 437.4843 111.4082);font-family-'CenturyGothic';font-size-9.8465; : BBData-436.16668701171875,99.30000305175781,442.16668701171875,116
text : transform-matrix(1 0 0 1.018 426.5742 111.4082);font-family-'CenturyGothic';font-size-9.8465; : BBData-425.25,99.30000305175781,440.1666717529297,116
g :  : BBData-425.25,99.30000305175781,489.8999938964844,116
g :  : BBData-425.25,99.30000305175781,489.8999938964844,116
text : transform-matrix(1 0 0 1.018 472.3867 343.7148);font-family-'CenturyGothic';font-size-9.8465; : BBData-471.08331298828125,331.6499938964844,480.04998779296875,348.3666687011719
text : transform-matrix(1 0 0 1.018 463.663 343.7148);font-family-'CenturyGothic';font-size-9.8465; : BBData-462.3500061035156,331.6499938964844,474.3000030517578,348.3666687011719
text : transform-matrix(1 0 0 1.018 460.2065 343.7148);font-family-'CenturyGothic';font-size-9.8465; : BBData-458.8999938964844,331.6499938964844,464.8999938964844,348.3666687011719
text : transform-matrix(1 0 0 1.018 444.5703 343.7148);font-family-'CenturyGothic';font-size-9.8465; : BBData-443.25,331.6499938964844,464.1166687011719,348.3666687011719
text : transform-matrix(1 0 0 1.018 439.8046 343.7148);font-family-'CenturyGothic';font-size-9.8465; : BBData-438.48333740234375,331.6499938964844,447.4499969482422,348.3666687011719
text : transform-matrix(1 0 0 1.018 431.081 343.7148);font-family-'CenturyGothic';font-size-9.8465; : BBData-429.76666259765625,331.6499938964844,441.71665954589844,348.3666687011719
text : transform-matrix(1 0 0 1.018 427.6249 343.7148);font-family-'CenturyGothic';font-size-9.8465; : BBData-426.29998779296875,331.6499938964844,432.29998779296875,348.3666687011719
text : transform-matrix(1 0 0 1.018 416.7148 343.7148);font-family-'CenturyGothic';font-size-9.8465; : BBData-415.3833312988281,331.6499938964844,430.31666564941406,348.3666687011719
g :  : BBData-415.3833312988281,331.6499938964844,480.0500030517578,348.3666687011719
g :  : BBData-415.3833312988281,331.6499938964844,480.0500030517578,348.3666687011719
text : transform-matrix(1 0 0 1.018 93.9438 232.9962);font-family-'CenturyGothic';font-size-6.8123; : BBData-92.55000305175781,224.9499969482422,117.5,237.21665954589844
g :  : BBData-92.55000305175781,224.9499969482422,117.5,237.21665954589844
g :  : BBData-92.55000305175781,224.9499969482422,117.5,237.21665954589844
text : transform-matrix(1 0 0 1.018 330.3935 284.2735);font-family-'CenturyGothic';font-size-6.8123; : BBData-329.04998779296875,276.23333740234375,352.7166442871094,288.5
g :  : BBData-329.04998779296875,276.23333740234375,352.7166442871094,288.5
g :  : BBData-329.04998779296875,276.23333740234375,352.7166442871094,288.5
text : transform-matrix(1 0 0 1.018 281.6313 336.4668);font-family-'CenturyGothic';font-size-9.8465; : BBData-280.26666259765625,324.3999938964844,289.25,341.1166687011719
text : transform-matrix(1 0 0 1.018 272.9077 336.4668);font-family-'CenturyGothic';font-size-9.8465; : BBData-271.54998779296875,324.3999938964844,283.49998474121094,341.1166687011719
text : transform-matrix(1 0 0 1.018 269.4511 336.4668);font-family-'CenturyGothic';font-size-9.8465; : BBData-268.08331298828125,324.3999938964844,274.09999084472656,341.1166687011719
text : transform-matrix(1 0 0 1.018 253.8148 336.4668);font-family-'CenturyGothic';font-size-9.8465; : BBData-252.4499969482422,324.3999938964844,273.31666564941406,341.1166687011719
text : transform-matrix(1 0 0 1.018 249.0492 336.4668);font-family-'CenturyGothic';font-size-9.8465; : BBData-247.68333435058594,324.3999938964844,256.6499938964844,341.1166687011719
text : transform-matrix(1 0 0 1.018 240.3256 336.4668);font-family-'CenturyGothic';font-size-9.8465; : BBData-238.96665954589844,324.3999938964844,250.9166717529297,341.1166687011719
text : transform-matrix(1 0 0 1.018 236.8696 336.4668);font-family-'CenturyGothic';font-size-9.8465; : BBData-235.5,324.3999938964844,241.5,341.1166687011719
text : transform-matrix(1 0 0 1.018 225.9594 336.4668);font-family-'CenturyGothic';font-size-9.8465; : BBData-224.5833282470703,324.3999938964844,239.51666259765625,341.1166687011719
g :  : BBData-224.5833282470703,324.3999938964844,289.25,341.1166687011719
g :  : BBData-224.5833282470703,324.3999938964844,289.25,341.1166687011719
text : transform-matrix(1 0 0 1.018 126.6313 334.9668);font-family-'CenturyGothic';font-size-9.8465; : BBData-125.23333740234375,322.8999938964844,134.1999969482422,339.6166687011719
text : transform-matrix(1 0 0 1.018 117.9076 334.9668);font-family-'CenturyGothic';font-size-9.8465; : BBData-116.51666259765625,322.8999938964844,128.46665954589844,339.6166687011719
text : transform-matrix(1 0 0 1.018 114.4511 334.9668);font-family-'CenturyGothic';font-size-9.8465; : BBData-113.05000305175781,322.8999938964844,119.05000305175781,339.6166687011719
text : transform-matrix(1 0 0 1.018 98.8149 334.9668);font-family-'CenturyGothic';font-size-9.8465; : BBData-97.41667175292969,322.8999938964844,118.28334045410156,339.6166687011719
text : transform-matrix(1 0 0 1.018 94.0492 334.9668);font-family-'CenturyGothic';font-size-9.8465; : BBData-92.64999389648438,322.8999938964844,101.61666870117188,339.6166687011719
text : transform-matrix(1 0 0 1.018 85.3256 334.9668);font-family-'CenturyGothic';font-size-9.8465; : BBData-83.91667175292969,322.8999938964844,95.86666870117188,339.6166687011719
text : transform-matrix(1 0 0 1.018 81.8695 334.9668);font-family-'CenturyGothic';font-size-9.8465; : BBData-80.46665954589844,322.8999938964844,86.46665954589844,339.6166687011719
text : transform-matrix(1 0 0 1.018 70.9594 334.9668);font-family-'CenturyGothic';font-size-9.8465; : BBData-69.55000305175781,322.8999938964844,84.46665954589844,339.6166687011719
g :  : BBData-69.55000305175781,322.8999938964844,134.1999969482422,339.6166687011719
g :  : BBData-69.55000305175781,322.8999938964844,134.1999969482422,339.6166687011719
text : transform-matrix(1 0 0 1.018 251.9946 195.9668);font-family-'CenturyGothic';font-size-9.8465; : BBData-250.63333129882812,183.86666870117188,259.6000061035156,200.5833282470703
text : transform-matrix(1 0 0 1.018 243.2705 195.9668);font-family-'CenturyGothic';font-size-9.8465; : BBData-241.89999389648438,183.86666870117188,253.85000610351562,200.5833282470703
text : transform-matrix(1 0 0 1.018 239.8144 195.9668);font-family-'CenturyGothic';font-size-9.8465; : BBData-238.4499969482422,183.86666870117188,244.4499969482422,200.5833282470703
text : transform-matrix(1 0 0 1.018 229.6333 195.9668);font-family-'CenturyGothic';font-size-9.8465; : BBData-228.26666259765625,183.86666870117188,243.18333435058594,200.5833282470703
text : transform-matrix(1 0 0 1.018 224.8676 195.9668);font-family-'CenturyGothic';font-size-9.8465; : BBData-223.5,183.86666870117188,232.46665954589844,200.5833282470703
text : transform-matrix(1 0 0 1.018 216.1435 195.9668);font-family-'CenturyGothic';font-size-9.8465; : BBData-214.76666259765625,183.86666870117188,226.71665954589844,200.5833282470703
text : transform-matrix(1 0 0 1.018 212.6875 195.9668);font-family-'CenturyGothic';font-size-9.8465; : BBData-211.31666564941406,183.86666870117188,217.31666564941406,200.5833282470703
text : transform-matrix(1 0 0 1.018 207.2324 195.9668);font-family-'CenturyGothic';font-size-9.8465; : BBData-205.85000610351562,183.86666870117188,214.8333282470703,200.5833282470703
g :  : BBData-205.85000610351562,183.86666870117188,259.6000061035156,200.5833282470703
g :  : BBData-205.85000610351562,183.86666870117188,259.6000061035156,200.5833282470703
text : transform-matrix(1 0 0 1.018 350.2192 162.4531);font-family-'CenturyGothic';font-size-9.8465; : BBData-348.8833312988281,150.35000610351562,357.8500061035156,167.06666564941406
text : transform-matrix(1 0 0 1.018 341.4951 162.4531);font-family-'CenturyGothic';font-size-9.8465; : BBData-340.1499938964844,150.35000610351562,352.1000061035156,167.06666564941406
text : transform-matrix(1 0 0 1.018 338.039 162.4531);font-family-'CenturyGothic';font-size-9.8465; : BBData-336.70001220703125,150.35000610351562,342.70001220703125,167.06666564941406
text : transform-matrix(1 0 0 1.018 327.8578 162.4531);font-family-'CenturyGothic';font-size-9.8465; : BBData-326.51666259765625,150.35000610351562,341.43333435058594,167.06666564941406
text : transform-matrix(1 0 0 1.018 323.0922 162.4531);font-family-'CenturyGothic';font-size-9.8465; : BBData-321.75,150.35000610351562,330.71665954589844,167.06666564941406
text : transform-matrix(1 0 0 1.018 314.3681 162.4531);font-family-'CenturyGothic';font-size-9.8465; : BBData-313.01666259765625,150.35000610351562,324.96665954589844,167.06666564941406
text : transform-matrix(1 0 0 1.018 310.912 162.4531);font-family-'CenturyGothic';font-size-9.8465; : BBData-309.566650390625,150.35000610351562,315.566650390625,167.06666564941406
text : transform-matrix(1 0 0 1.018 305.457 162.4531);font-family-'CenturyGothic';font-size-9.8465; : BBData-304.1000061035156,150.35000610351562,313.06666564941406,167.06666564941406
g :  : BBData-304.1000061035156,150.35000610351562,357.8500061035156,167.06666564941406
g :  : BBData-304.1000061035156,150.35000610351562,357.8500061035156,167.06666564941406
text : transform-matrix(1.0236 0 0 1 203.0551 70.4687);font-family-'CenturyGothic-Bold';font-size-12.3217; : BBData-201.64999389648438,57.100006103515625,291.23333740234375,74.96665954589844
g :  : BBData-201.64999389648438,57.100006103515625,291.23333740234375,74.96665954589844
g :  : BBData-201.64999389648438,57.100006103515625,291.23333740234375,74.96665954589844
text : transform-matrix(1.0236 0 0 1 431.4062 99.0947);font-family-'CenturyGothic-Bold';font-size-12.3217; : BBData-430.04998779296875,85.73333740234375,495.34999084472656,103.60000610351562
g :  : BBData-430.04998779296875,85.73333740234375,495.34999084472656,103.60000610351562
g :  : BBData-430.04998779296875,85.73333740234375,495.34999084472656,103.60000610351562
text : transform-matrix(1.0236 0 0 1 426.5742 331.9067);font-family-'CenturyGothic-Bold';font-size-12.3217; : BBData-425.2166748046875,318.6000061035156,476.86668395996094,336.46665954589844
g :  : BBData-425.2166748046875,318.6000061035156,476.86668395996094,336.46665954589844
g :  : BBData-425.2166748046875,318.6000061035156,476.86668395996094,336.46665954589844
text : transform-matrix(1.0236 0 0 1 231.4648 324.5288);font-family-'CenturyGothic-Bold';font-size-12.3217; : BBData-230.06666564941406,311.23333740234375,292.3333282470703,329.0833282470703
g :  : BBData-230.06666564941406,311.23333740234375,292.3333282470703,329.0833282470703
g :  : BBData-230.06666564941406,311.23333740234375,292.3333282470703,329.0833282470703
text : transform-matrix(1.0236 0 0 1 76.7148 323.0288);font-family-'CenturyGothic-Bold';font-size-12.3217; : BBData-75.26666259765625,309.73333740234375,137.53334045410156,327.5833282470703
g :  : BBData-75.26666259765625,309.73333740234375,137.53334045410156,327.5833282470703
g :  : BBData-75.26666259765625,309.73333740234375,137.53334045410156,327.5833282470703
text : transform-matrix(1.0236 0 0 1 216.2148 184.2783);font-family-'CenturyGothic-Bold';font-size-12.3217; : BBData-214.8000030517578,170.9499969482422,252.81666564941406,188.8000030517578
g :  : BBData-214.8000030517578,170.9499969482422,252.81666564941406,188.8000030517578
g :  : BBData-214.8000030517578,170.9499969482422,252.81666564941406,188.8000030517578
text : transform-matrix(1.0236 0 0 1 307.7148 150.6938);font-family-'CenturyGothic-Bold';font-size-12.3217; : BBData-306.33331298828125,137.35000610351562,361.0166473388672,155.1999969482422
g :  : BBData-306.33331298828125,137.35000610351562,361.0166473388672,155.1999969482422
g :  : BBData-306.33331298828125,137.35000610351562,361.0166473388672,155.1999969482422
text : transform-matrix(1 0 0 1.018 120.6875 106.2949);font-family-'CenturyGothic';font-size-9.8465; : BBData-119.30000305175781,94.18333435058594,128.26666259765625,110.89999389648438
text : transform-matrix(1 0 0 1.018 111.9638 106.2949);font-family-'CenturyGothic';font-size-9.8465; : BBData-110.56666564941406,94.18333435058594,122.51666259765625,110.89999389648438
text : transform-matrix(1 0 0 1.018 108.5073 106.2949);font-family-'CenturyGothic';font-size-9.8465; : BBData-107.11666870117188,94.18333435058594,113.11666870117188,110.89999389648438
text : transform-matrix(1 0 0 1.018 92.8711 106.2949);font-family-'CenturyGothic';font-size-9.8465; : BBData-91.46665954589844,94.18333435058594,112.33332824707031,110.89999389648438
text : transform-matrix(1 0 0 1.018 88.1054 106.2949);font-family-'CenturyGothic';font-size-9.8465; : BBData-86.69999694824219,94.18333435058594,95.66667175292969,110.89999389648438
text : transform-matrix(1 0 0 1.018 79.3818 106.2949);font-family-'CenturyGothic';font-size-9.8465; : BBData-77.98333740234375,94.18333435058594,89.93333435058594,110.89999389648438
text : transform-matrix(1 0 0 1.018 75.9257 106.2949);font-family-'CenturyGothic';font-size-9.8465; : BBData-74.51666259765625,94.18333435058594,80.51666259765625,110.89999389648438
text : transform-matrix(1 0 0 1.018 65.0156 106.2949);font-family-'CenturyGothic';font-size-9.8465; : BBData-63.600006103515625,94.18333435058594,78.53334045410156,110.89999389648438
g :  : BBData-63.600006103515625,94.18333435058594,128.26666259765625,110.89999389648438
g :  : BBData-63.600006103515625,94.18333435058594,128.26666259765625,110.89999389648438
text : transform-matrix(1.0236 0 0 1 51.1411 94.6411);font-family-'CenturyGothic-Bold';font-size-12.3217; : BBData-49.69999694824219,81.28334045410156,163.56666564941406,99.13333129882812
g :  : BBData-49.69999694824219,81.28334045410156,163.56666564941406,99.13333129882812
g :  : BBData-49.69999694824219,81.28334045410156,163.56666564941406,99.13333129882812
rect : x-328.8;y-266.8;fill-#FFFFFF;width-22;height-30.1; : BBData-328.933349609375,266.83331298828125,350.9833526611328,296.9833221435547
rect : x-328.3;y-266.3;width-23;height-31.1; : BBData-328.433349609375,266.33331298828125,351.4833526611328,297.4833221435547
path : fill-#FFFFFF;d-M403.7,403.2v5h63.5v-5H403.7z M244.7,408.2h63.5v-5h-63.5V408.2z M2.1,147.9h5l3.2-63.4h-5L2.1,147.9z   M2.6,344.2h5l2.4-62h-5L2.6,344.2z; : BBData-2.1666717529296875,84.5,467.4166717529297,408.316650390625
rect : x-437.1;y-31.1;width-0.5;height-1.9; : BBData-437.2833251953125,31.100006103515625,437.816650390625,33.01666259765625
rect : x-437.1;y-33.5;width-0.5;height-1.9; : BBData-437.2833251953125,33.5,437.816650390625,35.43333435058594
rect : x-454.4;y-40.2;width-7.5;height-0.5; : BBData-454.566650390625,40.19999694824219,462.09999084472656,40.73333740234375
rect : x-444.4;y-40.2;width-7.5;height-0.5; : BBData-444.566650390625,40.19999694824219,452.09999084472656,40.73333740234375
rect : x-511.2;y-119.8;width-0.5;height-9.6; : BBData-511.3999938964844,119.81666564941406,511.93333435058594,129.4499969482422
polygon : points-437.6,36 437.1,36 437.1,40.7 441.8,40.7 441.8,40.2 437.6,40.2 ; : BBData-437.2833251953125,36,441.99998474121094,40.73333740234375
rect : x-502.8;y-157.2;transform-matrix(-0.7263 -0.6873 0.6873 -0.7263 759.4896 619.6047);width-0.5;height-2.9; : BBData-502.16668701171875,157.4166717529297,504.5500183105469,159.89999389648438
polygon : points-498.5,163.1 498.6,165.2 499.1,165.2 499,163.3 500.3,161.9 499.9,161.6 ; : BBData-498.70001220703125,161.63333129882812,500.5166778564453,165.25
rect : x-51.1;y-187.2;width-7.3;height-0.5; : BBData-51.16667175292969,187.21665954589844,58.5,187.75
rect : x-58.7;y-227.2;width-9.8;height-0.5; : BBData-58.78334045410156,227.23333740234375,68.61666870117188,227.76666259765625
rect : x-498.1;y-171.5;transform-matrix(-3.342701e-02 -0.9994 0.9994 -3.342701e-02 344.0852 676.2318);width-1.9;height-0.5; : BBData-498.95001220703125,170.8000030517578,499.5500183105469,172.75
rect : x-36.6;y-187.2;width-7.3;height-0.5; : BBData-36.66667175292969,187.21665954589844,44,187.75
rect : x-65.7;y-187.2;width-7.3;height-0.5; : BBData-65.78334045410156,187.21665954589844,73.11666870117188,187.75
rect : x-94.8;y-187.2;width-7.3;height-0.5; : BBData-94.89999389648438,187.21665954589844,102.23333740234375,187.75
rect : x-80.2;y-187.2;width-7.3;height-0.5; : BBData-80.28334045410156,187.21665954589844,87.61666870117188,187.75
rect : x-346.9;y-334.2;width-0.5;height-7.9; : BBData-347.04998779296875,334.26666259765625,347.58331298828125,342.1999969482422
rect : x-39.1;y-227.2;width-9.8;height-0.5; : BBData-39.16667175292969,227.23333740234375,49,227.76666259765625
rect : x-464.4;y-40.2;width-7.5;height-0.5; : BBData-464.566650390625,40.19999694824219,472.09999084472656,40.73333740234375
rect : x-346.9;y-318.5;width-0.5;height-7.9; : BBData-347.04998779296875,318.566650390625,347.58331298828125,326.4833221435547
rect : x-346.9;y-350;width-0.5;height-7.9; : BBData-347.04998779296875,350.08331298828125,347.58331298828125,357.99998474121094
rect : x-346.9;y-381.5;width-0.5;height-7.9; : BBData-347.04998779296875,381.58331298828125,347.58331298828125,389.49998474121094
rect : x-346.9;y-365.7;width-0.5;height-7.9; : BBData-347.04998779296875,365.7833251953125,347.58331298828125,373.7166442871094
rect : x-516.6;y-53.5;width-1.7;height-0.5; : BBData-516.7833251953125,53.5,518.5166473388672,54.01666259765625
rect : x-502.8;y-49.3;transform-matrix(0.6845 0.729 -0.729 0.6845 196.2721 -354.3466);width-9.6;height-0.5; : BBData-504.316650390625,45.94999694824219,511.29998779296875,53.30000305175781
polygon : points-511.7,98.3 517,98.3 517,97.8 511.7,97.8 511.7,94.3 511.2,94.3 511.2,103.9 511.7,103.9 ; : BBData-511.3999938964844,94.31666564941406,517.2166595458984,103.94999694824219
rect : x-498.7;y-31.1;width-0.5;height-1.9; : BBData-498.8999938964844,31.100006103515625,499.43333435058594,33.01666259765625
polygon : points-501.9,43.9 502.3,43.6 499.2,40.4 499.2,36 498.7,36 498.7,40.2 494.5,40.2 494.5,40.7 498.9,40.7 ; : BBData-494.70001220703125,36,502.5166778564453,43.93333435058594
rect : x-474.4;y-40.2;width-7.5;height-0.5; : BBData-474.566650390625,40.19999694824219,482.09999084472656,40.73333740234375
rect : x-498.7;y-33.5;width-0.5;height-1.9; : BBData-498.8999938964844,33.5,499.43333435058594,35.43333435058594
rect : x-484.5;y-40.2;width-7.5;height-0.5; : BBData-484.70001220703125,40.19999694824219,492.2166748046875,40.73333740234375
rect : x-511.2;y-81.5;width-0.5;height-9.6; : BBData-511.3999938964844,81.51666259765625,511.93333435058594,91.13333129882812
rect : x-519.9;y-97.8;width-5.6;height-0.5; : BBData-520.0999755859375,97.81666564941406,525.7166290283203,98.35000610351562
rect : x-519.9;y-53.5;width-1.7;height-0.5; : BBData-520.0999755859375,53.5,521.8332977294922,54.01666259765625
rect : x-519.9;y-62.3;width-5.6;height-0.5; : BBData-520.0999755859375,62.28334045410156,525.7166290283203,62.81666564941406
rect : x-511.2;y-68.8;width-0.5;height-9.6; : BBData-511.3999938964844,68.80000305175781,511.93333435058594,78.44999694824219
polygon : points-511.7,62.8 517,62.8 517,62.3 511.7,62.3 511.7,56 511.2,56 511.2,65.6 511.7,65.6 ; : BBData-511.3999938964844,56,517.2166595458984,65.61666870117188
rect : x-511.4;y-53.5;width-3.5;height-0.5; : BBData-511.58331298828125,53.5,515.1333160400391,54.01666259765625
polygon : points-431.4,168.7 430.9,168.7 430.9,175.2 431.2,175.5 437.7,175.5 437.7,175 431.4,175 ; : BBData-431.066650390625,168.71665954589844,437.9166564941406,175.5500030517578
polygon : points-430.9,150.4 430.9,156.9 431.4,156.9 431.4,150.6 437.7,150.6 437.7,150.1 431.2,150.1 ; : BBData-431.066650390625,150.13333129882812,437.9166564941406,156.9499969482422
rect : x-445.5;y-175;width-2.6;height-0.5; : BBData-445.683349609375,175.03334045410156,448.3166809082031,175.5500030517578
rect : x-440.3;y-150.1;width-2.6;height-0.5; : BBData-440.4666748046875,150.13333129882812,443.1000213623047,150.6666717529297
rect : x-498.7;y-167.1;transform-matrix(0.9994 -3.318172e-02 3.318172e-02 0.9994 -5.2996 16.6473);width-0.5;height-1.9; : BBData-498.816650390625,167.10000610351562,499.4333190917969,169.0500030517578
rect : x-430.9;y-159.2;width-0.5;height-2.4; : BBData-431.066650390625,159.21665954589844,431.59999084472656,161.64999389648438
rect : x-430.9;y-164;width-0.5;height-2.4; : BBData-431.066650390625,164.03334045410156,431.59999084472656,166.4499969482422
rect : x-445.5;y-150.1;width-2.6;height-0.5; : BBData-445.683349609375,150.13333129882812,448.3166809082031,150.6666717529297
rect : x-440.3;y-175;width-2.6;height-0.5; : BBData-440.4666748046875,175.03334045410156,443.1000213623047,175.5500030517578
path : d-M274.9,196c-0.6,0-1.2-0.5-1.2-1.2s0.5-1.2,1.2-1.2c0.6,0,1.2,0.5,1.2,1.2S275.6,196,274.9,196z M274.9,194.1  c-0.4,0-0.7,0.3-0.7,0.7c0,0.4,0.3,0.7,0.7,0.7c0.4,0,0.7-0.3,0.7-0.7C275.6,194.4,275.3,194.1,274.9,194.1z; : BBData-273.83331298828125,193.63333129882812,276.2833251953125,196.0500030517578
path : d-M283.2,200.4h-14.8c-6.5,0-6.8-2.9-6.8-3l0-43.5c0-6.8,5.5-12.2,12.2-12.2h1.9c6.8,0,12.2,5.5,12.2,12.2v43.5  C288,200.2,283.4,200.4,283.2,200.4L283.2,200.4z M273.9,142.1c-6.5,0-11.7,5.3-11.7,11.8v43.5c0,0,0.3,2.5,6.3,2.5h14.7  c0.2,0,4.3-0.2,4.3-2.5v-43.5c0-6.5-5.3-11.8-11.8-11.8H273.9z; : BBData-261.73333740234375,141.71665954589844,288.1666717529297,200.4499969482422
path : d-M195.1,119.1c-0.6,0-1.2-0.5-1.2-1.2s0.5-1.2,1.2-1.2s1.2,0.5,1.2,1.2S195.7,119.1,195.1,119.1z M195.1,117.2  c-0.4,0-0.7,0.3-0.7,0.7c0,0.4,0.3,0.7,0.7,0.7c0.4,0,0.7-0.3,0.7-0.7C195.7,117.5,195.4,117.2,195.1,117.2z; : BBData-194.01666259765625,116.71665954589844,196.4499969482422,119.13333129882812
path : d-M200.8,143.6c-0.4,0-0.8-0.4-0.8-0.8c0-0.4,0.4-0.8,0.8-0.8c0.4,0,0.8,0.4,0.8,0.8C201.6,143.2,201.2,143.6,200.8,143.6z   M200.8,142.5c-0.2,0-0.3,0.1-0.3,0.3c0,0.2,0.1,0.3,0.3,0.3c0.2,0,0.3-0.1,0.3-0.3C201.1,142.6,200.9,142.5,200.8,142.5z; : BBData-200.11666870117188,142.03334045410156,201.75,143.6666717529297
path : d-M205.1,143.6c-0.4,0-0.8-0.4-0.8-0.8c0-0.4,0.4-0.8,0.8-0.8c0.4,0,0.8,0.4,0.8,0.8C206,143.2,205.6,143.6,205.1,143.6z   M205.1,142.5c-0.2,0-0.3,0.1-0.3,0.3c0,0.2,0.1,0.3,0.3,0.3c0.2,0,0.3-0.1,0.3-0.3C205.5,142.6,205.3,142.5,205.1,142.5z; : BBData-204.43333435058594,142.03334045410156,206.14999389648438,143.6666717529297
path : fill-#FFFFFF;d-M203,157.7c-4.5,0-8.1-3.6-8.1-8.1c0-1.3,0.3-2.6,0.9-3.7c2.4-1.5,5.6-1.7,6.5-1.8v3.5  c0,0.1,0.1,0.2,0.2,0.2h1.2c0.1,0,0.2-0.1,0.2-0.2v-3.5c0.9,0,3.9,0.3,6.2,1.7c0.6,1.1,0.9,2.4,0.9,3.7  C211.1,154.1,207.5,157.7,203,157.7z; : BBData-195,144.11666870117188,211.26666259765625,157.75
rect : x-202.8;y-142.7;width-0.7;height-4.8; : BBData-202.9166717529297,142.71665954589844,203.64999389648438,147.5500030517578
path : fill-#FFFFFF;d-M203,141.5c2.8,0,5.2,1.4,6.7,3.5c-2.3-1.2-4.9-1.3-5.7-1.4v-1.3c0-0.1-0.1-0.2-0.2-0.2h-1.2  c-0.1,0-0.2,0.1-0.2,0.2v1.3c-0.8,0-3.6,0.2-6,1.4C197.7,143,200.2,141.5,203,141.5z; : BBData-196.51666259765625,141.53334045410156,209.85000610351562,145.0500030517578
path : d-M210.6,145.6L210.6,145.6C210.6,145.6,210.6,145.6,210.6,145.6c-1.5-2.7-4.3-4.5-7.6-4.5c-4.7,0-8.6,3.9-8.6,8.6  c0,4.7,3.9,8.6,8.6,8.6c4.7,0,8.6-3.9,8.6-8.6C211.6,148.2,211.2,146.8,210.6,145.6z; : BBData-194.5,141.13333129882812,211.76666259765625,158.36666870117188
path : d-M203.1,150.8c-0.7,0-1.3-0.6-1.3-1.3c0-0.7,0.6-1.3,1.3-1.3c0.7,0,1.3,0.6,1.3,1.3C204.4,150.2,203.8,150.8,203.1,150.8z   M203.1,148.7c-0.4,0-0.8,0.4-0.8,0.8c0,0.4,0.4,0.8,0.8,0.8c0.4,0,0.8-0.4,0.8-0.8C203.9,149.1,203.5,148.7,203.1,148.7z; : BBData-201.9166717529297,148.21665954589844,204.56666564941406,150.86666870117188
path : d-M204.8,33.2c0.4,0,0.8-0.4,0.8-0.8c0-0.4-0.4-0.8-0.8-0.8c-0.4,0-0.8,0.4-0.8,0.8C204,32.8,204.3,33.2,204.8,33.2z   M204.8,32.1c0.2,0,0.3,0.1,0.3,0.3c0,0.2-0.1,0.3-0.3,0.3c-0.2,0-0.3-0.1-0.3-0.3C204.5,32.2,204.6,32.1,204.8,32.1z; : BBData-204.13333129882812,31.600006103515625,205.76666259765625,33.23333740234375
path : d-M209.2,33.2c0.4,0,0.8-0.4,0.8-0.8c0-0.4-0.4-0.8-0.8-0.8c-0.4,0-0.8,0.4-0.8,0.8C208.3,32.8,208.7,33.2,209.2,33.2z   M209.2,32.1c0.2,0,0.3,0.1,0.3,0.3c0,0.2-0.1,0.3-0.3,0.3c-0.2,0-0.3-0.1-0.3-0.3C208.8,32.2,209,32.1,209.2,32.1z; : BBData-208.43333435058594,31.600006103515625,210.14999389648438,33.23333740234375
path : d-M207.1,37.8c-0.7,0-1.3,0.6-1.3,1.3c0,0.7,0.6,1.3,1.3,1.3c0.7,0,1.3-0.6,1.3-1.3C208.4,38.4,207.8,37.8,207.1,37.8z   M207.1,39.9c-0.4,0-0.8-0.4-0.8-0.8c0-0.4,0.4-0.8,0.8-0.8c0.4,0,0.8,0.4,0.8,0.8C207.9,39.5,207.5,39.9,207.1,39.9z; : BBData-205.93333435058594,37.78334045410156,208.56666564941406,40.41667175292969
path : fill-#FFFFFF;d-M207,47.3c-4.5,0-8.1-3.6-8.1-8.1c0-1.3,0.3-2.6,0.9-3.7c2.4-1.5,5.6-1.7,6.5-1.8v3.5c0,0.1,0.1,0.2,0.2,0.2  h1.2c0.1,0,0.2-0.1,0.2-0.2v-3.5c0.9,0,3.9,0.3,6.2,1.7c0.6,1.1,0.9,2.4,0.9,3.7C215.1,43.7,211.5,47.3,207,47.3z; : BBData-199,33.68333435058594,215.26666259765625,47.31666564941406
rect : x-206.8;y-32.2;fill-#FFFFFF;width-0.7;height-4.8; : BBData-206.93333435058594,32.19999694824219,207.64999389648438,37.01666259765625
path : fill-#FFFFFF;d-M207,31.1c2.8,0,5.2,1.4,6.7,3.5c-2.3-1.2-4.9-1.3-5.7-1.4V32c0-0.1-0.1-0.2-0.2-0.2h-1.2  c-0.1,0-0.2,0.1-0.2,0.2v1.3c-0.8,0-3.6,0.2-6,1.4C201.7,32.5,204.2,31.1,207,31.1z; : BBData-200.51666259765625,31.100006103515625,213.85000610351562,34.73333740234375
path : d-M214.6,35.2L214.6,35.2C214.6,35.2,214.6,35.2,214.6,35.2c-1.5-2.7-4.3-4.5-7.6-4.5c-4.7,0-8.6,3.9-8.6,8.6  c0,4.7,3.9,8.6,8.6,8.6s8.6-3.9,8.6-8.6C215.6,37.7,215.2,36.4,214.6,35.2z; : BBData-198.5,30.699996948242188,215.76666259765625,47.93333435058594
path : d-M469.1,173c-0.8,0-1.4-0.6-1.4-1.4c0-0.8,0.6-1.4,1.4-1.4c0.8,0,1.4,0.6,1.4,1.4C470.6,172.4,469.9,173,469.1,173z   M469.1,170.7c-0.5,0-0.9,0.4-0.9,0.9c0,0.5,0.4,0.9,0.9,0.9c0.5,0,0.9-0.4,0.9-0.9C470.1,171.1,469.7,170.7,469.1,170.7z; : BBData-467.8833312988281,170.23333740234375,470.81666564941406,173.0500030517578
path : d-M477.5,173c-0.8,0-1.4-0.6-1.4-1.4c0-0.8,0.6-1.4,1.4-1.4c0.8,0,1.4,0.6,1.4,1.4C478.9,172.4,478.3,173,477.5,173z   M477.5,170.7c-0.5,0-0.9,0.4-0.9,0.9c0,0.5,0.4,0.9,0.9,0.9c0.5,0,0.9-0.4,0.9-0.9C478.4,171.1,478,170.7,477.5,170.7z; : BBData-476.2833251953125,170.23333740234375,479.09999084472656,173.0500030517578
path : d-M473.8,164.1l-1.2,0c-0.5-0.2-0.9-0.8-0.9-1.4c0-0.8,0.7-1.5,1.5-1.5c0.8,0,1.5,0.7,1.5,1.5  C474.7,163.3,474.4,163.8,473.8,164.1L473.8,164.1z M472.8,163.6h0.9c0.3-0.2,0.6-0.5,0.6-0.9c0-0.6-0.4-1-1-1c-0.6,0-1,0.4-1,1  C472.2,163.1,472.5,163.4,472.8,163.6z; : BBData-471.8666687011719,161.23333740234375,474.9166717529297,164.1666717529297
path : d-M486.7,169.1h-13.1v-5H473v5h-12.9c-0.7,0-1.2-0.6-1.2-1.2v-13.5c0-0.7,0.6-1.2,1.2-1.2h26.6c0.7,0,1.2,0.6,1.2,1.2v13.5  C488,168.6,487.4,169.1,486.7,169.1z M474.1,168.6h12.6c0.4,0,0.8-0.3,0.8-0.8v-13.5c0-0.4-0.3-0.8-0.8-0.8h-26.6  c-0.4,0-0.8,0.3-0.8,0.8v13.5c0,0.4,0.3,0.8,0.8,0.8h12.4v-5h1.6V168.6z; : BBData-459.066650390625,153.23333740234375,488.2166442871094,169.1666717529297
path : d-M474.1,172.4h-1.6v-8.8h1.6V172.4z M473,171.9h0.6v-7.8H473V171.9z; : BBData-472.683349609375,163.61666870117188,474.3166809082031,172.4499969482422
path : d-M503.1,118.5c-1.9,0-3.4-1.5-3.4-3.4c0-1.9,1.5-3.4,3.4-3.4c1.9,0,3.4,1.5,3.4,3.4C506.5,117,505,118.5,503.1,118.5z   M503.1,112.2c-1.6,0-2.9,1.3-2.9,2.9c0,1.6,1.3,2.9,2.9,2.9c1.6,0,2.9-1.3,2.9-2.9C506,113.5,504.7,112.2,503.1,112.2z; : BBData-499.8999938964844,111.69999694824219,506.71665954589844,118.53334045410156
path : d-M503.2,137.2c-2.1,0-3.9-1.7-3.9-3.9c0-2.1,1.7-3.9,3.9-3.9c2.1,0,3.9,1.7,3.9,3.9C507.1,135.4,505.3,137.2,503.2,137.2z   M503.2,129.9c-1.9,0-3.4,1.5-3.4,3.4c0,1.9,1.5,3.4,3.4,3.4c1.9,0,3.4-1.5,3.4-3.4C506.6,131.4,505.1,129.9,503.2,129.9z; : BBData-499.5,129.4166717529297,507.3333282470703,137.23333740234375
path : d-M516.2,138.1c-2.7,0-4.9-2.2-4.9-4.9c0-2.7,2.2-4.9,4.9-4.9c2.7,0,4.9,2.2,4.9,4.9C521.1,135.9,518.9,138.1,516.2,138.1z   M516.2,128.8c-2.4,0-4.4,2-4.4,4.4c0,2.4,2,4.4,4.4,4.4s4.4-2,4.4-4.4C520.6,130.8,518.6,128.8,516.2,128.8z; : BBData-511.5,128.31666564941406,521.3333282470703,138.14999389648438
path : d-M516,118.7c-2,0-3.6-1.6-3.6-3.6s1.6-3.6,3.6-3.6c2,0,3.6,1.6,3.6,3.6S518,118.7,516,118.7z M516,111.9  c-1.7,0-3.1,1.4-3.1,3.1c0,1.7,1.4,3.1,3.1,3.1s3.1-1.4,3.1-3.1C519.2,113.3,517.8,111.9,516,111.9z; : BBData-512.5999755859375,111.51666259765625,519.8166351318359,118.73333740234375
rect : x-300.2;y-61.6;fill-#FFFFFF;width-30.2;height-29.5; : BBData-300.3500061035156,61.58332824707031,330.5833282470703,91.13333129882812
path : d-M330.9,91.6h-31.2V61.1h31.2V91.6z; : BBData-299.83331298828125,61.08332824707031,331.066650390625,91.63333129882812
path : fill-#FFFFFF;d-M311.8,33c-5.5,0-9.9,4.4-9.9,9.9c0,5.5,4.4,9.9,9.9,9.9c5.5,0,9.9-4.4,9.9-9.9  C321.7,37.4,317.3,33,311.8,33z; : BBData-302.0333251953125,33,321.88331604003906,52.83332824707031
path : d-M311.8,53.3c-5.7,0-10.4-4.7-10.4-10.4c0-5.7,4.7-10.4,10.4-10.4c5.7,0,10.4,4.7,10.4,10.4  C322.2,48.7,317.6,53.3,311.8,53.3z; : BBData-301.5333251953125,32.5,322.38331604003906,53.31666564941406
path : d-M236,131h-43.5c-2.8,0-3-4.6-3-4.8v-14.8c0-6.5,2.9-6.8,3-6.8l43.5,0c6.8,0,12.2,5.5,12.2,12.2v1.9  C248.3,125.5,242.8,131,236,131z M192.5,105.1c0,0-2.5,0.3-2.5,6.3v14.8c0,0,0.2,4.3,2.5,4.3H236c6.5,0,11.8-5.3,11.8-11.8v-1.9  c0-6.5-5.3-11.8-11.8-11.8H192.5z; : BBData-189.61666870117188,104.60000610351562,248.46665954589844,131.03334045410156
polygon : fill-#FFFFFF;points-531.6,417.9 10.8,417.9 10.8,378 19.7,378 19.7,408.7 531.6,408.7 ; : BBData-10.883331298828125,378.08331298828125,531.8166809082031,417.99998474121094
path : fill-#F3CF9A;d-M7,372l4.7-118.9h22.5v39.7h1.2l0,0.2c0,0,0.1,0,0.1,0c1.6,0,16.3-0.3,27.1-10.8c7.1-6.9,11-16.8,11.5-29.2  h38.7v8h31.8c0.1,1.2,0.7,10.2,5.3,19.1c4.5,8.8,13.8,19.2,32.5,19.2v-0.2h1.2v-37.9h2.3v141.6H25.7V372H7z; : BBData-7.0833282470703125,253.0500030517578,186.0500030517578,402.9166717529297
path : fill-#F3CF9A;d-M6.3,173.4l6-117.2h11.4v-30h157.5v24.9h0.2v0.2c1.7,0,3.3,0.1,4.8,0.2v38.7h-5.1v82h-2.5v1h-0.4v-39H177  l0-0.2c-19.7,2-28.9,12.9-33.2,21.7c-3.8,7.7-4.4,15.2-4.6,17.8h-27.3v-32.8h-2.5v0.4c-15,0.5-22.6,9-26.2,16.2  c-2.6,5.1-3.6,10.2-4.1,13.3c-1.5-15-9.2-22.3-15.6-25.7c-6.2-3.3-12.4-3.8-14.2-3.9v-1.1h-2.5v33.5H6.3z; : BBData-6.383331298828125,26.183334350585938,186.3333282470703,173.5500030517578
path : fill-#D4D4EB;d-M187.2,49h39V26.2h18.5V28c0,2.5,1.7,3.1,1.8,3.1l12.8,0l0,6.7c0,0,0.8,3.9,3.7,3.9h1.6v2.7  c-1.5,0.8-2.7,2.3-2.7,4.7c0,5.6,3.2,14.1,8,14.1h0.7c4.8,0,8-8.5,8-14.1c0-2.5-1.3-3.9-2.8-4.7v-2.7h1.6c3,0,3.7-3.9,3.8-3.9v-6.7  l2.5,0c1,0,1.5-1.1,1.5-1.2l0-3.8h5.8v7.1h-2.6c-0.9,0-1.2,0.7-1.3,1.2v43.4c0,1.4,2,2.1,2.1,2.1l1.8,0v21.2h-4v-25h-1.2V76  c-21.6,0-24.8,20.7-25.3,25.2H251v0h-63.8v-9.8h38.8v-1.2l0.2,0c0-0.1-0.2-10-5.7-19.7c-4.7-8.2-14.2-17.8-33.3-19.5V49z; : BBData-187.3000030517578,26.100006103515625,291.1666717529297,101.23333740234375
rect : x-187.2;y-26.2;fill-#B2A18E;width-38.5;height-22.3; : BBData-187.3000030517578,26.199996948242188,225.85000610351562,48.51666259765625
path : fill-#FFFFFF;d-M263,41.2c-2.6,0-3.2-3.4-3.2-3.4v-6.7l21,0l0,6.6c0,0-0.7,3.5-3.3,3.5H263z; : BBData-259.91668701171875,31.083328247070312,280.9666748046875,41.23333740234375
path : fill-#FFFFFF;d-M278.1,49.2c0,6.2-3.3,13.6-7.5,13.6h-0.7c-4.2,0-7.5-7.5-7.5-13.6c0-5.3,6.4-5.4,7.2-5.4l0.1,0l1.3,0  C271.7,43.7,278.1,43.9,278.1,49.2z; : BBData-262.51666259765625,43.69999694824219,278.28334045410156,62.83332824707031
path : fill-#FFFFFF;d-M275.4,44.2c-1.9-0.9-4-0.9-4.4-0.9l-0.1,0l-1.3,0c-0.4,0-2.5,0.1-4.4,0.9v-2.4h10.2V44.2z; : BBData-265.33331298828125,41.78334045410156,275.58331298828125,44.23333740234375
path : fill-#FFFFFF;d-M245.2,26.2h0.9v3.2H284v-3.2h0.8v3.6c-0.1,0.2-0.4,0.8-1,0.8h-37.1c-0.2-0.1-1.4-0.6-1.4-2.6V26.2z; : BBData-245.31666564941406,26.199996948242188,284.96665954589844,30.633331298828125
rect : x-246.5;y-26.2;fill-#D4D4EB;width-36.9;height-2.7; : BBData-246.63333129882812,26.199996948242188,283.56666564941406,28.933334350585938
path : fill-#FFFFFF;d-M288.6,71.6v6.9h2.4v1h-1.7c-0.2-0.1-1.7-0.7-1.7-1.6l0-6.3H288.6z; : BBData-287.73333740234375,71.60000610351562,291.1666717529297,79.53334045410156
path : fill-#FFFFFF;d-M288.6,34.2v35.1h-1l0-34.8c0,0,0.2-0.7,0.8-0.7h2.6v0.4H288.6z; : BBData-287.75,33.80000305175781,291.1666717529297,69.33332824707031
rect : x-289.1;y-34.7;fill-#D4D4EB;width-1.9;height-34.6; : BBData-289.25,34.69999694824219,291.1666717529297,69.33332824707031
rect : x-289.1;y-71.6;fill-#D4D4EB;width-1.9;height-6.4; : BBData-289.25,71.60000610351562,291.1666717529297,78.03334045410156
rect : x-287.5;y-69.8;fill-#FFFFFF;width-3.5;height-1.3; : BBData-287.6499938964844,69.81666564941406,291.1666717529297,71.14999389648438
path : fill-#D4D4EB;d-M186.9,89v1.2h-0.2V51.5c19.1,1.5,28.6,11.1,33.2,19.2c4.4,7.6,5.4,15.3,5.6,18.2H186.9z; : BBData-186.8000030517578,51.5,225.64999389648438,90.23333740234375
rect : x-187.2;y-101.8;fill-#FFFFFF;width-63.8;height-32; : BBData-187.3000030517578,101.81666564941406,251.14999389648438,133.85000610351562
path : fill-#FFFFFF;d-M231.3,151.7c-2.6,0-3.2-3.4-3.2-3.4v-8.5h21l0,8.4c0,0-0.7,3.5-3.3,3.5H231.3z; : BBData-228.23333740234375,139.8333282470703,249.26666259765625,151.75
path : fill-#FFFFFF;d-M246.4,159.6c0,6.2-3.3,13.6-7.5,13.6h-0.7c-4.2,0-7.5-7.5-7.5-13.6c0-5.3,6.4-5.4,7.2-5.4l0.1,0l1.3,0  C240,154.2,246.4,154.3,246.4,159.6z; : BBData-230.81666564941406,154.21665954589844,246.5500030517578,173.26666259765625
path : fill-#FFFFFF;d-M243.7,154.6c-1.9-0.9-4-0.9-4.4-0.9l-0.1,0l-1.3,0c-0.4,0-2.5,0.1-4.4,0.9v-2.4h10.2V154.6z; : BBData-233.63333129882812,152.23333740234375,243.85000610351562,154.6666717529297
rect : x-187.2;y-139.7;fill-#888888;width-31.6;height-20.6; : BBData-187.3000030517578,139.71665954589844,218.96665954589844,160.36666870117188
path : fill-#D4D4EB;d-M237.7,202.7h-37.3v-36.9c4.6,0.3,18,2.1,27.3,11.4C234.1,183.6,237.4,192.1,237.7,202.7z; : BBData-200.5,165.81666564941406,237.85000610351562,202.75
path : fill-#D4D4EB;d-M258,139.7v62.8h-19.8c-0.3-10.7-3.7-19.3-10.1-25.7c-11.6-11.5-29.1-11.7-29.4-11.7c0,0,0,0,0,0v0.2h-0.8  v37.1h-10.8v-41.7h32.1v-21.1h8.3l0,8.5c0,0,0.8,3.9,3.7,3.9h1.6v2.7c-1.5,0.8-2.7,2.3-2.7,4.7c0,5.6,3.2,14.1,8,14.1h0.7  c4.8,0,8-8.5,8-14.1c0-2.5-1.3-3.9-2.8-4.7v-2.7h1.6c3,0,3.7-3.9,3.8-3.9v-8.5H258z; : BBData-187.1999969482422,139.61666870117188,258.1499938964844,202.5500030517578
rect : x-258.5;y-139.7;fill-#FFFFFF;width-32.5;height-62.8; : BBData-258.6333312988281,139.71665954589844,291.1666717529297,202.5500030517578
rect : x-256;y-118.7;fill-#888888;width-35;height-15; : BBData-256.1333312988281,118.69999694824219,291.1666717529297,133.73333740234375
path : fill-#D4D4EB;d-M286.7,101.5v4.7h4.3v7.5h-35v-7.5h4.7v-4.1l0.2,0c0-0.3,1.2-24.7,23.6-25.6v24.9H286.7z; : BBData-256.1333312988281,76.51666259765625,291.1666717529297,113.73333740234375
path : fill-#F3CF9A;d-M139.7,173.2c0.1-2.7,0.9-9.9,4.5-17.4c4.1-8.5,12.9-18.9,31.5-21.2v38.6H139.7z; : BBData-139.8000030517578,134.61666870117188,175.8333282470703,173.26666259765625
path : fill-#F3CF9A;d-M24.5,204.1v-16.4h4.8v-0.5h-4.8v-7.8H47v-5.9h2.2v-32c1.8,0.1,7.9,0.5,14,3.8c6.7,3.6,14.9,11.4,15.6,28.2  l0.5,0c0-0.1,0.3-8.1,4.3-16c3.6-7.1,11-15.5,25.8-15.9v32h2.1v5.9h1.3v7.8h-3.5v0.5h3.5v16.4H24.5z; : BBData-24.583328247070312,141.53334045410156,112.93333435058594,204.26666259765625
path : fill-#F3CF9A;d-M181.1,261.2v37.6c-17.6-0.5-26.4-10.5-30.8-18.9c-4.4-8.5-5.1-17.1-5.2-18.7H181.1z; : BBData-145.21665954589844,261.25,181.25,298.8999938964844
path : fill-#EDDBC3;d-M313.2,299.4v-38.3h6v-4.2h2.1v-38.7c2.9,0.5,10.2,2.1,17.4,6.3c8.5,4.9,18.7,14.3,18.7,31.7h0.2v4.9h5.8  v38.3H313.2z; : BBData-313.3500061035156,218.23333740234375,363.6000061035156,299.48333740234375
path : fill-#F3CF9A;d-M301.2,374c0-0.6,0-1.2,0.1-1.8h31.9v1.8H301.2z; : BBData-301.3500061035156,372.2833251953125,333.3833312988281,374.09999084472656
path : fill-#F3CF9A;d-M196.4,298.8v-37.6h36.9c-0.5,3.9-1.8,10.5-4.9,17.1C224,287.4,214.8,298.3,196.4,298.8z; : BBData-196.5,261.23333740234375,233.4499969482422,298.8833312988281
path : fill-#F3CF9A;d-M195.1,299.1v0.2c19.6,0,29.1-11.4,33.7-20.9c3.2-6.7,4.5-13.4,5-17.4h73.4v44.3h25.4v2.9H300v1.2l-0.2,0  c0,0.3,2.7,29.2,30.5,32.5c-6.8,1.3-29.7,7.7-29.7,32.2v0.2h32v28.2H191.9V261.2h2v37.9H195.1z; : BBData-192,261.04998779296875,332.78334045410156,402.6166534423828
path : fill-#F3CF9A;d-M346.9,397.2v5.5h-8.2v-28.5h-5v-2.5h-32.4c1.8-25.9,30.7-29.5,31-29.5l0-0.5c-25.7-1.9-30.9-25.2-31.8-31  h32.2v-1.2h5.9v-4.1h8.3v5.2h0.5v-5.2h16v97.3h-16v-5.5H346.9z; : BBData-300.6499938964844,305.45001220703125,363.5833282470703,402.8166809082031
path : fill-#EDDBC3;d-M360.7,34.8h9.9c-0.4,2.3-1.5,7.6-4.8,13.1c-0.9-1.4-1.6-2.8-2.2-4.1C362.1,40.6,361.2,37.5,360.7,34.8z; : BBData-360.8666687011719,34.78334045410156,370.8000030517578,47.93333435058594
path : fill-#EDDBC3;d-M297,103.9h41.2v-7.7h-6v1.7H297V26.2h35.2v6.2h5.5v2.4h22.5c0.6,2.8,1.5,6,2.9,9.2c0.6,1.4,1.4,2.9,2.4,4.4  c-4.3,6.8-12.2,13.8-26.4,15.6l0,0.5c0.3,0,29.7,2.1,30.6,29.3h-32v2.5H370V95h0.2c0-24.6-22.4-29.8-29.2-30.8  c13.1-2.2,20.5-8.8,24.7-15.4c5.1,7.8,14.5,15.8,32,18l0-0.2h1.2V28.7h-2.5v37.5c-16.7-2.4-25.7-10.2-30.5-17.8  c4.6-7.5,5.2-14.7,5.2-14.8l-0.2,0v-1.2h-10.7c-0.4-2.7-0.5-4.8-0.5-6.1h0.4v-5.3h38.3v5.3h15.8V54h20V26.2h0.2v34.2h39.6V55h23.6  v52.9h-1.2v32.5h1.3v8.2h-84.3l-0.1,0c-0.1,0.1-12.9,9.2-11.9,21.9c0.9,12.8,7.7,20.9,13.6,22.1h80.5l0,0c0.3-0.1,6.2-2.6,6.2-6.9  v-5h23.7v221.9H369.4V255.1h-11.5c-0.4-16.9-10.5-26.2-18.9-31c-9.3-5.3-18.8-6.6-18.9-6.6l0,0.2h-1.2v37.3h-85.1v2.5l0,0  c0,0,0,1.2-0.3,3.1h-38.9v-5.6h-11v5.6h-38.6v-5.6h-26v-5.4h38v-1.5h0.2c0-19.4-11.1-28.6-20.4-32.9c-7.1-3.3-14.3-4.3-17.9-4.6  v-31.3H140v-5.7h38.7v4.5h2.5v30.3h17.3V203h0.7v0.2h38.6c0,0.4,0,0.7,0,1.1h0.2v4.2h59V103.9z; : BBData-118.98333740234375,20.98333740234375,525.6166687011719,402.70001220703125
path : fill-#EDDBC3;d-M338.2,26.2h21.1c0,1.3,0.1,3.4,0.5,6.1h-21.6V26.2z; : BBData-338.3500061035156,26.199996948242188,360,32.31666564941406
rect : x-414.8;y-26.2;fill-#B2A18E;width-19;height-27.3; : BBData-414.9666748046875,26.199996948242188,434.00001525878906,53.51666259765625
polygon : fill-#FFFFFF;points-435.1,26.2 437.1,26.2 437.1,30.4 437.6,30.4 437.6,26.2 473.7,26.2 473.7,59.9 435.1,59.9 ; : BBData-435.2833251953125,26.199996948242188,473.9166564941406,59.93333435058594
rect : x-523.1;y-108.4;fill-#EDDBC3;width-2.6;height-31.5; : BBData-523.2833251953125,108.41667175292969,525.9166564941406,139.9499969482422
polygon : fill-#FFFFFF;points-511.7,116.6 511.7,108.4 522.6,108.4 522.6,139.9 511.7,139.9 511.7,132.6 511.2,132.6 511.2,139.9   497.1,139.9 497.1,108.4 511.2,108.4 511.2,116.6 ; : BBData-497.29998779296875,108.41667175292969,522.816650390625,139.9499969482422
polygon : fill-#B2A18E;points-474.2,26.2 498.7,26.2 498.7,30.4 499.2,30.4 499.2,26.2 525.7,26.2 525.7,53.5 523.3,53.5   523.3,54 525.7,54 525.7,107.9 511.7,107.9 511.7,107.1 511.2,107.1 511.2,107.9 498.2,107.9 498.2,54.5 474.2,54.5 ; : BBData-474.3833312988281,26.199996948242188,525.9333343505859,107.93333435058594
rect : x-515.4;y-149.6;width-2.1;height-0.5; : BBData-515.5999755859375,149.63333129882812,517.7166290283203,150.1666717529297
rect : x-519.6;y-149.6;width-2.1;height-0.5; : BBData-519.7833251953125,149.63333129882812,521.9166564941406,150.1666717529297
polygon : points-511.7,145.4 511.2,145.4 511.2,149.7 509.8,151.1 510.2,151.5 511.5,150.1 513.4,150.1 513.4,149.6 511.7,149.6 ; : BBData-509.98333740234375,145.4166717529297,513.6333312988281,151.5500030517578
rect : x-506.8;y-153;transform-matrix(-0.7264 -0.6872 0.6872 -0.7264 769.2424 615.0816);width-0.5;height-2.9; : BBData-506.066650390625,153.25,508.4499816894531,155.73333740234375
rect : x-457.7;y-151.7;fill-#FFFFFF;width-31.7;height-21.9; : BBData-457.8833312988281,151.71665954589844,489.6333312988281,173.64999389648438
polygon : points-457.4,150.4 457.2,150.1 450.7,150.1 450.7,150.6 456.9,150.6 456.9,156.9 457.2,156.9 457.2,159.2 456.9,159.2   456.9,161.6 457.2,161.6 457.2,164 456.9,164 456.9,166.4 457.2,166.4 457.2,168.7 456.9,168.7 456.9,175 450.7,175 450.7,175.5   457.2,175.5 457.4,175.2 457.4,174.2 489.8,174.2 489.8,151.2 457.4,151.2 ; : BBData-450.8833312988281,150.13333129882812,490.01666259765625,175.5500030517578
path : fill-#B2A18E;d-M525.7,150.1v24.7h-26.3l0-0.3l-0.5,0l0,0.3h-0.7v6h3.3v5c0,3.8-5.3,6.2-5.9,6.4l-80.3,0  c-5.7-1.2-12.2-9.2-13.1-21.7c-0.9-11.9,10.7-20.7,11.7-21.4h84.7v-8.8h12.8v1.8h0.5v-1.8h14v9.2h-2v0.5H525.7z; : BBData-401.45001220703125,140.3333282470703,526.1166839599609,192.25
path : fill-#EDDBC3;d-M136.5,215.7c-9.9-4.6-20-4.7-20.1-4.7l0-0.3h-3.6v-0.7H105v4h-0.5v-4H87.8v37h16.7v-0.8h0.5v0.8h13.6v-0.4  h38C156,228.6,145.4,219.9,136.5,215.7z M105,239.7h-0.5V233h0.5V239.7z M105,226.5h-0.5v-6.7h0.5V226.5z; : BBData-87.89999389648438,210.0500030517578,156.75,247.06666564941406
path : fill-#F3CF9A;d-M82.8,227.7v19.4H74v3h-0.2c0,13.8-3.8,24.5-11.4,31.9c-9.3,9.1-21.7,10.4-25.6,10.6V253h-2.4v-5.9h-9.8  v-19.4h4.8v-0.5h-4.8v-17.1h58.3v17.1h-4.5v0.5H82.8z; : BBData-24.683334350585938,210.14999389648438,83.03334045410156,292.6999969482422
rect : x-11.4;y-179.4;fill-#FFFFFF;width-7.1;height-67.7; : BBData-11.466659545898438,179.4166717529297,18.600006103515625,247.1666717529297
path : d-M545.7,106.4v-6h-14.1V20.2H408.2V0h-6v20.2h-3.7v0.2h-38.3v-0.2H46.8V0h-12v11.8H10.6v38.4H6.6L0,179.4h10.6v67.7H5.9  L0.8,378h9.5v40.4h521.8v-24.9h13.4v-7h-13.8V195.4h14.1v-6h-14.1v-82.9H545.7z M17.7,20.2v30h-6.5V12.3h23.7v7.9H17.7z; : BBData-0.0833282470703125,0,546.0166778564453,418.51666259765625
svg : version-1.1;id-Layer_1;x-0px;y-0px;width-545.7px;height-418.4px;viewBox-0 0 545.7 418.4;enable-background-new 0 0 545.7 418.4; : BBData-0,0,546,418.5
