balcony29'3" x 5'2" : [709,97] :[651,73,767,121] :[100] : match
balcony5'2" x 28' : [112,611] :[62,587,162,635] :[100] : match
privacy screen : [122,1056] :[30,1044,214,1069] :[100] : match
privacy screen : [1103,90] :[1091,-1,1116,182] :[100] : match
live/dine15'9" x 11' : [747,575] :[691,551,804,599] :[100] : match
bedroom10' x 10' : [400,825] :[346,801,455,849] :[100] : match
f : [1012,661] :[1004,649,1021,674] :[100] : match
mvd/w : [1011,355] :[990,331,1033,379] :[100] : match
den6'4" x 7' : [336,462] :[295,438,377,486] :[100] : match
w/d : [860,965] :[839,953,882,978] :[100] : match
