double garage : [280,447] :[228,439,332,456] :[100] : match
entry : [151,477] :[130,469,173,486] :[100] : match
portico : [153,570] :[126,562,181,578] :[100] : match
ensuite : [48,456] :[20,448,76,464] :[100] : match
w.i.r. : [89,465] :[73,457,106,474] :[100] : match
robe : [88,435] :[79,428,98,442] :[100] : match
robe : [108,459] :[102,449,115,469] :[100] : match
robe : [107,351] :[101,342,114,361] :[100] : match
robe : [107,43] :[101,34,114,52] :[100] : match
laundry : [57,390] :[27,382,87,398] :[100] : match
family : [189,194] :[166,186,213,203] :[100] : match
dining : [265,245] :[241,237,289,254] :[100] : match
kitchen : [200,331] :[173,323,228,339] :[100] : match
w.c. : [42,108] :[29,100,55,117] :[100] : match
bathroom : [63,141] :[28,133,98,150] :[100] : match
bedroom 2  : [54,296] :[17,288,92,304] :[100] : match
bedroom 3  : [72,24] :[35,16,110,33] :[100] : match
sliding door : [190,113] :[166,107,215,120] :[100] : match
slidingdoor : [17,394] :[6,379,28,409] :[100] : match
master suite : [75,508] :[30,500,120,516] :[100] : match
children’s retreat : [78,232] :[13,224,143,241] :[100] : match
broom : [101,420] :[88,413,115,427] :[100] : match
linen : [160,385] :[153,374,167,396] :[100] : match
pantry : [107,306] :[101,293,114,319] :[100] : match
outdoor room : [197,20] :[146,12,248,29] :[100] : match
house : [0,0] :[0,0,0,0] :[100] : match
area: : [0,0] :[0,0,0,0] :[100] : match
158.26 m : [0,0] :[0,0,0,0] :[100] : match
² : [0,0] :[0,0,0,0] :[100] : match
(17.04 squares) : [0,0] :[0,0,0,0] :[100] : match
outdoor room : [0,0] :[0,0,0,0] :[100] : match
area: : [0,0] :[0,0,0,0] :[100] : match
16.29 m : [0,0] :[0,0,0,0] :[100] : match
² : [0,0] :[0,0,0,0] :[100] : match
(1.75 squares) : [0,0] :[0,0,0,0] :[100] : match
garage : [0,0] :[0,0,0,0] :[100] : match
area: : [0,0] :[0,0,0,0] :[100] : match
41.30 m : [0,0] :[0,0,0,0] :[100] : match
² : [0,0] :[0,0,0,0] :[100] : match
(4.45 squares) : [0,0] :[0,0,0,0] :[100] : match
p : [0,0] :[0,0,0,0] :[100] : match
ortico : [0,0] :[0,0,0,0] :[100] : match
area: : [0,0] :[0,0,0,0] :[100] : match
6.53 m : [0,0] :[0,0,0,0] :[100] : match
² : [0,0] :[0,0,0,0] :[100] : match
(0.70 squares) : [0,0] :[0,0,0,0] :[100] : match
t : [0,0] :[0,0,0,0] :[100] : match
otal : [0,0] :[0,0,0,0] :[100] : match
area: : [0,0] :[0,0,0,0] :[100] : match
222.38 m : [0,0] :[0,0,0,0] :[100] : match
² : [0,0] :[0,0,0,0] :[100] : match
(23.94 squares) : [0,0] :[0,0,0,0] :[100] : match
t : [0,0] :[0,0,0,0] :[100] : match
otal length: : [0,0] :[0,0,0,0] :[100] : match
21.11 m : [0,0] :[0,0,0,0] :[100] : match
t : [0,0] :[0,0,0,0] :[100] : match
otal : [0,0] :[0,0,0,0] :[100] : match
width: : [0,0] :[0,0,0,0] :[100] : match
12.59 m : [0,0] :[0,0,0,0] :[100] : match
