g :  : BBData-0,0,0,0
g :  : BBData-0,0,0,0
g :  : BBData-0,0,0,0
g :  : BBData-0,0,0,0
g :  : BBData-0,0,0,0
g :  : BBData-0,0,0,0
g :  : BBData-0,0,0,0
g :  : BBData-0,0,0,0
g :  : BBData-0,0,0,0
path : class-st4;d-M73.6,112.2h1.2v1.5c0,0.7-0.5,0.9-1.1,1v-0.5c0.3,0,0.5-0.1,0.5-0.4v-0.3h-0.5V112.2z; : BBData-73.35000610351562,112.36666870117188,74.58332824707031,114.88333129882812
path : class-st4;d-M67.5,114.8c0-1.4,0.6-2.4,2.1-2.4c1.2,0,1.9,0.7,1.9,1.9c0,1.6-1.5,2.5-2.6,3.4h2.6v1h-4.1v-1   c0.9-0.5,2.8-2,2.8-3.3c0-0.5-0.2-0.9-0.8-0.9c-0.7,0-0.9,0.5-0.9,1.4L67.5,114.8z; : BBData-67.18333435058594,112.58332824707031,71.30000305175781,118.89999389648438
path : class-st4;d-M63.8,115c0-0.5-0.1-0.6-0.5-0.6h-1v-0.7h0.2c1.1,0,1.4-0.5,1.5-1.1h0.9v6.1h-1.1V115z; : BBData-62.08332824707031,112.78334045410156,64.73333740234375,118.89999389648438
path : class-st4;d-M53.6,115.2l-1.8-2.9h1.4l1.2,1.9l1.2-1.9h1.4l-1.8,2.9l2.1,3.5h-1.4l-1.5-2.4l-1.5,2.4h-1.4L53.6,115.2z; : BBData-51.33332824707031,112.46665954589844,57.149993896484375,118.88333129882812
path : class-st4;d-M45.2,112.2h1.2v1.5c0,0.7-0.5,0.9-1.1,1v-0.5c0.3,0,0.5-0.1,0.5-0.4v-0.3h-0.5V112.2z; : BBData-45.05000305175781,112.36666870117188,46.28334045410156,114.88333129882812
path : class-st4;d-M41.3,115c0-0.5-0.1-0.6-0.5-0.6h-1v-0.7H40c1.1,0,1.4-0.5,1.5-1.1h0.9v6.1h-1.1V115z; : BBData-39.649993896484375,112.78334045410156,42.30000305175781,118.89999389648438
path : class-st4;d-M36.1,115c0-0.5-0.1-0.6-0.5-0.6h-1v-0.7h0.2c1.1,0,1.4-0.5,1.5-1.1h0.9v6.1h-1.1V115z; : BBData-34.46665954589844,112.78334045410156,37.116668701171875,118.89999389648438
g :  : BBData-34.46665954589844,112.36666870117188,74.58332824707031,118.89999389648438
path : class-st4;d-M75.4,98.5h2l1.3,5.5h0l1.3-5.5h2v7.1h-1.3v-5.9h0l-1.4,5.9h-1.3l-1.4-5.9h0v5.9h-1.3V98.5z; : BBData-75.05000305175781,98.71665954589844,81.78334045410156,105.81666564941406
path : class-st4;d-M73.2,102.1c0,2-1.3,3.7-3.4,3.7s-3.4-1.7-3.4-3.7c0-2,1.3-3.7,3.4-3.7S73.2,100.1,73.2,102.1z M67.8,102.1   c0,1.2,0.6,2.5,2,2.5c1.4,0,2-1.3,2-2.5s-0.6-2.5-2-2.5C68.4,99.6,67.8,100.8,67.8,102.1z; : BBData-66.16667175292969,98.61666870117188,72.98333740234375,106.01666259765625
path : class-st4;d-M64.6,102.1c0,2-1.3,3.7-3.4,3.7s-3.4-1.7-3.4-3.7c0-2,1.3-3.7,3.4-3.7S64.6,100.1,64.6,102.1z M59.1,102.1   c0,1.2,0.6,2.5,2,2.5c1.4,0,2-1.3,2-2.5s-0.6-2.5-2-2.5C59.7,99.6,59.1,100.8,59.1,102.1z; : BBData-57.600006103515625,98.61666870117188,64.41667175292969,106.01666259765625
path : class-st4;d-M50.6,98.5h3c1.5,0,2.4,0.9,2.4,2.1c0,1.6-1.1,2-1.4,2.1l1.6,2.9h-1.5l-1.4-2.6H52v2.6h-1.3V98.5z M52,101.8   h1.5c0.7,0,1.2-0.4,1.2-1.1c0-0.6-0.4-1.1-1.4-1.1H52V101.8z; : BBData-50.41667175292969,98.71665954589844,56.03334045410156,105.81666564941406
path : class-st4;d-M42.4,98.5h2.5c2.5,0,3.5,1.5,3.5,3.6c0,2.3-1.1,3.6-3.2,3.6h-2.7V98.5z M43.8,104.4H45c1.3,0,2-0.5,2-2.3   c0-1.4-0.6-2.3-2.1-2.3h-1.2V104.4z; : BBData-42.26666259765625,98.71665954589844,48.28334045410156,105.91667175292969
path : class-st4;d-M35.1,98.5h5v1.2h-3.7v1.6h3.4v1.2h-3.4v1.8h4v1.2h-5.3V98.5z; : BBData-34.96665954589844,98.71665954589844,40.28334045410156,105.71665954589844
path : class-st4;d-M27.2,98.5h3.3c1.2,0,2.1,0.6,2.1,1.8c0,0.8-0.4,1.3-1.2,1.4v0c1,0.1,1.5,0.9,1.5,1.8c0,1.8-1.3,2.1-2.7,2.1   h-3V98.5z M28.6,101.4h1.6c0.6,0,1.1-0.2,1.1-0.9c0-0.5-0.4-0.9-1.1-0.9h-1.6V101.4z M28.6,104.5h1.7c0.8,0,1.3-0.2,1.3-1   c0-0.8-0.5-1.1-1.3-1.1h-1.7V104.5z; : BBData-27.100006103515625,98.71665954589844,32.81666564941406,105.83332824707031
g :  : BBData-27.100006103515625,98.61666870117188,81.78334045410156,106.01666259765625
path : class-st4;d-M108.8,229.4h1.3v2.7h3.1v-2.7h1.3v7.1h-1.3v-3.2h-3.1v3.2h-1.3V229.4z; : BBData-108.46665954589844,229.21665954589844,114.18333435058594,236.31666564941406
path : class-st4;d-M106,231.7c-0.1-0.8-0.8-1.3-1.6-1.3c-1.4,0-2,1.3-2,2.5s0.6,2.5,2,2.5c0.9,0,1.5-0.6,1.7-1.4l1.2,0.6   c-0.6,1.4-1.5,2.1-2.9,2.1c-2.3,0-3.4-1.7-3.4-3.7c0-2,1.3-3.7,3.4-3.7c1.4,0,2.5,0.7,2.9,2.2L106,231.7z; : BBData-100.66667175292969,229.13333129882812,106.98333740234375,236.53334045410156
path : class-st4;d-M94.6,229.4h5v1.2H96v1.6h3.4v1.2H96v1.8h4v1.2h-5.3V229.4z; : BBData-94.28334045410156,229.21665954589844,99.69999694824219,236.21665954589844
path : class-st4;d-M86,229.4h2l1.3,5.5h0l1.3-5.5h2v7.1h-1.3v-5.9h0l-1.4,5.9h-1.3l-1.4-5.9h0v5.9H86V229.4z; : BBData-85.73333740234375,229.21665954589844,92.35000610351562,236.31666564941406
g :  : BBData-85.73333740234375,229.13333129882812,114.18333435058594,236.53334045410156
path : class-st4;d-M64.7,202h-1.9v-1.2H68v1.2H66v5.9h-1.3V202z; : BBData-62.58332824707031,200.71665954589844,67.80000305175781,207.8000030517578
path : class-st4;d-M56.5,200.8h5v1.2h-3.7v1.6h3.4v1.2h-3.4v1.8h4v1.2h-5.3V200.8z; : BBData-56.31666564941406,200.71665954589844,61.616668701171875,207.73333740234375
path : class-st4;d-M49.9,205.7c0.5,0.7,1.3,1.1,2.1,1.1c0.6,0,1.5-0.2,1.5-0.9c0-0.6-0.5-0.7-1.5-0.9l-0.8-0.2   c-1.1-0.3-2.1-0.7-2.1-2c0-1.5,1.4-2.2,2.8-2.2c1.2,0,2.2,0.4,3,1.4l-1.1,0.8c-0.3-0.6-1-1-1.9-1c-0.8,0-1.3,0.3-1.3,0.8   c0,0.6,0.7,0.7,1.5,0.9l0.9,0.2c1.1,0.2,2.1,0.7,2.1,2c0,1.7-1.6,2.3-3.1,2.3c-1.2,0-2.4-0.5-3.1-1.5L49.9,205.7z; : BBData-48.75,200.51666259765625,54.96665954589844,207.9166717529297
path : class-st4;d-M47.8,204.3c0,2-1.3,3.7-3.4,3.7s-3.4-1.7-3.4-3.7c0-2,1.3-3.7,3.4-3.7S47.8,202.3,47.8,204.3z M42.4,204.3   c0,1.2,0.6,2.5,2,2.5c1.4,0,2-1.3,2-2.5s-0.6-2.5-2-2.5C43,201.8,42.4,203.1,42.4,204.3z; : BBData-40.850006103515625,200.51666259765625,47.66667175292969,207.89999389648438
path : class-st4;d-M35.8,200.8h1.3v5.9h2.9v1.2h-4.2V200.8z; : BBData-35.66667175292969,200.71665954589844,39.883331298828125,207.8000030517578
path : class-st4;d-M33,203.1c-0.1-0.8-0.8-1.3-1.6-1.3c-1.4,0-2,1.3-2,2.5s0.6,2.5,2,2.5c0.9,0,1.5-0.6,1.7-1.4l1.2,0.6   c-0.6,1.4-1.5,2.1-2.9,2.1c-2.3,0-3.4-1.7-3.4-3.7c0-2,1.3-3.7,3.4-3.7c1.4,0,2.5,0.7,2.9,2.2L33,203.1z; : BBData-27.899993896484375,200.61666870117188,34.19999694824219,208.01666259765625
g :  : BBData-27.899993896484375,200.51666259765625,67.80000305175781,208.01666259765625
rect : x-27.7;y-200.1;class-st5;width-40.4;height-9; : BBData-27.600006103515625,200.01666259765625,67.91667175292969,209.01666259765625
path : class-st4;d-M54,262.3h1.3v2.7h3.1v-2.7h1.3v7.1h-1.3v-3.2h-3.1v3.2H54V262.3z; : BBData-53.83332824707031,262.01666259765625,59.53334045410156,269.1166687011719
path : class-st4;d-M49.4,263.6h-1.9v-1.2h5.2v1.2h-1.9v5.9h-1.3V263.6z; : BBData-47.350006103515625,262.1166687011719,52.56666564941406,269.21665954589844
path : class-st4;d-M43.5,262.3H45l2.4,7.1H46l-0.4-1.4h-2.7l-0.4,1.4h-1.4L43.5,262.3z M44.3,263.6L44.3,263.6l-1,3.3h2   L44.3,263.6z; : BBData-40.94999694824219,262.01666259765625,47.28334045410156,269.1166687011719
path : class-st4;d-M34.5,262.3h3.3c1.2,0,2.1,0.6,2.1,1.8c0,0.8-0.4,1.3-1.2,1.4v0c1,0.1,1.5,0.9,1.5,1.8c0,1.8-1.3,2.1-2.7,2.1   h-3V262.3z M35.8,265.2h1.6c0.6,0,1.1-0.2,1.1-0.9c0-0.5-0.4-0.9-1.1-0.9h-1.6V265.2z M35.8,268.3h1.7c0.8,0,1.3-0.2,1.3-1   c0-0.8-0.5-1.1-1.3-1.1h-1.7V268.3z; : BBData-34.366668701171875,262.01666259765625,40.08332824707031,269.1166687011719
g :  : BBData-34.366668701171875,262.01666259765625,59.53334045410156,269.21665954589844
path : class-st4;d-M193.8,23.5l-2.4-4.3h1.5l1.5,2.9l1.5-2.9h1.5l-2.4,4.3v2.8h-1.3V23.5z; : BBData-190.81666564941406,19.666671752929688,196.8333282470703,26.75
path : class-st4;d-M184.6,19.2h1.2l3,5.1h0v-5.1h1.2v7.1h-1.2l-3-5.1h0v5.1h-1.2V19.2z; : BBData-184.03334045410156,19.666671752929688,189.43333435058594,26.76666259765625
path : class-st4;d-M182.9,22.7c0,2-1.3,3.7-3.4,3.7s-3.4-1.7-3.4-3.7c0-2,1.3-3.7,3.4-3.7S182.9,20.7,182.9,22.7z M177.5,22.7   c0,1.2,0.6,2.5,2,2.5s2-1.3,2-2.5s-0.6-2.5-2-2.5S177.5,21.5,177.5,22.7z; : BBData-175.56666564941406,19.466659545898438,182.35000610351562,26.866668701171875
path : class-st4;d-M173.6,21.6c-0.1-0.8-0.8-1.3-1.6-1.3c-1.4,0-2,1.3-2,2.5s0.6,2.5,2,2.5c0.9,0,1.5-0.6,1.7-1.4l1.2,0.6   c-0.6,1.4-1.5,2.1-2.9,2.1c-2.3,0-3.4-1.7-3.4-3.7c0-2,1.3-3.7,3.4-3.7c1.4,0,2.5,0.7,2.9,2.2L173.6,21.6z; : BBData-168.0833282470703,19.666671752929688,174.38333129882812,27.066665649414062
path : class-st4;d-M163.5,19.2h1.3v5.9h2.9v1.2h-4.2V19.2z; : BBData-163,19.666671752929688,167.1999969482422,26.76666259765625
path : class-st4;d-M158.2,19.2h1.6l2.4,7.1h-1.4l-0.4-1.4h-2.7l-0.4,1.4h-1.4L158.2,19.2z M159,20.5L159,20.5l-1,3.3h2L159,20.5z   ; : BBData-155.4166717529297,19.666671752929688,161.71665954589844,26.76666259765625
path : class-st4;d-M149.2,19.2h3.3c1.2,0,2.1,0.6,2.1,1.8c0,0.8-0.4,1.3-1.2,1.4v0c1,0.1,1.5,0.9,1.5,1.8c0,1.8-1.3,2.1-2.7,2.1   h-3V19.2z M150.6,22h1.6c0.6,0,1.1-0.2,1.1-0.9c0-0.5-0.3-0.9-1.1-0.9h-1.6V22z M150.6,25.1h1.7c0.8,0,1.3-0.2,1.3-1   c0-0.8-0.5-1.1-1.3-1.1h-1.7V25.1z; : BBData-148.71665954589844,19.666671752929688,154.4499969482422,26.75
g :  : BBData-148.71665954589844,19.466659545898438,196.8333282470703,27.066665649414062
rect : x-148.6;y-17.4;class-st5;width-49;height-10.1; : BBData-148.14999389648438,17.850006103515625,197.03334045410156,27.949996948242188
path : class-st4;d-M58,318.6h2.5c2.5,0,3.5,1.5,3.5,3.6c0,2.3-1.1,3.6-3.2,3.6H58V318.6z M59.3,324.5h1.2c1.3,0,2-0.5,2-2.3   c0-1.4-0.6-2.3-2.1-2.3h-1.2V324.5z; : BBData-57.81666564941406,318.1499938964844,63.81666564941406,325.3666687011719
path : class-st4;d-M55.5,318.4h1.1l-3.4,7.5h-1.1L55.5,318.4z; : BBData-51.91667175292969,317.933349609375,56.43333435058594,325.45001220703125
path : class-st4;d-M43.2,318.6h1.3l1,5.6h0l1.1-5.6H48l1,5.5h0l0.9-5.5h1.3l-1.5,7.1h-1.6l-1-5.1h0l-1,5.1h-1.6L43.2,318.6z; : BBData-43.06666564941406,318.1499938964844,51.06666564941406,325.26666259765625
g :  : BBData-43.06666564941406,317.933349609375,63.81666564941406,325.45001220703125
path : class-st4;d-M178.4,284.8h1.2l3,5.1h0v-5.1h1.2v7.1h-1.2l-3-5.1h0v5.1h-1.2V284.8z; : BBData-177.8333282470703,284.45001220703125,183.25,291.5500183105469
path : class-st4;d-M171,284.8h5v1.2h-3.7v1.6h3.4v1.2h-3.4v1.8h4v1.2H171V284.8z; : BBData-170.48333740234375,284.45001220703125,175.8000030517578,291.4666748046875
path : class-st4;d-M162.8,284.8h1.3v2.7h3.1v-2.7h1.3v7.1h-1.3v-3.2h-3.1v3.2h-1.3V284.8z; : BBData-162.3000030517578,284.45001220703125,168.01666259765625,291.5500183105469
path : class-st4;d-M159.5,287.2c-0.1-0.8-0.8-1.3-1.6-1.3c-1.4,0-2,1.3-2,2.5s0.6,2.5,2,2.5c0.9,0,1.5-0.6,1.7-1.4l1.2,0.6   c-0.6,1.4-1.5,2.1-2.9,2.1c-2.3,0-3.4-1.7-3.4-3.7c0-2,1.3-3.7,3.4-3.7c1.4,0,2.5,0.7,2.9,2.2L159.5,287.2z; : BBData-154.01666259765625,284.4666748046875,160.31666564941406,291.86668395996094
path : class-st4;d-M149.8,286h-1.9v-1.2h5.2v1.2h-1.9v5.9h-1.3V286z; : BBData-147.4499969482422,284.45001220703125,152.6666717529297,291.5500183105469
path : class-st4;d-M144.7,284.8h1.3v7.1h-1.3V284.8z; : BBData-144.23333740234375,284.45001220703125,145.56666564941406,291.5500183105469
path : class-st4;d-M137,284.8h1.3v3.2l2.8-3.2h1.6l-2.3,2.7l2.5,4.4h-1.5l-1.9-3.3l-1.1,1.3v2H137V284.8z; : BBData-136.5833282470703,284.45001220703125,142.5,291.5500183105469
g :  : BBData-136.5833282470703,284.45001220703125,183.25,291.86668395996094
path : class-st4;d-M194.5,145.2h1.2v1.5c0,0.7-0.5,0.9-1.1,1v-0.5c0.3,0,0.5-0.1,0.5-0.4v-0.3h-0.5V145.2z M196.1,145.2h1.2v1.5   c0,0.7-0.5,0.9-1.1,1v-0.5c0.3,0,0.5-0.1,0.5-0.4v-0.3h-0.5V145.2z; : BBData-193.89999389648438,145.26666259765625,196.73333740234375,147.78334045410156
path : class-st4;d-M188.5,147.7c0-1.4,0.6-2.4,2.1-2.4c1.2,0,1.9,0.7,1.9,1.9c0,1.6-1.5,2.5-2.6,3.4h2.6v1h-4.1v-1   c0.9-0.5,2.8-2,2.8-3.3c0-0.5-0.2-0.9-0.8-0.9c-0.7,0-0.9,0.5-0.9,1.4L188.5,147.7z; : BBData-187.8000030517578,145.38333129882812,191.93333435058594,151.68333435058594
path : class-st4;d-M185.3,145.2h1.2v1.5c0,0.7-0.5,0.9-1.1,1v-0.5c0.3,0,0.5-0.1,0.5-0.4v-0.3h-0.5V145.2z; : BBData-184.73333740234375,145.26666259765625,185.9499969482422,147.78334045410156
path : class-st4;d-M180.3,150c0,0.4,0.3,0.7,0.7,0.7c0.9,0,1.1-1.1,1.1-1.9h0c-0.2,0.2-0.5,0.6-1.2,0.6c-1.1,0-1.8-0.8-1.8-2   c0-1.1,0.8-2,2-2c1.8,0,2.2,1.6,2.2,3c0,1.9-0.8,3.3-2.3,3.3c-1,0-1.7-0.5-1.9-1.6L180.3,150z M182,147.4c0-0.6-0.3-1-0.9-1   s-0.9,0.4-0.9,1c0,0.6,0.3,1,0.9,1S182,148,182,147.4z; : BBData-178.5500030517578,145.48333740234375,182.76666259765625,151.8000030517578
path : class-st4;d-M175.4,147.9c0-0.5-0.1-0.6-0.5-0.6h-1v-0.7h0.2c1.1,0,1.4-0.5,1.5-1.1h0.9v6.1h-1.1V147.9z; : BBData-173.35000610351562,145.56666564941406,175.98333740234375,151.68333435058594
path : class-st4;d-M165.1,148.1l-1.8-2.9h1.4l1.2,1.9l1.2-1.9h1.4l-1.8,2.9l2.1,3.5h-1.4l-1.5-2.4l-1.5,2.4H163L165.1,148.1z; : BBData-162.5,145.28334045410156,168.3000030517578,151.6999969482422
path : class-st4;d-M155.5,145.2h1.2v1.5c0,0.7-0.5,0.9-1.1,1v-0.5c0.3,0,0.5-0.1,0.5-0.4v-0.3h-0.5V145.2z M157.1,145.2h1.2v1.5   c0,0.7-0.5,0.9-1.1,1v-0.5c0.3,0,0.5-0.1,0.5-0.4v-0.3h-0.5V145.2z; : BBData-155.01666259765625,145.26666259765625,157.85000610351562,147.78334045410156
path : class-st4;d-M152.5,147c0-0.4-0.3-0.7-0.7-0.7c-0.9,0-1.1,1.1-1.1,1.9h0c0.2-0.2,0.5-0.6,1.2-0.6c1.1,0,1.8,0.8,1.8,2   c0,1.1-0.8,2-2,2c-1.8,0-2.2-1.6-2.2-3c0-1.9,0.8-3.3,2.3-3.3c1,0,1.7,0.5,1.9,1.6L152.5,147z M150.8,149.7c0,0.6,0.3,1,0.9,1   s0.9-0.4,0.9-1c0-0.6-0.3-1-0.9-1S150.8,149,150.8,149.7z; : BBData-149.03334045410156,145.36666870117188,153.25,151.68333435058594
path : class-st4;d-M146.4,145.2h1.2v1.5c0,0.7-0.5,0.9-1.1,1v-0.5c0.3,0,0.5-0.1,0.5-0.4v-0.3h-0.5V145.2z; : BBData-145.93333435058594,145.26666259765625,147.1666717529297,147.78334045410156
path : class-st4;d-M142.5,147.9c0-0.5-0.1-0.6-0.5-0.6h-1v-0.7h0.2c1.1,0,1.4-0.5,1.5-1.1h0.9v6.1h-1.1V147.9z; : BBData-140.56666564941406,145.56666564941406,143.1666717529297,151.68333435058594
path : class-st4;d-M137.3,147.9c0-0.5-0.1-0.6-0.5-0.6h-1v-0.7h0.2c1.1,0,1.4-0.5,1.5-1.1h0.9v6.1h-1.1V147.9z; : BBData-135.38333129882812,145.56666564941406,137.98333740234375,151.68333435058594
g :  : BBData-135.38333129882812,145.26666259765625,196.73333740234375,151.8000030517578
path : class-st4;d-M195.9,131.4h2l1.3,5.5h0l1.3-5.5h2v7.1h-1.3v-5.9h0l-1.4,5.9h-1.3l-1.4-5.9h0v5.9h-1.3V131.4z; : BBData-195.1999969482422,131.5,201.89999389648438,138.61666870117188
path : class-st4;d-M193.7,135c0,2-1.3,3.7-3.4,3.7s-3.4-1.7-3.4-3.7c0-2,1.3-3.7,3.4-3.7S193.7,133,193.7,135z M188.3,135   c0,1.2,0.6,2.5,2,2.5s2-1.3,2-2.5s-0.6-2.5-2-2.5S188.3,133.8,188.3,135z; : BBData-186.3333282470703,131.4166717529297,193.11666870117188,138.81666564941406
path : class-st4;d-M185.1,135c0,2-1.3,3.7-3.4,3.7s-3.4-1.7-3.4-3.7c0-2,1.3-3.7,3.4-3.7S185.1,133,185.1,135z M179.6,135   c0,1.2,0.6,2.5,2,2.5s2-1.3,2-2.5s-0.6-2.5-2-2.5S179.6,133.8,179.6,135z; : BBData-177.75,131.4166717529297,184.56666564941406,138.81666564941406
path : class-st4;d-M171.1,131.4h3c1.5,0,2.4,0.9,2.4,2.1c0,1.6-1.1,2-1.4,2.1l1.6,2.9h-1.5l-1.4-2.6h-1.3v2.6h-1.3V131.4z    M172.5,134.8h1.5c0.7,0,1.2-0.4,1.2-1.1c0-0.6-0.4-1.1-1.4-1.1h-1.3V134.8z; : BBData-170.56666564941406,131.5,176.18333435058594,138.61666870117188
path : class-st4;d-M163.9,133.9c-0.1-0.6-0.6-1.4-1.8-1.4c-1.4,0-2,1.3-2,2.5s0.6,2.5,2,2.5c1,0,1.8-0.7,1.8-1.6h-1.8v-1.2h3v3.9   h-1.2V138c-0.5,0.5-1.2,0.8-1.9,0.8c-2.3,0-3.4-1.7-3.4-3.7c0-2,1.3-3.7,3.4-3.7c1.4,0,2.5,0.7,3,2.1L163.9,133.9z; : BBData-158.11666870117188,131.51666259765625,164.61666870117188,138.93333435058594
path : class-st4;d-M151,131.4h1.2l3,5.1h0v-5.1h1.2v7.1h-1.2l-3-5.1h0v5.1H151V131.4z; : BBData-150.53334045410156,131.5,155.93333435058594,138.61666870117188
path : class-st4;d-M147.2,131.4h1.3v7.1h-1.3V131.4z; : BBData-146.73333740234375,131.5,148.06666564941406,138.61666870117188
path : class-st4;d-M139.4,131.4h1.4l1.6,5.7h0l1.6-5.7h1.4l-2.1,7.1h-1.8L139.4,131.4z; : BBData-138.9499969482422,131.5,144.96665954589844,138.61666870117188
path : class-st4;d-M136.2,131.4h1.3v7.1h-1.3V131.4z; : BBData-135.76666259765625,131.5,137.10000610351562,138.61666870117188
path : class-st4;d-M130.1,131.4h1.3v5.9h2.9v1.2h-4.2V131.4z; : BBData-129.6999969482422,131.5,133.9166717529297,138.61666870117188
g :  : BBData-129.6999969482422,131.4166717529297,201.89999389648438,138.93333435058594
line : class-st2;x1-117.7;y1-22.8;x2-132.2;y2-8.3; : BBData-116.96665954589844,8.433334350585938,132.1666717529297,23.633331298828125
line : class-st2;x1-200;y1-6;x2-221.9;y2-6; : BBData-199.38333129882812,6,221.23333740234375,7.01666259765625
line : class-st2;x1-170.2;y1-6;x2-192.1;y2-6; : BBData-169.6666717529297,6,191.5500030517578,7.01666259765625
line : class-st2;x1-140.4;y1-6;x2-162.3;y2-6; : BBData-139.9499969482422,6,161.8333282470703,7.01666259765625
line : class-st0;x1-183.8;y1-254.3;x2-183.8;y2-249.7; : BBData-182.73333740234375,248.9499969482422,183.76666259765625,254.5833282470703
line : class-st0;x1-180.7;y1-249.7;x2-186.9;y2-249.7; : BBData-179.63333129882812,248.9499969482422,186.85000610351562,249.98333740234375
path : class-st0;d-M192.1,263.8h-16.6c-1.3,0-2.4-1.1-2.4-2.4v-7.6c0-1.3,1.1-2.4,2.4-2.4h16.6c1.3,0,2.4,1.1,2.4,2.4v7.6    C194.5,262.7,193.4,263.8,192.1,263.8z; : BBData-167.5833282470703,246.1666717529297,198.89999389648438,268.51666259765625
rect : x-171.2;y-248;class-st0;width-25.4;height-17.4; : BBData-170.1666717529297,247.26666259765625,196.51666259765625,265.6333312988281
circle : class-st0;cx-183.8;cy-257.6;r-1.1; : BBData-181.61666870117188,255.75,184.85000610351562,258.96665954589844
g :  : BBData-167.5833282470703,246.1666717529297,198.89999389648438,268.51666259765625
g : id-sync; : BBData-167.5833282470703,246.1666717529297,198.89999389648438,268.51666259765625
line : class-st0;x1-73.6;y1-295.9;x2-73.6;y2-299.5; : BBData-72.85000610351562,295.01666259765625,73.88333129882812,299.6333312988281
line : class-st0;x1-70.8;y1-299.5;x2-76.3;y2-299.5; : BBData-70.08332824707031,298.6166687011719,76.60000610351562,299.6333312988281
ellipse : class-st0;cx-73.6;cy-291.7;rx-7.1;ry-5.8; : BBData-65.80000305175781,285.04998779296875,80.96665954589844,297.6499786376953
g :  : BBData-65.80000305175781,285.04998779296875,80.96665954589844,299.63331604003906
g : id-bachin; : BBData-0,0,0,0
path : class-st0;d-M45.7,292.2c-2.7-0.4-5.4-0.4-8.1,0; : BBData-32.48333740234375,286.45001220703125,50.56666564941406,296.8500213623047
path : class-st0;d-M38,290.7c2.1,1.6,5.1,1.6,7.3,0; : BBData-32.899993896484375,285.3500061035156,50.149993896484375,296.9499969482422
path : class-st0;d-M36.8,289.5c0.3,0.4,0.8,0.8,1.2,1.1; : BBData-31.683334350585938,284.16668701171875,42.883331298828125,295.2666778564453
path : class-st0;d-M45.2,290.7c0.4-0.3,0.8-0.7,1.2-1.1; : BBData-40.06666564941406,284.26666259765625,51.26666259765625,295.3666687011719
path : class-st0;d-M47.5,287.4c0.5-1.7,0.5-3.4,0-5.1l0-0.1c-0.5-1.6-1.3-3.2-2.4-4.4; : BBData-39.94999694824219,272.48333740234375,52.850006103515625,292.0500030517578
path : class-st0;d-M46.4,289.5c0.5-0.6,0.8-1.3,1.1-2; : BBData-41.26666259765625,282.16668701171875,52.350006103515625,294.15000915527344
path : class-st0;d-M46.4,289.6c-0.2,0.7-0.5,2-0.7,2.6; : BBData-40.56666564941406,284.26666259765625,51.26666259765625,296.8500061035156
path : class-st0;d-M37.4,292.2c-1.6,0.3-2.9,1.7-2.9,3.4v0l0,2.4v0c0,0.7,0.6,1.2,1.3,1.2l-0.1,0h12h0c0.7,0,1.2-0.5,1.2-1.2v0    l0-2.4v0.1c0-1.7-1.5-3.2-3.1-3.5; : BBData-29.399993896484375,286.8500061035156,53.76666259765625,303.8333282470703
path : class-st0;d-M37.6,292.2c-0.1,0-0.2,0-0.3,0.1; : BBData-32.18333435058594,286.8500061035156,42.48333740234375,296.9499969482422
path : class-st0;d-M37.6,292.1c-0.2-0.7-0.6-1.9-0.8-2.6; : BBData-31.683334350585938,284.16668701171875,42.48333740234375,296.75001525878906
path : class-st0;d-M35.7,287.4c0.2,0.8,0.5,1.5,1,2.1; : BBData-30.600006103515625,282.04998779296875,41.600006103515625,294.1499786376953
path : class-st0;d-M38.1,277.8c-1.1,1.3-1.9,2.8-2.4,4.4l0,0.1c-0.5,1.7-0.4,3.4,0,5.1; : BBData-30.083328247070312,272.48333740234375,42.98333740234375,292.0500030517578
path : class-st0;d-M45.1,277.8c-0.9-1-2.2-1.5-3.5-1.5c-1.3,0-2.6,0.5-3.5,1.5; : BBData-32.98333740234375,270.98333740234375,49.94999694824219,282.48333740234375
g :  : BBData-29.399993896484375,270.98333740234375,53.76666259765625,303.8333282470703
path : class-st3;d-M45.7,292.2c-2.7-0.4-5.4-0.4-8.1,0; : BBData-37.19999694824219,291.1499938964844,45.850006103515625,292.1333312988281
path : class-st3;d-M38,290.7c2.1,1.6,5.1,1.6,7.3,0; : BBData-37.600006103515625,290.066650390625,45.44999694824219,292.2333221435547
path : class-st3;d-M36.8,289.5c0.3,0.4,0.8,0.8,1.2,1.1; : BBData-36.399993896484375,288.8666687011719,38.18333435058594,290.53334045410156
path : class-st3;d-M45.2,290.7c0.4-0.3,0.8-0.7,1.2-1.1; : BBData-44.76666259765625,288.9666748046875,46.55000305175781,290.6333465576172
path : class-st3;d-M47.5,287.4c0.5-1.7,0.5-3.4,0-5.1l0-0.1c-0.5-1.6-1.3-3.2-2.4-4.4; : BBData-44.66667175292969,277.20001220703125,48.149993896484375,287.3500213623047
path : class-st3;d-M46.4,289.5c0.5-0.6,0.8-1.3,1.1-2; : BBData-45.96665954589844,286.8666687011719,47.649993896484375,289.4499969482422
path : class-st3;d-M46.4,289.6c-0.2,0.7-0.5,2-0.7,2.6; : BBData-45.26666259765625,288.9666748046875,46.55000305175781,292.1333465576172
path : class-st3;d-M37.4,292.2c-1.6,0.3-2.9,1.7-2.9,3.4v0l0,2.4v0c0,0.7,0.6,1.2,1.3,1.2l-0.1,0h12h0c0.7,0,1.2-0.5,1.2-1.2v0    l0-2.4v0.1c0-1.7-1.5-3.2-3.1-3.5; : BBData-34.100006103515625,291.54998779296875,49.05000305175781,299.1166534423828
path : class-st3;d-M37.6,292.2c-0.1,0-0.2,0-0.3,0.1; : BBData-36.899993896484375,291.54998779296875,37.78334045410156,292.2333221435547
path : class-st3;d-M37.6,292.1c-0.2-0.7-0.6-1.9-0.8-2.6; : BBData-36.399993896484375,288.8666687011719,37.78334045410156,292.03334045410156
path : class-st3;d-M35.7,287.4c0.2,0.8,0.5,1.5,1,2.1; : BBData-35.30000305175781,286.76666259765625,36.883331298828125,289.4499969482422
path : class-st3;d-M38.1,277.8c-1.1,1.3-1.9,2.8-2.4,4.4l0,0.1c-0.5,1.7-0.4,3.4,0,5.1; : BBData-34.80000305175781,277.20001220703125,38.28334045410156,287.3500213623047
path : class-st3;d-M45.1,277.8c-0.9-1-2.2-1.5-3.5-1.5c-1.3,0-2.6,0.5-3.5,1.5; : BBData-37.69999694824219,275.70001220703125,45.25,277.7833557128906
g :  : BBData-34.100006103515625,275.70001220703125,49.05000305175781,299.11668395996094
g :  : BBData-29.399993896484375,270.98333740234375,53.76666259765625,303.8333282470703
g : id-commot; : BBData-0,0,0,0
line : class-st2;x1-32.9;y1-218;x2-5.3;y2-254.3; : BBData-4.883331298828125,217.5500030517578,33.19999694824219,254.38333129882812
line : class-st2;x1-5.3;y1-218;x2-32.9;y2-254.9; : BBData-4.866668701171875,217.56666564941406,33.21665954589844,254.96665954589844
line : class-st2;x1-208;y1-6;x2-221.5;y2-6; : BBData-207.36666870117188,6,220.8333282470703,7.01666259765625
line : class-st2;x1-115.3;y1-45.5;x2-115.3;y2-26.8; : BBData-114.44999694824219,27.216659545898438,115.48333740234375,45.899993896484375
polyline : class-st0;points-180.6,53.5 182.3,53.5 182.3,48.9 180.6,48.9 180.6,53.5 ; : BBData-175.06666564941406,44.28334045410156,186.76666259765625,58.866668701171875
polygon : class-st0;points-158.5,50.7 158.5,53.5 160.3,53.5 160.3,48.9 158.5,48.9 158.5,49.4 ; : BBData-153.03334045410156,44.28334045410156,164.8333282470703,58.866668701171875
polyline : class-st0;points-126.2,50.7 126.2,48.9 124.5,48.9 124.5,53.5 126.2,53.5 126.2,50.7 ; : BBData-119.13333129882812,44.28334045410156,130.81666564941406,58.866668701171875
polyline : class-st0;points-217.4,53.5 219.1,53.5 219.1,48.9 217.4,48.9 217.4,53.5 ; : BBData-211.73333740234375,44.28334045410156,223.4499969482422,58.866668701171875
rect : x-115.3;y-48.9;class-st0;width-1.6;height-4.6; : BBData-114.44999694824219,48.76666259765625,117.06666564941406,54.366668701171875
rect : x-104.5;y-48.9;class-st0;width-1.7;height-4.6; : BBData-103.68333435058594,48.76666259765625,106.38333129882812,54.366668701171875
polyline : class-st0;points-66.1,53.5 67.8,53.5 67.8,48.9 66.1,48.9 66.1,53.5 ; : BBData-60.883331298828125,44.28334045410156,72.60000610351562,58.866668701171875
rect : x-28.4;y-48.9;class-st0;width-1.8;height-4.6; : BBData-27.783340454101562,48.76666259765625,30.616668701171875,54.366668701171875
line : class-st0;x1-168.4;y1-262.8;x2-148.4;y2-262.8; : BBData-147.43333435058594,262.01666259765625,168.39999389648438,263.03334045410156
rect : x-198.2;y-18.2;transform-matrix(4.496676e-11 -1 1 4.496676e-11 184.7467 221.7101);class-st0;width-10.2;height-0.6; : BBData-201.8333282470703,13.283340454101562,203.4499969482422,24.48333740234375
path : class-st0;d-M203.5,13.2v22.7c0,1.2,1,2.1,2.1,2.1h8c1.2,0,2.1-1,2.1-2.1V13.2c0-1.2-1-2.1-2.1-2.1h-8    C204.5,11.1,203.5,12.1,203.5,13.2z; : BBData-197.89999389648438,6.600006103515625,220.0500030517578,43.41667175292969
g :  : BBData-197.89999389648438,6.600006103515625,220.0500030517578,43.41667175292969
rect : x-198.2;y-18.2;transform-matrix(4.496676e-11 -1 1 4.496676e-11 184.7467 221.7101);class-st1;width-10.2;height-0.6; : BBData-202.13333129882812,13.566665649414062,203.13333129882812,24.166671752929688
path : class-st1;d-M203.5,13.2v22.7c0,1.2,1,2.1,2.1,2.1h8c1.2,0,2.1-1,2.1-2.1V13.2c0-1.2-1-2.1-2.1-2.1h-8    C204.5,11.1,203.5,12.1,203.5,13.2z; : BBData-202.60000610351562,11.300003051757812,215.3333282470703,38.69999694824219
g :  : BBData-202.13333129882812,11.300003051757812,215.3333282470703,38.69999694824219
g :  : BBData-197.89999389648438,6.600006103515625,220.0500030517578,43.41667175292969
polygon : class-st0;points-228.4,2.6 133,2.6 112.2,23.3 112.2,48.9 109.8,48.9 109.9,22.3 132,0.2 228.4,0.2   ; : BBData-104.48333740234375,-4.2833404541015625,232.6999969482422,54.28334045410156
g :  : BBData-104.48333740234375,-4.2833404541015625,232.6999969482422,54.28334045410156
polygon : class-Graphic_x0020_Style_x0020_25;points-228.4,2.6 133,2.6 112.2,23.3 112.2,48.9 109.8,48.9 109.9,22.3 132,0.2     228.4,0.2   ; : BBData-109.18333435058594,0.4333343505859375,228,49.56666564941406
g :  : BBData-109.18333435058594,0.4333343505859375,228,49.56666564941406
g :  : BBData-104.48333740234375,-4.2833404541015625,232.6999969482422,54.28334045410156
rect : x-56.1;y-284.2;class-st0;width-35;height-16.9; : BBData-55.399993896484375,283.3666687011719,91.33332824707031,301.25
rect : x-148.4;y-245.3;class-st0;width-20;height-20.1; : BBData-147.43333435058594,244.5833282470703,168.39999389648438,265.6333312988281
polygon : class-st0;points-91.2,279.7 91.2,301.2 28.2,301.2 28.2,262.9 28.2,258.3 28.2,258.1 5.3,258.1 5.3,218 38.3,218   38.3,214.2 7.1,214.2 7.1,214.2 7.1,168.3 7.1,168.2 37.5,168.2 37.5,164.4 5.3,164.4 5.3,65.5 28.4,65.5 28.4,46.5 0.5,46.5   0.5,62.7 0.5,65.5 0.5,168.3 0.5,171.1 0.5,258.1 0.5,262.9 5.3,262.9 23.5,262.9 23.5,304.8 23.5,304.8 23.5,342 26.7,342   30.2,342 79.2,342 79.2,410.4 79.2,415.2 84,415.2 88.7,415.2 88.7,410.4 84,410.4 84,342 84,338 84,337.2 84,332.5 80,332.5   80,337.2 79.2,337.2 30.2,337.2 30.2,304.8 80,304.8 80,306.4 83.8,306.4 83.8,304.8 95,304.8 95,303.5 95,301.2 95,279.7 ; : BBData--4.5,41.899993896484375,99.69999694824219,419.48333740234375
polygon : class-st0;points-194.5,338.1 194.5,310.4 230,310.4 230,310.2 230,310.2 230,269.4 228.4,269.4 228.4,48.9 219.1,48.9   219.1,246.4 200.8,246.4 200.8,269.4 219.1,269.4 223.4,269.4 223.4,307.4 194.5,307.4 191.5,307.4 191.5,310.4 191.5,338.1   136.5,338.1 136.5,322.6 132.6,322.6 132.6,338.1 130.8,338.1 130.8,338.1 130.7,338.1 130.7,410.4 116,410.4 116,415.2   134.1,415.2 134.1,415.1 134.1,410.4 134.1,341.4 231.2,341.4 231.2,338.1 ; : BBData-110.64999389648438,44.28334045410156,235.5,419.4833526611328
line : class-st0;x1-32.9;y1-254.9;x2-32.9;y2-218; : BBData-32.30000305175781,217.36666870117188,33.31666564941406,255.1666717529297
line : class-st0;x1-221;y1-269.5;x2-221;y2-307.3; : BBData-219.8333282470703,268.70001220703125,220.8333282470703,307.40000915527344
line : class-st0;x1-7.1;y1-214.2;x2-7.1;y2-168.2; : BBData-6.5500030517578125,167.6999969482422,7.5833282470703125,214.5833282470703
polyline : class-st0;points-219.1,53.5 181.4,53.5 181.4,55.9 216.7,55.9 ; : BBData-175.85000610351562,48.866668701171875,223.4499969482422,61.26666259765625
rect : x-158.5;y-48.9;class-st0;width-60.6;height-4.6; : BBData-157.51666259765625,48.76666259765625,218.96665954589844,54.366668701171875
rect : x-126.2;y-49.4;class-st0;width-1.9;height-1.3; : BBData-125.30000305175781,49.26666259765625,128.21665954589844,51.600006103515625
rect : x-156.6;y-49.4;class-st0;width-1.9;height-1.3; : BBData-155.61666870117188,49.26666259765625,158.53334045410156,51.600006103515625
rect : x-138.4;y-309.9;class-st0;width-24.7;height-26.1; : BBData-137.46665954589844,308.9666748046875,163.11666870117188,336.0166778564453
polyline : class-st0;points-200.8,230.8 200.8,246.4 203.7,246.4 203.7,233.6 ; : BBData-195.1999969482422,225.63333129882812,208.0833282470703,251.18333435058594
line : class-st0;x1-203.7;y1-233.6;x2-219.1;y2-233.6; : BBData-202.56666564941406,232.9166717529297,218.96665954589844,233.9499969482422
line : class-st0;x1-216.7;y1-230.8;x2-200.8;y2-230.8; : BBData-199.68333435058594,230.11666870117188,216.5500030517578,231.14999389648438
polyline : class-st0;points-31.7,68.7 31.7,53.5 28.4,53.5 28.4,65.5 ; : BBData-23.300003051757812,48.866668701171875,36.616668701171875,74.01666259765625
line : class-st0;x1-28.4;y1-65.5;x2-5.3;y2-65.5; : BBData-4.7833404541015625,65.31666564941406,28.816665649414062,66.33332824707031
line : class-st0;x1-5.3;y1-68.7;x2-31.7;y2-68.7; : BBData-4.7833404541015625,68.5,32.133331298828125,69.53334045410156
polyline : class-st0;points-165.1,338.1 165.1,318.3 191.5,318.3 ; : BBData-159.60000610351562,312.8500061035156,195.9166717529297,342.6166687011719
line : class-st0;x1-216.7;y1-55.9;x2-216.7;y2-230.8; : BBData-215.51666259765625,55.75,216.5500030517578,231.13333129882812
rect : x-28.4;y-48.9;class-st0;width-97.9;height-4.6; : BBData-27.783340454101562,48.76666259765625,126.44999694824219,54.366668701171875
polyline : class-st0;points-110.3,245.6 106.6,245.6 106.6,247.5 78.9,247.5 78.9,218 106.6,218 106.6,219.4 110.3,219.4   110.3,161.4 106.6,161.4 106.6,164.4 63.7,164.4 63.7,168.2 106.6,168.2 106.6,214.2 64.4,214.2 64.4,218 75.2,218 75.2,251.3   91.2,251.3 91.2,253.6 95,253.6 95,251.3 110.3,251.3 110.3,245.6 ; : BBData-58.51666259765625,156.43333435058594,114.98333740234375,258.3666687011719
line : class-st0;x1-32.9;y1-254.9;x2-5.3;y2-254.9; : BBData-4.7833404541015625,254.13333129882812,33.31666564941406,255.1666717529297
line : class-st0;x1-97.3;y1-170;x2-97.3;y2-168.3; : BBData-96.5,167.81666564941406,97.53334045410156,170.51666259765625
line : class-st0;x1-97.3;y1-175.8;x2-97.3;y2-172.3; : BBData-96.5,171.8000030517578,97.53334045410156,176.31666564941406
line : class-st0;x1-97.3;y1-181.5;x2-97.3;y2-178.1; : BBData-96.5,177.5833282470703,97.53334045410156,181.98333740234375
line : class-st0;x1-97.3;y1-187.3;x2-97.3;y2-183.9; : BBData-96.5,183.35000610351562,97.53334045410156,187.78334045410156
line : class-st0;x1-97.3;y1-193.1;x2-97.3;y2-189.7; : BBData-96.5,189.13333129882812,97.53334045410156,193.56666564941406
line : class-st0;x1-97.3;y1-198.8;x2-97.3;y2-195.4; : BBData-96.5,194.81666564941406,97.53334045410156,199.25
line : class-st0;x1-97.3;y1-204.6;x2-97.3;y2-201.2; : BBData-96.5,200.60000610351562,97.53334045410156,205.03334045410156
line : class-st0;x1-97.3;y1-210.3;x2-97.3;y2-206.9; : BBData-96.5,206.28334045410156,97.53334045410156,210.71665954589844
line : class-st0;x1-97.3;y1-213.9;x2-97.3;y2-212.7; : BBData-96.5,212.06666564941406,97.53334045410156,214.28334045410156
line : class-st0;x1-16.4;y1-209.8;x2-16.4;y2-214.1; : BBData-15.833328247070312,209.18333435058594,16.850006103515625,214.5
line : class-st0;x1-16.4;y1-204.1;x2-16.4;y2-207.6; : BBData-15.833328247070312,203.5,16.850006103515625,208.01666259765625
line : class-st0;x1-16.4;y1-198.3;x2-16.4;y2-201.8; : BBData-15.833328247070312,197.71665954589844,16.850006103515625,202.25
line : class-st0;x1-16.4;y1-192.6;x2-16.4;y2-196.1; : BBData-15.833328247070312,192.03334045410156,16.850006103515625,196.56666564941406
line : class-st0;x1-16.4;y1-186.8;x2-16.4;y2-190.3; : BBData-15.833328247070312,186.25,16.850006103515625,190.78334045410156
line : class-st0;x1-16.4;y1-181;x2-16.4;y2-184.5; : BBData-15.833328247070312,180.46665954589844,16.850006103515625,184.98333740234375
line : class-st0;x1-16.4;y1-175.3;x2-16.4;y2-178.7; : BBData-15.833328247070312,174.78334045410156,16.850006103515625,179.1999969482422
line : class-st0;x1-16.4;y1-168.7;x2-16.4;y2-172.9; : BBData-15.833328247070312,168.1999969482422,16.850006103515625,173.4166717529297
path : class-st0;d-M90.7,301.1; : BBData-85.41667175292969,295.73333740234375,95.41667175292969,305.73333740234375
polyline : class-st0;points-148.4,239.7 148.4,245.3 148.4,265.4 200.7,265.4 ; : BBData-142.9499969482422,234.5,205.0833282470703,270.1166687011719
line : class-st0;x1-203.7;y1-239.7;x2-203.7;y2-245.3; : BBData-202.56666564941406,238.98333740234375,203.5833282470703,245.61666870117188
line : class-st0;x1-148.4;y1-239.7;x2-200.8;y2-239.7; : BBData-147.43333435058594,238.98333740234375,200.71665954589844,240.01666259765625
line : class-st0;x1-200.8;y1-245.3;x2-148.4;y2-245.3; : BBData-147.43333435058594,244.5833282470703,200.71665954589844,245.61666870117188
polyline : class-st0;points-221,277 201.8,277 201.8,269.4 ; : BBData-196.1999969482422,264.1000061035156,225.3333282470703,281.68333435058594
polyline : class-st0;points-106.6,53.5 106.6,130.6 110.3,130.6 110.3,53.5 106.6,53.5 ; : BBData-101.26666259765625,48.866668701171875,114.98333740234375,135.75
polyline : class-st0;points-201.8,307.3 201.8,300.1 221,300.1 ; : BBData-196.1999969482422,294.73333740234375,225.3333282470703,311.8999938964844
circle : class-st0;cx-214.3;cy-294.9;r-3.4; : BBData-209.75,290.6333312988281,217.56666564941406,298.43333435058594
circle : class-st0;cx-205.1;cy-294.9;r-2.7; : BBData-201.28334045410156,291.316650390625,207.6999969482422,297.7333221435547
circle : class-st0;cx-205.1;cy-281.9;r-2.3; : BBData-201.68333435058594,278.7833251953125,207.3000030517578,284.3999786376953
circle : class-st0;cx-214.3;cy-281.9;r-2.3; : BBData-210.85000610351562,278.7833251953125,216.46665954589844,284.3999786376953
line : class-st0;x1-219.2;y1-300;x2-219.2;y2-277; : BBData-218.01666259765625,276.183349609375,219.0500030517578,300.1333465576172
polyline : class-st0;points-221,300 201.1,300 201.1,277 221,277 ; : BBData-195.5,271.70001220703125,225.3333282470703,304.61668395996094
rect : x-225.5;y-5.7;class-st0;width-2.9;height-40.5; : BBData-224.31666564941406,5.6833343505859375,228.21665954589844,47.100006103515625
rect : x-88.7;y-383.1;class-Graphic_x0020_Style_x0020_22;width-1.7;height-27.4; : BBData-87.91667175292969,381.9666748046875,90.63333129882812,410.3000183105469
path : class-Graphic_x0020_Style_x0020_22;d-M116.1,410.5c0-14.6-11.2-26.7-25.8-27.4; : BBData-85.03334045410156,377.48333740234375,120.75,414.78334045410156
g :  : BBData-85.03334045410156,377.48333740234375,120.75,414.78334045410156
g :  : BBData-85.03334045410156,377.48333740234375,120.75,414.78334045410156
rect : x-83.8;y-306.4;class-Graphic_x0020_Style_x0020_22;width-26;height-1.6; : BBData-83.03334045410156,305.48333740234375,110,308.1000061035156
path : class-Graphic_x0020_Style_x0020_22;d-M83.8,332.5c13.9,0,25.4-10.6,26.1-24.5; : BBData-78.55000305175781,302.6000061035156,114.58332824707031,337.01666259765625
g :  : BBData-78.55000305175781,302.6000061035156,114.58332824707031,337.01666259765625
g :  : BBData-78.55000305175781,302.6000061035156,114.58332824707031,337.01666259765625
rect : x-65.2;y-253.6;class-Graphic_x0020_Style_x0020_22;width-26;height-1.6; : BBData-64.48333740234375,252.85000610351562,91.43333435058594,255.48333740234375
path : class-Graphic_x0020_Style_x0020_22;d-M91.2,279.7c-13.9,0-25.4-10.6-26.1-24.5; : BBData-59.899993896484375,249.96665954589844,95.91667175292969,284.3999938964844
g :  : BBData-59.899993896484375,249.96665954589844,95.91667175292969,284.3999938964844
g :  : BBData-59.899993896484375,249.96665954589844,95.91667175292969,284.3999938964844
rect : x-62.9;y-218.1;class-Graphic_x0020_Style_x0020_22;width-1.6;height-26; : BBData-62.19999694824219,217.46665954589844,64.81666564941406,244.4166717529297
path : class-Graphic_x0020_Style_x0020_22;d-M38.4,218.1c0,13.9,10.6,25.4,24.5,26.1; : BBData-33.28334045410156,212.98333740234375,67.71665954589844,249
g :  : BBData-33.28334045410156,212.98333740234375,67.71665954589844,249
g :  : BBData-33.28334045410156,212.98333740234375,67.71665954589844,249
rect : x-110.4;y-219.4;class-Graphic_x0020_Style_x0020_22;width-26;height-1.6; : BBData-109.56666564941406,218.75,136.5,221.36666870117188
path : class-Graphic_x0020_Style_x0020_22;d-M110.3,245.5c13.9,0,25.4-10.6,26.1-24.5; : BBData-104.96665954589844,215.86666870117188,141,250.28334045410156
g :  : BBData-104.96665954589844,215.86666870117188,141,250.28334045410156
g :  : BBData-104.96665954589844,215.86666870117188,141,250.28334045410156
rect : x-62.1;y-168.2;class-Graphic_x0020_Style_x0020_22;width-1.6;height-26; : BBData-61.383331298828125,167.6999969482422,64.01666259765625,194.64999389648438
path : class-Graphic_x0020_Style_x0020_22;d-M37.6,168.1c0,13.9,10.6,25.4,24.5,26.1; : BBData-32.48333740234375,163.13333129882812,66.89999389648438,199.14999389648438
g :  : BBData-32.48333740234375,163.13333129882812,66.89999389648438,199.14999389648438
g :  : BBData-32.48333740234375,163.13333129882812,66.89999389648438,199.14999389648438
rect : x-75.9;y-159.5;class-Graphic_x0020_Style_x0020_22;width-30.6;height-1.9; : BBData-75.16667175292969,159.03334045410156,106.68333435058594,161.9499969482422
path : class-Graphic_x0020_Style_x0020_22;d-M106.6,130.6c-16.4,0-29.9,12.5-30.7,28.9; : BBData-70.66667175292969,125.73333740234375,111.26666259765625,164.53334045410156
g :  : BBData-70.66667175292969,125.73333740234375,111.26666259765625,164.53334045410156
g :  : BBData-70.66667175292969,125.73333740234375,111.26666259765625,164.53334045410156
rect : x-128.1;y-20.9;class-Graphic_x0020_Style_x0020_22;width-1.7;height-28.4; : BBData-127.19999694824219,20.833328247070312,129.93333435058594,50.18333435058594
path : class-Graphic_x0020_Style_x0020_22;d-M156.6,49.4c0-15.2-11.6-27.7-26.8-28.5; : BBData-124.41667175292969,16.366668701171875,161.13333129882812,54.78334045410156
g :  : BBData-124.41667175292969,16.366668701171875,161.13333129882812,54.78334045410156
g :  : BBData-124.41667175292969,16.366668701171875,161.13333129882812,54.78334045410156
style : type-text/css; : BBData-0,0,0,0
rdf:Description : rdf:about-; : BBData-0,0,0,0
rdf:RDF :  : BBData-0,0,0,0
x:xmpmeta : x:xmptk-Adobe XMP Core 5.6-c111 79.158366, 2015/09/25-01:12:00        ; : BBData-0,0,0,0
metadata :  : BBData-0,0,0,0
svg : version-1.1;id-Layer_22;x-0px;y-0px;width-231.7px;height-415.7px;viewBox-0 0 231.7 415.7;style-enable-background:new 0 0 231.7 415.7;; : BBData-0,0,231,415.5
