pool12.0m x6.5m : [300,654] :[258,638,343,671] :[100] : match
covered terrace : [172,359] :[119,350,225,368] :[100] : match
bedroom : [117,236] :[87,227,147,245] :[100] : match
lounge : [231,208] :[207,199,255,217] :[100] : match
dining area : [401,208] :[362,199,440,217] :[100] : match
bathroom : [110,76] :[78,67,142,85] :[100] : match
ensuite : [95,132] :[71,123,120,141] :[100] : match
bbq : [539,714] :[530,699,548,730] :[100] : match
bedroom : [344,312] :[314,303,374,321] :[100] : match
bedroom : [457,312] :[427,303,487,321] :[100] : match
bathroom : [331,132] :[299,123,363,141] :[100] : match
kitchen : [449,133] :[425,124,474,142] :[100] : match
