bathroom : [595.05513308,88.2107355865] : [573.16539924,83.8866799205,616.94486692,92.5347912525] : [85] : match
livingroom : [309.912547529,135.775347913] : [283.126425856,131.451292247,336.986692015,140.387673956] : [87] : match
cl : [649.203422053,138.946322068] : [644.883079848,135.487077535,653.811787072,142.693836978] : [72] : match
deck : [101.672053232,147.882703777] : [90.4391634981,143.558648111,113.192965779,152.495029821] : [72] : match
kitchen : [510.088403042,217.644135189] : [493.383079848,213.320079523,526.793726236,221.968190855] : [86] : match
entry : [642.290874525,227.445328032] : [623.569391635,223.121272366,661.012357414,232.057654076] : [77] : match
I I : [451.043726236,26.2326043738] : [444.131178707,24.7912524851,458.244296578,27.6739562624] : [79] : none
_ _ : [607.440114068,70.9145129225] : [597.935361217,70.6262425447,616.94486692,71.4910536779] : [94] : none
= - : [735.034220532,67.1669980119] : [727.545627376,65.4373757455,742.810836502,68.8966202783] : [88] : none
. ' : [773.91730038,68.0318091451] : [769.884980989,69.1848906561,777.949619772,66.8787276342] : [90] : none
. - : [353.692015209,100.894632207] : [346.779467681,95.9940357853,360.604562738,105.795228628] : [72] : none
_ I : [548.395437262,104.642147117] : [542.923003802,102.047713718,553.867870722,107.524850895] : [69] : none
12' 2x11' : [305.880228137,147.017892644] : [288.310836502,143.846918489,323.737642586,150.188866799] : [83] : none
'|r\ 1 : [556.748098859,251.371769384] : [549.547528517,246.471172962,563.948669202,256.272365805] : [61] : none
/ \| : [577.485741445,250.795228628] : [571.149239544,248.489065606,583.822243346,253.389662028] : [69] : none
\ /| : [577.197718631,255.119284294] : [570.86121673,252.813121272,583.822243346,257.713717694] : [86] : none
hw : [544.939163498,28.8270377734] : [533.418250951,26.5208747515,556.748098859,31.1332007952] : [51] : none
vf : [316.825095057,53.041749503] : [312.792775665,49.5825049702,320.857414449,56.5009940358] : [33] : none
w/d : [476.101711027,43.24055666] : [458.820342205,35.1689860835,493.383079848,51.6003976143] : [78] : none
isq : [95.6235741445,159.990059642] : [82.3745247148,155.377733598,108.872623574,164.890656064] : [76] : none
bedroomiix : [791.774714829,185.069582505] : [776.797528517,176.421471173,806.751901141,193.717693837] : [84] : none
dw : [508.936311787,238.976143141] : [502.311787072,235.516898608,515.848859316,242.723658052] : [96] : none
tv : [308.184410646,246.471172962] : [303.288022814,242.723658052,313.080798479,250.218687873] : [85] : none
f/p : [308.760456274,266.938369781] : [303.288022814,262.902584493,314.232889734,271.262425447] : [92] : none
_n : [132.77851711,114.155069583] : [128.746197719,112.713717694,136.810836502,115.884691849] : [70] : none
I - : [247.699619772,247.335984095] : [240.787072243,243.300198807,254.6121673,251.660039761] : [74] : none
- \ : [244.531368821,261.749502982] : [238.19486692,260.308151093,251.155893536,263.479125249] : [84] : none
\_' : [247.123574144,266.650099404] : [241.939163498,264.632206759,252.596007605,268.667992048] : [72] : none
D : [197.58365019,289.135188867] : [183.182509506,277.31610338,211.984790875,301.242544732] : [68] : none
I.____ : [43.2034220532,418.568588469] : [25.6340304183,416.262425447,61.0608365019,420.874751491] : [67] : none
.n : [44.355513308,437.5944334] : [40.3231939163,435.576540755,48.3878326996,439.612326044] : [71] : none
. -. : [156.97243346,524.652087475] : [153.516159696,522.057654076,160.716730038,527.534791252] : [70] : none
_. .3 : [170.509505703,532.435387674] : [163.020912548,526.093439364,178.286121673,538.777335984] : [61] : none
. . : [225.233840304,526.958250497] : [220.337452471,526.669980119,230.130228137,527.534791252] : [97] : none
. " : [233.010456274,535.029821074] : [226.385931559,535.606361829,239.634980989,534.453280318] : [92] : none
' -' : [249.715779468,534.453280318] : [243.379277567,533.011928429,256.052281369,535.894632207] : [82] : none
. . : [211.696768061,553.767395626] : [202.192015209,553.190854871,221.201520913,554.343936382] : [94] : none
2 : [52.7081749049,569.910536779] : [48.963878327,566.163021869,56.4524714829,573.65805169] : [64] : none
J ___|_ : [60.1967680608,578.558648111] : [52.7081749049,571.928429423,67.6853612167,585.477137177] : [69] : none
C; : [194.41539924,590.666003976] : [191.247148289,587.783300199,197.58365019,593.548707753] : [66] : none
. >1: : [190.095057034,598.449304175] : [184.33460076,598.161033797,195.855513308,598.737574553] : [74] : none
._ E : [190.095057034,611.709741551] : [182.606463878,607.385685885,197.58365019,616.033797217] : [64] : none
/\ : [190.095057034,703.667992048] : [186.062737643,699.920477137,194.41539924,707.415506958] : [91] : none
\ : [214.00095057,725.864811133] : [210.544676806,724.135188867,217.457224335,727.5944334] : [72] : none
@ : [252.307984791,723.558648111] : [239.923003802,711.163021869,264.980988593,736.242544732] : [62] : none
. . : [246.259505703,748.638170974] : [237.906844106,748.638170974,254.6121673,748.638170974] : [92] : none
l. .. : [255.188212928,787.842942346] : [247.699619772,784.383697813,262.964828897,791.302186879] : [77] : none
' '- : [255.476235741,795.914512922] : [247.987642586,794.473161034,263.252851711,797.355864811] : [79] : none
_ . : [230.994296578,808.88667992] : [226.097908745,808.310139165,236.178707224,809.463220676] : [94] : none
023 : [105.41634981,814.363817097] : [98.2157794677,810.904572565,112.904942966,818.111332008] : [69] : none
.. . : [239.346958175,838.001988072] : [235.02661597,837.425447316,243.66730038,838.866799205] : [94] : none
_. . : [256.340304183,838.578528827] : [249.715779468,838.290258449,262.964828897,839.155069583] : [89] : none
ili : [35.7148288973,478.817097416] : [27.9382129278,476.799204771,43.7794676806,481.123260437] : [64] : none
