rect : x-349.938;y-55.59;fill-#ECEDEE;width-12.665;height-48.785; : BBData-350.2166748046875,55.58332824707031,362.91668701171875,104.39999389648438
rect : x-457.944;y-604.188;fill-#545454;width-58.401;height-5.629; : BBData-458.2166748046875,604.2166748046875,516.6666870117188,609.8833465576172
path : fill-#545454;d-M659.356,249.676h-2.793v-6.757l-3.378-9.504h2.837l1.96,6.193h0.045l1.869-6.193h2.838l-3.378,9.504    V249.676z; : BBData-653.4833374023438,233.39999389648438,663.0666656494141,249.6999969482422
path : fill-#545454;d-M645.396,249.676h-2.793v-16.261h3.919c3.13,0,4.729,1.329,4.729,4.797c0,2.612-1.014,3.671-1.96,4.1    l2.365,7.364h-2.838l-1.981-6.734c-0.361,0.045-0.946,0.068-1.441,0.068V249.676z M645.396,240.712h0.99    c1.509,0,2.072-0.562,2.072-2.5c0-1.937-0.563-2.5-2.072-2.5h-0.99V240.712z; : BBData-642.9000244140625,233.39999389648438,651.9833679199219,249.6999969482422
path : fill-#545454;d-M635.015,235.848h-2.702v-2.433h8.198v2.433h-2.703v13.828h-2.793V235.848z; : BBData-632.5999755859375,233.39999389648438,640.8332977294922,249.6999969482422
path : fill-#545454;d-M621.686,249.676v-16.261h2.59l3.4,9.302h0.046v-9.302h2.521v16.261h-2.432l-3.559-10.157h-0.045v10.157    H621.686z; : BBData-621.9833374023438,233.39999389648438,630.5666656494141,249.6999969482422
path : fill-#545454;d-M611.238,249.676v-16.261h7.478v2.433h-4.686v4.188h3.604v2.433h-3.604v4.774h5v2.433H611.238z; : BBData-611.5333251953125,233.39999389648438,619.3499908447266,249.6999969482422
g :  : BBData-611.5333251953125,233.39999389648438,663.066650390625,249.6999969482422
g :  : BBData-611.5333251953125,233.39999389648438,663.066650390625,249.6999969482422
rect : x-709.785;y-184.161;transform-matrix(0.4952 0.8688 -0.8688 0.4952 549.3247 -507.6727);fill-#545454;width-3.53;height-69.469; : BBData-680.75,200.1666717529297,742.8999938964844,237.68333435058594
path : fill-#545454;d-M682.17,236.852c-0.193-0.573-0.373-1.151-0.54-1.735l2.205-0.631c0.157,0.549,0.327,1.094,0.509,1.634   L682.17,236.852z; : BBData-681.9166870117188,234.48333740234375,684.6666870117188,236.88333129882812
path : fill-#545454;d-M731.628,268.478l-0.025-2.295c1.175-0.012,2.36-0.062,3.523-0.146l0.166,2.289   C734.081,268.413,732.849,268.464,731.628,268.478z M727.958,268.397c-1.224-0.065-2.453-0.17-3.656-0.311l0.268-2.279   c1.154,0.136,2.336,0.236,3.512,0.299L727.958,268.397z M720.673,267.546c-1.207-0.22-2.414-0.479-3.589-0.771l0.555-2.227   c1.127,0.28,2.286,0.529,3.444,0.74L720.673,267.546z M713.553,265.774c-1.168-0.371-2.333-0.784-3.462-1.229l0.84-2.135   c1.081,0.425,2.197,0.821,3.317,1.178L713.553,265.774z M706.72,263.093c-1.114-0.525-2.215-1.091-3.27-1.68l1.119-2.004   c1.009,0.564,2.062,1.104,3.129,1.607L706.72,263.093z M700.304,259.512c-1.025-0.67-2.036-1.385-3.005-2.123l1.393-1.824   c0.924,0.705,1.889,1.387,2.868,2.027L700.304,259.512z M694.456,255.046c-0.925-0.823-1.819-1.683-2.656-2.555l1.654-1.59   c0.796,0.829,1.646,1.646,2.527,2.43L694.456,255.046z M689.351,249.73c-0.782-0.958-1.526-1.953-2.212-2.958l1.895-1.293   c0.648,0.95,1.354,1.893,2.095,2.8L689.351,249.73z M685.189,243.633c-0.605-1.077-1.164-2.189-1.662-3.307l2.096-0.934   c0.469,1.052,0.996,2.101,1.566,3.117L685.189,243.633z; : BBData-683.816650390625,239.38333129882812,735.6166534423828,268.5
path : fill-#545454;d-M738.944,267.947l-0.309-2.273c0.569-0.077,1.14-0.164,1.712-0.259l0.375,2.264   C740.129,267.777,739.537,267.866,738.944,267.947z; : BBData-738.933349609375,265.3999938964844,741.0500183105469,267.96665954589844
g :  : BBData-681.9166870117188,234.48333740234375,741.0500183105469,268.5
rect : x-683.428;y-267.617;fill-#ECEDEE;width-40.05;height-15.128; : BBData-683.7166748046875,267.6166687011719,723.8000183105469,282.76666259765625
rect : x-664.812;y-199.365;fill-#545454;width-77.284;height-5.629; : BBData-665.0999755859375,199.35000610351562,742.4166412353516,205.01666259765625
path : fill-#545454;d-M744.91,335.163h-82.913v-64.382h82.913V335.163z M667.626,329.534h71.655V276.41h-71.655V329.534z; : BBData-662.2833251953125,270.76666259765625,745.2333221435547,335.1999969482422
rect : x-733.416;y-204.994;fill-#ECEDEE;width-15.479;height-65.846; : BBData-733.7000122070312,204.98333740234375,749.2166748046875,270.8666687011719
rect : x-37.291;y-229.211;fill-#ECEDEE;width-41.749;height-20.185; : BBData-37.55000305175781,229.1999969482422,79.33332824707031,249.4166717529297
rect : x-232.786;y-273.949;fill-#ECEDEE;width-43.195;height-47.064; : BBData-233.06666564941406,273.933349609375,276.28334045410156,321.0500183105469
rect : x-208.233;y-175.441;fill-#ECEDEE;width-43.196;height-48.902; : BBData-208.5,175.43333435058594,251.73333740234375,224.36666870117188
polygon : fill-#545454;points-551.645,166.993 474.243,166.993 474.243,161.364 546.016,161.364 546.016,5.629 359.085,5.629   359.085,164.179 353.456,164.179 353.456,0 551.645,0 ; : BBData-353.73333740234375,0,551.9666595458984,167.01666259765625
path : fill-#545454;d-M359.085,166.998H213.434V0.003h145.651V166.998z M219.062,161.369h134.394V5.632H219.062V161.369z; : BBData-213.71665954589844,0,359.3999938964844,167.01666259765625
rect : x-319.688;y-124.596;fill-#C6C8CA;width-25.256;height-2.695; : BBData-319.9666748046875,124.58332824707031,345.25001525878906,127.31666564941406
circle : fill-#C6C8CA;cx-322.918;cy-149.052;r-6.831; : BBData-316.3666687011719,142.21665954589844,330.0500030517578,155.89999389648438
circle : fill-#C6C8CA;cx-322.918;cy-134.715;r-4.192; : BBData-319,130.51666259765625,327.4166717529297,138.93333435058594
g :  : BBData-316.3666687011719,130.51666259765625,330.0500030517578,155.89999389648438
circle : fill-#C6C8CA;cx-341.712;cy-137.354;r-6.831; : BBData-335.1499938964844,130.51666259765625,348.8500061035156,144.21665954589844
circle : fill-#C6C8CA;cx-341.712;cy-151.69;r-4.192; : BBData-337.79998779296875,147.48333740234375,346.2166442871094,155.89999389648438
g :  : BBData-335.1499938964844,130.51666259765625,348.8500061035156,155.89999389648438
g :  : BBData-316.3666687011719,130.51666259765625,348.8500061035156,155.89999389648438
rect : x-309.975;y-127.291;fill-#E0E1E2;width-44.682;height-35.063; : BBData-310.25,127.28334045410156,354.96665954589844,162.38333129882812
rect : x-216.248;y-115.985;fill-#E0E1E2;width-53.123;height-48.193; : BBData-216.51666259765625,115.98333740234375,269.68333435058594,164.1999969482422
polygon : fill-#545454;points-170.276,192.905 164.647,192.905 164.647,186.23 116.336,186.23 116.336,180.602 170.276,180.602   ; : BBData-116.60000610351562,180.60000610351562,170.5833282470703,192.93333435058594
path : fill-#545454;d-M219.062,244.866H113.521V0.003h105.541V244.866z M119.15,239.237h94.283V5.632H119.15V239.237z; : BBData-113.78334045410156,0,219.36666870117188,244.88333129882812
polygon : fill-#545454;points-119.15,244.866 0,244.866 0,121.964 34.479,121.964 34.479,127.593 5.629,127.593 5.629,239.237   113.521,239.237 113.521,127.593 81.857,127.593 81.857,121.964 119.15,121.964 ; : BBData-0.26666259765625,121.94999694824219,119.44999694824219,244.88333129882812
polygon : fill-#545454;points-84.672,133.488 79.043,133.488 79.043,121.964 113.521,121.964 113.521,5.632 5.629,5.632   5.629,121.964 37.293,121.964 37.293,133.488 31.664,133.488 31.664,127.593 0,127.593 0,0.003 119.15,0.003 119.15,127.593   84.672,127.593 ; : BBData-0.26666259765625,0,119.44999694824219,133.51666259765625
rect : x-72.619;y-121.964;fill-#545454;width-9.238;height-5.629; : BBData-72.88333129882812,121.94999694824219,82.14999389648438,127.61666870117188
rect : x-28.906;y-121.964;fill-#545454;width-14.424;height-5.629; : BBData-29.166671752929688,121.94999694824219,43.616668701171875,127.61666870117188
path : fill-none;stroke-#545454;stroke-width-5.629;stroke-miterlimit-10;d-M34.479,124.778; : BBData-6.600006103515625,96.61666870117188,62.91667175292969,152.9499969482422
rect : x-31.662;y-230.794;fill-#545454;width-5.629;height-11.258; : BBData-31.916671752929688,230.78334045410156,37.58332824707031,242.0833282470703
rect : x-79.04;y-230.794;fill-#545454;width-5.629;height-11.258; : BBData-79.30000305175781,230.78334045410156,84.96665954589844,242.0833282470703
rect : x-164.647;y-230.794;fill-#545454;width-5.629;height-11.258; : BBData-164.89999389648438,230.78334045410156,170.5833282470703,242.0833282470703
rect : x-596.693;y-607.798;fill-#545454;width-79.456;height-5.629; : BBData-596.9833374023438,607.816650390625,676.4666595458984,613.4833221435547
rect : x-541.991;y-600.576;fill-#545454;width-79.455;height-5.629; : BBData-542.2833251953125,600.5999755859375,621.7666473388672,606.2666320800781
g :  : BBData-542.2833251953125,600.5999755859375,676.4666442871094,613.4833068847656
polygon : fill-#545454;points-744.91,607.002 739.281,607.002 739.281,5.629 548.83,5.629 548.83,0 744.91,0 ; : BBData-549.11669921875,0,745.2333679199219,607.066650390625
rect : x-329.18;y-316.764;fill-#ECEDEE;width-99.564;height-15.588; : BBData-329.45001220703125,316.76666259765625,429.0500183105469,332.3999938964844
polygon : fill-#545454;points-460.759,609.816 244.394,609.816 244.394,322.852 250.022,322.852 250.022,604.188 455.13,604.188   455.13,325.666 304.553,325.666 304.553,320.037 460.759,320.037 ; : BBData-244.6666717529297,320.04998779296875,461.06666564941406,609.8666381835938
rect : x-394.971;y-219.066;fill-#ECEDEE;width-49.254;height-18.295; : BBData-395.25,219.0500030517578,444.53334045410156,237.38333129882812
rect : x-318.278;y-219.066;fill-#ECEDEE;width-49.255;height-18.295; : BBData-318.54998779296875,219.0500030517578,367.83331298828125,237.38333129882812
polygon : fill-#545454;points-307.367,352.053 297.165,352.053 297.165,346.424 301.738,346.424 301.738,322.852 307.367,322.852   ; : BBData-297.433349609375,322.8666687011719,307.683349609375,352.1000061035156
rect : x-247.208;y-346.424;fill-#545454;width-10.789;height-5.629; : BBData-247.48333740234375,346.433349609375,258.3000030517578,352.1000213623047
polygon : fill-#545454;points-744.91,692.961 513.531,692.961 513.531,604.188 528.311,604.188 528.311,609.816 519.16,609.816   519.16,687.332 739.281,687.332 739.281,609.816 689.087,609.816 689.087,604.188 744.91,604.188 ; : BBData-513.816650390625,604.2166748046875,745.2333221435547,693.0166778564453
path : fill-#545454;d-M460.759,277.82h-82.324v-56.291h82.324V277.82z M384.063,272.191h71.066v-45.033h-71.066V272.191z; : BBData-378.7166748046875,221.51666259765625,461.0666809082031,277.8500061035156
path : fill-#545454;d-M384.066,277.82h-82.323v-56.291h82.323V277.82z M307.372,272.191h71.065v-45.033h-71.065V272.191z; : BBData-302.01666259765625,221.51666259765625,384.3666687011719,277.8500061035156
path : fill-#545454;d-M460.759,325.666H301.738V221.529h159.021V325.666z M307.367,320.037H455.13v-92.879H307.367V320.037z; : BBData-302.01666259765625,221.51666259765625,461.06666564941406,325.6999969482422
path : fill-#545454;d-M250.022,609.816H0V239.237h250.022V609.816z M5.629,604.188h238.765V244.866H5.629V604.188z; : BBData-0.26666259765625,239.23333740234375,250.3333282470703,609.8666687011719
path : fill-#545454;d-M721.43,298.764h-2.197v-1.977h6.665v1.977H723.7v11.243h-2.271V298.764z; : BBData-719.5166625976562,296.79998779296875,726.2166595458984,310.04998779296875
path : fill-#545454;d-M711.615,310.007v-13.22h6.079v1.977h-3.809v3.406h2.93v1.978h-2.93v3.882h4.064v1.978H711.615z; : BBData-711.9000244140625,296.79998779296875,718.2666931152344,310.04998779296875
path : fill-#545454;d-M707.257,300.046c-0.091-1.136-0.695-1.465-1.208-1.465c-0.732,0-1.136,0.476-1.136,1.3    c0,2.252,4.615,3.333,4.615,6.922c0,2.179-1.465,3.387-3.59,3.387c-2.105,0-3.313-1.684-3.405-3.662l2.161-0.311    c0.091,1.336,0.622,1.996,1.354,1.996c0.787,0,1.318-0.422,1.318-1.209c0-2.618-4.614-3.314-4.614-7.104    c0-2.105,1.281-3.296,3.516-3.296c1.85,0,2.948,1.337,3.149,3.204L707.257,300.046z; : BBData-702.816650390625,296.6166687011719,709.8499908447266,310.23333740234375
path : fill-#545454;d-M693.597,299.991c0-1.868,1.099-3.388,3.479-3.388c2.381,0,3.479,1.52,3.479,3.388v6.812    c0,1.867-1.099,3.387-3.479,3.387c-2.38,0-3.479-1.52-3.479-3.387V299.991z M695.867,306.748c0,0.988,0.293,1.465,1.208,1.465    c0.916,0,1.209-0.477,1.209-1.465v-6.702c0-0.989-0.293-1.465-1.209-1.465c-0.915,0-1.208,0.476-1.208,1.465V306.748z; : BBData-693.88330078125,296.6166687011719,700.88330078125,310.23333740234375
path : fill-#545454;d-M685.997,310.007v-13.22h2.271v11.242h3.57v1.978H685.997z; : BBData-686.2833251953125,296.79998779296875,692.1666564941406,310.04998779296875
path : fill-#545454;d-M681.163,301.199v-1.025c0-1.117-0.514-1.593-1.1-1.593c-0.915,0-1.208,0.476-1.208,1.465v6.702    c0,0.988,0.293,1.465,1.208,1.465c0.824,0,1.1-0.477,1.1-1.337v-1.593h2.27v1.52c0,1.867-1.098,3.387-3.369,3.387    c-2.38,0-3.479-1.52-3.479-3.387v-6.812c0-1.868,1.099-3.388,3.479-3.388c2.271,0,3.369,1.648,3.369,3.625v0.971H681.163z; : BBData-676.88330078125,296.6166687011719,683.7499694824219,310.23333740234375
g :  : BBData-676.88330078125,296.6166687011719,726.2166290283203,310.23333740234375
g :  : BBData-676.88330078125,296.6166687011719,726.2166290283203,310.23333740234375
path : fill-#545454;d-M401.681,295.895h-2.197v-1.977h6.665v1.977h-2.197v11.243h-2.271V295.895z; : BBData-399.76666259765625,293.91668701171875,406.4499969482422,307.183349609375
path : fill-#545454;d-M391.866,307.138v-13.22h6.079v1.977h-3.809v3.406h2.93v1.978h-2.93v3.882h4.065v1.978H391.866z; : BBData-392.1333312988281,293.91668701171875,398.51666259765625,307.183349609375
path : fill-#545454;d-M387.509,297.177c-0.092-1.136-0.696-1.465-1.209-1.465c-0.732,0-1.135,0.476-1.135,1.3    c0,2.252,4.613,3.333,4.613,6.922c0,2.179-1.465,3.387-3.588,3.387c-2.106,0-3.314-1.684-3.406-3.662l2.16-0.311    c0.092,1.336,0.623,1.996,1.355,1.996c0.787,0,1.318-0.422,1.318-1.209c0-2.618-4.614-3.314-4.614-7.104    c0-2.105,1.282-3.296,3.516-3.296c1.85,0,2.948,1.337,3.149,3.204L387.509,297.177z; : BBData-383.066650390625,293.73333740234375,390.08331298828125,307.3666687011719
path : fill-#545454;d-M373.848,297.122c0-1.868,1.099-3.388,3.479-3.388c2.38,0,3.479,1.52,3.479,3.388v6.812    c0,1.867-1.099,3.387-3.479,3.387c-2.381,0-3.479-1.52-3.479-3.387V297.122z M376.118,303.879c0,0.988,0.293,1.465,1.209,1.465    c0.915,0,1.208-0.477,1.208-1.465v-6.702c0-0.989-0.293-1.465-1.208-1.465c-0.916,0-1.209,0.476-1.209,1.465V303.879z; : BBData-374.1166687011719,293.73333740234375,381.1166687011719,307.3666687011719
path : fill-#545454;d-M366.249,307.138v-13.22h2.27v11.242h3.571v1.978H366.249z; : BBData-366.51666259765625,293.91668701171875,372.3999938964844,307.183349609375
path : fill-#545454;d-M361.413,298.33v-1.025c0-1.117-0.512-1.593-1.098-1.593c-0.916,0-1.209,0.476-1.209,1.465v6.702    c0,0.988,0.293,1.465,1.209,1.465c0.823,0,1.098-0.477,1.098-1.337v-1.593h2.271v1.52c0,1.867-1.1,3.387-3.369,3.387    c-2.381,0-3.479-1.52-3.479-3.387v-6.812c0-1.868,1.099-3.388,3.479-3.388c2.27,0,3.369,1.648,3.369,3.625v0.971H361.413z; : BBData-357.1166687011719,293.73333740234375,364,307.3666687011719
g :  : BBData-357.1166687011719,293.73333740234375,406.4499969482422,307.3666687011719
g :  : BBData-357.1166687011719,293.73333740234375,406.4499969482422,307.3666687011719
path : fill-#545454;d-M440.027,246.447h-2.197v-1.977h6.665v1.977h-2.197v11.243h-2.271V246.447z; : BBData-438.1000061035156,244.46665954589844,444.8000030517578,257.71665954589844
path : fill-#545454;d-M430.213,257.69v-13.22h6.079v1.977h-3.809v3.406h2.93v1.978h-2.93v3.882h4.064v1.978H430.213z; : BBData-430.48333740234375,244.46665954589844,436.8500061035156,257.71665954589844
path : fill-#545454;d-M425.854,247.729c-0.091-1.136-0.695-1.465-1.208-1.465c-0.732,0-1.136,0.476-1.136,1.3    c0,2.252,4.615,3.333,4.615,6.922c0,2.179-1.465,3.387-3.59,3.387c-2.105,0-3.313-1.684-3.405-3.662l2.161-0.311    c0.091,1.336,0.622,1.996,1.354,1.996c0.787,0,1.318-0.422,1.318-1.209c0-2.618-4.614-3.314-4.614-7.104    c0-2.105,1.281-3.296,3.516-3.296c1.85,0,2.948,1.337,3.149,3.204L425.854,247.729z; : BBData-421.3999938964844,244.28334045410156,428.43333435058594,257.8999938964844
path : fill-#545454;d-M412.194,247.675c0-1.868,1.099-3.388,3.479-3.388c2.381,0,3.479,1.52,3.479,3.388v6.812    c0,1.867-1.099,3.387-3.479,3.387c-2.38,0-3.479-1.52-3.479-3.387V247.675z M414.465,254.432c0,0.988,0.293,1.465,1.208,1.465    c0.916,0,1.209-0.477,1.209-1.465v-6.702c0-0.989-0.293-1.465-1.209-1.465c-0.915,0-1.208,0.476-1.208,1.465V254.432z; : BBData-412.4666748046875,244.28334045410156,419.4666748046875,257.8999938964844
path : fill-#545454;d-M404.595,257.69v-13.22h2.271v11.242h3.57v1.978H404.595z; : BBData-404.8666687011719,244.46665954589844,410.75,257.71665954589844
path : fill-#545454;d-M399.761,248.883v-1.025c0-1.117-0.514-1.593-1.1-1.593c-0.915,0-1.208,0.476-1.208,1.465v6.702    c0,0.988,0.293,1.465,1.208,1.465c0.824,0,1.1-0.477,1.1-1.337v-1.593h2.27v1.52c0,1.867-1.098,3.387-3.369,3.387    c-2.38,0-3.479-1.52-3.479-3.387v-6.812c0-1.868,1.099-3.388,3.479-3.388c2.271,0,3.369,1.648,3.369,3.625v0.971H399.761z; : BBData-395.45001220703125,244.28334045410156,402.3333435058594,257.8999938964844
g :  : BBData-395.45001220703125,244.28334045410156,444.8000183105469,257.8999938964844
g :  : BBData-395.45001220703125,244.28334045410156,444.8000183105469,257.8999938964844
path : fill-#545454;d-M363.337,246.447h-2.197v-1.977h6.665v1.977h-2.197v11.243h-2.271V246.447z; : BBData-361.41668701171875,244.46665954589844,368.11668395996094,257.71665954589844
path : fill-#545454;d-M353.522,257.69v-13.22h6.079v1.977h-3.809v3.406h2.93v1.978h-2.93v3.882h4.065v1.978H353.522z; : BBData-353.79998779296875,244.46665954589844,360.1666564941406,257.71665954589844
path : fill-#545454;d-M349.165,247.729c-0.092-1.136-0.696-1.465-1.209-1.465c-0.732,0-1.135,0.476-1.135,1.3    c0,2.252,4.613,3.333,4.613,6.922c0,2.179-1.465,3.387-3.588,3.387c-2.106,0-3.314-1.684-3.406-3.662l2.16-0.311    c0.092,1.336,0.623,1.996,1.355,1.996c0.787,0,1.318-0.422,1.318-1.209c0-2.618-4.614-3.314-4.614-7.104    c0-2.105,1.282-3.296,3.516-3.296c1.85,0,2.948,1.337,3.149,3.204L349.165,247.729z; : BBData-344.7166748046875,244.28334045410156,351.75001525878906,257.8999938964844
path : fill-#545454;d-M335.504,247.675c0-1.868,1.099-3.388,3.479-3.388c2.38,0,3.479,1.52,3.479,3.388v6.812    c0,1.867-1.099,3.387-3.479,3.387c-2.381,0-3.479-1.52-3.479-3.387V247.675z M337.774,254.432c0,0.988,0.293,1.465,1.209,1.465    c0.915,0,1.208-0.477,1.208-1.465v-6.702c0-0.989-0.293-1.465-1.208-1.465c-0.916,0-1.209,0.476-1.209,1.465V254.432z; : BBData-335.7833251953125,244.28334045410156,342.7666473388672,257.8999938964844
path : fill-#545454;d-M327.905,257.69v-13.22h2.27v11.242h3.571v1.978H327.905z; : BBData-328.183349609375,244.46665954589844,334.0500183105469,257.71665954589844
path : fill-#545454;d-M323.069,248.883v-1.025c0-1.117-0.512-1.593-1.098-1.593c-0.916,0-1.209,0.476-1.209,1.465v6.702    c0,0.988,0.293,1.465,1.209,1.465c0.823,0,1.098-0.477,1.098-1.337v-1.593h2.271v1.52c0,1.867-1.1,3.387-3.369,3.387    c-2.381,0-3.479-1.52-3.479-3.387v-6.812c0-1.868,1.099-3.388,3.479-3.388c2.27,0,3.369,1.648,3.369,3.625v0.971H323.069z; : BBData-318.76666259765625,244.28334045410156,325.6499938964844,257.8999938964844
g :  : BBData-318.76666259765625,244.28334045410156,368.1166687011719,257.8999938964844
g :  : BBData-318.76666259765625,244.28334045410156,368.1166687011719,257.8999938964844
path : fill-#545454;d-M171.62,206.607h-2.197v-1.977h6.665v1.977h-2.197v11.243h-2.271V206.607z; : BBData-169.6999969482422,204.61666870117188,176.39999389648438,217.86666870117188
path : fill-#545454;d-M161.806,217.851v-13.22h6.079v1.977h-3.809v3.406h2.93v1.978h-2.93v3.882h4.065v1.978H161.806z; : BBData-162.06666564941406,204.61666870117188,168.4499969482422,217.88333129882812
path : fill-#545454;d-M157.448,207.89c-0.092-1.136-0.696-1.465-1.209-1.465c-0.732,0-1.135,0.476-1.135,1.3    c0,2.252,4.613,3.333,4.613,6.922c0,2.179-1.465,3.387-3.588,3.387c-2.106,0-3.314-1.684-3.406-3.662l2.16-0.311    c0.092,1.336,0.623,1.996,1.355,1.996c0.787,0,1.318-0.422,1.318-1.209c0-2.618-4.614-3.314-4.614-7.104    c0-2.105,1.282-3.296,3.516-3.296c1.85,0,2.948,1.337,3.149,3.204L157.448,207.89z; : BBData-152.98333740234375,204.43333435058594,160.01666259765625,218.06666564941406
path : fill-#545454;d-M143.787,207.835c0-1.868,1.099-3.388,3.479-3.388c2.38,0,3.479,1.52,3.479,3.388v6.812    c0,1.867-1.099,3.387-3.479,3.387c-2.381,0-3.479-1.52-3.479-3.387V207.835z M146.058,214.592c0,0.988,0.293,1.465,1.209,1.465    c0.915,0,1.208-0.477,1.208-1.465v-6.702c0-0.989-0.293-1.465-1.208-1.465c-0.916,0-1.209,0.476-1.209,1.465V214.592z; : BBData-144.0500030517578,204.43333435058594,151.03334045410156,218.06666564941406
path : fill-#545454;d-M136.188,217.851v-13.22h2.27v11.242h3.571v1.978H136.188z; : BBData-136.4499969482422,204.61666870117188,142.31666564941406,217.88333129882812
path : fill-#545454;d-M131.353,209.043v-1.025c0-1.117-0.512-1.593-1.098-1.593c-0.916,0-1.209,0.476-1.209,1.465v6.702    c0,0.988,0.293,1.465,1.209,1.465c0.823,0,1.098-0.477,1.098-1.337v-1.593h2.271v1.52c0,1.867-1.1,3.387-3.369,3.387    c-2.381,0-3.479-1.52-3.479-3.387v-6.812c0-1.868,1.099-3.388,3.479-3.388c2.27,0,3.369,1.648,3.369,3.625v0.971H131.353z; : BBData-127.03334045410156,204.43333435058594,133.9166717529297,218.06666564941406
g :  : BBData-127.03334045410156,204.43333435058594,176.39999389648438,218.06666564941406
g :  : BBData-127.03334045410156,204.43333435058594,176.39999389648438,218.06666564941406
path : fill-#545454;d-M80.188,176.918h-2.197v-1.979h6.665v1.979h-2.197v11.242h-2.271V176.918z; : BBData-78.25,174.93333435058594,84.94999694824219,188.18333435058594
path : fill-#545454;d-M70.374,188.16v-13.221h6.079v1.979h-3.809v3.405h2.93v1.978h-2.93v3.882h4.065v1.978H70.374z; : BBData-70.63333129882812,174.93333435058594,77,188.18333435058594
path : fill-#545454;d-M66.017,178.199c-0.092-1.135-0.696-1.465-1.209-1.465c-0.732,0-1.135,0.477-1.135,1.3    c0,2.253,4.613,3.333,4.613,6.922c0,2.179-1.465,3.388-3.588,3.388c-2.106,0-3.314-1.686-3.406-3.662l2.16-0.312    c0.092,1.337,0.623,1.995,1.355,1.995c0.787,0,1.318-0.421,1.318-1.208c0-2.618-4.614-3.314-4.614-7.104    c0-2.105,1.282-3.296,3.516-3.296c1.85,0,2.948,1.337,3.149,3.204L66.017,178.199z; : BBData-61.55000305175781,174.75,68.58332824707031,188.36666870117188
path : fill-#545454;d-M52.355,178.145c0-1.868,1.099-3.388,3.479-3.388c2.38,0,3.479,1.52,3.479,3.388v6.812    c0,1.867-1.099,3.388-3.479,3.388c-2.381,0-3.479-1.521-3.479-3.388V178.145z M54.626,184.9c0,0.989,0.293,1.465,1.209,1.465    c0.915,0,1.208-0.476,1.208-1.465v-6.701c0-0.988-0.293-1.465-1.208-1.465c-0.916,0-1.209,0.477-1.209,1.465V184.9z; : BBData-52.616668701171875,174.75,59.600006103515625,188.36666870117188
path : fill-#545454;d-M44.757,188.16v-13.221h2.27v11.243h3.571v1.978H44.757z; : BBData-45.01666259765625,174.93333435058594,50.883331298828125,188.18333435058594
path : fill-#545454;d-M39.921,179.353v-1.025c0-1.116-0.512-1.593-1.098-1.593c-0.916,0-1.209,0.477-1.209,1.465v6.701    c0,0.989,0.293,1.465,1.209,1.465c0.823,0,1.098-0.476,1.098-1.336v-1.594h2.271v1.521c0,1.867-1.1,3.388-3.369,3.388    c-2.381,0-3.479-1.521-3.479-3.388v-6.812c0-1.868,1.099-3.388,3.479-3.388c2.27,0,3.369,1.647,3.369,3.626v0.97H39.921z; : BBData-35.600006103515625,174.75,42.48333740234375,188.36666870117188
g :  : BBData-35.600006103515625,174.75,84.94999694824219,188.36666870117188
g :  : BBData-35.600006103515625,174.75,84.94999694824219,188.36666870117188
path : fill-#545454;d-M68.854,92.817V92.14c0-0.86-0.293-1.263-0.971-1.263c-0.677,0-1.062,0.402-1.062,1.263v3.095    c0.586-0.586,0.952-0.879,1.868-0.879c1.318,0,2.416,0.77,2.416,2.71v1.575c0,2.783-0.951,4.027-3.223,4.027    c-2.27,0-3.223-1.135-3.223-3.625v-6.336c0-2.49,0.953-3.625,3.223-3.625c1.795-0.037,2.948,1.245,2.948,2.93v0.806H68.854z     M66.822,99.61c0,0.86,0.385,1.264,1.062,1.264c0.678,0,1.062-0.403,1.062-1.264v-2.197c0-0.86-0.385-1.263-0.952-1.263    c-0.403,0-0.897,0.384-1.172,0.604V99.61z; : BBData-64.91667175292969,89.03334045410156,71.39999389648438,102.69999694824219
path : fill-#545454;d-M58.18,95.564l-2.417-6.299h2.234l1.391,4.192h0.037l1.264-4.192h2.233l-2.288,6.299l2.562,6.921h-2.233    l-1.538-4.815h-0.037l-1.574,4.815h-2.234L58.18,95.564z; : BBData-55.83332824707031,89.25,63.48333740234375,102.51666259765625
path : fill-#545454;d-M49.794,98.658v1.062c0,0.714,0.402,1.153,1.007,1.153c0.714,0,1.116-0.421,1.116-1.611V96.26    c0-0.86-0.439-1.209-0.951-1.209c-0.696,0-1.025,0.458-1.228,1.008H47.98c0.073-2.051,0.165-3.662,0.165-6.793h5.512l-0.073,1.867    h-3.571l-0.128,2.856l0.037,0.036c0.567-0.677,1.044-0.769,1.739-0.769c1.739,0,2.417,1.264,2.417,3.479v1.83    c0,2.783-0.879,4.102-3.076,4.102c-1.831,0-3.259-0.805-3.259-3.002v-1.008H49.794z; : BBData-48,89.25,54.366668701171875,102.69999694824219
path : fill-#545454;d-M68.663,85.318V72.098h2.271v5.384h2.417v-5.384h2.271v13.221h-2.271v-5.859h-2.417v5.859H68.663z; : BBData-68.91667175292969,72.08332824707031,75.91667175292969,85.35000610351562
path : fill-#545454;d-M62.492,74.076h-2.197v-1.979h6.665v1.979h-2.197v11.242h-2.271V74.076z; : BBData-60.55000305175781,72.08332824707031,67.25,85.35000610351562
path : fill-#545454;d-M53.996,85.318h-2.197l2.436-13.221h2.819l2.436,13.221h-2.197l-0.402-2.93h-2.49L53.996,85.318z     M54.729,80.411h1.831l-0.897-5.677h-0.036L54.729,80.411z; : BBData-52.05000305175781,72.08332824707031,59.78334045410156,85.35000610351562
path : fill-#545454;d-M43.155,72.098h3.369c2.436,0,3.516,1.246,3.516,3.498c0,1.135-0.477,2.325-1.574,2.765    c1.153,0.513,1.83,1.429,1.83,3.131c0,2.179-0.97,3.827-3.552,3.827h-3.589V72.098z M45.426,77.518h0.824    c0.86,0,1.52-0.586,1.52-1.684c0-1.228-0.476-1.868-1.483-1.868h-0.86V77.518z M45.426,83.451h0.952    c1.209,0,1.648-0.696,1.648-2.033c0-1.354-0.514-2.032-1.868-2.032h-0.732V83.451z; : BBData-43.41667175292969,72.08332824707031,50.58332824707031,85.35000610351562
path : fill-#545454;d-M80.445,68.15h-2.271V54.93h3.186c2.546,0,3.846,1.081,3.846,3.9c0,2.124-0.824,2.984-1.593,3.333    l1.923,5.987h-2.308l-1.611-5.475c-0.293,0.036-0.769,0.055-1.172,0.055V68.15z M80.445,60.863h0.806    c1.227,0,1.685-0.458,1.685-2.033c0-1.574-0.458-2.032-1.685-2.032h-0.806V60.863z; : BBData-78.43333435058594,54.91667175292969,85.83332824707031,68.18333435058594
path : fill-#545454;d-M69.679,68.15V54.93h6.079v1.979h-3.809v3.405h2.93v1.978h-2.93v3.882h4.065v1.978H69.679z; : BBData-69.93333435058594,54.91667175292969,76.30000305175781,68.18333435058594
path : fill-#545454;d-M63.508,56.908h-2.197V54.93h6.665v1.979h-2.197V68.15h-2.271V56.908z; : BBData-61.56666564941406,54.91667175292969,68.26666259765625,68.18333435058594
path : fill-#545454;d-M57.831,58.189c-0.091-1.135-0.695-1.465-1.208-1.465c-0.732,0-1.136,0.477-1.136,1.3    c0,2.253,4.615,3.333,4.615,6.922c0,2.179-1.465,3.388-3.59,3.388c-2.105,0-3.313-1.686-3.405-3.662l2.161-0.312    c0.091,1.337,0.622,1.995,1.354,1.995c0.787,0,1.318-0.421,1.318-1.208c0-2.618-4.614-3.314-4.614-7.104    c0-2.105,1.281-3.296,3.516-3.296c1.85,0,2.948,1.337,3.149,3.204L57.831,58.189z; : BBData-53.366668701171875,54.73333740234375,60.399993896484375,68.36666870117188
path : fill-#545454;d-M46.516,68.15h-2.197l2.436-13.221h2.819l2.436,13.221h-2.197l-0.402-2.93h-2.49L46.516,68.15z     M47.248,63.243h1.831l-0.897-5.677h-0.036L47.248,63.243z; : BBData-44.58332824707031,54.91667175292969,52.30000305175781,68.18333435058594
path : fill-#545454;d-M42.743,54.93V68.15h-1.978V57.823h-0.037L38.678,68.15h-1.099l-2.051-10.327h-0.036V68.15h-1.978V54.93    h2.984l1.611,7.728h0.037l1.611-7.728H42.743z; : BBData-33.76666259765625,54.91667175292969,43.03334045410156,68.18333435058594
g :  : BBData-33.76666259765625,54.73333740234375,85.83332824707031,102.69999694824219
g :  : BBData-33.76666259765625,54.73333740234375,85.83332824707031,102.69999694824219
path : fill-#545454;d-M175.626,92.713c0-2.49,0.951-3.626,3.223-3.626c2.27,0,3.223,1.136,3.223,3.626v6.335    c0,2.49-0.953,3.626-3.223,3.626c-2.271,0-3.223-1.136-3.223-3.626V92.713z M179.91,92.145c0-0.86-0.385-1.264-1.062-1.264    c-0.678,0-1.062,0.403-1.062,1.264v7.471c0,0.861,0.385,1.264,1.062,1.264c0.677,0,1.062-0.402,1.062-1.264V92.145z; : BBData-175.89999389648438,89.08332824707031,182.38333129882812,102.69999694824219
path : fill-#545454;d-M169.528,92.017h-1.795V90.79c1.008-0.513,1.941-1.062,2.691-1.703h1.154v13.403h-2.051V92.017z; : BBData-168,89.08332824707031,171.88333129882812,102.51666259765625
path : fill-#545454;d-M160.647,95.568l-2.417-6.299h2.233l1.393,4.193h0.036l1.264-4.193h2.233l-2.289,6.299l2.564,6.922h-2.234    l-1.538-4.815h-0.036l-1.575,4.815h-2.233L160.647,95.568z; : BBData-158.3000030517578,89.26666259765625,165.96665954589844,102.51666259765625
path : fill-#545454;d-M152.261,98.663v1.062c0,0.714,0.403,1.153,1.008,1.153c0.714,0,1.117-0.421,1.117-1.611v-3.003    c0-0.86-0.439-1.208-0.953-1.208c-0.695,0-1.025,0.457-1.227,1.007h-1.758c0.073-2.051,0.165-3.662,0.165-6.794h5.512    l-0.073,1.868h-3.57l-0.129,2.856l0.037,0.037c0.567-0.678,1.043-0.77,1.739-0.77c1.739,0,2.417,1.264,2.417,3.479v1.832    c0,2.783-0.879,4.102-3.076,4.102c-1.831,0-3.26-0.807-3.26-3.004v-1.007H152.261z; : BBData-150.46665954589844,89.26666259765625,156.8333282470703,102.69999694824219
path : fill-#545454;d-M175.379,85.323v-13.22h2.271v5.383h2.417v-5.383h2.271v13.22h-2.271v-5.859h-2.417v5.859H175.379z; : BBData-175.64999389648438,72.10000610351562,182.64999389648438,85.35000610351562
path : fill-#545454;d-M169.208,74.08h-2.197v-1.977h6.665v1.977h-2.197v11.243h-2.271V74.08z; : BBData-167.28334045410156,72.10000610351562,173.98333740234375,85.35000610351562
path : fill-#545454;d-M160.712,85.323h-2.197l2.436-13.22h2.819l2.436,13.22h-2.197l-0.403-2.93h-2.49L160.712,85.323z     M161.444,80.416h1.831l-0.897-5.676h-0.036L161.444,80.416z; : BBData-158.76666259765625,72.10000610351562,166.51666259765625,85.35000610351562
path : fill-#545454;d-M149.871,72.104h3.369c2.436,0,3.516,1.244,3.516,3.497c0,1.135-0.476,2.325-1.575,2.765    c1.154,0.513,1.832,1.428,1.832,3.131c0,2.18-0.971,3.827-3.553,3.827h-3.589V72.104z M152.142,77.523h0.824    c0.86,0,1.52-0.586,1.52-1.686c0-1.227-0.477-1.867-1.483-1.867h-0.86V77.523z M152.142,83.455h0.952    c1.208,0,1.647-0.695,1.647-2.032c0-1.354-0.512-2.032-1.867-2.032h-0.732V83.455z; : BBData-150.13333129882812,72.10000610351562,157.3000030517578,85.35000610351562
path : fill-#545454;d-M182.979,56.912h-2.197v-1.977h6.665v1.977h-2.197v11.243h-2.271V56.912z; : BBData-181.0500030517578,54.93333435058594,187.75,68.18333435058594
path : fill-#545454;d-M177.302,58.194c-0.091-1.136-0.695-1.465-1.208-1.465c-0.732,0-1.136,0.476-1.136,1.3    c0,2.252,4.615,3.333,4.615,6.922c0,2.179-1.465,3.387-3.59,3.387c-2.105,0-3.313-1.684-3.405-3.662l2.161-0.311    c0.091,1.336,0.622,1.996,1.354,1.996c0.787,0,1.318-0.422,1.318-1.209c0-2.618-4.614-3.314-4.614-7.104    c0-2.105,1.281-3.296,3.516-3.296c1.85,0,2.948,1.337,3.149,3.204L177.302,58.194z; : BBData-172.85000610351562,54.75,179.88333129882812,68.36666870117188
path : fill-#545454;d-M164.668,68.155v-13.22h6.079v1.977h-3.809v3.406h2.93v1.978h-2.93v3.882h4.064v1.978H164.668z; : BBData-164.93333435058594,54.93333435058594,171.31666564941406,68.18333435058594
path : fill-#545454;d-M155.146,54.936h2.271v9.979c0,0.971,0.385,1.447,1.208,1.447c0.824,0,1.209-0.477,1.209-1.447v-9.979    h2.271v9.887c0,2.271-1.318,3.516-3.479,3.516c-2.16,0-3.479-1.244-3.479-3.516V54.936z; : BBData-155.39999389648438,54.93333435058594,162.39999389648438,68.36666870117188
path : fill-#545454;d-M148.754,61.453h3.718v6.702h-1.1l-0.421-0.989c-0.677,0.807-1.227,1.172-2.288,1.172    c-1.795,0-3.04-1.281-3.04-3.387V58.14c0-1.868,1.099-3.388,3.333-3.388c2.27,0,3.405,1.648,3.405,3.625v0.843H150.2    c0-1.978-0.402-2.49-1.3-2.49c-0.549,0-1.007,0.329-1.007,1.446v6.793c0,0.843,0.274,1.393,1.062,1.393    c0.915,0,1.244-0.514,1.244-1.832v-1.281h-1.446V61.453z; : BBData-145.88333129882812,54.75,152.76666259765625,68.36666870117188
g :  : BBData-145.88333129882812,54.75,187.75,102.69999694824219
g :  : BBData-145.88333129882812,54.75,187.75,102.69999694824219
path : fill-#545454;d-M294.207,89.739c-0.991-0.721-1.464-1.982-1.464-3.243c0-3.153,1.441-4.572,3.738-4.572    s3.738,1.419,3.738,4.572c0,1.261-0.473,2.522-1.464,3.243c1.374,0.878,1.689,2.185,1.689,4.167c0,3.062-1.352,4.729-3.964,4.729    s-3.964-1.667-3.964-4.729C292.518,91.924,292.833,90.617,294.207,89.739z M297.923,93.726c0-1.689-0.36-2.702-1.441-2.702    s-1.441,1.013-1.441,2.702s0.36,2.702,1.441,2.702S297.923,95.415,297.923,93.726z M297.697,86.361c0-1.577-0.36-2.23-1.216-2.23    s-1.217,0.653-1.217,2.23c0,1.576,0.361,2.229,1.217,2.229S297.697,87.938,297.697,86.361z; : BBData-292.7833251953125,81.91667175292969,300.74998474121094,98.66667175292969
path : fill-#545454;d-M284.548,89.896l-2.973-7.747h2.747l1.712,5.157h0.045l1.554-5.157h2.748l-2.815,7.747l3.153,8.514h-2.748    l-1.892-5.923h-0.045l-1.938,5.923h-2.747L284.548,89.896z; : BBData-281.6166687011719,82.13333129882812,291.03334045410156,98.43333435058594
path : fill-#545454;d-M271.849,84.446v-2.297h7.342v1.576L275.88,98.41h-2.636l3.266-13.964H271.849z; : BBData-272.1166687011719,82.13333129882812,279.5,98.43333435058594
path : fill-#545454;d-M311.87,77.301V61.04h2.59l3.4,9.302h0.045V61.04h2.523v16.261h-2.433l-3.559-10.157h-0.045v10.157H311.87    z; : BBData-312.1499938964844,61.03334045410156,320.73333740234375,77.33332824707031
path : fill-#545454;d-M301.423,77.301V61.04h7.477v2.433h-4.684v4.188h3.604v2.433h-3.604v4.774h4.999v2.433H301.423z; : BBData-301.70001220703125,61.03334045410156,309.5166778564453,77.33332824707031
path : fill-#545454;d-M289.715,77.301V61.04h2.792v6.621h2.974V61.04h2.792v16.261h-2.792v-7.207h-2.974v7.207H289.715z; : BBData-289.98333740234375,61.03334045410156,298.5833282470703,77.33332824707031
path : fill-#545454;d-M283.636,66.468v-1.262c0-1.373-0.63-1.959-1.351-1.959c-1.126,0-1.487,0.586-1.487,1.802v8.243    c0,1.216,0.361,1.802,1.487,1.802c1.013,0,1.351-0.586,1.351-1.645V71.49h2.793v1.869c0,2.297-1.352,4.167-4.144,4.167    c-2.929,0-4.279-1.87-4.279-4.167v-8.378c0-2.298,1.351-4.167,4.279-4.167c2.792,0,4.144,2.027,4.144,4.46v1.193H283.636z; : BBData-278.2833251953125,60.80000305175781,286.7333221435547,77.55000305175781
path : fill-#545454;d-M270.418,63.473h-2.702V61.04h8.197v2.433h-2.702v13.828h-2.793V63.473z; : BBData-267.98333740234375,61.03334045410156,276.21665954589844,77.33332824707031
path : fill-#545454;d-M262.47,77.301V61.04h2.793v16.261H262.47z; : BBData-262.75,61.03334045410156,265.56666564941406,77.33332824707031
path : fill-#545454;d-M251.504,77.301V61.04h2.793v6.014h0.045l2.928-6.014h2.793l-3.018,6.059l3.4,10.202h-2.838l-2.274-7.567    h-0.045l-0.991,1.802v5.766H251.504z; : BBData-251.78334045410156,61.03334045410156,260.75,77.33332824707031
g :  : BBData-251.78334045410156,60.80000305175781,320.73333740234375,98.66667175292969
g :  : BBData-251.78334045410156,60.80000305175781,320.73333740234375,98.66667175292969
path : fill-#545454;d-M461.579,109.626v0.833c0,1.059,0.36,1.555,1.193,1.555s1.307-0.496,1.307-1.555v-3.806    c-0.721,0.721-1.172,1.081-2.298,1.081c-1.621,0-2.973-0.946-2.973-3.334v-1.937c0-3.423,1.171-4.955,3.964-4.955    s3.964,1.396,3.964,4.46v7.792c0,3.063-1.171,4.46-3.964,4.46c-2.207,0.045-3.626-1.532-3.626-3.604v-0.991H461.579z     M464.079,101.271c0-1.059-0.474-1.555-1.307-1.555s-1.307,0.496-1.307,1.555v2.702c0,1.059,0.474,1.555,1.172,1.555    c0.495,0,1.104-0.474,1.441-0.744V101.271z; : BBData-459.08331298828125,97.5,467.066650390625,114.28334045410156
path : fill-#545454;d-M450.839,105.481l-2.973-7.747h2.747l1.712,5.157h0.045l1.554-5.157h2.748l-2.815,7.747l3.153,8.514    h-2.748l-1.892-5.923h-0.045l-1.938,5.923h-2.747L450.839,105.481z; : BBData-447.91668701171875,97.73333740234375,457.3166809082031,114.01666259765625
path : fill-#545454;d-M439.604,105.324c-0.991-0.721-1.464-1.982-1.464-3.243c0-3.153,1.441-4.572,3.738-4.572    s3.738,1.419,3.738,4.572c0,1.261-0.473,2.522-1.464,3.243c1.374,0.878,1.689,2.185,1.689,4.166c0,3.063-1.352,4.73-3.964,4.73    s-3.964-1.667-3.964-4.73C437.914,107.509,438.229,106.202,439.604,105.324z M443.319,109.311c0-1.689-0.36-2.703-1.441-2.703    s-1.441,1.014-1.441,2.703s0.36,2.703,1.441,2.703S443.319,111,443.319,109.311z M443.094,101.946c0-1.577-0.36-2.23-1.216-2.23    s-1.217,0.653-1.217,2.23c0,1.576,0.361,2.229,1.217,2.229S443.094,103.522,443.094,101.946z; : BBData-438.183349609375,97.5,446.15000915527344,114.25
path : fill-#545454;d-M508.401,76.626v16.261h-2.433V80.185h-0.045l-2.522,12.702h-1.352l-2.522-12.702h-0.045v12.702h-2.433    V76.626h3.672l1.981,9.504h0.045l1.982-9.504H508.401z; : BBData-497.33331298828125,76.61666870117188,508.7333221435547,92.91667175292969
path : fill-#545454;d-M485.5,80.567c0-2.298,1.351-4.167,4.279-4.167c2.928,0,4.278,1.869,4.278,4.167v8.378    c0,2.297-1.351,4.167-4.278,4.167c-2.929,0-4.279-1.87-4.279-4.167V80.567z M488.292,88.878c0,1.216,0.361,1.802,1.487,1.802    s1.486-0.586,1.486-1.802v-8.243c0-1.216-0.36-1.802-1.486-1.802s-1.487,0.586-1.487,1.802V88.878z; : BBData-485.79998779296875,76.39999389648438,494.38331604003906,93.13333129882812
path : fill-#545454;d-M473.792,80.567c0-2.298,1.352-4.167,4.279-4.167s4.279,1.869,4.279,4.167v8.378    c0,2.297-1.352,4.167-4.279,4.167s-4.279-1.87-4.279-4.167V80.567z M476.585,88.878c0,1.216,0.359,1.802,1.486,1.802    c1.126,0,1.486-0.586,1.486-1.802v-8.243c0-1.216-0.36-1.802-1.486-1.802c-1.127,0-1.486,0.586-1.486,1.802V88.878z; : BBData-474.08331298828125,76.39999389648438,482.6666564941406,93.13333129882812
path : fill-#545454;d-M464.876,92.887h-2.792V76.626h3.919c3.13,0,4.729,1.329,4.729,4.797c0,2.612-1.014,3.671-1.96,4.1    l2.365,7.364H468.3l-1.982-6.734c-0.359,0.045-0.945,0.068-1.441,0.068V92.887z M464.876,83.923h0.991    c1.509,0,2.072-0.562,2.072-2.5c0-1.937-0.563-2.5-2.072-2.5h-0.991V83.923z; : BBData-462.3833312988281,76.61666870117188,471.46665954589844,92.91667175292969
path : fill-#545454;d-M448.778,84.644h4.572v8.243h-1.352l-0.518-1.216c-0.833,0.99-1.509,1.441-2.815,1.441    c-2.207,0-3.738-1.577-3.738-4.167v-8.378c0-2.298,1.351-4.167,4.099-4.167c2.793,0,4.189,2.027,4.189,4.46v1.036h-2.658    c0-2.433-0.495-3.063-1.599-3.063c-0.676,0-1.239,0.405-1.239,1.779v8.355c0,1.036,0.338,1.712,1.307,1.712    c1.126,0,1.531-0.631,1.531-2.252v-1.577h-1.779V84.644z; : BBData-445.20001220703125,76.38333129882812,453.66668701171875,93.13333129882812
path : fill-#545454;d-M433.22,92.887V76.626h2.59l3.4,9.302h0.045v-9.302h2.523v16.261h-2.433l-3.559-10.157h-0.045v10.157    H433.22z; : BBData-433.5,76.61666870117188,442.0833282470703,92.91667175292969
path : fill-#545454;d-M426.892,92.887V76.626h2.793v16.261H426.892z; : BBData-427.16668701171875,76.61666870117188,430.00001525878906,92.91667175292969
path : fill-#545454;d-M414.801,92.887V76.626h2.59l3.4,9.302h0.046v-9.302h2.521v16.261h-2.432l-3.559-10.157h-0.045v10.157    H414.801z; : BBData-415.08331298828125,76.61666870117188,423.6666564941406,92.91667175292969
path : fill-#545454;d-M408.474,92.887V76.626h2.793v16.261H408.474z; : BBData-408.75,76.61666870117188,411.5833282470703,92.91667175292969
path : fill-#545454;d-M396.383,76.626h4.144c2.883,0,4.414,1.576,4.414,4.909v6.441c0,3.334-1.531,4.91-4.414,4.91h-4.144    V76.626z M399.175,90.59h0.969c1.486,0,2.005-0.563,2.005-2.275v-7.116c0-1.712-0.519-2.275-2.005-2.275h-0.969V90.59z; : BBData-396.6499938964844,76.61666870117188,405.25,92.91667175292969
path : fill-#545454;d-M487.628,71.777V55.517h2.793v13.828h4.392v2.433H487.628z; : BBData-487.91668701171875,55.51666259765625,495.1333465576172,71.80000305175781
path : fill-#545454;d-M478.938,71.777h-2.702l2.995-16.261h3.469l2.995,16.261h-2.703l-0.495-3.604h-3.062L478.938,71.777z     M479.839,65.741h2.252l-1.104-6.981h-0.045L479.839,65.741z; : BBData-476.5333251953125,55.5,486.0166473388672,71.80000305175781
path : fill-#545454;d-M474.303,55.517v16.261h-2.433V59.075h-0.045l-2.522,12.702h-1.352l-2.522-12.702h-0.045v12.702h-2.433    V55.517h3.671l1.982,9.504h0.045l1.982-9.504H474.303z; : BBData-463.25,55.51666259765625,474.6333312988281,71.80000305175781
path : fill-#545454;d-M454.194,71.777h-2.793V55.517h3.919c3.13,0,4.729,1.329,4.729,4.797c0,2.612-1.014,3.671-1.96,4.1    l2.365,7.364h-2.838l-1.981-6.734c-0.361,0.045-0.946,0.068-1.441,0.068V71.777z M454.194,62.813h0.99    c1.509,0,2.072-0.562,2.072-2.5c0-1.937-0.563-2.5-2.072-2.5h-0.99V62.813z; : BBData-451.683349609375,55.51666259765625,460.7666778564453,71.80000305175781
path : fill-#545454;d-M439.692,59.458c0-2.298,1.352-4.167,4.279-4.167s4.279,1.869,4.279,4.167v8.378    c0,2.297-1.352,4.167-4.279,4.167s-4.279-1.87-4.279-4.167V59.458z M442.485,67.769c0,1.216,0.359,1.802,1.486,1.802    c1.126,0,1.486-0.586,1.486-1.802v-8.243c0-1.216-0.36-1.802-1.486-1.802c-1.127,0-1.486,0.586-1.486,1.802V67.769z; : BBData-439.9666748046875,55.28334045410156,448.5500183105469,72.03334045410156
path : fill-#545454;d-M429.245,71.777V55.517h7.792v2.433h-4.999v4.188h3.738v2.433h-3.738v7.207H429.245z; : BBData-429.51666259765625,55.51666259765625,437.3500061035156,71.80000305175781
path : fill-#545454;d-M417.537,71.777V55.517h2.59l3.4,9.302h0.046v-9.302h2.521v16.261h-2.432l-3.559-10.157h-0.045v10.157    H417.537z; : BBData-417.816650390625,55.51666259765625,426.3999786376953,71.80000305175781
path : fill-#545454;d-M411.21,71.777V55.517h2.793v16.261H411.21z; : BBData-411.48333740234375,55.51666259765625,414.31666564941406,71.80000305175781
g :  : BBData-396.6499938964844,55.28334045410156,508.73333740234375,114.28334045410156
g :  : BBData-396.6499938964844,55.28334045410156,508.73333740234375,114.28334045410156
path : fill-#545454;d-M640.702,661.176c0-3.063,1.171-4.46,3.964-4.46s3.964,1.396,3.964,4.46v7.792    c0,3.063-1.171,4.46-3.964,4.46s-3.964-1.396-3.964-4.46V661.176z M645.972,660.478c0-1.059-0.473-1.555-1.306-1.555    s-1.307,0.496-1.307,1.555v9.188c0,1.059,0.474,1.555,1.307,1.555s1.306-0.496,1.306-1.555V660.478z; : BBData-641,656.7333374023438,648.9499969482422,673.4833374023438
path : fill-#545454;d-M633.205,660.319h-2.207v-1.509c1.238-0.631,2.388-1.307,3.311-2.095h1.419v16.486h-2.522V660.319z; : BBData-631.2833251953125,656.7333374023438,636.0499877929688,673.2666625976562
path : fill-#545454;d-M622.285,664.688l-2.974-7.747h2.748l1.712,5.157h0.045l1.554-5.157h2.748l-2.815,7.747l3.153,8.514    h-2.748l-1.892-5.923h-0.045l-1.937,5.923h-2.748L622.285,664.688z; : BBData-619.38330078125,656.9666748046875,628.7833099365234,673.2666778564453
path : fill-#545454;d-M613.55,669.283h-4.865v-2.072l4.729-10.27h2.703v10.27h1.486v2.072h-1.486v3.919h-2.567V669.283z     M613.595,667.211v-6.351h-0.045l-2.726,6.351H613.595z; : BBData-608.9833374023438,656.9666748046875,617.9333343505859,673.2666778564453
path : fill-#545454;d-M691.883,652.093h-2.793v-6.757l-3.378-9.504h2.838l1.959,6.193h0.045l1.869-6.193h2.838l-3.378,9.504    V652.093z; : BBData-686,635.8499755859375,695.5833282470703,652.1499633789062
path : fill-#545454;d-M675.129,652.093v-16.261h2.59l3.4,9.302h0.046v-9.302h2.521v16.261h-2.432l-3.559-10.157h-0.045v10.157    H675.129z; : BBData-675.4166870117188,635.8499755859375,684.0166778564453,652.1499633789062
path : fill-#545454;d-M663.421,639.773c0-2.298,1.352-4.167,4.279-4.167s4.279,1.869,4.279,4.167v8.378    c0,2.297-1.352,4.167-4.279,4.167s-4.279-1.87-4.279-4.167V639.773z M666.214,648.084c0,1.216,0.359,1.802,1.486,1.802    c1.126,0,1.486-0.586,1.486-1.802v-8.243c0-1.216-0.36-1.802-1.486-1.802c-1.127,0-1.486,0.586-1.486,1.802V648.084z; : BBData-663.7166748046875,635.63330078125,672.3000183105469,652.38330078125
path : fill-#545454;d-M657.343,641.26v-1.262c0-1.373-0.63-1.959-1.351-1.959c-1.126,0-1.487,0.586-1.487,1.802v8.243    c0,1.216,0.361,1.802,1.487,1.802c1.013,0,1.351-0.586,1.351-1.645v-1.959h2.793v1.869c0,2.297-1.352,4.167-4.144,4.167    c-2.929,0-4.279-1.87-4.279-4.167v-8.378c0-2.298,1.351-4.167,4.279-4.167c2.792,0,4.144,2.027,4.144,4.46v1.193H657.343z; : BBData-652,635.63330078125,660.4666595458984,652.38330078125
path : fill-#545454;d-M642.368,652.093v-16.261h2.793v13.828h4.392v2.433H642.368z; : BBData-642.6666870117188,635.8499755859375,649.8833465576172,652.1499633789062
path : fill-#545454;d-M633.678,652.093h-2.702l2.995-16.261h3.469l2.995,16.261h-2.703l-0.495-3.604h-3.062L633.678,652.093z     M634.579,646.057h2.252l-1.104-6.981h-0.045L634.579,646.057z; : BBData-631.2666625976562,635.8499755859375,640.7666625976562,652.1499633789062
path : fill-#545454;d-M620.349,635.832h4.144c2.996,0,4.324,1.531,4.324,4.302c0,1.396-0.585,2.86-1.937,3.4    c1.419,0.631,2.252,1.757,2.252,3.852c0,2.68-1.193,4.707-4.369,4.707h-4.414V635.832z M623.142,642.498h1.013    c1.059,0,1.87-0.721,1.87-2.071c0-1.51-0.586-2.298-1.825-2.298h-1.058V642.498z M623.142,649.796h1.171    c1.486,0,2.026-0.856,2.026-2.5c0-1.667-0.63-2.5-2.297-2.5h-0.9V649.796z; : BBData-620.63330078125,635.8499755859375,629.4499664306641,652.1499633789062
path : fill-#545454;d-M616.814,635.606h2.207l-5,16.712h-2.207L616.814,635.606z; : BBData-612.0999755859375,635.63330078125,619.3499755859375,652.38330078125
path : fill-#545454;d-M601.931,639.773c0-2.298,1.352-4.167,4.279-4.167s4.279,1.869,4.279,4.167v8.378    c0,2.297-1.352,4.167-4.279,4.167s-4.279-1.87-4.279-4.167V639.773z M604.724,648.084c0,1.216,0.359,1.802,1.486,1.802    c1.126,0,1.486-0.586,1.486-1.802v-8.243c0-1.216-0.36-1.802-1.486-1.802c-1.127,0-1.486,0.586-1.486,1.802V648.084z; : BBData-602.2166748046875,635.63330078125,610.8166809082031,652.38330078125
path : fill-#545454;d-M595.603,652.093v-16.261h2.793v16.261H595.603z; : BBData-595.9000244140625,635.8499755859375,598.7166900634766,652.1499633789062
path : fill-#545454;d-M587.632,638.265h-2.702v-2.433h8.198v2.433h-2.703v13.828h-2.793V638.265z; : BBData-585.2166748046875,635.8499755859375,593.4500122070312,652.1499633789062
path : fill-#545454;d-M577.185,652.093h-2.702l2.995-16.261h3.469l2.995,16.261h-2.702l-0.496-3.604h-3.062L577.185,652.093z     M578.086,646.057h2.252l-1.104-6.981h-0.045L578.086,646.057z; : BBData-574.7666625976562,635.8499755859375,584.2666625976562,652.1499633789062
path : fill-#545454;d-M563.855,652.093v-16.261h4.009c3.445,0,5.045,1.329,5.045,4.797c0,3.469-1.6,4.797-5.045,4.797h-1.217    v6.667H563.855z M566.647,643.129h1.082c1.824,0,2.387-0.562,2.387-2.5c0-1.937-0.562-2.5-2.387-2.5h-1.082V643.129z; : BBData-564.1500244140625,635.8499755859375,573.2333679199219,652.1499633789062
g :  : BBData-564.1500244140625,635.63330078125,695.5833587646484,673.4833068847656
g :  : BBData-564.1500244140625,635.63330078125,695.5833587646484,673.4833068847656
path : fill-#545454;d-M619.86,452.901c0-3.063,1.171-4.46,3.964-4.46s3.964,1.396,3.964,4.46v7.792    c0,3.063-1.171,4.46-3.964,4.46s-3.964-1.396-3.964-4.46V452.901z M625.13,452.203c0-1.059-0.473-1.555-1.306-1.555    s-1.307,0.496-1.307,1.555v9.188c0,1.059,0.474,1.554,1.307,1.554s1.306-0.495,1.306-1.554V452.203z; : BBData-620.1500244140625,448.45001220703125,628.11669921875,465.20001220703125
path : fill-#545454;d-M609.367,464.928v-2.185c3.468-5.067,5.36-7.86,5.36-10.247c0-1.284-0.496-1.848-1.262-1.848    c-0.9,0-1.352,0.698-1.352,1.689v1.104h-2.657v-0.766c0-2.388,1.531-4.234,4.144-4.234c2.298,0,3.784,1.712,3.784,3.604    c0,2.567-0.811,4.46-5.18,10.586h4.932v2.297H609.367z; : BBData-609.6666870117188,448.45001220703125,617.7166748046875,464.9666748046875
path : fill-#545454;d-M601.442,456.414l-2.973-7.747h2.747l1.712,5.157h0.045l1.554-5.157h2.748l-2.815,7.747l3.153,8.514    h-2.748l-1.892-5.923h-0.045l-1.938,5.923h-2.747L601.442,456.414z; : BBData-598.5333251953125,448.683349609375,607.9333190917969,464.9666748046875
path : fill-#545454;d-M592.706,461.009h-4.864v-2.072l4.729-10.27h2.703v10.27h1.486v2.072h-1.486v3.919h-2.568V461.009z     M592.752,458.937v-6.351h-0.046l-2.725,6.351H592.752z; : BBData-588.13330078125,448.683349609375,597.0832977294922,464.9666748046875
path : fill-#545454;d-M581.021,452.045h-2.207v-1.509c1.238-0.631,2.388-1.307,3.311-2.095h1.419v16.486h-2.522V452.045z; : BBData-579.0999755859375,448.45001220703125,583.8666381835938,464.9666748046875
path : fill-#545454;d-M657.125,427.558v16.261h-2.433v-12.702h-0.045l-2.522,12.702h-1.352l-2.522-12.702h-0.045v12.702h-2.433    v-16.261h3.671l1.982,9.504h0.045l1.982-9.504H657.125z; : BBData-646.066650390625,427.566650390625,657.4499816894531,443.8666534423828
path : fill-#545454;d-M634.224,431.499c0-2.298,1.352-4.167,4.279-4.167s4.279,1.869,4.279,4.167v8.378    c0,2.297-1.352,4.167-4.279,4.167s-4.279-1.87-4.279-4.167V431.499z M637.017,439.81c0,1.216,0.359,1.802,1.486,1.802    c1.126,0,1.486-0.586,1.486-1.802v-8.243c0-1.216-0.36-1.802-1.486-1.802c-1.127,0-1.486,0.586-1.486,1.802V439.81z; : BBData-634.5166625976562,427.33331298828125,643.1000061035156,444.08331298828125
path : fill-#545454;d-M622.516,431.499c0-2.298,1.351-4.167,4.279-4.167c2.928,0,4.278,1.869,4.278,4.167v8.378    c0,2.297-1.351,4.167-4.278,4.167c-2.929,0-4.279-1.87-4.279-4.167V431.499z M625.308,439.81c0,1.216,0.361,1.802,1.487,1.802    s1.486-0.586,1.486-1.802v-8.243c0-1.216-0.36-1.802-1.486-1.802s-1.487,0.586-1.487,1.802V439.81z; : BBData-622.7999877929688,427.33331298828125,631.3999786376953,444.08331298828125
path : fill-#545454;d-M613.601,443.818h-2.793v-16.261h3.919c3.13,0,4.729,1.329,4.729,4.797c0,2.612-1.014,3.671-1.96,4.1    l2.365,7.364h-2.838l-1.981-6.734c-0.361,0.045-0.946,0.068-1.441,0.068V443.818z M613.601,434.854h0.99    c1.509,0,2.072-0.562,2.072-2.5c0-1.937-0.563-2.5-2.072-2.5h-0.99V434.854z; : BBData-611.0999755859375,427.566650390625,620.1833038330078,443.8666534423828
path : fill-#545454;d-M597.502,435.575h4.572v8.243h-1.352l-0.518-1.216c-0.833,0.99-1.509,1.441-2.815,1.441    c-2.207,0-3.738-1.577-3.738-4.167v-8.378c0-2.298,1.352-4.167,4.099-4.167c2.793,0,4.189,2.027,4.189,4.46v1.036h-2.658    c0-2.433-0.495-3.063-1.599-3.063c-0.676,0-1.238,0.405-1.238,1.779v8.355c0,1.036,0.337,1.712,1.306,1.712    c1.126,0,1.531-0.631,1.531-2.252v-1.577h-1.779V435.575z; : BBData-593.9500122070312,427.33331298828125,602.4000091552734,444.08331298828125
path : fill-#545454;d-M581.943,443.818v-16.261h2.59l3.4,9.302h0.046v-9.302h2.521v16.261h-2.432l-3.559-10.157h-0.045v10.157    H581.943z; : BBData-582.2333374023438,427.566650390625,590.8333282470703,443.8666534423828
path : fill-#545454;d-M575.615,443.818v-16.261h2.793v16.261H575.615z; : BBData-575.9000244140625,427.566650390625,578.7333679199219,443.8666534423828
path : fill-#545454;d-M570.483,427.558h2.747l-3.4,16.261h-2.793l-3.4-16.261h2.747l2.027,11.283h0.045L570.483,427.558z; : BBData-563.933349609375,427.566650390625,573.5500183105469,443.8666534423828
path : fill-#545454;d-M558.458,443.818v-16.261h2.793v16.261H558.458z; : BBData-558.75,427.566650390625,561.5833282470703,443.8666534423828
path : fill-#545454;d-M548.73,443.818v-16.261h2.793v13.828h4.392v2.433H548.73z; : BBData-549.0166625976562,427.566650390625,556.2333374023438,443.8666534423828
g :  : BBData-549.0166625976562,427.33331298828125,657.4499969482422,465.1999816894531
g :  : BBData-549.0166625976562,427.33331298828125,657.4499969482422,465.1999816894531
path : fill-#545454;d-M372.232,452.045h-2.207v-1.509c1.238-0.631,2.388-1.307,3.311-2.095h1.419v16.486h-2.522V452.045z; : BBData-370.29998779296875,448.45001220703125,375.066650390625,464.9666748046875
path : fill-#545454;d-M361.784,452.045h-2.207v-1.509c1.238-0.631,2.388-1.307,3.311-2.095h1.419v16.486h-2.522V452.045z; : BBData-359.8500061035156,448.45001220703125,364.6166687011719,464.9666748046875
path : fill-#545454;d-M350.864,456.414l-2.973-7.747h2.747l1.712,5.157h0.045l1.554-5.157h2.748l-2.815,7.747l3.153,8.514    h-2.748l-1.892-5.923h-0.045l-1.938,5.923h-2.747L350.864,456.414z; : BBData-347.933349609375,448.683349609375,357.3500213623047,464.9666748046875
path : fill-#545454;d-M342.128,461.009h-4.864v-2.072l4.729-10.27h2.703v10.27h1.486v2.072h-1.486v3.919h-2.568V461.009z     M342.174,458.937v-6.351h-0.046l-2.725,6.351H342.174z; : BBData-337.5333251953125,448.683349609375,346.4833221435547,464.9666748046875
path : fill-#545454;d-M330.442,452.045h-2.207v-1.509c1.238-0.631,2.388-1.307,3.311-2.095h1.419v16.486h-2.522V452.045z; : BBData-328.51666259765625,448.45001220703125,333.26666259765625,464.9666748046875
path : fill-#545454;d-M392.509,427.558v16.261h-2.433v-12.702h-0.045l-2.522,12.702h-1.352l-2.522-12.702h-0.045v12.702h-2.433    v-16.261h3.672l1.981,9.504h0.045l1.982-9.504H392.509z; : BBData-381.433349609375,427.566650390625,392.8166809082031,443.8666534423828
path : fill-#545454;d-M369.607,431.499c0-2.298,1.351-4.167,4.279-4.167c2.928,0,4.278,1.869,4.278,4.167v8.378    c0,2.297-1.351,4.167-4.278,4.167c-2.929,0-4.279-1.87-4.279-4.167V431.499z M372.399,439.81c0,1.216,0.361,1.802,1.487,1.802    s1.486-0.586,1.486-1.802v-8.243c0-1.216-0.36-1.802-1.486-1.802s-1.487,0.586-1.487,1.802V439.81z; : BBData-369.8833312988281,427.33331298828125,378.46665954589844,444.08331298828125
path : fill-#545454;d-M357.899,431.499c0-2.298,1.352-4.167,4.279-4.167s4.279,1.869,4.279,4.167v8.378    c0,2.297-1.352,4.167-4.279,4.167s-4.279-1.87-4.279-4.167V431.499z M360.692,439.81c0,1.216,0.359,1.802,1.486,1.802    c1.126,0,1.486-0.586,1.486-1.802v-8.243c0-1.216-0.36-1.802-1.486-1.802c-1.127,0-1.486,0.586-1.486,1.802V439.81z; : BBData-358.16668701171875,427.33331298828125,366.7666778564453,444.08331298828125
path : fill-#545454;d-M348.983,443.818h-2.793v-16.261h3.919c3.13,0,4.729,1.329,4.729,4.797c0,2.612-1.014,3.671-1.96,4.1    l2.365,7.364h-2.838l-1.981-6.734c-0.361,0.045-0.946,0.068-1.441,0.068V443.818z M348.983,434.854h0.99    c1.509,0,2.072-0.562,2.072-2.5c0-1.937-0.563-2.5-2.072-2.5h-0.99V434.854z; : BBData-346.4666748046875,427.566650390625,355.5500183105469,443.8666534423828
path : fill-#545454;d-M334.482,427.558h4.144c2.883,0,4.414,1.576,4.414,4.909v6.441c0,3.334-1.531,4.91-4.414,4.91h-4.144    V427.558z M337.274,441.521h0.969c1.486,0,2.005-0.563,2.005-2.275v-7.116c0-1.712-0.519-2.275-2.005-2.275h-0.969V441.521z; : BBData-334.75,427.566650390625,343.3500061035156,443.8666534423828
path : fill-#545454;d-M324.035,443.818v-16.261h7.478v2.433h-4.686v4.188h3.604v2.433h-3.604v4.774h5v2.433H324.035z; : BBData-324.316650390625,427.566650390625,332.13331604003906,443.8666534423828
path : fill-#545454;d-M312.327,427.558h4.144c2.996,0,4.324,1.531,4.324,4.302c0,1.396-0.585,2.86-1.937,3.4    c1.419,0.631,2.252,1.757,2.252,3.852c0,2.68-1.193,4.707-4.369,4.707h-4.414V427.558z M315.12,434.224h1.013    c1.059,0,1.87-0.721,1.87-2.071c0-1.51-0.586-2.298-1.825-2.298h-1.058V434.224z M315.12,441.521h1.171    c1.486,0,2.026-0.856,2.026-2.5c0-1.667-0.63-2.5-2.297-2.5h-0.9V441.521z; : BBData-312.6000061035156,427.566650390625,321.4166717529297,443.8666534423828
g :  : BBData-312.6000061035156,427.33331298828125,392.81666564941406,464.9666442871094
g :  : BBData-312.6000061035156,427.33331298828125,392.81666564941406,464.9666442871094
path : fill-#545454;d-M143.406,477.365c-0.991-0.721-1.464-1.982-1.464-3.243c0-3.153,1.441-4.572,3.738-4.572    s3.738,1.419,3.738,4.572c0,1.261-0.473,2.522-1.464,3.243c1.374,0.878,1.689,2.185,1.689,4.166c0,3.063-1.352,4.73-3.964,4.73    s-3.964-1.667-3.964-4.73C141.717,479.55,142.032,478.243,143.406,477.365z M147.122,481.352c0-1.689-0.36-2.703-1.441-2.703    s-1.441,1.014-1.441,2.703s0.36,2.703,1.441,2.703S147.122,483.041,147.122,481.352z M146.896,473.987    c0-1.577-0.36-2.23-1.216-2.23s-1.217,0.653-1.217,2.23c0,1.576,0.361,2.229,1.217,2.229S146.896,475.563,146.896,473.987z; : BBData-141.96665954589844,469.54998779296875,149.93333435058594,486.29998779296875
path : fill-#545454;d-M134.219,473.153h-2.207v-1.509c1.238-0.631,2.388-1.307,3.311-2.095h1.419v16.486h-2.522V473.153z; : BBData-132.26666259765625,469.54998779296875,137.03334045410156,486.08331298828125
path : fill-#545454;d-M123.299,477.522l-2.974-7.747h2.748l1.712,5.157h0.045l1.554-5.157h2.748l-2.815,7.747l3.153,8.514    h-2.748l-1.892-5.923h-0.045l-1.937,5.923h-2.748L123.299,477.522z; : BBData-120.36666870117188,469.7833251953125,129.76666259765625,486.08331298828125
path : fill-#545454;d-M110.329,486.036v-2.185c3.468-5.067,5.36-7.86,5.36-10.248c0-1.283-0.496-1.847-1.262-1.847    c-0.9,0-1.352,0.698-1.352,1.689v1.104h-2.657v-0.766c0-2.388,1.531-4.234,4.145-4.234c2.297,0,3.783,1.712,3.783,3.604    c0,2.567-0.811,4.46-5.18,10.586h4.932v2.297H110.329z; : BBData-110.58332824707031,469.54998779296875,118.63333129882812,486.08331298828125
path : fill-#545454;d-M102.877,473.153h-2.207v-1.509c1.238-0.631,2.388-1.307,3.311-2.095h1.419v16.486h-2.522V473.153z; : BBData-100.93333435058594,469.54998779296875,105.68333435058594,486.08331298828125
path : fill-#545454;d-M164.943,448.667v16.261h-2.433v-12.702h-0.045l-2.522,12.702h-1.352l-2.522-12.702h-0.045v12.702h-2.433    v-16.261h3.671l1.982,9.504h0.045l1.982-9.504H164.943z; : BBData-153.85000610351562,448.683349609375,165.25,464.9666748046875
path : fill-#545454;d-M142.042,452.608c0-2.298,1.352-4.167,4.279-4.167s4.279,1.869,4.279,4.167v8.378    c0,2.297-1.352,4.167-4.279,4.167s-4.279-1.87-4.279-4.167V452.608z M144.835,460.919c0,1.216,0.359,1.802,1.486,1.802    c1.126,0,1.486-0.586,1.486-1.802v-8.243c0-1.216-0.36-1.802-1.486-1.802c-1.127,0-1.486,0.586-1.486,1.802V460.919z; : BBData-142.3000030517578,448.45001220703125,150.89999389648438,465.20001220703125
path : fill-#545454;d-M130.334,452.608c0-2.298,1.351-4.167,4.279-4.167c2.928,0,4.278,1.869,4.278,4.167v8.378    c0,2.297-1.351,4.167-4.278,4.167c-2.929,0-4.279-1.87-4.279-4.167V452.608z M133.126,460.919c0,1.216,0.361,1.802,1.487,1.802    s1.486-0.586,1.486-1.802v-8.243c0-1.216-0.36-1.802-1.486-1.802s-1.487,0.586-1.487,1.802V460.919z; : BBData-130.60000610351562,448.45001220703125,139.18333435058594,465.20001220703125
path : fill-#545454;d-M121.417,464.928h-2.792v-16.261h3.919c3.13,0,4.729,1.329,4.729,4.797c0,2.612-1.014,3.671-1.96,4.1    l2.365,7.364h-2.838l-1.982-6.734c-0.359,0.045-0.945,0.068-1.441,0.068V464.928z M121.417,455.964h0.991    c1.509,0,2.072-0.562,2.072-2.5c0-1.937-0.563-2.5-2.072-2.5h-0.991V455.964z; : BBData-118.88333129882812,448.683349609375,127.96665954589844,464.9666748046875
path : fill-#545454;d-M106.917,448.667h4.144c2.883,0,4.415,1.576,4.415,4.909v6.441c0,3.334-1.532,4.91-4.415,4.91h-4.144    V448.667z M109.71,462.631h0.968c1.486,0,2.005-0.563,2.005-2.275v-7.116c0-1.712-0.519-2.275-2.005-2.275h-0.968V462.631z; : BBData-107.18333435058594,448.683349609375,115.76666259765625,464.9666748046875
path : fill-#545454;d-M96.47,464.928v-16.261h7.477v2.433h-4.684v4.188h3.604v2.433h-3.604v4.774h4.999v2.433H96.47z; : BBData-96.73333740234375,448.683349609375,104.55000305175781,464.9666748046875
path : fill-#545454;d-M84.762,448.667h4.144c2.996,0,4.324,1.531,4.324,4.302c0,1.396-0.585,2.86-1.937,3.4    c1.419,0.631,2.252,1.757,2.252,3.852c0,2.68-1.193,4.707-4.369,4.707h-4.414V448.667z M87.554,455.333h1.014    c1.059,0,1.869-0.721,1.869-2.071c0-1.51-0.585-2.298-1.824-2.298h-1.059V455.333z M87.554,462.631h1.172    c1.486,0,2.026-0.856,2.026-2.5c0-1.667-0.63-2.5-2.297-2.5h-0.901V462.631z; : BBData-85.01666259765625,448.683349609375,93.83332824707031,464.9666748046875
path : fill-#545454;d-M150.679,443.818h-2.793v-16.261h3.919c3.13,0,4.729,1.329,4.729,4.797c0,2.612-1.014,3.671-1.96,4.1    l2.365,7.364h-2.838l-1.981-6.734c-0.361,0.045-0.946,0.068-1.441,0.068V443.818z M150.679,434.854h0.99    c1.509,0,2.072-0.562,2.072-2.5c0-1.937-0.563-2.5-2.072-2.5h-0.99V434.854z; : BBData-148.14999389648438,427.566650390625,157.23333740234375,443.8666534423828
path : fill-#545454;d-M137.438,443.818v-16.261h7.477v2.433h-4.684v4.188h3.604v2.433h-3.604v4.774h4.999v2.433H137.438z; : BBData-137.6999969482422,427.566650390625,145.51666259765625,443.8666534423828
path : fill-#545454;d-M129.85,429.99h-2.702v-2.433h8.197v2.433h-2.702v13.828h-2.793V429.99z; : BBData-127.39999389648438,427.566650390625,135.63333129882812,443.8666534423828
path : fill-#545454;d-M122.871,431.566c-0.112-1.396-0.856-1.802-1.486-1.802c-0.901,0-1.396,0.586-1.396,1.599    c0,2.771,5.676,4.1,5.676,8.514c0,2.68-1.802,4.167-4.415,4.167c-2.59,0-4.076-2.072-4.188-4.505l2.657-0.383    c0.112,1.645,0.766,2.455,1.667,2.455c0.968,0,1.621-0.519,1.621-1.486c0-3.221-5.675-4.077-5.675-8.738    c0-2.591,1.576-4.055,4.324-4.055c2.274,0,3.626,1.645,3.873,3.941L122.871,431.566z; : BBData-117.31666564941406,427.33331298828125,125.94999694824219,444.08331298828125
path : fill-#545454;d-M108.955,443.818h-2.702l2.995-16.261h3.469l2.995,16.261h-2.703l-0.495-3.604h-3.062L108.955,443.818z     M109.856,437.782h2.252l-1.104-6.981h-0.045L109.856,437.782z; : BBData-106.51666259765625,427.566650390625,116,443.8666534423828
path : fill-#545454;d-M104.32,427.558v16.261h-2.433v-12.702h-0.045l-2.522,12.702h-1.352l-2.522-12.702h-0.045v12.702h-2.433    v-16.261h3.671l1.982,9.504h0.045l1.982-9.504H104.32z; : BBData-93.23333740234375,427.566650390625,104.61666870117188,443.8666534423828
g :  : BBData-85.01666259765625,427.33331298828125,165.25,486.29998779296875
g :  : BBData-85.01666259765625,427.33331298828125,165.25,486.29998779296875
path : fill-#545454;d-M657.173,101.969c0-3.063,1.171-4.46,3.964-4.46s3.964,1.396,3.964,4.46v7.792    c0,3.063-1.171,4.46-3.964,4.46s-3.964-1.396-3.964-4.46V101.969z M662.442,101.271c0-1.059-0.473-1.555-1.306-1.555    s-1.307,0.496-1.307,1.555v9.188c0,1.059,0.474,1.555,1.307,1.555s1.306-0.496,1.306-1.555V101.271z; : BBData-657.4666748046875,97.5,665.433349609375,114.25
path : fill-#545454;d-M649.675,101.112h-2.207v-1.509c1.238-0.631,2.388-1.307,3.311-2.095h1.419v16.486h-2.522V101.112z; : BBData-647.7666625976562,97.5,652.5166625976562,114.01666259765625
path : fill-#545454;d-M638.305,105.481l-2.974-7.747h2.748l1.712,5.157h0.045l1.554-5.157h2.748l-2.815,7.747l3.153,8.514    h-2.748l-1.892-5.923h-0.045l-1.937,5.923h-2.748L638.305,105.481z; : BBData-635.4000244140625,97.73333740234375,644.8000335693359,114.01666259765625
path : fill-#545454;d-M628.15,109.626v0.833c0,1.059,0.36,1.555,1.193,1.555s1.306-0.496,1.306-1.555v-3.806    c-0.721,0.721-1.171,1.081-2.297,1.081c-1.621,0-2.973-0.946-2.973-3.334v-1.937c0-3.423,1.171-4.955,3.964-4.955    s3.964,1.396,3.964,4.46v7.792c0,3.063-1.171,4.46-3.964,4.46c-2.207,0.045-3.626-1.532-3.626-3.604v-0.991H628.15z     M630.649,101.271c0-1.059-0.473-1.555-1.306-1.555s-1.307,0.496-1.307,1.555v2.702c0,1.059,0.474,1.555,1.171,1.555    c0.496,0,1.104-0.474,1.441-0.744V101.271z; : BBData-625.6666870117188,97.5,633.6333465576172,114.28334045410156
path : fill-#545454;d-M701.316,76.626v16.261h-2.433V80.185h-0.045l-2.522,12.702h-1.352l-2.522-12.702h-0.045v12.702h-2.433    V76.626h3.671l1.982,9.504h0.045l1.982-9.504H701.316z; : BBData-690.25,76.61666870117188,701.6333312988281,92.91667175292969
path : fill-#545454;d-M678.415,80.567c0-2.298,1.352-4.167,4.279-4.167s4.279,1.869,4.279,4.167v8.378    c0,2.297-1.352,4.167-4.279,4.167s-4.279-1.87-4.279-4.167V80.567z M681.208,88.878c0,1.216,0.359,1.802,1.486,1.802    c1.126,0,1.486-0.586,1.486-1.802v-8.243c0-1.216-0.36-1.802-1.486-1.802c-1.127,0-1.486,0.586-1.486,1.802V88.878z; : BBData-678.7000122070312,76.39999389648438,687.3000183105469,93.13333129882812
path : fill-#545454;d-M666.707,80.567c0-2.298,1.351-4.167,4.279-4.167c2.928,0,4.278,1.869,4.278,4.167v8.378    c0,2.297-1.351,4.167-4.278,4.167c-2.929,0-4.279-1.87-4.279-4.167V80.567z M669.499,88.878c0,1.216,0.361,1.802,1.487,1.802    s1.486-0.586,1.486-1.802v-8.243c0-1.216-0.36-1.802-1.486-1.802s-1.487,0.586-1.487,1.802V88.878z; : BBData-667,76.39999389648438,675.5833282470703,93.13333129882812
path : fill-#545454;d-M657.792,92.887h-2.793V76.626h3.919c3.13,0,4.729,1.329,4.729,4.797c0,2.612-1.014,3.671-1.96,4.1    l2.365,7.364h-2.838l-1.981-6.734c-0.361,0.045-0.946,0.068-1.441,0.068V92.887z M657.792,83.923h0.99    c1.509,0,2.072-0.562,2.072-2.5c0-1.937-0.563-2.5-2.072-2.5h-0.99V83.923z; : BBData-655.2833251953125,76.61666870117188,664.3833160400391,92.91667175292969
path : fill-#545454;d-M641.693,84.644h4.572v8.243h-1.352l-0.518-1.216c-0.833,0.99-1.509,1.441-2.815,1.441    c-2.207,0-3.738-1.577-3.738-4.167v-8.378c0-2.298,1.352-4.167,4.099-4.167c2.793,0,4.189,2.027,4.189,4.46v1.036h-2.658    c0-2.433-0.495-3.063-1.599-3.063c-0.676,0-1.238,0.405-1.238,1.779v8.355c0,1.036,0.337,1.712,1.306,1.712    c1.126,0,1.531-0.631,1.531-2.252v-1.577h-1.779V84.644z; : BBData-638.13330078125,76.38333129882812,646.5832977294922,93.13333129882812
path : fill-#545454;d-M626.135,92.887V76.626h2.59l3.4,9.302h0.046v-9.302h2.521v16.261h-2.432l-3.559-10.157h-0.045v10.157    H626.135z; : BBData-626.433349609375,76.61666870117188,635.0166778564453,92.91667175292969
path : fill-#545454;d-M619.807,92.887V76.626h2.793v16.261H619.807z; : BBData-620.0999755859375,76.61666870117188,622.9333038330078,92.91667175292969
path : fill-#545454;d-M607.716,92.887V76.626h2.59l3.4,9.302h0.045v-9.302h2.523v16.261h-2.433l-3.559-10.157h-0.045v10.157    H607.716z; : BBData-608,76.61666870117188,616.6000061035156,92.91667175292969
path : fill-#545454;d-M601.389,92.887V76.626h2.793v16.261H601.389z; : BBData-601.683349609375,76.61666870117188,604.5000152587891,92.91667175292969
path : fill-#545454;d-M589.298,76.626h4.144c2.883,0,4.415,1.576,4.415,4.909v6.441c0,3.334-1.532,4.91-4.415,4.91h-4.144    V76.626z M592.091,90.59h0.968c1.486,0,2.005-0.563,2.005-2.275v-7.116c0-1.712-0.519-2.275-2.005-2.275h-0.968V90.59z; : BBData-589.5833129882812,76.61666870117188,598.1833190917969,92.91667175292969
path : fill-#545454;d-M671.334,71.777V55.517h2.793v13.828h4.392v2.433H671.334z; : BBData-671.63330078125,55.51666259765625,678.8499755859375,71.80000305175781
path : fill-#545454;d-M662.644,71.777h-2.702l2.995-16.261h3.469l2.995,16.261h-2.702l-0.496-3.604h-3.062L662.644,71.777z     M663.545,65.741h2.252l-1.104-6.981h-0.045L663.545,65.741z; : BBData-660.2333374023438,55.5,669.7333374023438,71.80000305175781
path : fill-#545454;d-M658.008,55.517v16.261h-2.433V59.075h-0.045l-2.522,12.702h-1.352l-2.522-12.702h-0.045v12.702h-2.433    V55.517h3.671l1.982,9.504h0.045l1.982-9.504H658.008z; : BBData-646.9500122070312,55.51666259765625,658.3333435058594,71.80000305175781
path : fill-#545454;d-M637.899,71.777h-2.793V55.517h3.919c3.13,0,4.729,1.329,4.729,4.797c0,2.612-1.014,3.671-1.96,4.1    l2.365,7.364h-2.838l-1.981-6.734c-0.361,0.045-0.946,0.068-1.441,0.068V71.777z M637.899,62.813h0.99    c1.509,0,2.072-0.562,2.072-2.5c0-1.937-0.563-2.5-2.072-2.5h-0.99V62.813z; : BBData-635.4000244140625,55.51666259765625,644.4833679199219,71.80000305175781
path : fill-#545454;d-M623.398,59.458c0-2.298,1.351-4.167,4.279-4.167c2.928,0,4.278,1.869,4.278,4.167v8.378    c0,2.297-1.351,4.167-4.278,4.167c-2.929,0-4.279-1.87-4.279-4.167V59.458z M626.19,67.769c0,1.216,0.361,1.802,1.487,1.802    s1.486-0.586,1.486-1.802v-8.243c0-1.216-0.36-1.802-1.486-1.802s-1.487,0.586-1.487,1.802V67.769z; : BBData-623.683349609375,55.28334045410156,632.2833557128906,72.03334045410156
path : fill-#545454;d-M612.951,71.777V55.517h7.792v2.433h-5v4.188h3.739v2.433h-3.739v7.207H612.951z; : BBData-613.25,55.51666259765625,621.0666656494141,71.80000305175781
g :  : BBData-589.5833129882812,55.28334045410156,701.6333160400391,114.28334045410156
g :  : BBData-589.5833129882812,55.28334045410156,701.6333160400391,114.28334045410156
rect : x-275.981;y-11.354;fill-#C6C8CA;width-20.549;height-2.936; : BBData-276.25,11.350006103515625,296.8333282470703,14.316665649414062
rect : x-261.744;y-17.519;fill-#C6C8CA;width-21.434;height-25.243; : BBData-262.01666259765625,17.51666259765625,283.48333740234375,42.78334045410156
rect : x-289.334;y-17.519;fill-#C6C8CA;width-21.434;height-25.243; : BBData-289.6166687011719,17.51666259765625,311.0833282470703,42.78334045410156
g :  : BBData-262.01666259765625,17.51666259765625,311.0833282470703,42.78334045410156
rect : x-216.245;y-4.032;fill-#E0E1E2;width-140.022;height-43.347; : BBData-216.51666259765625,4.01666259765625,356.5833282470703,47.399993896484375
g :  : BBData-216.51666259765625,4.01666259765625,356.5833282470703,47.399993896484375
ellipse : fill-#C6C8CA;cx-139.446;cy-151.748;rx-13.63;ry-17.766; : BBData-126.06666564941406,133.96665954589844,153.36666870117188,169.53334045410156
rect : x-116.336;y-120.084;fill-#E0E1E2;width-42.682;height-63.327; : BBData-116.60000610351562,120.08332824707031,159.31666564941406,183.43333435058594
rect : x-116.801;y-75.488;fill-#C6C8CA;width-18.03;height-35.055; : BBData-117.06666564941406,75.48333740234375,135.11666870117188,110.56666564941406
ellipse : fill-#E0E1E2;cx-149.182;cy-92.798;rx-17.814;ry-13.666; : BBData-131.63333129882812,79.11666870117188,167.3000030517578,106.48333740234375
rect : x-98.305;y-75.488;fill-#C6C8CA;width-18.031;height-35.055; : BBData-98.56666564941406,75.48333740234375,116.63333129882812,110.56666564941406
ellipse : fill-#E0E1E2;cx-83.954;cy-92.798;rx-17.814;ry-13.666; : BBData-66.39999389648438,79.11666870117188,102.06666564941406,106.48333740234375
polygon : fill-#E0E1E2;points-116.336,63.521 73.6,63.521 54.178,44.099 54.178,2.817 116.336,2.817 ; : BBData-54.43333435058594,2.8166656494140625,116.63333129882812,63.55000305175781
ellipse : fill-#C6C8CA;cx-26.617;cy-26.122;rx-15.741;ry-13.179; : BBData-11.133331298828125,12.933334350585938,42.649993896484375,39.33332824707031
rect : x-124.35;y-11.579;fill-#C6C8CA;width-83.884;height-37.269; : BBData-124.60000610351562,11.566665649414062,208.5500030517578,48.866668701171875
rect : x-116.336;y-4.033;fill-#E0E1E2;width-99.912;height-51.557; : BBData-116.60000610351562,4.01666259765625,216.5500030517578,55.616668701171875
rect : x-2.814;y-2.814;fill-#E0E1E2;width-44.68;height-44.096; : BBData-3.0666656494140625,2.8000030517578125,47.78334045410156,46.93333435058594
svg : version-1.1;id-Layer_1;x-0px;y-0px;width-744.91px;height-692.961px;viewBox-0 0 744.91 692.961;enable-background-new 0 0 744.91 692.961; : BBData-0,0,745.5,693
