25
3
3.46410161514
2
rectangle
111
290
36
423
212.532350479
0.0
0.0
0.0
0.0
0.0
0.0
0.0
0.0
0.0
0.0
0.101063829787
0.0744680851064
0.0567375886525
0.0496453900709
0.0425531914894
0.0390070921986
0.0390070921986
0.0390070921986
0.0354609929078
0.0354609929078
0.0354609929078
0.0354609929078
0.147163120567
0.156028368794
0.109929078014
0.180453336894
0.020390070922
0.0195035460993
0.0230496453901
0.0230496453901
0.0283687943262
0.0336879432624
0.0425531914894
0.0585106382979
0.0868794326241
0.0531914893617
0.0460992907801
0.0425531914894
0.0328014184397
0.0212765957447
0.0230496453901
0.0265957446809
0.0434397163121
0.0292553191489
0.0212765957447
0.0168439716312
0.0141843971631
0.011524822695
0.011524822695
0.00975177304965
0.00975177304965
3
rectangle
47
105
116
189
46.2276973253
0.0
0.0
0.0
0.0
0.0
0.0
0.0
0.0
0.0
0.0
0.0
0.0
0.0
0.0
0.0
0.116279069767
0.093023255814
0.0542635658915
0.0542635658915
0.178294573643
0.131782945736
0.108527131783
0.108527131783
0.077519379845
0.0697674418605
0.241508537254
0.0271317829457
0.031007751938
0.031007751938
0.031007751938
0.046511627907
0.046511627907
0.062015503876
0.0542635658915
0.046511627907
0.0387596899225
0.0387596899225
0.031007751938
0.0271317829457
0.015503875969
0.0193798449612
0.0193798449612
0.0232558139535
0.031007751938
0.0271317829457
0.0232558139535
0.0193798449612
0.015503875969
0.015503875969
0.015503875969
0.0116279069767
4
rectangle
47
105
268
341
46.2276973253
0.0
0.0
0.0
0.0
0.0
0.0
0.0
0.0
0.0
0.0
0.0
0.0
0.0
0.0
0.0
0.116279069767
0.093023255814
0.0542635658915
0.0542635658915
0.178294573643
0.131782945736
0.108527131783
0.108527131783
0.077519379845
0.0697674418605
0.241508537254
0.0271317829457
0.031007751938
0.031007751938
0.031007751938
0.046511627907
0.046511627907
0.062015503876
0.0542635658915
0.046511627907
0.0387596899225
0.0387596899225
0.031007751938
0.0271317829457
0.015503875969
0.0193798449612
0.0193798449612
0.0232558139535
0.031007751938
0.0271317829457
0.0232558139535
0.0193798449612
0.015503875969
0.015503875969
0.015503875969
0.0116279069767
2
2
3
1
1
0.0597310356873
floor
2
4
1
1
0.0597310356873
floor
