balcony29'3" x 5'2" : [2503,344] :[2306,253,2705,434] :100
balcony5'2" x 28' : [403,2163] :[219,2073,590,2253] :100
privacy screen : [427,3740] :[104,3691,750,3788] :100
privacy screen : [3903,323] :[3854,0,3955,646] :100
live/dine15'9" x 11' : [2639,2035] :[2444,1948,2837,2125] :100
bedroom10' x 10' : [1420,2920] :[1222,2830,1618,3010] :100
f : [3583,2344] :[3556,2295,3611,2392] :100
mvd/w : [3576,1257] :[3503,1167,3653,1347] :100
den6'4" x 7' : [1184,1635] :[1042,1545,1330,1726] :100
w/d : [3042,3417] :[2969,3368,3118,3465] :100
