pdr : [1017,311] : [941,290,1093,332] : [91] : match : 0
dw : [788,810] : [744,794,833,826] : [91] : none : -1
greatroom : [1424,825] : [1137,798,1711,853] : [88] : match : 0
pan : [257,1187] : [207,1171,307,1203] : [91] : match : 0
dining : [584,1393] : [425,1367,744,1420] : [89] : match : 0
office : [1219,1784] : [1067,1757,1372,1811] : [87] : match : 0
micro : [300,847] : [210,831,391,863] : [90] : none : -1
rec : [578,921] : [524,905,633,937] : [91] : none : -1
ref : [275,1006] : [224,984,326,1028] : [78] : none : -1
optfrench : [1251,1357] : [1086,1341,1417,1374] : [88] : none : -1
doors : [1251,1404] : [1164,1388,1338,1420] : [92] : none : -1
pt : [329,1459] : [275,1443,384,1476] : [71] : none : -1
cabinets : [329,1505] : [206,1489,453,1522] : [88] : none : -1
dn : [1614,1508] : [1577,1492,1652,1524] : [92] : none : -1
up : [1812,1555] : [1781,1540,1844,1571] : [90] : none : -1
californiterrace : [525,1978] : [336,1922,714,2034] : [86] : none : -1
optcabinet : [1419,2026] : [1336,1987,1502,2066] : [89] : none : -1
0 : [700,1296] : [684,1280,716,1312] : [72] : none : -1
rd : [701,1325] : [685,1314,717,1336] : [37] : none : -1
secondfloor : [664,2410] : [178,2369,1150,2451] : [87] : none : -1
