Utility : [1597,425] : [1523,400,1671,451] : 84
Dining Area : [2043,467] : [1934,391,2153,543] : 86
Store : [1473,859] : [1411,840,1536,879] : 89
Kitchen : [2033,1194] : [1885,1161,2181,1228] : 89
Living Room : [999,1483] : [883,1407,1115,1559] : 89
Hall : [1544,1701] : [1465,1668,1623,1735] : 85
WC : [1771,1928] : [1729,1909,1814,1948] : 71
Study : [2177,1908] : [2060,1865,2295,1952] : 87
Canopy : [1826,2392] : [1736,2368,1916,2417] : 86
over door : [2043,2392] : [1930,2378,2157,2406] : 73
n : [1526,1116] : [1515,1128,1537,1105] : 66
00 : [869,2094] : [833,2078,906,2110] : 82
No Text Detected
