COSMOTOLOGY ROOM : [573,150] : [496,124,651,176] : 80
WEST ROOM : [821,211] : [771,179,871,243] : 85
EAST ROOM : [1126,211] : [1080,179,1173,243] : 86
QUEEN'SDR OOM : [1604,211] : [1533,182,1675,240] : 92
BE : [1533,228] : [1516,217,1550,240] : 92
ROOM : [352,251] : [302,240,402,263] : 72
m : [964,286] : [952,276,976,296] : 61
GRAND STAIR : [1313,336] : [1260,304,1367,368] : 86
WEST HALL : [302,509] : [230,476,374,543] : 85
STAIR LANDING : [1331,506] : [1276,477,1387,535] : 89
EAST HALL : [1752,511] : [1683,482,1821,541] : 79
SITTING : [228,531] : [170,519,287,543] : 90
CENTER HALL : [853,509] : [753,498,953,521] : 72
SITTING : [1675,528] : [1617,517,1734,540] : 86
TREATY ROOM : [1259,792] : [1204,763,1314,821] : 73
LINCOLN BEDROOM : [1582,785] : [1508,752,1656,818] : 81
PRESIDENTS BEDROOM : [341,812] : [257,783,426,841] : 80
PRIVATE SITTING : [643,812] : [584,783,703,841] : 77
YELLOW ROOM : [977,844] : [898,815,1057,873] : 84
LINCOLN SITTING : [1780,864] : [1723,834,1837,894] : 73
DRESSING ROOM : [131,879] : [76,853,186,905] : 78
ROOM : [644,864] : [595,853,694,875] : 90
OVAL : [907,861] : [866,849,949,873] : 91
O : [785,1189] : [759,1163,811,1215] : 82
O : [1148,1190] : [1122,1164,1174,1216] : 84
KITCHEN : [149,228] : [137,302,162,155] : 88
O : [198,861] : [189,872,207,851] : 68
o : [695,1100] : [669,1126,721,1074] : 88
NO THHALL : [963,241] : [951,348,976,134] : 91
OD : [1266,1035] : [1212,1126,1320,944] : 78
No Text Detected
