25
3
2.92574543717
4
circle
77
113
95
131
18.8679622641
0.0
0.0
0.0
0.0
0.0
0.0
0.0
0.0
0.0
0.0
0.0
0.0
0.0
0.0
0.0
0.0
0.0
0.0
0.0
0.0
0.0
0.05
0.33
0.41
0.2
0.265206298856
0.05
0.04
0.04
0.04
0.04
0.04
0.04
0.02
0.05
0.04
0.04
0.04
0.04
0.02
0.02
0.02
0.01
0.02
0.02
0.01
0.02
0.02
0.02
0.02
0.02
2
rectangle
15
121
13
149
82.8009661779
0.0
0.0
0.0
0.0
0.0
0.0
0.0
0.0
0.0
0.0
0.0
0.0
0.0
0.0
0.0
2.46768440921e-10
7.16803566484e-10
3.76028100451e-10
2.82021075338e-10
2.82021075338e-10
1.03407727624e-09
7.52056200901e-10
2.29142123712e-09
2.54994055618e-09
2.27967035898e-09
0.0
0.0
0.0
0.0
0.0
0.0
0.0
0.0
0.0
0.0
0.0
0.0
0.0
0.0
0.0
2.46768440921e-10
7.16803566484e-10
3.76028100451e-10
2.82021075338e-10
2.82021075338e-10
1.03407727624e-09
7.52056200901e-10
2.29142123712e-09
2.54994055618e-09
2.27967035898e-09
0.0
0.0
0.0
0.0
0.0
0.0
0.0
0.0
0.0
0.0
0.0
0.0
0.0
0.0
0.0
2.46768440921e-10
7.16803566484e-10
3.76028100451e-10
2.82021075338e-10
2.82021075338e-10
1.03407727624e-09
7.52056200901e-10
2.29142123712e-09
2.54994055618e-09
2.27967035898e-09
0.0
0.0
0.0
0.0
0.0
0.0
0.0
0.0
0.0
0.0
0.0
0.0
0.0
0.0
0.0
2.46768440921e-10
7.16803566484e-10
3.76028100451e-10
2.82021075338e-10
2.82021075338e-10
1.03407727624e-09
7.52056200901e-10
2.29142123712e-09
2.54994055618e-09
2.27967035898e-09
0.0
0.0
0.0
0.0
0.0
0.0
0.0
0.0
0.0
0.0
0.0
0.0
0.0
0.0
0.0
2.46768440921e-10
7.16803566484e-10
3.76028100451e-10
2.82021075338e-10
2.82021075338e-10
1.03407727624e-09
7.52056200901e-10
2.29142123712e-09
2.54994055618e-09
2.27967035898e-09
0.0600654163966
3.8777897859e-10
4.46533369285e-10
3.52526344172e-10
4.46533369285e-10
4.46533369285e-10
4.46533369285e-10
4.46533369285e-10
4.81786003702e-10
4.58284247424e-10
4.58284247424e-10
4.58284247424e-10
4.23031613007e-10
3.40775466033e-10
1.88014050225e-10
2.46768440921e-10
2.11515806503e-10
2.23266684643e-10
2.11515806503e-10
2.5851931906e-10
2.23266684643e-10
1.99764928364e-10
1.88014050225e-10
1.76263172086e-10
2.23266684643e-10
1.64512293947e-10
3.8777897859e-10
4.46533369285e-10
3.52526344172e-10
4.46533369285e-10
4.46533369285e-10
4.46533369285e-10
4.46533369285e-10
4.81786003702e-10
4.58284247424e-10
4.58284247424e-10
4.58284247424e-10
4.23031613007e-10
3.40775466033e-10
1.88014050225e-10
2.46768440921e-10
2.11515806503e-10
2.23266684643e-10
2.11515806503e-10
2.5851931906e-10
2.23266684643e-10
1.99764928364e-10
1.88014050225e-10
1.76263172086e-10
2.23266684643e-10
1.64512293947e-10
3.8777897859e-10
4.46533369285e-10
3.52526344172e-10
4.46533369285e-10
4.46533369285e-10
4.46533369285e-10
4.46533369285e-10
4.81786003702e-10
4.58284247424e-10
4.58284247424e-10
4.58284247424e-10
4.23031613007e-10
3.40775466033e-10
1.88014050225e-10
2.46768440921e-10
2.11515806503e-10
2.23266684643e-10
2.11515806503e-10
2.5851931906e-10
2.23266684643e-10
1.99764928364e-10
1.88014050225e-10
1.76263172086e-10
2.23266684643e-10
1.64512293947e-10
3.8777897859e-10
4.46533369285e-10
3.52526344172e-10
4.46533369285e-10
4.46533369285e-10
4.46533369285e-10
4.46533369285e-10
4.81786003702e-10
4.58284247424e-10
4.58284247424e-10
4.58284247424e-10
4.23031613007e-10
3.40775466033e-10
1.88014050225e-10
2.46768440921e-10
2.11515806503e-10
2.23266684643e-10
2.11515806503e-10
2.5851931906e-10
2.23266684643e-10
1.99764928364e-10
1.88014050225e-10
1.76263172086e-10
2.23266684643e-10
1.64512293947e-10
3.8777897859e-10
4.46533369285e-10
3.52526344172e-10
4.46533369285e-10
4.46533369285e-10
4.46533369285e-10
4.46533369285e-10
4.81786003702e-10
4.58284247424e-10
4.58284247424e-10
4.58284247424e-10
4.23031613007e-10
3.40775466033e-10
1.88014050225e-10
2.46768440921e-10
2.11515806503e-10
2.23266684643e-10
2.11515806503e-10
2.5851931906e-10
2.23266684643e-10
1.99764928364e-10
1.88014050225e-10
1.76263172086e-10
2.23266684643e-10
1.64512293947e-10
3
circle
77
113
30
67
19.0
0.0
0.0
0.0
0.0
0.0
0.0
0.0
0.0
0.0
0.0
0.0
0.0
0.0
0.0
0.0
0.0
0.0
0.0
0.0
0.0
0.0
0.05
0.38
0.35
0.21
0.263464486459
0.05
0.04
0.04
0.04
0.04
0.04
0.03
0.03
0.05
0.04
0.04
0.04
0.04
0.02
0.02
0.02
0.01
0.02
0.02
0.01
0.02
0.02
0.02
0.02
0.02
2
2
4
1
1
0.0690241655446
floor
2
3
1
1
0.0693784990433
floor
