25
1
0
1
rectangle
1
263
1
114
138.293166859
0.0
0.0
0.0
0.0
0.0
0.0
0.0
0.0
0.0
0.000322580645161
0.0024926686217
0.00140762463343
0.00105571847507
0.00099706744868
0.000938416422287
0.000821114369501
0.000821114369501
0.000821114369501
0.000762463343109
0.000791788856305
0.00099706744868
0.00117302052786
0.0025219941349
0.00284457478006
0.00260997067449
0.0
0.0
0.0
0.0
0.0
0.0
0.0
0.0
0.0
0.000322580645161
0.0024926686217
0.00140762463343
0.00105571847507
0.00099706744868
0.000938416422287
0.000821114369501
0.000821114369501
0.000821114369501
0.000762463343109
0.000791788856305
0.00099706744868
0.00117302052786
0.0025219941349
0.00284457478006
0.00260997067449
0.159634390394
0.00099706744868
0.00105571847507
0.00105571847507
0.00184750733138
0.00152492668622
0.00108504398827
0.000821114369501
0.000645161290323
0.000645161290323
0.000557184750733
0.00049853372434
0.000469208211144
0.000322580645161
0.000234604105572
0.000234604105572
0.000263929618768
0.000293255131965
0.000351906158358
0.000410557184751
0.00049853372434
0.000674486803519
0.000469208211144
0.000410557184751
0.00049853372434
0.00049853372434
0.00099706744868
0.00105571847507
0.00105571847507
0.00184750733138
0.00152492668622
0.00108504398827
0.000821114369501
0.000645161290323
0.000645161290323
0.000557184750733
0.00049853372434
0.000469208211144
0.000322580645161
0.000234604105572
0.000234604105572
0.000263929618768
0.000293255131965
0.000351906158358
0.000410557184751
0.00049853372434
0.000674486803519
0.000469208211144
0.000410557184751
0.00049853372434
0.00049853372434
0
