wir 3 : [3117,80] : [3071,66,3164,95] : confidence,dict,original_word,difference : [88,DM,None,0]
alfresco : [1347,199] : [1259,185,1436,213] : confidence,dict,original_word,difference : [90,DM,None,0]
balcony : [3601,249] : [3519,235,3683,264] : confidence,dict,original_word,difference : [92,DM,None,0]
wil : [3140,301] : [3109,287,3171,316] : confidence,dict,original_word,difference : [73,DM,None,0]
activity : [3655,703] : [3579,689,3731,718] : confidence,dict,original_word,difference : [93,DM,None,0]
kitch : [491,825] : [437,811,545,840] : confidence,dict,original_word,difference : [85,DM,None,0]
living : [1306,814] : [1251,800,1361,828] : confidence,dict,original_word,difference : [90,DM,None,0]
bed 2 : [2508,1011] : [2461,998,2556,1025] : confidence,dict,original_word,difference : [89,DM,None,0]
ba : [75,1213] : [59,1202,91,1224] : confidence,dict,original_word,difference : [63,SG,br,1]
cl : [204,1186] : [172,1172,236,1200] : confidence,dict,original_word,difference : [71,SG,wl,1]
bed : [3719,1285] : [3672,1271,3767,1299] : confidence,dict,original_word,difference : [91,DM,None,0]
laundry : [230,1360] : [147,1346,313,1374] : confidence,dict,original_word,difference : [86,DM,None,0]
theatre : [1353,1440] : [1276,1427,1430,1454] : confidence,dict,original_word,difference : [85,DM,None,0]
ens 2 : [2487,1466] : [2441,1452,2534,1480] : confidence,dict,original_word,difference : [90,DM,None,0]
wir 2 : [2653,1501] : [2607,1487,2700,1515] : confidence,dict,original_word,difference : [74,DM,None,0]
wc : [3466,1752] : [3419,1738,3513,1766] : confidence,dict,original_word,difference : [74,SG,wr,1]
ensuite : [2594,1898] : [2524,1884,2665,1913] : confidence,dict,original_word,difference : [68,DM,None,0]
doublegarage : [1512,2215] : [1366,2201,1659,2230] : confidence,dict,original_word,difference : [88,DM,None,0]
pdr : [1047,2328] : [1014,2314,1081,2343] : confidence,dict,original_word,difference : [78,DM,None,0]
mastersuite : [3099,2347] : [2978,2333,3221,2362] : confidence,dict,original_word,difference : [89,DM,None,0]
study : [378,2384] : [321,2370,436,2399] : confidence,dict,original_word,difference : [89,DM,None,0]
wir : [2508,2382] : [2476,2368,2540,2396] : confidence,dict,original_word,difference : [94,DM,None,0]
entry : [733,2477] : [679,2463,787,2491] : confidence,dict,original_word,difference : [90,DM,None,0]
porch : [722,2851] : [664,2837,781,2865] : confidence,dict,original_word,difference : [91,DM,None,0]
No Text Detected
