O : [1684,159] : [1654,137,1715,182] : 70
8  : [1392,217] : [1369,196,1415,238] : 61
BATl_ l3 : [1704,253] : [1635,233,1774,274] : 91
Lin : [1482,347] : [1466,337,1499,357] : 93
FAMILY : [1196,376] : [1117,360,1275,393] : 94
BEDROOM 2 : [1719,434] : [1585,418,1853,451] : 90
'4 : [1134,454] : [1118,439,1151,469] : 83
XCeiling : [1767,502] : [1711,469,1824,535] : 85
BRKFST : [877,749] : [788,732,967,766] : 88
LANA' : [281,771] : [222,756,340,786] : 75
iii: : [1388,791] : [1351,774,1426,808] : 61
BEDROOM3 : [1715,805] : [1581,788,1849,822] : 93
Ceng : [922,830] : [862,811,982,849] : 80
'oo : [1288,978] : [1262,957,1315,999] : 70
QO : [1293,1021] : [1268,1006,1318,1036] : 68
KITCHEN : [1121,1061] : [1025,1044,1218,1078] : 90
MASTER BEDROOM : [275,1263] : [172,1225,379,1301] : 82
BEQROP'VJ : [1761,1228] : [1627,1201,1896,1255] : 61
BATH2 : [1363,1287] : [1294,1272,1433,1302] : 85
LIVING : [729,1330] : [657,1313,801,1347] : 86
L'i', UTIL : [1040,1353] : [983,1311,1098,1395] : 68
Ceiling : [310,1366] : [250,1347,370,1386] : 84
xCeiling : [788,1397] : [744,1364,833,1431] : 92
Tra : [650,1407] : [622,1392,678,1423] : 90
DINING : [1070,1698] : [994,1681,1146,1715] : 88
I_ll : [1013,1766] : [986,1761,1041,1771] : 87
e''n : [1118,1775] : [1084,1761,1152,1790] : 87
Q : [391,1779] : [361,1757,422,1802] : 68
FOYER : [691,1806] : [623,1790,759,1822] : 92
M  BATH : [301,1880] : [221,1865,381,1895] : 94
O : [391,2019] : [361,1997,422,2042] : 77
Opt  Fr Doors : [1119,2084] : [1080,2061,1159,2107] : 84
oors : [876,2137] : [851,2130,902,2145] : 92
PORCH : [1084,2149] : [1014,2134,1154,2165] : 82
DEN : [477,2223] : [433,2207,522,2240] : 96
EEEEEEEE : [1103,2269] : [1013,2256,1194,2282] : 71
Ceiling : [523,2305] : [463,2286,583,2324] : 83
1512, : [1139,426] : [1099,403,1179,450] : 52
21,,,4, : [1241,423] : [1191,403,1291,444] : 73
12, : [1673,476] : [1650,461,1697,491] : 79
11, : [1767,476] : [1745,461,1789,491] : 81
924, : [1651,512] : [1612,497,1690,527] : 60
11,,,8,,,,,1,,,,4, : [877,798] : [758,775,997,822] : 74
9,4 : [801,826] : [770,811,833,841] : 88
9,,4,,,,,,,, : [1713,886] : [1608,867,1819,906] : 88
14,,18,,8, : [265,1326] : [169,1311,361,1342] : 91
9,,4, : [196,1363] : [158,1348,235,1378] : 88
13,,8, : [682,1371] : [634,1356,731,1386] : 88
22, : [801,1371] : [776,1356,826,1386] : 87
,11024, : [728,1429] : [656,1400,801,1459] : 44
11,,8,,12,,4, : [478,2265] : [359,2250,598,2280] : 85
924, : [410,2301] : [371,2286,449,2316] : 59
I            : [86,2243] : [77,2406,95,2081] : 80
m : [161,1282] : [150,1298,172,1266] : 77
O : [202,2532] : [173,2563,232,2501] : 87
O : [267,2532] : [238,2563,296,2501] : 89
Linen : [356,1661] : [346,1693,367,1630] : 88
I : [466,2532] : [445,2562,487,2503] : 78
Niche : [527,1847] : [517,1880,537,1814] : 89
IIII : [668,650] : [650,672,687,628] : 94
IIII : [748,2260] : [733,2242,764,2278] : 85
IIII : [771,2260] : [756,2242,787,2278] : 94
II_______________ : [865,1392] : [845,1579,886,1205] : 82
II : [879,2260] : [870,2280,888,2241] : 84
I0 : [1021,2218] : [1012,2242,1030,2194] : 74
I;::: : [1016,2016] : [1007,2058,1025,1974] : 65
I  : [1024,1732] : [1015,1743,1034,1722] : 72
0: : [1068,1755] : [1055,1789,1081,1722] : 72
Pan : [1093,1275] : [1083,1298,1103,1253] : 93
_o : [1105,891] : [1100,907,1110,875] : 64
CO : [1097,452] : [1088,467,1107,437] : 66
:0 : [1122,2218] : [1115,2236,1130,2200] : 74
CO : [1148,1737] : [1138,1752,1158,1722] : 62
(Q : [1165,1781] : [1156,1797,1175,1766] : 69
I" : [1169,1485] : [1161,1504,1177,1467] : 88
C : [1193,452] : [1180,467,1206,437] : 71
co : [1290,460] : [1281,475,1299,445] : 77
I : [1368,1181] : [1360,1222,1376,1140] : 70
Pk : [1405,251] : [1395,266,1415,237] : 92
bor : [1400,174] : [1386,194,1415,155] : 63
Linen : [1500,868] : [1490,900,1510,837] : 89
I_> : [1548,1738] : [1532,1770,1565,1706] : 72
l: : [1553,1438] : [1543,1449,1564,1427] : 69
x0 : [1637,1742] : [1612,1779,1663,1706] : 61
N : [1653,1764] : [1643,1779,1663,1749] : 76
oI E : [1680,1281] : [1654,1308,1706,1254] : 67
ET : [1805,1281] : [1789,1308,1821,1254] : 71
uO : [1857,1590] : [1846,1613,1869,1568] : 76
8" : [1844,1285] : [1822,1317,1866,1254] : 66
I\ : [1960,1623] : [1953,1637,1967,1609] : 75
II : [1961,1522] : [1952,1536,1971,1508] : 66
III : [1985,1522] : [1976,1536,1995,1508] : 87
1512, : [1139,426] : [1099,403,1179,450] : 52
21,,,4, : [1241,423] : [1191,403,1291,444] : 73
12, : [1673,476] : [1650,461,1697,491] : 79
11, : [1767,476] : [1745,461,1789,491] : 81
924, : [1651,512] : [1612,497,1690,527] : 60
11,,,8,,,,,1,,,,4, : [877,798] : [758,775,997,822] : 74
9,4 : [801,826] : [770,811,833,841] : 88
9,,4,,,,,,,, : [1713,886] : [1608,867,1819,906] : 88
14,,18,,8, : [265,1326] : [169,1311,361,1342] : 91
9,,4, : [196,1363] : [158,1348,235,1378] : 88
13,,8, : [682,1371] : [634,1356,731,1386] : 88
22, : [801,1371] : [776,1356,826,1386] : 87
,11024, : [728,1429] : [656,1400,801,1459] : 44
11,,8,,12,,4, : [478,2265] : [359,2250,598,2280] : 85
924, : [410,2301] : [371,2286,449,2316] : 59
93 : [1657,517] : [1634,498,1680,537] : 54
0,2 : [456,844] : [433,823,479,866] : 54
15, : [357,1078] : [334,1060,381,1097] : 43
80 : [833,1519] : [797,1498,870,1540] : 58
873 : [985,1881] : [962,1865,1008,1897] : 54
