<svg height="610.727px" id="ladywell_x5F_floorplan_x5F_chawleigh_x5F_first" style="enable-background:new 0 0 924.632 610.727;" version="1.0" viewBox="0 0 924.632 610.727" width="924.632px" x="0px" y="0px" xml:space="preserve">
  <style id="n_id_0" type="text/css">
	.st0{fill:#231F20;}
</style>
  <g id="n_id_1">
	<circle class="st0" cx="491.083" cy="272.474" id="n_id_3" r="1.747"/><path class="st0" d="M520.981,348.686h29.135c2.931,0,5.315-2.501,5.315-5.574v-75.901c0-3.069-2.385-5.565-5.315-5.565h-29.135   c-2.925,0-5.305,2.496-5.305,5.565v75.901C515.677,346.185,518.057,348.686,520.981,348.686z M516.177,267.211   c0-2.793,2.155-5.065,4.805-5.065h29.135c2.655,0,4.815,2.272,4.815,5.065v75.901c0,2.798-2.16,5.074-4.815,5.074h-29.135   c-2.649,0-4.805-2.276-4.805-5.074V267.211z" id="n_id_4"/><circle class="st0" cx="506.684" cy="567.376" id="n_id_5" r="1.747"/><path class="st0" d="M437.937,485.037h-24.098c-2.442,0-4.43,2.497-4.43,5.565v75.9c0,3.074,1.987,5.574,4.43,5.574h24.098   c2.448,0,4.439-2.5,4.439-5.574v-75.9C442.376,487.533,440.384,485.037,437.937,485.037z M441.876,566.502   c0,2.798-1.767,5.074-3.939,5.074h-24.098c-2.167,0-3.93-2.276-3.93-5.074v-75.9c0-2.793,1.763-5.065,3.93-5.065h24.098   c2.172,0,3.939,2.272,3.939,5.065V566.502z" id="n_id_6"/><path class="st0" d="M715.95,516.505h-2.051l-8.773,12.362v1.484h8.827v4.292h1.997v-4.292h2.78v-1.674h-2.78V516.505z    M713.953,528.678h-6.722l6.722-9.474V528.678z" id="n_id_22"/><polygon class="st0" id="n_id_30" points="277.138,345.514 281.835,342.814 281.835,358.794 283.994,358.794 283.994,340.655 282.186,340.655    276.382,344.002  "/><path class="st0" d="M570.157,427.755c-0.512,0-0.863,0.352-0.863,0.848s0.352,0.849,0.863,0.849c0.496,0,0.849-0.353,0.849-0.849   S570.653,427.755,570.157,427.755z" id="n_id_44"/><rect class="st0" height="0.992" id="n_id_56" width="4.29" x="473.357" y="311.435"/><rect class="st0" height="7.779" id="n_id_59" width="1.264" x="494.478" y="308.137"/><path class="st0" d="M495.118,306.616c0.496,0,0.848-0.353,0.848-0.849c0-0.496-0.352-0.848-0.848-0.848   c-0.512,0-0.864,0.352-0.864,0.848C494.253,306.264,494.605,306.616,495.118,306.616z" id="n_id_60"/><path class="st0" d="M812.626,345.226h-3.48V0h-261.9v225h-67.774v-2.415h-36.77V225h-98.98v-2.415H241.62V225h-86.895v28.315   h-42.72v18h42.72v318.484h-42.72v18h42.72v0h52.308v2.927h102.101V607.8h113.168v2.927h36.77V607.8h78.192v2.611h68.935V607.8   h79.925v2.611h68.935V607.8h54.088V381.996h3.48V345.226z M799.197,379.89v-5.497h2.894v5.497H799.197z M791.146,411.076h-43.04   v-2.659h-4.243v-41.115h4.118v-6.25h-0.989v-1.701h0.989v-6.25h-1.976V311.89h2.101v-5.574h43.04v41.306h0.779v32.215h0.5v-32.215   h6.272v32.269h-7.552V411.076z M691.392,453.56l-26.789-26.789l1.075-1.076l26.815,26.814   C692.132,452.868,691.765,453.217,691.392,453.56z M665.678,424.989l-5.028-5.029l1.785-1.785l3.906,3.907l0.406,0.406l0,0   l0.716,0.716L665.678,424.989z M662.9,425.07l-2.332-2.332l1.076-1.076l2.332,2.333L662.9,425.07z M662.854,417.886l-0.242-0.242   l-0.177,0.177l-0.177-0.177l-2.139,2.139l0.177,0.177l-0.177,0.177l1.172,1.171l-1.253,1.252l0.177,0.177l-0.177,0.177l2.685,2.686   l0.177-0.177l0.177,0.177l1.253-1.252l0.994,0.994l-1.252,1.253l0.177,0.177l-0.177,0.177l26.95,26.95   c-7.481,6.731-17.164,10.722-26.907,11.018c-10.634,0.308-20.497-3.544-27.827-10.874l-0.016,0.015l-0.825-0.826l1.254-1.254   l-0.177-0.177l0.177-0.177l-2.686-2.686l-0.177,0.177l-0.177-0.177l-1.253,1.254l-1.172-1.171l-0.177,0.177l-0.177-0.177   l-2.138,2.138l0.177,0.177l-0.177,0.177l0.242,0.242l-23.302,23.301v17.262h-70.26v-16.68h-4.912v-0.579h-0.25v-0.25h-3.024v0.25   h-0.25v1.656h-1.772v0.25h-0.25v3.799h0.25v0.25h1.772v1.406h-1.772v0.25h-0.25v38.113c-10.05-0.531-19.717-4.556-26.816-11.234   c-7.73-7.28-11.988-16.999-11.988-27.367h-0.021v-1.168h1.773v-0.25h0.25v-3.799h-0.25v-0.25h-1.773v-1.656h-0.25v-0.25h-3.023   v0.25h-0.25v0.579h-0.601v-4.433h0.806v-0.25h0.25v-3.023h-0.25v-0.25h-1.656v-1.773h-0.25v-0.25h-3.799v0.25h-0.25v1.773h-1.168   v-0.021c-10.368,0-20.087-4.257-27.367-11.988c-6.679-7.098-10.704-16.767-11.234-26.816h38.113v-0.25h0.25v-1.771h1.406v1.771   h0.25v0.25h3.799v-0.25h0.25v-1.771h1.656v-0.25h0.25v-3.025h-0.25v-0.25h-0.806v-7.006h0.806v-0.25h0.25v-3.024h-0.25v-0.25   h-1.656v-1.771h-0.25v-0.25h-3.799v0.25h-0.25v1.771h-1.406v-1.771h-0.25v-0.25H437.1c0.531-10.049,4.556-19.718,11.234-26.816   c7.28-7.73,16.999-11.988,27.367-11.988v-0.021h1.168v1.773h0.25v0.25h3.799v-0.25h0.25v-1.773h1.656v-0.25h0.25v-3.023h-0.25   v-0.25h-0.806v-11.332h82.787v0.378v1.354h0.25v0.25h2.99v40.92h0.25v0.25c11.761,0,23.249-4.463,31.519-12.246   c8.194-7.718,12.779-17.965,12.987-28.925h3.031v-0.25h0.25v-0.352h7.365v-52.14h1.427v1.08h0.25v0.25h3.24v-0.25h0.25v-1.792   h1.916v-0.25h0.25v-4.071h-0.25v-0.25h-1.916v-1.542h1.916v-0.25h0.25v-40.853c10.779,0.565,21.149,4.879,28.76,12.042   c8.287,7.804,12.85,18.222,12.85,29.334h0.023v1.269h-1.918v0.25h-0.25v4.071h0.25v0.25h1.918v1.792h0.25v0.25h3.238v-0.25h0.122   v4.494h5.129v40.928h-3.704v6.533h1.008v51.725h-8.797L662.854,417.886z M634.304,456.363l-5.028-5.029l1.784-1.785l5.028,5.029   L634.304,456.363z M633.838,449.467l2.333,2.333l-1.077,1.078l-2.332-2.333L633.838,449.467z M601.125,599.875h-9.273v-2.895h9.273   V599.875z M456.671,600.191h-5.7v-2.894h5.7V600.191z M424.396,597.298h5.508v2.894h-5.508V597.298z M450.471,598.494h-20.066   v-1.196h20.066V598.494z M430.404,598.994h20.066v1.197h-20.066V598.994z M456.671,589.8v0.226h-32.21v0.5h32.21v6.272h-32.274   V589.8h-17.551v-13.317h87.403v0.006h0.5v-0.006h23.871v0.006h0.5v-0.006h10.306V589.8H456.671z M445.796,575.836v-94.2h36.823   v1.032h0.25v0.25h2.814c0.198,10.228,4.478,19.79,12.126,26.993c7.724,7.267,18.451,11.435,29.43,11.435v-0.25h0.25v-38.178h1.936   v93.065H519.12v-7.623l0,0c0.02-4.376-2.592-8.253-6.655-9.878l-0.093,0.232l0.089-0.233c-3.378-1.289-7.14-1.413-10.592-0.35l0,0   c-0.001,0-0.003,0.001-0.004,0.001l0,0l0,0c-4.484,1.296-7.616,5.458-7.616,10.124v7.728h-11.621v-4.116   c-0.011-2.347-1.395-4.491-3.543-5.468c-1.505-0.547-3.061-0.82-4.639-0.865l0.024-0.664c0.012-0.354,0.151-0.694,0.39-0.957   c0.491-0.527,0.96-1.112,1.395-1.736c0.373-0.201,0.672-0.522,0.83-0.927c1.333-3.395,2.008-6.969,2.008-10.625   c0-0.679-0.049-1.358-0.145-2.018c-0.502-3.464-2.26-6.603-4.951-8.839c-1.602-1.312-3.625-2.036-5.696-2.036   s-4.093,0.723-5.694,2.037c-3.239,2.694-5.097,6.651-5.097,10.856c0,3.652,0.676,7.227,2.01,10.623   c0.152,0.398,0.442,0.712,0.807,0.915c0.418,0.608,0.886,1.196,1.392,1.746c0.242,0.263,0.381,0.602,0.393,0.956l0.023,0.666   c-1.587,0.03-3.147,0.322-4.666,0.876c-2.131,0.971-3.515,3.114-3.525,5.462v4.115h-47.097v-94.347h38.45v94.2H445.796z    M483.119,475.307h2.523v7.111h-2.523V475.307z M487.666,480.512h-1.523v-3.299h1.523V480.512z M525.468,482.918h1.522v37.922   c-0.508-0.003-1.016-0.015-1.522-0.036V482.918z M525.468,477.213h1.522v3.299h-1.522V477.213z M527.489,475.307h2.524v1.336v1.993   h-0.588v3.782h-1.936V475.307z M512.28,558.946c3.871,1.549,6.359,5.244,6.34,9.413l0.25,0.001h-0.25v7.623h-23.871v-7.728   c0-4.446,2.985-8.412,7.259-9.645l-0.069-0.24l0.074,0.239C505.358,557.579,509.004,557.699,512.28,558.946z M462.611,564.848   c-0.016-0.473-0.202-0.927-0.525-1.278c-0.339-0.368-0.652-0.756-0.952-1.154c2.358,0.455,4.767,0.692,7.167,0.692   c2.394,0,4.796-0.236,7.149-0.69c-0.309,0.406-0.625,0.798-0.959,1.156c-0.321,0.352-0.507,0.807-0.523,1.278l-0.024,0.662   c-1.871-0.136-3.777-0.183-5.663-0.137c-1.889,0-3.794,0.042-5.645,0.137c-0.001,0-0.003,0-0.004,0L462.611,564.848z    M475.661,561.875c-4.835,0.974-9.884,0.973-14.716,0c-0.441-0.091-0.799-0.393-0.958-0.808c-1.311-3.339-1.976-6.853-1.976-10.442   c0-4.056,1.792-7.873,4.916-10.471c1.511-1.24,3.42-1.922,5.376-1.922c1.956,0,3.866,0.683,5.378,1.921   c2.594,2.156,4.289,5.184,4.773,8.525c0.093,0.637,0.14,1.292,0.14,1.946c0,3.593-0.664,7.105-1.974,10.442   C476.458,561.482,476.099,561.784,475.661,561.875z M462.648,566.014c1.857-0.094,3.755-0.129,5.64-0.136   c1.881-0.046,3.773,0.002,5.651,0.137c1.695-0.02,3.369,0.27,4.957,0.847c1.953,0.89,3.222,2.856,3.232,5.007v4.115h-27.686v-4.114   c0.009-2.152,1.278-4.118,3.214-5C459.263,566.284,460.929,565.984,462.648,566.014z M535.426,498.316h70.26v91.394h-65.633v0.09   h-4.627V498.316z M542.045,596.981h10.503v2.895h-10.503V596.981z M568.776,598.178h-15.729v-1.197h15.729V598.178z    M553.048,598.678h15.729v1.197h-15.729V598.678z M569.276,596.981h4.733v2.895h-4.733V596.981z M591.353,598.178H574.51v-1.197   h16.843V598.178z M574.51,598.678h16.843v1.197H574.51V598.678z M601.125,596.481h-59.08v-6.271h59.08V596.481z M475.463,468.18   h7.111v2.523h-7.111V468.18z M477.369,466.156h3.299v1.523h-3.299V466.156z M437.041,426.833h37.922v1.521h-37.886   C437.056,427.848,437.044,427.341,437.041,426.833z M475.463,423.809h1.012h4.764h1.336v2.525h-7.111V423.809z M437.077,411.257   h37.886v1.521h-37.922C437.044,412.271,437.056,411.763,437.077,411.257z M475.463,413.278h7.111v2.524h-1.336h-4.764h-1.012   V413.278z M477.369,411.257h3.299v1.521h-3.299V411.257z M480.668,428.354h-3.299v-1.521h3.299V428.354z M475.463,368.908h7.111   v2.523h-7.111V368.908z M480.668,373.455h-3.299v-1.523h3.299V373.455z M472.278,357.369v-7.111h2.523v7.111H472.278z    M470.255,352.164h1.523v3.3h-1.523V352.164z M475.052,350.007v-0.25h-2.814c-0.198-10.228-4.478-19.79-12.126-26.993   c-7.723-7.267-18.45-11.434-29.43-11.434v0.25h-0.25v38.177h-2.774v0.25h-0.25v1.069h-2.741v-87.71h53.983v8.23   c0,4.665,3.131,8.828,7.616,10.123l0,0l0,0c0.001,0.001,0.003,0.001,0.004,0.002l0,0c1.553,0.478,3.167,0.715,4.781,0.715   c1.976,0,3.951-0.356,5.811-1.065l-0.089-0.233l0.093,0.232c4.062-1.626,6.675-5.502,6.655-9.878l0,0v-8.125h9.395v87.71h-37.614   v-1.069H475.052z M432.453,349.757h-1.521v-37.921c0.508,0.003,1.015,0.015,1.521,0.036V349.757z M432.453,355.463h-1.521v-3.3   h1.521V355.463z M430.432,357.369h-2.524v-1.335v-4.764v-1.013h2.524V357.369z M385.655,351.076h-2.741v-37.55h2.741V351.076z    M382.796,313.026v-25.06h3.359V243h32.511v108.076h-32.511v-38.05H382.796z M385.655,243v44.466h-2.741V243H385.655z    M496.681,280.905c-3.276,1.247-6.923,1.367-10.269,0.337l-0.074,0.239l0.069-0.24c-4.274-1.233-7.259-5.199-7.259-9.644v-8.23   h23.871v8.125h0.25l-0.25,0.001C503.04,275.661,500.551,279.355,496.681,280.905z M791.146,31.856h-225.9v-8.01h225.9V31.856z    M791.146,32.356v8.01h-225.9v-8.01H791.146z M791.146,40.866v8.01h-225.9v-8.01H791.146z M791.146,49.375v8.01h-225.9v-8.01   H791.146z M791.146,57.886v8.01h-225.9v-8.01H791.146z M791.146,66.396v8.01h-225.9v-8.01H791.146z M791.146,74.906v8.01h-225.9   v-8.01H791.146z M791.146,83.415v8.01h-225.9v-8.01H791.146z M791.146,91.926v8.01h-225.9v-8.01H791.146z M791.146,100.436v8.01   h-225.9v-8.01H791.146z M791.146,108.946v8.01h-225.9v-8.01H791.146z M791.146,117.455v8.01h-225.9v-8.01H791.146z    M791.146,125.966v8.63H607.915v0.043h-2.152v0.25h-0.25v1.107h-1.19v0.25h-0.25v2.705h0.25v0.25h1.19v0.759h-0.016   c0,7.36-3.022,14.26-8.511,19.429c-5.021,4.726-11.857,7.579-18.968,7.972v-27.054h-0.25v-0.25h-1.189v-0.856h1.189v-0.25h0.25   v-2.705h-0.25v-0.25h-1.189v-1.107h-0.25v-0.25h-2.152v-0.043h-8.932v-8.63H791.146z M604.573,136.496h0.94v2.205h-0.94V136.496z    M606.013,135.139h1.652v4.918h-1.652V135.139z M574.427,139.408v-3.391v-0.878h1.652v4.918h-1.652V139.408z M577.519,138.701   h-0.939v-2.205h0.939V138.701z M576.579,140.557h0.939v26.827c-0.312,0.012-0.626,0.02-0.939,0.022V140.557z M565.245,140.596   h8.932v-0.039h1.902v27.105h0.25v0.25c7.836,0,15.49-2.974,21-8.159c5.44-5.124,8.493-11.921,8.652-19.196h1.934v0.039h183.231   v159.72H676.154v-1.075h-0.25v-0.25h-3.031c-0.208-10.961-4.793-21.208-12.988-28.925c-8.27-7.782-19.758-12.246-31.519-12.246   v0.25h-0.25v40.921h-2.99v0.25h-0.25v1.075h-59.63v-61.74h-0.001V140.596z M747.605,411.076h-64.772v-2.159h9.104v0.518h0.5v-0.518   h55.167V411.076z M693.876,311.89v41.964h-10.033v-1.036h-2.188V311.89H693.876z M741.73,357.729h-57.888v-3.375h57.888V357.729z    M720.296,353.854V311.89h12.85v41.964H720.296z M719.796,353.854h-12.4V311.89h12.4V353.854z M706.896,353.854h-12.52V311.89   h12.52V353.854z M683.343,353.318v0.536v4.375v0.622h-0.509h-4.375h-0.508v-5.533H683.343z M682.334,359.351v49.066v2.659h-3.375   v-51.725H682.334z M691.938,367.302v41.115h-9.104v-43.602c0-0.127,0.054-0.235,0.169-0.34c0.904-0.821,4.598-0.704,6.215-0.57   v3.397H691.938z M695.468,367.302v-0.898h9.608v42.013h-12.637v-41.115H695.468z M741.73,365.904h-46.188v-3.375h46.188V365.904z    M718.329,408.417v-41.456h-0.5v41.456h-12.254v-42.013h25.034v42.013H718.329z M694.968,366.802h-5.25v-5.25h5.25V366.802z    M731.109,408.417v-42.013h10.621v0.898h1.632v41.115H731.109z M742.23,366.802v-0.398v-4.375v-0.477h5.25v5.25H742.23z    M746.491,360.932h-3.375v-1.492h3.375V360.932z M742.616,361.052h-0.886v0.977h-46.263v-0.977h-6.25v2.351   c-1.142-0.092-5.039-0.332-6.384,0.583v-4.636h1.009v-1.122h57.888v1.122h0.886V361.052z M742.23,358.851v-0.622v-4.375v-0.253   h5.25v5.25H742.23z M741.73,353.101v0.753h-8.085V311.89h11.859v41.211H741.73z M676.526,311.39v-5.074h71.079v5.074H676.526z    M675.654,307.146h-2.738v-7.655h2.738V307.146z M670.748,301.533h1.668v3.571h-1.668V301.533z M630.282,298.991h-1.666v-40.665   c0.557,0.003,1.111,0.016,1.666,0.04V298.991z M630.282,305.104h-1.666v-3.571h1.666V305.104z M628.116,307.146h-2.74v-1.448   v-5.103v-1.103h2.74V307.146z M615.834,350.653v-0.25h-3.238v0.25h-0.25v1.792h-1.918v0.25h-0.25v4.071h0.25v0.25h1.918v1.268   h-0.023c0,11.113-4.563,21.531-12.85,29.335c-7.611,7.162-17.981,11.477-28.761,12.042v-40.852h-0.25v-0.25h-1.916v-1.543h1.916   v-0.25h0.25v-4.071h-0.25v-0.25h-1.916v-1.792h-0.25v-0.25h-3.05v-44.087h52.203v46.14h-1.365v-1.803H615.834z M615.584,358.558   h-2.738v-7.655h2.738V358.558z M610.678,352.944h1.668v3.571h-1.668V352.944z M565.306,357.454v-5.103v-1.448h2.74v7.655h-2.74   V357.454z M570.212,356.516h-1.666v-3.571h1.666V356.516z M568.546,359.058h1.666v40.625c-0.555,0.023-1.109,0.036-1.666,0.039   V359.058z M559.246,351.076h-45.83v-91.07h45.83V351.076z M802.091,373.893h-1.197v-20.066h1.197V373.893z M800.394,373.893h-1.196   v-20.066h1.196V373.893z M802.091,353.327h-2.894v-5.705h2.894V353.327z M791.146,18v5.346h-225.9V18H791.146z M559.246,243v16.506   h-46.33v3.36h-88.25V243h19.63v0.286h33.016V243H559.246z M445.376,233.12h5.426v2.893h-5.426V233.12z M477.126,236.014h-5.258   v-2.893h5.258V236.014z M451.302,234.817h20.066v1.196h-20.066V234.817z M471.368,234.317h-20.066v-1.197h20.066V234.317z    M445.376,236.514h31.75v6.273h-31.75V236.514z M443.201,223.085h35.77V225h-1.845v7.62h-31.75V225h-2.175V223.085z    M341.876,242.786h-97.75v-6.271h97.75V242.786z M244.126,233.12h4.703v2.895h-4.703V233.12z M341.876,236.015h-5.362v-2.895h5.362   V236.015z M309.995,234.817h26.018v1.197h-26.018V234.817z M336.014,234.317h-26.018v-1.197h26.018V234.317z M309.495,236.015   h-3.312v-2.895h3.312V236.015z M279.661,234.817h26.022v1.197h-26.022V234.817z M305.683,234.317h-26.022v-1.197h26.022V234.317z    M279.161,236.015h-3.312v-2.895h3.312V236.015z M249.329,234.817h26.019v1.197h-26.019V234.817z M275.349,234.317h-26.019v-1.197   h26.019V234.317z M242.12,223.085h101.101V225h-1.345v7.62h-97.75V225h-2.006V223.085z M237.425,243v0.286h108.393V243h36.596   v37.086h-3.359v39.38h3.359v31.61h-1.608v6h46.602v0.542h0.25v0.25h3.024v-0.25h0.25v-1.655h1.771v-0.25h0.25v-3.8h-0.25v-0.25   h-1.771v-1.406h1.771v-0.25h0.25v-38.112c10.05,0.531,19.718,4.555,26.816,11.233c7.73,7.28,11.988,16.999,11.988,27.367h0.022   v1.168h-1.773v0.25h-0.25v3.8h0.25v0.25h1.773v1.655h0.25v0.25h3.023v-0.25h0.25v-0.542h0.717v11.332h-0.806v0.25h-0.25v2.814   c-10.229,0.197-19.79,4.478-26.993,12.126c-7.267,7.724-11.435,18.451-11.435,29.43h0.25v0.25h38.178v2.774h0.25v0.25h0.806v0.473   H172.726V243H237.425z M382.296,280.586v38.38h-2.741v-38.38H382.296z M172.726,422.775h303.293v0.533h-0.806v0.25h-0.25v2.775   h-38.178v0.25h-0.25c0,10.979,4.168,21.706,11.435,29.43c7.203,7.648,16.764,11.929,26.993,12.126v2.814h0.25v0.25h0.806v4.433   h-75.173V589.8h-93.978v0.226h-95.897V589.8h-38.245V422.775z M306.868,600.191h-4.943v-2.895h4.943V600.191z M210.971,597.297   h3.27v2.895h-3.27V597.297z M240.759,598.494H214.74v-1.197h26.019V598.494z M214.74,598.994h26.019v1.197H214.74V598.994z    M241.259,597.297h3.312v2.895h-3.312V597.297z M271.093,598.494h-26.021v-1.197h26.021V598.494z M245.071,598.994h26.021v1.197   h-26.021V598.994z M271.593,597.297h3.312v2.895h-3.312V597.297z M301.425,598.494h-26.02v-1.197h26.02V598.494z M275.405,598.994   h26.02v1.197h-26.02V598.994z M306.868,596.797h-95.897v-6.271h95.897V596.797z M308.634,610.227H207.533V607.8h3.438v-7.108   h95.897v7.108h1.766V610.227z M458.571,610.227h-35.77V607.8h1.595v-7.108h32.274v7.108h1.9V610.227z M605.698,609.911h-67.935   V607.8h4.281v-7.424h59.08v7.424h4.573V609.911z M754.558,609.911h-67.935V607.8h3.375v-7.424h61.311v7.424h3.249V609.911z    M689.998,590.209h61.311v6.271h-61.311V590.209z M751.309,599.875h-10.597v-2.895h10.597V599.875z M717.636,596.981v1.197h-15.729   v-1.197H717.636z M701.907,598.678h15.729v1.197h-15.729V598.678z M718.136,596.981h4.733v2.895h-4.733V596.981z M740.212,598.178   h-16.843v-1.197h16.843V598.178z M723.369,598.678h16.843v1.197h-16.843V598.678z M689.998,596.981h11.409v2.895h-11.409V596.981z    M755.278,589.8v-0.09h-66.366v0.09h-77.227V477.539l21.543-21.543l0.898,0.898l0.177-0.177l0.177,0.177l1.989-1.99   c7.084,6.816,16.396,10.53,26.432,10.53c0.408,0,0.819-0.006,1.229-0.018c10.601-0.323,21.133-4.961,28.896-12.724l-0.177-0.177   l0.177-0.177l-26.996-26.996l1.962-1.962l-0.177-0.177l0.177-0.177l-0.898-0.898l5.054-5.053h118.997V589.8H755.278z    M812.126,381.496h-2.98v-1.605h-6.555v-32.269h6.555v-1.895h2.98V381.496z" id="n_id_67"/><path class="st0" d="M675.155,203.466h-1.5v0.5h1.75c0.138,0,0.25-0.112,0.25-0.25v-1.75h-0.5V203.466z" id="n_id_68"/><rect class="st0" height="0.5" id="n_id_69" width="3.532" x="655.462" y="203.466"/><rect class="st0" height="0.5" id="n_id_70" width="3.532" x="637.268" y="203.466"/><rect class="st0" height="0.5" id="n_id_71" width="3.532" x="643.332" y="203.466"/><rect class="st0" height="0.5" id="n_id_72" width="3.533" x="649.396" y="203.466"/><rect class="st0" height="0.5" id="n_id_73" width="3.532" x="661.526" y="203.466"/><rect class="st0" height="0.5" id="n_id_74" width="3.532" x="667.591" y="203.466"/><path class="st0" d="M632.735,203.716c0,0.138,0.112,0.25,0.25,0.25h1.75v-0.5h-1.5v-1.5h-0.5V203.716z" id="n_id_75"/><rect class="st0" height="3.585" id="n_id_76" width="0.5" x="632.735" y="195.797"/><rect class="st0" height="3.584" id="n_id_77" width="0.5" x="632.735" y="164.95"/><rect class="st0" height="3.585" id="n_id_78" width="0.5" x="632.735" y="171.119"/><rect class="st0" height="3.585" id="n_id_79" width="0.5" x="632.735" y="152.611"/><rect class="st0" height="3.585" id="n_id_80" width="0.5" x="632.735" y="158.78"/><rect class="st0" height="3.585" id="n_id_81" width="0.5" x="632.735" y="189.627"/><rect class="st0" height="3.584" id="n_id_82" width="0.5" x="632.735" y="183.458"/><rect class="st0" height="3.585" id="n_id_83" width="0.5" x="632.735" y="177.288"/><polygon class="st0" id="n_id_84" points="632.735,150.026 633.235,150.026 633.235,149.629 633.913,151.4 634.381,151.222 633.349,148.526    634.735,148.526 634.735,148.026 633.157,148.026 633.13,147.953 632.662,148.132 632.735,148.323  "/><rect class="st0" height="0.5" id="n_id_85" width="3.532" x="637.268" y="148.026"/><rect class="st0" height="0.5" id="n_id_86" width="3.532" x="643.332" y="148.026"/><rect class="st0" height="0.5" id="n_id_87" width="3.532" x="661.526" y="148.026"/><rect class="st0" height="0.5" id="n_id_88" width="3.533" x="655.461" y="148.026"/><rect class="st0" height="0.5" id="n_id_89" width="3.532" x="649.396" y="148.026"/><rect class="st0" height="0.5" id="n_id_90" width="3.532" x="667.591" y="148.026"/><path class="st0" d="M675.155,150.026h0.5v-1.75c0-0.138-0.112-0.25-0.25-0.25h-1.75v0.5h1.5V150.026z" id="n_id_91"/><rect class="st0" height="3.585" id="n_id_92" width="0.5" x="675.155" y="195.797"/><rect class="st0" height="3.584" id="n_id_93" width="0.5" x="675.155" y="183.458"/><rect class="st0" height="3.585" id="n_id_94" width="0.5" x="675.155" y="177.288"/><rect class="st0" height="3.585" id="n_id_95" width="0.5" x="675.155" y="189.627"/><rect class="st0" height="3.585" id="n_id_96" width="0.5" x="675.155" y="152.611"/><rect class="st0" height="3.585" id="n_id_97" width="0.5" x="675.155" y="171.119"/><rect class="st0" height="3.584" id="n_id_98" width="0.5" x="675.155" y="164.95"/><rect class="st0" height="3.585" id="n_id_99" width="0.5" x="675.155" y="158.78"/><rect class="st0" height="0.501" id="n_id_100" transform="matrix(-0.3574 0.934 -0.934 -0.3574 1072.788 -357.1104)" width="3.5" x="657.498" y="190.258"/><rect class="st0" height="0.501" id="n_id_101" transform="matrix(-0.3575 -0.9339 0.9339 -0.3575 699.2794 881.3278)" width="3.5" x="651.067" y="199.861"/><rect class="st0" height="3.499" id="n_id_102" transform="matrix(0.9341 0.357 -0.357 0.9341 115.1827 -220.543)" width="0.501" x="654.71" y="199.966"/><rect class="st0" height="3.5" id="n_id_103" transform="matrix(0.9342 0.3569 -0.3569 0.9342 98.3766 -230.6484)" width="0.501" x="674.005" y="149.531"/><rect class="st0" height="3.5" id="n_id_104" transform="matrix(-0.9342 0.3569 -0.3569 -0.9342 1327.9166 144.017)" width="0.501" x="650.422" y="192.758"/><rect class="st0" height="3.499" id="n_id_105" transform="matrix(0.9342 0.3569 -0.3569 0.9342 100.2352 -229.5144)" width="0.501" x="671.861" y="155.135"/><rect class="st0" height="0.501" id="n_id_106" transform="matrix(0.3574 -0.9339 0.9339 0.3574 258.9027 734.9086)" width="3.5" x="661.786" y="179.05"/><rect class="st0" height="3.499" id="n_id_107" transform="matrix(0.9341 0.3569 -0.3569 0.9341 109.5574 -223.8836)" width="0.501" x="661.142" y="183.155"/><rect class="st0" height="0.501" id="n_id_108" transform="matrix(-0.3574 0.9339 -0.9339 -0.3574 1065.8307 -385.9279)" width="3.5" x="663.93" y="173.446"/><rect class="st0" height="3.5" id="n_id_109" transform="matrix(0.9342 -0.3569 0.3569 0.9342 -17.278 239.3289)" width="0.501" x="639.703" y="164.738"/><rect class="st0" height="0.501" id="n_id_110" transform="matrix(0.3574 -0.934 0.934 0.3574 278.7747 730.1392)" width="3.5" x="668.218" y="162.238"/><rect class="st0" height="0.501" id="n_id_111" transform="matrix(0.3574 -0.9339 0.9339 0.3574 239.0693 739.7042)" width="3.5" x="655.355" y="195.861"/><rect class="st0" height="0.501" id="n_id_112" transform="matrix(0.3571 0.934 -0.934 0.3571 593.3521 -484.3195)" width="3.5" x="646.779" y="188.654"/><rect class="st0" height="0.501" id="n_id_113" transform="matrix(0.3575 0.9339 -0.9339 0.3575 553.4638 -493.8919)" width="3.5" x="633.915" y="155.03"/><rect class="st0" height="0.501" id="n_id_114" transform="matrix(0.3574 0.934 -0.934 0.3574 573.338 -489.1005)" width="3.5" x="640.347" y="171.842"/><rect class="st0" height="0.501" id="n_id_115" transform="matrix(0.3572 0.934 -0.934 0.3572 560.2495 -492.3142)" width="3.499" x="636.059" y="160.634"/><rect class="st0" height="3.5" id="n_id_116" transform="matrix(0.9342 0.3569 -0.3569 0.9342 103.9524 -227.2465)" width="0.501" x="667.574" y="166.342"/><rect class="st0" height="0.501" id="n_id_117" transform="matrix(-0.3574 -0.9339 0.9339 -0.3574 706.2249 852.5023)" width="3.5" x="644.635" y="183.05"/><rect class="st0" height="3.5" id="n_id_118" transform="matrix(-0.9342 0.3569 -0.3569 -0.9342 1309.4777 113.7954)" width="0.501" x="643.991" y="175.946"/><path class="st0" d="M721.266,203.466h-1.5v0.5h1.75c0.138,0,0.25-0.112,0.25-0.25v-1.75h-0.5V203.466z" id="n_id_119"/><rect class="st0" height="0.5" id="n_id_120" width="3.532" x="689.442" y="203.466"/><rect class="st0" height="0.5" id="n_id_121" width="3.532" x="713.701" y="203.466"/><rect class="st0" height="0.5" id="n_id_122" width="3.533" x="695.507" y="203.466"/><rect class="st0" height="0.5" id="n_id_123" width="3.532" x="701.572" y="203.466"/><rect class="st0" height="0.5" id="n_id_124" width="3.532" x="707.637" y="203.466"/><rect class="st0" height="0.5" id="n_id_125" width="3.532" x="683.378" y="203.466"/><path class="st0" d="M678.846,203.716c0,0.138,0.112,0.25,0.25,0.25h1.75v-0.5h-1.5v-1.5h-0.5V203.716z" id="n_id_126"/><rect class="st0" height="3.585" id="n_id_127" width="0.5" x="678.846" y="152.611"/><rect class="st0" height="3.585" id="n_id_128" width="0.5" x="678.846" y="177.288"/><rect class="st0" height="3.585" id="n_id_129" width="0.5" x="678.846" y="171.119"/><rect class="st0" height="3.584" id="n_id_130" width="0.5" x="678.846" y="164.95"/><rect class="st0" height="3.584" id="n_id_131" width="0.5" x="678.846" y="183.458"/><rect class="st0" height="3.585" id="n_id_132" width="0.5" x="678.846" y="189.627"/><rect class="st0" height="3.585" id="n_id_133" width="0.5" x="678.846" y="195.797"/><rect class="st0" height="3.585" id="n_id_134" width="0.5" x="678.846" y="158.78"/><polygon class="st0" id="n_id_135" points="678.846,150.026 679.346,150.026 679.346,149.629 680.023,151.4 680.491,151.222 679.46,148.526    680.846,148.526 680.846,148.026 679.269,148.026 679.24,147.953 678.772,148.132 678.846,148.323  "/><rect class="st0" height="0.5" id="n_id_136" width="3.532" x="707.637" y="148.026"/><rect class="st0" height="0.5" id="n_id_137" width="3.532" x="713.701" y="148.026"/><rect class="st0" height="0.5" id="n_id_138" width="3.533" x="701.571" y="148.026"/><rect class="st0" height="0.5" id="n_id_139" width="3.532" x="695.507" y="148.026"/><rect class="st0" height="0.5" id="n_id_140" width="3.532" x="683.378" y="148.026"/><rect class="st0" height="0.5" id="n_id_141" width="3.532" x="689.442" y="148.026"/><path class="st0" d="M721.266,150.026h0.5v-1.75c0-0.138-0.112-0.25-0.25-0.25h-1.75v0.5h1.5V150.026z" id="n_id_142"/><rect class="st0" height="3.584" id="n_id_143" width="0.5" x="721.266" y="183.458"/><rect class="st0" height="3.585" id="n_id_144" width="0.5" x="721.266" y="189.627"/><rect class="st0" height="3.585" id="n_id_145" width="0.5" x="721.266" y="152.611"/><rect class="st0" height="3.584" id="n_id_146" width="0.5" x="721.266" y="164.95"/><rect class="st0" height="3.585" id="n_id_147" width="0.5" x="721.266" y="158.78"/><rect class="st0" height="3.585" id="n_id_148" width="0.5" x="721.266" y="171.119"/><rect class="st0" height="3.585" id="n_id_149" width="0.5" x="721.266" y="177.288"/><rect class="st0" height="3.585" id="n_id_150" width="0.5" x="721.266" y="195.797"/><rect class="st0" height="3.5" id="n_id_151" transform="matrix(0.9341 -0.3569 0.3569 0.9341 -14.2358 255.8333)" width="0.501" x="685.813" y="164.738"/><rect class="st0" height="0.501" id="n_id_152" transform="matrix(0.3572 0.934 -0.934 0.3572 589.8889 -535.3824)" width="3.499" x="682.17" y="160.634"/><rect class="st0" height="0.501" id="n_id_153" transform="matrix(0.3574 0.9339 -0.9339 0.3574 583.1102 -536.9584)" width="3.5" x="680.026" y="155.03"/><rect class="st0" height="0.501" id="n_id_154" transform="matrix(0.3574 -0.9339 0.9339 0.3574 308.3898 773.1935)" width="3.5" x="714.328" y="162.238"/><rect class="st0" height="0.501" id="n_id_155" transform="matrix(0.3574 -0.9339 0.9339 0.3574 268.6976 782.7681)" width="3.5" x="701.465" y="195.861"/><rect class="st0" height="0.501" id="n_id_156" transform="matrix(0.3574 0.934 -0.934 0.3574 602.9685 -532.1653)" width="3.5" x="686.457" y="171.842"/><rect class="st0" height="0.501" id="n_id_157" transform="matrix(0.3574 -0.9339 0.9339 0.3574 288.5311 777.9725)" width="3.5" x="707.897" y="179.05"/><rect class="st0" height="3.5" id="n_id_158" transform="matrix(0.9342 0.3569 -0.3569 0.9342 106.9883 -243.701)" width="0.501" x="713.684" y="166.342"/><rect class="st0" height="0.501" id="n_id_159" transform="matrix(-0.3574 0.934 -0.934 -0.3574 1135.3624 -400.1868)" width="3.5" x="703.608" y="190.258"/><rect class="st0" height="3.499" id="n_id_160" transform="matrix(0.9342 0.3569 -0.3569 0.9342 112.5641 -240.2988)" width="0.501" x="707.252" y="183.155"/><rect class="st0" height="0.501" id="n_id_161" transform="matrix(-0.3574 0.9339 -0.9339 -0.3574 1128.4379 -428.9811)" width="3.5" x="710.04" y="173.446"/><rect class="st0" height="3.499" id="n_id_162" transform="matrix(0.9342 0.3569 -0.3569 0.9342 103.271 -245.9689)" width="0.501" x="717.972" y="155.135"/><rect class="st0" height="3.5" id="n_id_163" transform="matrix(0.9342 0.3569 -0.3569 0.9342 101.4124 -247.103)" width="0.501" x="720.116" y="149.531"/><rect class="st0" height="0.501" id="n_id_164" transform="matrix(0.3571 0.934 -0.934 0.3571 622.994 -527.3887)" width="3.5" x="692.889" y="188.654"/><rect class="st0" height="3.499" id="n_id_165" transform="matrix(0.9341 0.357 -0.357 0.9341 118.2217 -237.0055)" width="0.501" x="700.82" y="199.966"/><rect class="st0" height="3.5" id="n_id_166" transform="matrix(-0.9342 0.3569 -0.3569 -0.9342 1398.6624 97.341)" width="0.501" x="690.101" y="175.946"/><rect class="st0" height="0.501" id="n_id_167" transform="matrix(-0.3574 -0.9339 0.9339 -0.3574 768.8351 895.5648)" width="3.5" x="690.745" y="183.05"/><rect class="st0" height="3.5" id="n_id_168" transform="matrix(-0.9341 0.3569 -0.3569 -0.9341 1417.0968 127.5111)" width="0.501" x="696.533" y="192.758"/><rect class="st0" height="0.501" id="n_id_169" transform="matrix(-0.3575 -0.9339 0.9339 -0.3575 761.8722 924.3916)" width="3.5" x="697.177" y="199.861"/></g>
</svg>