<svg xmlns="http://www.w3.org/2000/svg" enable-background="new 0 0 1500 1882.834" height="1882.834px" id="n_id_0" version="1.1" viewBox="0 0 1500 1882.834" width="1500px" x="0px" y="0px" xml:space="preserve">
  <g id="fill">
	</g>
  <g id="walls">
	<path d="M1315.689,45.435h-248.559v436.008h12.748c1.144,0,2.067,0.922,2.067,2.066v11.945c0,1.141-0.924,2.066-2.067,2.066   H944.118v46.289c0,1.14-0.929,2.066-2.066,2.066h-14.819c-1.139,0-2.066-0.927-2.066-2.066v-83.847c0-1.14,0.928-2.065,2.066-2.065   h14.819c1.138,0,2.066,0.926,2.066,2.065v21.479h103.718V107.046H944.118v39.924c0,1.143-0.929,2.068-2.066,2.068h-14.819   c-1.139,0-2.066-0.926-2.066-2.068V45.435H667.191c-1.141,0-2.068-0.926-2.068-2.068V22.459c0-1.142,0.928-2.068,2.068-2.068   h691.569c1.144,0,2.067,0.927,2.067,2.068v1702.794c0,1.141-0.924,2.064-2.067,2.064h-226.848c-1.143,0-2.068-0.924-2.068-2.064   v-20.902c0-1.143,0.926-2.066,2.068-2.066h209.619V497.521H1200.83c-1.143,0-2.068-0.926-2.068-2.066v-11.945   c0-1.145,0.926-2.066,2.068-2.066h124.217V46.027L1315.689,45.435z" id="n_id_2"/><path d="M693.035,1702.284H472.734c-1.142,0-2.067,0.924-2.067,2.066v20.902c0,1.141,0.926,2.064,2.067,2.064h220.301   c1.141,0,2.068-0.924,2.068-2.064v-20.902C695.104,1703.208,694.176,1702.284,693.035,1702.284z" id="n_id_3"/><path d="M1022.453,1702.284H802.152c-1.142,0-2.068,0.924-2.068,2.066v20.902c0,1.141,0.927,2.064,2.068,2.064h220.301   c1.139,0,2.064-0.924,2.064-2.064v-20.902C1024.518,1703.208,1023.592,1702.284,1022.453,1702.284z" id="n_id_4"/><path d="M366.492,1702.284H156.528V705.069h785.523c1.138,0,2.066-0.926,2.066-2.068v-29.976c0-1.142-0.929-2.068-2.066-2.068   h-14.819c-1.139,0-2.066,0.927-2.066,2.068v12.753H156.528V45.435h252.229c1.143,0,2.068-0.926,2.068-2.068V22.459   c0-1.142-0.926-2.068-2.068-2.068h-269.46c-1.143,0-2.068,0.927-2.068,2.068v1702.794c0,1.141,0.926,2.064,2.068,2.064h227.194   c1.139,0,2.064-0.924,2.064-2.064v-20.902C368.557,1703.208,367.631,1702.284,366.492,1702.284z" id="n_id_5"/></g>
  <g id="lines">
	
		<line fill="none" id="n_id_6" stroke="#000000" stroke-linecap="round" stroke-linejoin="round" stroke-miterlimit="10" stroke-width="0.8" x1="567.952" x2="567.952" y1="1054.132" y2="883.907"/><line fill="none" id="n_id_7" stroke="#000000" stroke-linecap="round" stroke-linejoin="round" stroke-miterlimit="10" stroke-width="0.8" x1="1240.226" x2="1240.226" y1="498.324" y2="687.845"/><path d="   M1147.536,892.521" fill="none" id="n_id_8" stroke="#000000" stroke-linecap="round" stroke-linejoin="round" stroke-miterlimit="10" stroke-width="0.8"/><polyline fill="none" id="n_id_9" points="   951.468,1704.351 951.468,894.591 1162.695,894.591 1162.695,1527.927 1147.536,1527.927 1147.536,909.747 966.633,909.747    966.633,1704.351  " stroke="#000000" stroke-linecap="round" stroke-linejoin="round" stroke-miterlimit="10" stroke-width="0.8"/><line fill="none" id="n_id_10" stroke="#000000" stroke-linecap="round" stroke-linejoin="round" stroke-miterlimit="10" stroke-width="0.8" x1="1203.488" x2="1203.488" y1="703.001" y2="687.845"/><line fill="none" id="n_id_11" stroke="#000000" stroke-linecap="round" stroke-linejoin="round" stroke-miterlimit="10" stroke-width="0.8" x1="1162.695" x2="1343.599" y1="915.492" y2="915.492"/><line fill="none" id="n_id_12" stroke="#000000" stroke-linecap="round" stroke-linejoin="round" stroke-miterlimit="10" stroke-width="0.8" x1="1162.695" x2="1343.599" y1="958.565" y2="958.565"/><line fill="none" id="n_id_13" stroke="#000000" stroke-linecap="round" stroke-linejoin="round" stroke-miterlimit="10" stroke-width="0.8" x1="1162.695" x2="1343.599" y1="1001.638" y2="1001.638"/><line fill="none" id="n_id_14" stroke="#000000" stroke-linecap="round" stroke-linejoin="round" stroke-miterlimit="10" stroke-width="0.8" x1="1162.695" x2="1343.599" y1="1044.711" y2="1044.711"/><line fill="none" id="n_id_15" stroke="#000000" stroke-linecap="round" stroke-linejoin="round" stroke-miterlimit="10" stroke-width="0.8" x1="1162.695" x2="1343.599" y1="1087.782" y2="1087.782"/><line fill="none" id="n_id_16" stroke="#000000" stroke-linecap="round" stroke-linejoin="round" stroke-miterlimit="10" stroke-width="0.8" x1="1162.695" x2="1343.599" y1="1130.854" y2="1130.854"/><line fill="none" id="n_id_17" stroke="#000000" stroke-linecap="round" stroke-linejoin="round" stroke-miterlimit="10" stroke-width="0.8" x1="1162.695" x2="1343.599" y1="1173.927" y2="1173.927"/><line fill="none" id="n_id_18" stroke="#000000" stroke-linecap="round" stroke-linejoin="round" stroke-miterlimit="10" stroke-width="0.8" x1="1162.695" x2="1343.599" y1="1216.999" y2="1216.999"/><line fill="none" id="n_id_19" stroke="#000000" stroke-linecap="round" stroke-linejoin="round" stroke-miterlimit="10" stroke-width="0.8" x1="1162.695" x2="1343.599" y1="1260.072" y2="1260.072"/><line fill="none" id="n_id_20" stroke="#000000" stroke-linecap="round" stroke-linejoin="round" stroke-miterlimit="10" stroke-width="0.8" x1="1162.695" x2="1343.599" y1="1303.144" y2="1303.144"/><line fill="none" id="n_id_21" stroke="#000000" stroke-linecap="round" stroke-linejoin="round" stroke-miterlimit="10" stroke-width="0.8" x1="1162.695" x2="1343.599" y1="1346.215" y2="1346.215"/><line fill="none" id="n_id_22" stroke="#000000" stroke-linecap="round" stroke-linejoin="round" stroke-miterlimit="10" stroke-width="0.8" x1="1162.695" x2="1343.599" y1="1389.289" y2="1389.289"/><line fill="none" id="n_id_23" stroke="#000000" stroke-linecap="round" stroke-linejoin="round" stroke-miterlimit="10" stroke-width="0.8" x1="1162.695" x2="1343.599" y1="1432.36" y2="1432.36"/><line fill="none" id="n_id_24" stroke="#000000" stroke-linecap="round" stroke-linejoin="round" stroke-miterlimit="10" stroke-width="0.8" x1="1162.695" x2="1343.599" y1="1475.434" y2="1475.434"/><line fill="none" id="n_id_25" stroke="#000000" stroke-linecap="round" stroke-linejoin="round" stroke-miterlimit="10" stroke-width="0.8" x1="1162.695" x2="1343.599" y1="1518.505" y2="1518.505"/><line fill="none" id="n_id_26" stroke="#000000" stroke-linecap="round" stroke-linejoin="round" stroke-miterlimit="10" stroke-width="0.8" x1="1162.695" x2="1162.695" y1="1527.927" y2="1704.351"/><line fill="none" id="n_id_27" stroke="#000000" stroke-linecap="round" stroke-linejoin="round" stroke-miterlimit="10" stroke-width="0.8" x1="567.952" x2="154.459" y1="883.907" y2="883.907"/><line fill="none" id="n_id_28" stroke="#000000" stroke-dasharray="6.697,2.87" stroke-linecap="round" stroke-linejoin="round" stroke-miterlimit="10" stroke-width="0.8" x1="567.952" x2="154.459" y1="1002.445" y2="1002.445"/><line fill="none" id="n_id_29" stroke="#000000" stroke-linecap="round" stroke-linejoin="round" stroke-miterlimit="10" stroke-width="0.8" x1="567.952" x2="154.459" y1="1054.132" y2="1054.132"/><polyline fill="none" id="n_id_30" points="   1131.913,1732.604 1022.453,1732.604 1022.453,1704.351 1131.913,1704.351 1131.913,1732.604  " stroke="#000000" stroke-linecap="round" stroke-linejoin="round" stroke-miterlimit="10" stroke-width="0.8"/><line fill="none" id="n_id_31" stroke="#000000" stroke-linecap="round" stroke-linejoin="round" stroke-miterlimit="10" stroke-width="0.8" x1="1022.453" x2="1131.913" y1="1711.93" y2="1711.93"/><polyline fill="none" id="n_id_32" points="   802.152,1732.604 693.035,1732.604 693.035,1704.351 802.152,1704.351 802.152,1732.604  " stroke="#000000" stroke-linecap="round" stroke-linejoin="round" stroke-miterlimit="10" stroke-width="0.8"/><line fill="none" id="n_id_33" stroke="#000000" stroke-linecap="round" stroke-linejoin="round" stroke-miterlimit="10" stroke-width="0.8" x1="693.035" x2="802.152" y1="1711.93" y2="1711.93"/><polyline fill="none" id="n_id_34" points="   472.734,1732.604 366.492,1732.604 366.492,1704.351 472.734,1704.351 472.734,1732.604  " stroke="#000000" stroke-linecap="round" stroke-linejoin="round" stroke-miterlimit="10" stroke-width="0.8"/><line fill="none" id="n_id_35" stroke="#000000" stroke-linecap="round" stroke-linejoin="round" stroke-miterlimit="10" stroke-width="0.8" x1="366.492" x2="472.734" y1="1711.93" y2="1711.93"/><polyline fill="none" id="n_id_36" points="   1324.019,340.593 1220.643,340.593 1220.643,484.469 1324.019,484.469  " stroke="#000000" stroke-linecap="round" stroke-linejoin="round" stroke-miterlimit="10" stroke-width="0.8"/><polyline fill="none" id="n_id_37" points="   408.758,18.325 667.191,18.325 667.191,46.238 408.758,46.238 408.758,18.325  " stroke="#000000" stroke-linecap="round" stroke-linejoin="round" stroke-miterlimit="10" stroke-width="0.8"/><line fill="none" id="n_id_38" stroke="#000000" stroke-linecap="round" stroke-linejoin="round" stroke-miterlimit="10" stroke-width="0.8" x1="667.191" x2="408.758" y1="38.657" y2="38.657"/><line fill="none" id="n_id_39" stroke="#000000" stroke-linecap="round" stroke-linejoin="round" stroke-miterlimit="10" stroke-width="0.8" x1="1203.488" x2="1343.599" y1="703.001" y2="703.001"/><line fill="none" id="n_id_40" stroke="#000000" stroke-linecap="round" stroke-linejoin="round" stroke-miterlimit="10" stroke-width="0.8" x1="1203.488" x2="1343.599" y1="687.845" y2="687.845"/><polyline fill="none" id="n_id_41" points="   939.58,250.91 939.58,405.972 934.412,405.972 934.412,250.91 939.58,250.91  " stroke="#000000" stroke-linecap="round" stroke-linejoin="round" stroke-miterlimit="10" stroke-width="0.8"/><polyline fill="none" id="n_id_42" points="   934.412,147.537 934.412,302.599 928.897,302.599 928.897,147.537 934.412,147.537  " stroke="#000000" stroke-linecap="round" stroke-linejoin="round" stroke-miterlimit="10" stroke-width="0.8"/><polyline fill="none" id="n_id_43" points="   930.105,673.025 930.105,666.479 800.887,666.479 800.887,673.025 930.105,673.025  " stroke="#000000" stroke-linecap="round" stroke-linejoin="round" stroke-miterlimit="10" stroke-width="0.8"/><path d="   M929.924,543.469c-34.318,0-67.228,13.63-91.491,37.897" fill="none" id="n_id_44" stroke="#000000" stroke-linecap="round" stroke-linejoin="round" stroke-miterlimit="10" stroke-width="0.8"/><line fill="none" id="n_id_45" stroke="#000000" stroke-linecap="round" stroke-linejoin="round" stroke-miterlimit="10" stroke-width="0.8" x1="838.445" x2="838.445" y1="581.366" y2="581.366"/><path d="   M838.433,581.366c-24.259,24.268-37.889,57.173-37.889,91.485" fill="none" id="n_id_46" stroke="#000000" stroke-linecap="round" stroke-linejoin="round" stroke-miterlimit="10" stroke-width="0.8"/><path d="   M838.445,581.366" fill="none" id="n_id_47" stroke="#000000" stroke-linecap="round" stroke-linejoin="round" stroke-miterlimit="10" stroke-width="0.8"/><path d="   M838.445,581.366" fill="none" id="n_id_48" stroke="#000000" stroke-linecap="round" stroke-linejoin="round" stroke-miterlimit="10" stroke-width="0.8"/><path d="   M838.445,581.366" fill="none" id="n_id_49" stroke="#000000" stroke-linecap="round" stroke-linejoin="round" stroke-miterlimit="10" stroke-width="0.8"/><polyline fill="none" id="n_id_50" points="   1079.879,483.509 1086.428,483.509 1086.428,362.905 1079.879,362.905 1079.879,483.509  " stroke="#000000" stroke-linecap="round" stroke-linejoin="round" stroke-miterlimit="10" stroke-width="0.8"/><path d="   M1200.482,483.323c0-32.029-12.728-62.746-35.379-85.398" fill="none" id="n_id_51" stroke="#000000" stroke-linecap="round" stroke-linejoin="round" stroke-miterlimit="10" stroke-width="0.8"/><line fill="none" id="n_id_52" stroke="#000000" stroke-linecap="round" stroke-linejoin="round" stroke-miterlimit="10" stroke-width="0.8" x1="1165.342" x2="1165.342" y1="398.051" y2="398.051"/><path d="   M1165.104,397.925c-22.648-22.643-53.367-35.363-85.395-35.363" fill="none" id="n_id_53" stroke="#000000" stroke-linecap="round" stroke-linejoin="round" stroke-miterlimit="10" stroke-width="0.8"/><path d="   M1165.342,398.051" fill="none" id="n_id_54" stroke="#000000" stroke-linecap="round" stroke-linejoin="round" stroke-miterlimit="10" stroke-width="0.8"/><path d="   M1165.342,398.051" fill="none" id="n_id_55" stroke="#000000" stroke-linecap="round" stroke-linejoin="round" stroke-miterlimit="10" stroke-width="0.8"/><path d="   M1165.342,398.051" fill="none" id="n_id_56" stroke="#000000" stroke-linecap="round" stroke-linejoin="round" stroke-miterlimit="10" stroke-width="0.8"/><line fill="none" id="n_id_57" stroke="#000000" stroke-linecap="round" stroke-linejoin="round" stroke-miterlimit="10" stroke-width="0.8" x1="985.123" x2="985.123" y1="483.509" y2="102.799"/><line fill="none" id="n_id_58" stroke="#000000" stroke-dasharray="6.6966,2.87" stroke-linecap="round" stroke-linejoin="round" stroke-miterlimit="10" stroke-width="0.8" x1="999.479" x2="999.479" y1="483.509" y2="102.799"/><g id="n_id_59">
		<g id="n_id_60">
			<polyline fill="none" id="n_id_61" points="     1164.431,1621.038 1252.962,1621.038 1252.962,915.492    " stroke="#000000" stroke-linecap="round" stroke-linejoin="round" stroke-width="0.8"/><g id="n_id_62">
				<polygon id="n_id_63" points="1169.732,1627.582 1170.823,1626.41 1165.045,1621.04 1170.823,1615.668 1169.732,1614.496 1162.695,1621.04           "/></g></g></g><circle cx="1250.389" cy="915.492" id="n_id_64" r="7.072"/><g id="n_id_65">
		
			<path d="    M1288.928,240.071c-5.452,2.72-10.48,4.94-16.588,5.551c-6.02,0.595-11.006,0.039-16.838-1.419" fill="none" id="n_id_66" stroke="#231F20" stroke-linecap="round" stroke-linejoin="round" stroke-miterlimit="10" stroke-width="0.8"/><path d="    M1216.91,302.784c-4.768-2.983-8.495-5.885-11.52-10.706c-3.189-5.117-4.771-9.553-5.709-15.487" fill="none" id="n_id_67" stroke="#231F20" stroke-linecap="round" stroke-linejoin="round" stroke-miterlimit="10" stroke-width="0.8"/><path d="    M1199.682,276.249c0.908-5.766,2.237-10.426,5.515-15.333c3.2-4.797,7.003-7.958,11.714-11.198" fill="none" id="n_id_68" stroke="#231F20" stroke-linecap="round" stroke-linejoin="round" stroke-miterlimit="10" stroke-width="0.8"/><line fill="none" id="n_id_69" stroke="#231F20" stroke-linecap="round" stroke-linejoin="round" stroke-miterlimit="10" stroke-width="0.8" x1="1288.928" x2="1285.484" y1="311.05" y2="276.249"/><path d="    M1295.473,308.986c-2.798-11.211-4.912-21.996-6.545-33.425" fill="none" id="n_id_70" stroke="#231F20" stroke-linecap="round" stroke-linejoin="round" stroke-miterlimit="10" stroke-width="0.8"/><path d="    M1255.502,308.298c5.664-1.135,11.061-2.135,16.838-1.268c6.052,0.907,11.143,3.021,16.588,5.741" fill="none" id="n_id_71" stroke="#231F20" stroke-linecap="round" stroke-linejoin="round" stroke-miterlimit="10" stroke-width="0.8"/><path d="    M1318.91,303.467c-1.891,10.333-10.521,15.641-20.678,13.78" fill="none" id="n_id_72" stroke="#231F20" stroke-linecap="round" stroke-linejoin="round" stroke-miterlimit="10" stroke-width="0.8"/><path d="    M1295.473,308.986c2.675,2.671,8.291,2.664,11.941,1.55c4.711-1.456,7.846-3.776,11.496-7.069v-54.093    c-3.112-3.111-6.035-5.663-10.342-6.89c-4.476-1.286-8.248-0.905-12.753,0" fill="none" id="n_id_73" stroke="#231F20" stroke-linecap="round" stroke-linejoin="round" stroke-miterlimit="10" stroke-width="0.8"/><line fill="none" id="n_id_74" stroke="#231F20" stroke-linecap="round" stroke-linejoin="round" stroke-miterlimit="10" stroke-width="0.8" x1="1298.232" x2="1288.928" y1="317.247" y2="312.771"/><line fill="none" id="n_id_75" stroke="#231F20" stroke-linecap="round" stroke-linejoin="round" stroke-miterlimit="10" stroke-width="0.8" x1="1290.307" x2="1295.815" y1="312.081" y2="310.364"/><path d="    M1290.307,312.081c-0.867,0.221-1.32-0.135-1.379-1.031" fill="none" id="n_id_76" stroke="#231F20" stroke-linecap="round" stroke-linejoin="round" stroke-miterlimit="10" stroke-width="0.8"/><path d="    M1271.008,302.435c-8.754,4.206-17.002,7.241-26.881,7.241c-9.881,0-18.309-2.966-27.217-6.892" fill="none" id="n_id_77" stroke="#231F20" stroke-linecap="round" stroke-linejoin="round" stroke-miterlimit="10" stroke-width="0.8"/><path d="    M1271.008,250.065c5.441,4.441,8.308,8.861,9.307,15.842v21.022c-1.06,6.859-3.674,11.405-9.307,15.505" fill="none" id="n_id_78" stroke="#231F20" stroke-linecap="round" stroke-linejoin="round" stroke-miterlimit="10" stroke-width="0.8"/><path d="    M1288.928,240.071c5.727-2.974,11.139-7.052,17.823-4.615c6.889,2.509,10.932,6.604,12.159,13.918" fill="none" id="n_id_79" stroke="#231F20" stroke-linecap="round" stroke-linejoin="round" stroke-miterlimit="10" stroke-width="0.8"/><line fill="none" id="n_id_80" stroke="#231F20" stroke-linecap="round" stroke-linejoin="round" stroke-miterlimit="10" stroke-width="0.8" x1="1285.484" x2="1288.928" y1="276.249" y2="241.443"/><path d="    M1288.928,275.562c1.875-11.23,4.135-22.037,6.888-33.077" fill="none" id="n_id_81" stroke="#231F20" stroke-linecap="round" stroke-linejoin="round" stroke-miterlimit="10" stroke-width="0.8"/><line fill="none" id="n_id_82" stroke="#231F20" stroke-linecap="round" stroke-linejoin="round" stroke-miterlimit="10" stroke-width="0.8" x1="1290.307" x2="1295.815" y1="240.412" y2="242.484"/><path d="    M1288.928,241.443c0.215-0.641,0.685-0.979,1.379-1.031" fill="none" id="n_id_83" stroke="#231F20" stroke-linecap="round" stroke-linejoin="round" stroke-miterlimit="10" stroke-width="0.8"/><path d="    M1216.91,249.718c4.402-1.941,8.419-3.746,13.092-4.831c4.67-1.07,9.281-1.543,14.049-2.057c4.098-0.44,9.143,0.96,13.123,2.038    c4.881,1.31,9.199,3.153,13.834,5.197" fill="none" id="n_id_84" stroke="#231F20" stroke-linecap="round" stroke-linejoin="round" stroke-miterlimit="10" stroke-width="0.8"/><path d="    M1221.734,258.68c7.117-3.054,14.184-5.491,22.053-5.526c7.961-0.02,14.928,2.658,22.057,5.866" fill="none" id="n_id_85" stroke="#231F20" stroke-linecap="round" stroke-linejoin="round" stroke-miterlimit="10" stroke-width="0.8"/><path d="    M1265.844,293.483c-7.23,3.249-14.021,5.694-22.057,5.845c-8.071,0.164-14.752-2.377-22.053-5.509" fill="none" id="n_id_86" stroke="#231F20" stroke-linecap="round" stroke-linejoin="round" stroke-miterlimit="10" stroke-width="0.8"/><polyline fill="none" id="n_id_87" points="    1269.973,276.249 1269.973,265.907 1269.973,270.732   " stroke="#231F20" stroke-linecap="round" stroke-linejoin="round" stroke-miterlimit="10" stroke-width="0.8"/><path d="    M1275.834,268.325c-0.311,1.431-0.983,2.109-2.411,2.407" fill="none" id="n_id_88" stroke="#231F20" stroke-linecap="round" stroke-linejoin="round" stroke-miterlimit="10" stroke-width="0.8"/><path d="    M1275.834,284.864c-0.266,1.213-1.246,1.843-2.411,2.065" fill="none" id="n_id_89" stroke="#231F20" stroke-linecap="round" stroke-linejoin="round" stroke-miterlimit="10" stroke-width="0.8"/><line fill="none" id="n_id_90" stroke="#231F20" stroke-linecap="round" stroke-linejoin="round" stroke-miterlimit="10" stroke-width="0.8" x1="1269.973" x2="1269.973" y1="286.93" y2="276.249"/><path d="    M1269.973,282.11c0,4.88-0.243,8.116-4.129,11.373" fill="none" id="n_id_91" stroke="#231F20" stroke-linecap="round" stroke-linejoin="round" stroke-miterlimit="10" stroke-width="0.8"/><line fill="none" id="n_id_92" stroke="#231F20" stroke-linecap="round" stroke-linejoin="round" stroke-miterlimit="10" stroke-width="0.8" x1="1269.973" x2="1273.423" y1="286.93" y2="286.93"/><path d="    M1269.973,282.11c2.23,0,5.917-0.485,5.861,2.754" fill="none" id="n_id_93" stroke="#231F20" stroke-linecap="round" stroke-linejoin="round" stroke-miterlimit="10" stroke-width="0.8"/><line fill="none" id="n_id_94" stroke="#231F20" stroke-linecap="round" stroke-linejoin="round" stroke-miterlimit="10" stroke-width="0.8" x1="1273.423" x2="1269.973" y1="270.732" y2="270.732"/><path d="    M1265.844,259.02c2.379,1.985,3.331,3.681,4.078,6.687c0.32,1.278,5.651-1.03,5.912,2.619" fill="none" id="n_id_95" stroke="#231F20" stroke-linecap="round" stroke-linejoin="round" stroke-miterlimit="10" stroke-width="0.8"/><path d="    M1211.053,276.249c0.498-3.734,0.979-6.751,3.099-9.994c1.991-3.05,4.835-5.288,7.583-7.575" fill="none" id="n_id_96" stroke="#231F20" stroke-linecap="round" stroke-linejoin="round" stroke-miterlimit="10" stroke-width="0.8"/><path d="    M1221.734,293.819c-6.115-4.58-10.309-9.639-10.682-17.57" fill="none" id="n_id_97" stroke="#231F20" stroke-linecap="round" stroke-linejoin="round" stroke-miterlimit="10" stroke-width="0.8"/><line fill="none" id="n_id_98" stroke="#231F20" stroke-linecap="round" stroke-linejoin="round" stroke-miterlimit="10" stroke-width="0.8" x1="1199.682" x2="1199.682" y1="276.249" y2="276.591"/></g><path d="   M1302.543,390.53c-8.146-14.266-25.69-21.955-41.184-14.211c-14.396,7.202-21.961,24.256-18.085,39.882   c4.036,16.254,18.902,27.979,35.91,25.709c8.196-1.095,15.126-5.895,20.304-12.113c2.207-2.655,3.055-4.595,3.055-7.897   c0-5.898,0-11.793,0-17.693C1302.543,399.645,1302.543,395.087,1302.543,390.53" fill="none" id="n_id_99" stroke="#000000" stroke-linecap="round" stroke-linejoin="round" stroke-miterlimit="10" stroke-width="0.8"/><path d="   M1314.578,408.254c0,23.393-17.951,42.356-40.09,42.356c-22.144,0-40.093-18.964-40.093-42.356   c0-23.399,17.949-42.362,40.093-42.362C1296.627,365.892,1314.578,384.854,1314.578,408.254z" fill="none" id="n_id_100" stroke="#000000" stroke-linecap="round" stroke-linejoin="round" stroke-miterlimit="10" stroke-width="0.8"/><path d="   M1313.053,187.247H1075.67c-3.681,0-4.137-4.687-4.137-4.687V57.544c0-4.777,4.137-4.693,4.137-4.693h237.383   c0,0,4.135,0.247,4.135,4.69v125.02C1317.188,182.561,1317.121,187.247,1313.053,187.247z" fill="none" id="n_id_101" stroke="#000000" stroke-linecap="round" stroke-linejoin="round" stroke-miterlimit="10" stroke-width="0.8"/><line fill="none" id="n_id_102" stroke="#000000" stroke-linecap="round" stroke-linejoin="round" stroke-miterlimit="10" stroke-width="0.8" x1="1189.68" x2="1075.67" y1="114.94" y2="57.544"/><line fill="none" id="n_id_103" stroke="#000000" stroke-linecap="round" stroke-linejoin="round" stroke-miterlimit="10" stroke-width="0.8" x1="1200.459" x2="1313.053" y1="115.552" y2="57.544"/><line fill="none" id="n_id_104" stroke="#000000" stroke-linecap="round" stroke-linejoin="round" stroke-miterlimit="10" stroke-width="0.8" x1="1313.053" x2="1199.379" y1="182.561" y2="125.319"/><line fill="none" id="n_id_105" stroke="#000000" stroke-linecap="round" stroke-linejoin="round" stroke-miterlimit="10" stroke-width="0.8" x1="1075.67" x2="1189.858" y1="182.561" y2="124.914"/><line fill="none" id="n_id_106" stroke="#000000" stroke-linecap="round" stroke-linejoin="round" stroke-miterlimit="10" stroke-width="0.8" x1="1059.225" x2="1329.775" y1="201.62" y2="201.62"/><path d="   M1194.912,126.792c-3.844,0-6.96-3.114-6.96-6.956c0-3.847,3.116-6.961,6.96-6.961c3.843,0,6.957,3.114,6.957,6.961   C1201.869,123.678,1198.755,126.792,1194.912,126.792z" fill="none" id="n_id_107" stroke="#000000" stroke-linecap="round" stroke-linejoin="round" stroke-miterlimit="10" stroke-width="0.8"/></g>
  <g id="Text">
	<g id="n_id_109">
		<path d="M950.783,379.053v-2.47l16.741-5.743l-16.799-5.514v-1.867l16.799-5.514l-16.741-5.743v-2.384l20.245,7.18v1.924    l-16.312,5.514l16.312,5.542v1.896L950.783,379.053z" id="n_id_110"/><path d="M950.64,340.864v-2.125l20.245-9.161v2.44l-5.312,2.355v10.941l5.312,2.383v2.326L950.64,340.864z M963.533,335.264    l-10.252,4.566l10.252,4.595V335.264z" id="n_id_111"/><path d="M950.783,325.617v-8.644c0-2.47,0.746-4.451,2.01-5.715c0.977-0.977,2.384-1.551,3.963-1.551h0.058    c3.331,0,5.284,2.297,5.858,5.456l8.213-6.174v2.785l-7.811,5.829v0.058v5.687h7.811v2.269H950.783z M961.035,317.174    c0-3.015-1.551-5.169-4.136-5.169h-0.058c-2.47,0-3.963,1.896-3.963,5.141v6.203h8.156V317.174z" id="n_id_112"/><path d="M950.783,304.856v-6.979c0-6.317,4.336-10.683,9.993-10.683h0.058c5.657,0,10.051,4.365,10.051,10.683v6.979H950.783z     M968.788,297.878c0-5.083-3.445-8.328-7.896-8.328h-0.058c-4.451,0-7.955,3.245-7.955,8.328v4.71h15.909V297.878z" id="n_id_113"/><path d="M950.783,282.401v-8.645c0-2.469,0.746-4.45,2.01-5.714c0.977-0.977,2.384-1.551,3.963-1.551h0.058    c3.331,0,5.284,2.297,5.858,5.456l8.213-6.174v2.785l-7.811,5.829v0.058v5.687h7.811v2.269H950.783z M961.035,273.958    c0-3.015-1.551-5.169-4.136-5.169h-0.058c-2.47,0-3.963,1.896-3.963,5.141v6.203h8.156V273.958z" id="n_id_114"/><path d="M960.892,262.53h-0.058c-5.543,0-10.396-4.164-10.396-10.28c0-6.117,4.796-10.224,10.338-10.224    c0.028-0.028,0.028-0.028,0.058,0c5.542,0,10.396,4.164,10.396,10.281C971.229,258.424,966.434,262.53,960.892,262.53z     M960.892,244.382h-0.058c-4.566,0-8.3,3.331-8.3,7.926s3.676,7.868,8.242,7.868h0.058c4.565,0,8.299-3.331,8.299-7.926    S965.457,244.382,960.892,244.382z" id="n_id_115"/><path d="M950.783,237.233v-8.558c0-2.298,0.66-4.106,1.78-5.256c0.861-0.832,1.924-1.292,3.216-1.292h0.058    c2.613,0,3.963,1.608,4.652,3.188c0.718-2.384,2.097-4.308,4.854-4.308h0.057c3.446,0,5.485,2.9,5.485,7.294v8.932H950.783z     M959.742,229.049c0-2.729-1.234-4.623-3.589-4.623h-0.058c-1.981,0-3.274,1.579-3.274,4.451v6.116h6.921V229.049z     M968.846,228.245c0-3.044-1.35-4.939-3.59-4.939h-0.057c-2.183,0-3.446,1.838-3.446,5.341v6.347h7.093V228.245z" id="n_id_116"/><path d="M950.783,216.502v-14.531h2.067v12.263h6.863v-10.971h2.067v10.971h7.036v-12.406h2.067v14.675H950.783z" id="n_id_117"/></g><g id="n_id_118">
		<path d="M1284.499,629.739v-2.269h18.005v-11.314h2.097v13.583H1284.499z" id="n_id_119"/><path d="M1284.499,611.764v-2.269h20.102v2.269H1284.499z" id="n_id_120"/><path d="M1284.499,603.609v-2.125l16.11-12.664h-16.11v-2.212h20.102v1.81l-16.483,12.979h16.483v2.212H1284.499z" id="n_id_121"/><path d="M1284.499,580.925v-14.531h2.067v12.263h6.863v-10.97h2.067v10.97h7.036V566.25h2.067v14.675H1284.499z" id="n_id_122"/><path d="M1284.499,561.686v-2.125l16.11-12.664h-16.11v-2.212h20.102v1.81l-16.483,12.979h16.483v2.212H1284.499z" id="n_id_123"/></g><g id="n_id_124">
		<path d="M1017.046,1232.194v-0.058c0-5.543,4.164-10.396,10.28-10.396c6.117,0,10.224,4.796,10.224,10.338    c0.028,0.028,0.028,0.028,0,0.058c0,5.542-4.164,10.396-10.281,10.396C1021.152,1242.532,1017.046,1237.736,1017.046,1232.194z     M1035.194,1232.194v-0.058c0-4.566-3.331-8.3-7.926-8.3s-7.868,3.676-7.868,8.242v0.058c0,4.565,3.331,8.299,7.926,8.299    S1035.194,1236.76,1035.194,1232.194z" id="n_id_125"/><path d="M1042.343,1222.086h7.524c4.537,0,7.523,2.412,7.523,6.375v0.058c0,4.336-3.618,6.576-7.897,6.576h-4.882v7.093h-2.269    V1222.086z M1049.58,1233.026c3.331,0,5.514-1.78,5.514-4.422v-0.058c0-2.872-2.154-4.365-5.399-4.365h-5.083v8.845H1049.58z" id="n_id_126"/><path d="M1061.524,1222.086h14.531v2.067h-12.263v6.863h10.971v2.067h-10.971v7.036h12.406v2.067h-14.675V1222.086z" id="n_id_127"/><path d="M1080.764,1222.086h2.125l12.664,16.11v-16.11h2.212v20.102h-1.81l-12.98-16.483v16.483h-2.211V1222.086z" id="n_id_128"/><path d="M1045.188,1258.64h-6.748v-2.096h15.794v2.096h-6.748v18.006h-2.298V1258.64z" id="n_id_129"/><path d="M1056.211,1266.652v-0.058c0-5.543,4.164-10.396,10.28-10.396c6.117,0,10.224,4.796,10.224,10.338    c0.028,0.028,0.028,0.028,0,0.058c0,5.542-4.164,10.396-10.281,10.396C1060.317,1276.99,1056.211,1272.194,1056.211,1266.652z     M1074.359,1266.652v-0.058c0-4.566-3.331-8.3-7.926-8.3s-7.868,3.676-7.868,8.242v0.058c0,4.565,3.331,8.299,7.926,8.299    S1074.359,1271.218,1074.359,1266.652z" id="n_id_130"/><path d="M1004.812,1291.002h8.558c2.298,0,4.106,0.66,5.256,1.78c0.832,0.861,1.292,1.924,1.292,3.216v0.058    c0,2.613-1.608,3.963-3.188,4.652c2.384,0.718,4.308,2.097,4.308,4.854v0.057c0,3.446-2.9,5.485-7.294,5.485h-8.932V1291.002z     M1012.996,1299.961c2.729,0,4.623-1.234,4.623-3.589v-0.058c0-1.981-1.579-3.274-4.451-3.274h-6.116v6.921H1012.996z     M1013.8,1309.064c3.044,0,4.939-1.35,4.939-3.59v-0.057c0-2.183-1.838-3.446-5.341-3.446h-6.347v7.093H1013.8z" id="n_id_131"/><path d="M1025.543,1291.002h14.531v2.067h-12.263v6.863h10.97V1302h-10.97v7.036h12.406v2.067h-14.675V1291.002z" id="n_id_132"/><path d="M1044.782,1291.002h2.269v18.005h11.314v2.097h-13.583V1291.002z" id="n_id_133"/><path d="M1060.517,1301.11v-0.058c0-5.543,4.164-10.396,10.28-10.396c6.117,0,10.224,4.796,10.224,10.338    c0.028,0.028,0.028,0.028,0,0.058c0,5.542-4.164,10.396-10.281,10.396C1064.623,1311.448,1060.517,1306.652,1060.517,1301.11z     M1078.665,1301.11v-0.058c0-4.566-3.331-8.3-7.926-8.3s-7.868,3.676-7.868,8.242v0.058c0,4.565,3.331,8.299,7.926,8.299    S1078.665,1305.676,1078.665,1301.11z" id="n_id_134"/><path d="M1083.232,1291.002h2.47l5.743,16.741l5.514-16.799h1.867l5.514,16.799l5.743-16.741h2.384l-7.18,20.245h-1.924    l-5.514-16.312l-5.542,16.312h-1.896L1083.232,1291.002z" id="n_id_135"/></g><g id="n_id_136">
		<path d="M1224.236,873.857h6.979c6.317,0,10.683,4.336,10.683,9.993v0.058c0,5.657-4.365,10.051-10.683,10.051h-6.979V873.857z     M1231.215,891.862c5.083,0,8.328-3.445,8.328-7.896v-0.058c0-4.451-3.245-7.955-8.328-7.955h-4.71v15.909H1231.215z" id="n_id_137"/><path d="M1246.691,873.857h2.125l12.664,16.11v-16.11h2.212v20.102h-1.81l-12.98-16.483v16.483h-2.211V873.857z" id="n_id_138"/></g><g id="n_id_139">
		<path d="M316.479,937.531h8.558c2.298,0,4.106,0.66,5.256,1.78c0.832,0.861,1.292,1.924,1.292,3.216v0.058    c0,2.613-1.608,3.963-3.188,4.652c2.384,0.718,4.308,2.097,4.308,4.854v0.057c0,3.446-2.9,5.485-7.294,5.485h-8.932V937.531z     M324.664,946.49c2.729,0,4.623-1.234,4.623-3.589v-0.058c0-1.981-1.579-3.274-4.451-3.274h-6.116v6.921H324.664z     M325.468,955.594c3.044,0,4.939-1.35,4.939-3.59v-0.057c0-2.183-1.838-3.446-5.341-3.446h-6.347v7.093H325.468z" id="n_id_140"/><path d="M344.648,937.388h2.125l9.161,20.245h-2.44l-2.355-5.312h-10.941l-2.383,5.312h-2.326L344.648,937.388z M350.249,950.281    l-4.566-10.252l-4.595,10.252H350.249z" id="n_id_141"/><path d="M359.896,937.531h8.644c2.47,0,4.451,0.746,5.715,2.01c0.977,0.977,1.551,2.384,1.551,3.963v0.058    c0,3.331-2.297,5.284-5.456,5.858l6.174,8.213h-2.785l-5.829-7.812h-0.058h-5.687v7.812h-2.269V937.531z M368.339,947.783    c3.015,0,5.169-1.551,5.169-4.136v-0.058c0-2.47-1.896-3.963-5.141-3.963h-6.203v8.156H368.339z" id="n_id_142"/></g><g id="n_id_143">
		<path d="M155.522,1805.928h-20.245v-6.289h47.383v6.289h-20.245v54.017h-6.893V1805.928z" id="n_id_144"/><path d="M195.406,1799.639h6.806v26.793h34.805v-26.793h6.807v60.306h-6.807v-27.138h-34.805v27.138h-6.806V1799.639z" id="n_id_145"/><path d="M261.479,1799.639h6.806v60.306h-6.806V1799.639z" id="n_id_146"/><path d="M285.942,1799.639h25.931c7.409,0,13.354,2.24,17.145,6.03c2.929,2.93,4.652,7.15,4.652,11.889v0.173    c0,9.993-6.893,15.852-16.369,17.574l18.522,24.64h-8.356l-17.488-23.434h-0.173h-17.058v23.434h-6.806V1799.639z     M311.271,1830.395c9.046,0,15.507-4.652,15.507-12.406v-0.172c0-7.409-5.686-11.889-15.421-11.889h-18.608v24.467H311.271z" id="n_id_147"/><path d="M348.225,1799.639h20.935c18.953,0,32.048,13.009,32.048,29.98v0.172c0,16.973-13.095,30.153-32.048,30.153h-20.935    V1799.639z M369.159,1853.655c15.249,0,24.983-10.338,24.983-23.691v-0.173c0-13.353-9.734-23.863-24.983-23.863H355.03v47.728    H369.159z" id="n_id_148"/><path d="M441.432,1799.639h43.334v6.289h-36.528v21.538h32.651v6.202h-32.651v26.276h-6.806V1799.639z" id="n_id_149"/><path d="M497.941,1799.639h6.806v54.017h33.943v6.289h-40.749V1799.639z" id="n_id_150"/><path d="M545.145,1829.964v-0.173c0-16.627,12.492-31.187,30.842-31.187c18.351,0,30.67,14.388,30.67,31.015    c0.086,0.086,0.086,0.086,0,0.172c0,16.628-12.492,31.188-30.842,31.188C557.464,1860.979,545.145,1846.591,545.145,1829.964z     M599.592,1829.964v-0.173c0-13.697-9.993-24.897-23.777-24.897s-23.605,11.027-23.605,24.726v0.172    c0,13.698,9.993,24.898,23.777,24.898S599.592,1843.662,599.592,1829.964z" id="n_id_151"/><path d="M618.366,1829.964v-0.173c0-16.627,12.492-31.187,30.842-31.187c18.351,0,30.67,14.388,30.67,31.015    c0.086,0.086,0.086,0.086,0,0.172c0,16.628-12.492,31.188-30.842,31.188C630.686,1860.979,618.366,1846.591,618.366,1829.964z     M672.813,1829.964v-0.173c0-13.697-9.993-24.897-23.777-24.897s-23.605,11.027-23.605,24.726v0.172    c0,13.698,9.993,24.898,23.777,24.898S672.813,1843.662,672.813,1829.964z" id="n_id_152"/><path d="M694.26,1799.639h25.932c7.408,0,13.353,2.24,17.144,6.03c2.929,2.93,4.652,7.15,4.652,11.889v0.173    c0,9.993-6.893,15.852-16.369,17.574l18.522,24.64h-8.356l-17.488-23.434h-0.173h-17.058v23.434h-6.806V1799.639z     M719.588,1830.395c9.046,0,15.507-4.652,15.507-12.406v-0.172c0-7.409-5.686-11.889-15.421-11.889h-18.608v24.467H719.588z" id="n_id_153"/></g><g id="n_id_154">
		<path d="M1072.714,295.028h15.401c4.135,0,7.391,1.188,9.458,3.204c1.498,1.55,2.325,3.463,2.325,5.788v0.104    c0,4.703-2.894,7.132-5.736,8.372c4.289,1.292,7.752,3.773,7.752,8.734v0.104c0,6.202-5.22,9.871-13.127,9.871h-16.073V295.028z     M1087.443,311.152c4.91,0,8.32-2.222,8.32-6.46v-0.104c0-3.565-2.842-5.892-8.01-5.892h-11.009v12.455H1087.443z     M1088.891,327.536c5.479,0,8.889-2.43,8.889-6.461v-0.104c0-3.928-3.308-6.201-9.612-6.201h-11.422v12.766H1088.891z" id="n_id_155"/><path d="M1123.417,294.77h3.824l16.486,36.436h-4.393l-4.238-9.562h-19.69l-4.289,9.562h-4.187L1123.417,294.77z     M1133.495,317.975l-8.218-18.45l-8.269,18.45H1133.495z" id="n_id_156"/><path d="M1155.769,298.801h-12.146v-3.772h28.425v3.772h-12.145v32.404h-4.135V298.801z" id="n_id_157"/><path d="M1179.699,295.028h4.083v16.072h20.88v-16.072h4.082v36.177h-4.082v-16.279h-20.88v16.279h-4.083V295.028z" id="n_id_158"/><path d="M1127.474,387.39l2.946-2.636c2.79,3.411,6.149,5.375,10.595,5.375c4.393,0,7.907-2.791,7.907-7.029v-0.104    c0-4.496-4.187-6.977-10.13-6.977h-2.325l-0.827-2.429l11.421-12.869h-17.675v-3.669h23.102v2.997l-11.37,12.61    c6.306,0.517,11.938,3.566,11.938,10.182v0.104c0,6.46-5.374,10.904-12.093,10.904    C1134.916,393.85,1130.42,391.214,1127.474,387.39z" id="n_id_159"/></g><g id="n_id_160">
		<path d="M378.46,341.128h15.401c4.135,0,7.391,1.188,9.458,3.204c1.498,1.55,2.325,3.463,2.325,5.788v0.104    c0,4.703-2.894,7.132-5.736,8.372c4.289,1.292,7.752,3.773,7.752,8.734v0.104c0,6.202-5.22,9.871-13.127,9.871H378.46V341.128z     M393.189,357.252c4.91,0,8.32-2.222,8.32-6.46v-0.104c0-3.565-2.842-5.892-8.01-5.892h-11.009v12.455H393.189z M394.637,373.636    c5.479,0,8.889-2.43,8.889-6.461v-0.104c0-3.928-3.308-6.201-9.612-6.201h-11.422v12.766H394.637z" id="n_id_161"/><path d="M415.777,341.128h26.151v3.721H419.86V357.2h19.742v3.722H419.86v12.662h22.326v3.721h-26.409V341.128z" id="n_id_162"/><path d="M450.407,341.128h12.559c11.37,0,19.226,7.804,19.226,17.984v0.104c0,10.182-7.855,18.089-19.226,18.089h-12.559V341.128z     M462.966,373.532c9.147,0,14.988-6.202,14.988-14.213v-0.104c0-8.011-5.841-14.315-14.988-14.315h-8.476v28.632H462.966z" id="n_id_163"/><path d="M490.826,341.128h15.557c4.444,0,8.011,1.344,10.284,3.617c1.758,1.758,2.791,4.29,2.791,7.132v0.104    c0,5.995-4.135,9.51-9.819,10.543l11.111,14.781h-5.013l-10.492-14.058h-0.103h-10.233v14.058h-4.083V341.128z M506.021,359.578    c5.427,0,9.303-2.791,9.303-7.442v-0.104c0-4.444-3.411-7.132-9.251-7.132h-11.163v14.678H506.021z" id="n_id_164"/><path d="M526.594,359.319v-0.104c0-9.975,7.493-18.708,18.502-18.708c11.008,0,18.398,8.631,18.398,18.604    c0.052,0.052,0.052,0.052,0,0.104c0,9.975-7.494,18.709-18.502,18.709S526.594,369.294,526.594,359.319z M559.256,359.319v-0.104    c0-8.217-5.995-14.936-14.264-14.936c-8.27,0-14.161,6.615-14.161,14.832v0.104c0,8.218,5.995,14.937,14.265,14.937    C553.364,374.152,559.256,367.537,559.256,359.319z" id="n_id_165"/><path d="M570.527,359.319v-0.104c0-9.975,7.493-18.708,18.502-18.708c11.008,0,18.398,8.631,18.398,18.604    c0.052,0.052,0.052,0.052,0,0.104c0,9.975-7.494,18.709-18.502,18.709S570.527,369.294,570.527,359.319z M603.189,359.319v-0.104    c0-8.217-5.995-14.936-14.264-14.936c-8.27,0-14.161,6.615-14.161,14.832v0.104c0,8.218,5.995,14.937,14.265,14.937    C597.298,374.152,603.189,367.537,603.189,359.319z" id="n_id_166"/><path d="M616.062,341.128h4.135l13.179,19.742l13.179-19.742h4.135v36.177h-4.083v-29.304l-13.179,19.381h-0.207l-13.179-19.329    v29.252h-3.979V341.128z" id="n_id_167"/><path d="M693.641,368.726h-19.07l-1.033-2.946l20.466-24.91h3.565v24.445h5.634v3.411h-5.634v8.579h-3.928V368.726z     M693.641,365.314v-18.657l-15.194,18.657H693.641z" id="n_id_168"/></g><g id="n_id_169">
		<path d="M401.086,1306.55h4.083v32.404h20.362v3.772h-24.445V1306.55z" id="n_id_170"/><path d="M433.441,1306.55h4.083v36.177h-4.083V1306.55z" id="n_id_171"/><path d="M445.019,1306.55h4.548l12.869,31.164l12.92-31.164h4.393l-15.556,36.436h-3.618L445.019,1306.55z" id="n_id_172"/><path d="M487.247,1306.55h4.083v36.177h-4.083V1306.55z" id="n_id_173"/><path d="M501.925,1306.55h3.824l22.792,28.993v-28.993h3.979v36.177h-3.256l-23.36-29.665v29.665h-3.979V1306.55z" id="n_id_174"/><path d="M541.155,1324.741v-0.104c0-9.923,7.287-18.708,18.14-18.708c6.099,0,9.871,1.757,13.489,4.806l-2.636,3.102    c-2.791-2.43-5.892-4.135-11.008-4.135c-8.011,0-13.748,6.771-13.748,14.832v0.104c0,8.631,5.53,15.04,14.316,15.04    c4.134,0,7.959-1.603,10.439-3.618v-8.992h-11.008v-3.67h14.936v14.419c-3.359,2.998-8.424,5.53-14.522,5.53    C548.184,1343.347,541.155,1335.078,541.155,1324.741z" id="n_id_175"/><path d="M598.784,1306.55h15.557c4.444,0,8.011,1.344,10.284,3.617c1.758,1.758,2.791,4.29,2.791,7.132v0.104    c0,5.995-4.135,9.51-9.819,10.543l11.111,14.781h-5.013l-10.492-14.058h-0.103h-10.233v14.058h-4.083V1306.55z M613.979,1325    c5.427,0,9.303-2.791,9.303-7.442v-0.104c0-4.444-3.411-7.132-9.251-7.132h-11.163V1325H613.979z" id="n_id_176"/><path d="M634.552,1324.741v-0.104c0-9.975,7.493-18.708,18.502-18.708c11.008,0,18.398,8.631,18.398,18.604    c0.052,0.052,0.052,0.052,0,0.104c0,9.975-7.494,18.709-18.502,18.709S634.552,1334.716,634.552,1324.741z M667.214,1324.741    v-0.104c0-8.217-5.995-14.936-14.264-14.936c-8.27,0-14.161,6.615-14.161,14.832v0.104c0,8.218,5.995,14.937,14.265,14.937    C661.322,1339.574,667.214,1332.959,667.214,1324.741z" id="n_id_177"/><path d="M678.485,1324.741v-0.104c0-9.975,7.493-18.708,18.502-18.708c11.008,0,18.398,8.631,18.398,18.604    c0.052,0.052,0.052,0.052,0,0.104c0,9.975-7.494,18.709-18.502,18.709S678.485,1334.716,678.485,1324.741z M711.147,1324.741    v-0.104c0-8.217-5.995-14.936-14.264-14.936c-8.27,0-14.161,6.615-14.161,14.832v0.104c0,8.218,5.995,14.937,14.265,14.937    C705.256,1339.574,711.147,1332.959,711.147,1324.741z" id="n_id_178"/><path d="M724.021,1306.55h4.135l13.179,19.742l13.179-19.742h4.135v36.177h-4.083v-29.304l-13.179,19.381h-0.207L728,1313.475    v29.252h-3.979V1306.55z" id="n_id_179"/></g></g>
</svg>
