<svg enable-background="new 0 0 612 792" height="792px" id="Layer_1" version="1.0" viewBox="0 0 612 792" width="612px" x="0px" y="0px" xml:space="preserve">
  <g id="_x33_60border">
	<g id="MTEXT_16_">
		</g></g>
  <g id="_x33_60text">
	<g id="MTEXT_11_">
		<g id="n_id_104">
			<path d="M377.6,444.7v2.6c0,1,0.4,1.4,1,1.4c0.7,0,1.1-0.4,1.1-1.4v-2.6h0.6v2.6c0,1.4-0.7,1.9-1.7,1.9c-0.9,0-1.6-0.5-1.6-1.9     v-2.6H377.6z" id="n_id_105"/><path d="M381.3,444.7c0.3,0,0.6-0.1,1.1-0.1c0.6,0,1,0.1,1.2,0.4c0.2,0.2,0.4,0.5,0.4,0.9s-0.1,0.7-0.3,0.9     c-0.3,0.3-0.8,0.5-1.3,0.5c-0.2,0-0.3,0-0.5,0v1.8h-0.6L381.3,444.7L381.3,444.7z M381.8,446.9c0.1,0,0.3,0,0.5,0     c0.7,0,1.1-0.3,1.1-0.9s-0.4-0.9-1-0.9c-0.2,0-0.4,0-0.5,0v1.8H381.8z" id="n_id_106"/></g></g><g id="MTEXT_12_">
		<g id="n_id_107">
			<path d="M371.9,195.9h3.2v0.6h-2.4v1.9h2.2v0.6h-2.2v2.7h-0.8L371.9,195.9L371.9,195.9z" id="n_id_108"/><path d="M375,201.3c0-0.3,0.2-0.5,0.5-0.5s0.5,0.2,0.5,0.5s-0.2,0.5-0.5,0.5C375.3,201.9,375,201.6,375,201.3z" id="n_id_109"/><path d="M378,199.9l-0.6,1.8h-0.8l2-5.9h0.9l2,5.9h-0.8l-0.6-1.8H378z M379.9,199.3l-0.6-1.7c-0.1-0.4-0.2-0.7-0.3-1.1l0,0     c-0.1,0.3-0.2,0.7-0.3,1.1l-0.6,1.7H379.9z" id="n_id_110"/><path d="M382.2,201.3c0-0.3,0.2-0.5,0.5-0.5s0.5,0.2,0.5,0.5s-0.2,0.5-0.5,0.5C382.4,201.9,382.2,201.6,382.2,201.3z" id="n_id_111"/><path d="M384.9,195.9v3.5c0,1.3,0.6,1.9,1.4,1.9c0.9,0,1.4-0.6,1.4-1.9v-3.5h0.8v3.4c0,1.8-0.9,2.5-2.2,2.5     c-1.2,0-2.1-0.7-2.1-2.5v-3.5h0.7V195.9z" id="n_id_112"/><path d="M389.4,201.3c0-0.3,0.2-0.5,0.5-0.5s0.5,0.2,0.5,0.5s-0.2,0.5-0.5,0.5C389.6,201.9,389.4,201.6,389.4,201.3z" id="n_id_113"/></g></g><g id="MTEXT_13_">
		<g id="n_id_114">
			<path d="M349.7,276.8c0.3-0.1,0.8-0.1,1.2-0.1c0.8,0,1.4,0.2,1.8,0.5c0.4,0.4,0.6,0.9,0.6,1.6s-0.2,1.3-0.6,1.7     c-0.4,0.4-1.1,0.6-1.9,0.6c-0.4,0-0.7,0-1-0.1v-4.2H349.7z M350.2,280.7c0.1,0,0.4,0,0.6,0c1.2,0,1.9-0.7,1.9-1.9     c0-1-0.6-1.7-1.8-1.7c-0.3,0-0.5,0-0.7,0.1V280.7z" id="n_id_115"/><path d="M354,281.1v-4.4h0.6l1.4,2.2c0.3,0.5,0.6,1,0.8,1.4l0,0c-0.1-0.6-0.1-1.1-0.1-1.8v-1.8h0.5v4.4h-0.6l-1.4-2.2     c-0.3-0.5-0.6-1-0.8-1.5l0,0c0,0.6,0,1.1,0,1.8v1.9H354z" id="n_id_116"/></g></g></g>
  <g id="_x33_60int">
	<g id="LINE">
		
			<line fill="none" id="n_id_144" stroke="#000000" stroke-linecap="round" stroke-linejoin="round" stroke-miterlimit="10" stroke-width="0.15" x1="282.5" x2="282.5" y1="385.9" y2="264"/></g><g id="LINE_1_">
		
			<line fill="none" id="n_id_145" stroke="#000000" stroke-linecap="round" stroke-linejoin="round" stroke-miterlimit="10" stroke-width="0.15" x1="282.5" x2="314.1" y1="264" y2="264"/></g><g id="LINE_4_">
		
			<line fill="none" id="n_id_146" stroke="#000000" stroke-linecap="round" stroke-linejoin="round" stroke-miterlimit="10" stroke-width="0.15" x1="373.4" x2="373.4" y1="36.9" y2="97.6"/></g><g id="LINE_5_">
		
			<line fill="none" id="n_id_147" stroke="#000000" stroke-linecap="round" stroke-linejoin="round" stroke-miterlimit="10" stroke-width="0.15" x1="281.5" x2="282.5" y1="380.5" y2="380.5"/></g><g id="LINE_6_">
		
			<line fill="none" id="n_id_148" stroke="#000000" stroke-linecap="round" stroke-linejoin="round" stroke-miterlimit="10" stroke-width="0.15" x1="281.5" x2="281.5" y1="356.8" y2="380.5"/></g><g id="LINE_7_">
		
			<line fill="none" id="n_id_149" stroke="#000000" stroke-linecap="round" stroke-linejoin="round" stroke-miterlimit="10" stroke-width="0.15" x1="282.5" x2="306.2" y1="381.5" y2="381.5"/></g><g id="LINE_8_">
		
			<line fill="none" id="n_id_150" stroke="#000000" stroke-linecap="round" stroke-linejoin="round" stroke-miterlimit="10" stroke-width="0.15" x1="281.5" x2="282.5" y1="356.8" y2="356.8"/></g><g id="LINE_9_">
		
			<line fill="none" id="n_id_151" stroke="#000000" stroke-linecap="round" stroke-linejoin="round" stroke-miterlimit="10" stroke-width="0.15" x1="282.5" x2="306.2" y1="355.8" y2="355.8"/></g><g id="ARC">
		
			<path d="    M299.8,342c0-0.5-0.4-1-1-1" fill="none" id="n_id_152" stroke="#000000" stroke-linecap="round" stroke-linejoin="round" stroke-miterlimit="10" stroke-width="0.15"/></g><g id="ARC_1_">
		
			<path d="    M288.5,341c-0.5,0-1,0.4-1,1" fill="none" id="n_id_153" stroke="#000000" stroke-linecap="round" stroke-linejoin="round" stroke-miterlimit="10" stroke-width="0.15"/></g><g id="LINE_11_">
		
			<line fill="none" id="n_id_155" stroke="#000000" stroke-linecap="round" stroke-linejoin="round" stroke-miterlimit="10" stroke-width="0.15" x1="302.5" x2="302.5" y1="346" y2="334.1"/></g><g id="LINE_12_">
		
			<line fill="none" id="n_id_156" stroke="#000000" stroke-linecap="round" stroke-linejoin="round" stroke-miterlimit="10" stroke-width="0.15" x1="303.3" x2="303.3" y1="326.7" y2="353.4"/></g><g id="LINE_13_">
		
			<line fill="none" id="n_id_157" stroke="#000000" stroke-linecap="round" stroke-linejoin="round" stroke-miterlimit="10" stroke-width="0.15" x1="285.5" x2="285.5" y1="353.4" y2="326.7"/></g><g id="LINE_14_">
		
			<line fill="none" id="n_id_158" stroke="#000000" stroke-linecap="round" stroke-linejoin="round" stroke-miterlimit="10" stroke-width="0.15" x1="301.8" x2="287" y1="325.2" y2="325.2"/></g><g id="LINE_15_">
		
			<line fill="none" id="n_id_159" stroke="#000000" stroke-linecap="round" stroke-linejoin="round" stroke-miterlimit="10" stroke-width="0.15" x1="288.5" x2="298.8" y1="327.2" y2="327.2"/></g><g id="LINE_16_">
		
			<line fill="none" id="n_id_160" stroke="#000000" stroke-linecap="round" stroke-linejoin="round" stroke-miterlimit="10" stroke-width="0.15" x1="298.8" x2="288.5" y1="339" y2="339"/></g><g id="LINE_17_">
		
			<line fill="none" id="n_id_161" stroke="#000000" stroke-linecap="round" stroke-linejoin="round" stroke-miterlimit="10" stroke-width="0.15" x1="288.5" x2="298.8" y1="341" y2="341"/></g><g id="LINE_18_">
		
			<line fill="none" id="n_id_162" stroke="#000000" stroke-linecap="round" stroke-linejoin="round" stroke-miterlimit="10" stroke-width="0.15" x1="296.1" x2="301.5" y1="339.5" y2="339.5"/></g><g id="LINE_19_">
		
			<line fill="none" id="n_id_163" stroke="#000000" stroke-linecap="round" stroke-linejoin="round" stroke-miterlimit="10" stroke-width="0.15" x1="301.5" x2="296.1" y1="340.5" y2="340.5"/></g><g id="ARC_2_">
		
			<path d="    M288.5,327.2c-0.5,0-1,0.4-1,1" fill="none" id="n_id_164" stroke="#000000" stroke-linecap="round" stroke-linejoin="round" stroke-miterlimit="10" stroke-width="0.15"/></g><g id="ARC_3_">
		
			<path d="    M287,325.2c-0.8,0-1.5,0.7-1.5,1.5" fill="none" id="n_id_165" stroke="#000000" stroke-linecap="round" stroke-linejoin="round" stroke-miterlimit="10" stroke-width="0.15"/></g><g id="ARC_4_">
		
			<path d="    M296.1,339.5c-0.3,0-0.5,0.2-0.5,0.5s0.2,0.5,0.5,0.5" fill="none" id="n_id_166" stroke="#000000" stroke-linecap="round" stroke-linejoin="round" stroke-miterlimit="10" stroke-width="0.15"/></g><g id="ARC_5_">
		
			<path d="    M287.5,338.1c0,0.5,0.4,1,1,1" fill="none" id="n_id_167" stroke="#000000" stroke-linecap="round" stroke-linejoin="round" stroke-miterlimit="10" stroke-width="0.15"/></g><g id="LINE_20_">
		
			<line fill="none" id="n_id_168" stroke="#000000" stroke-linecap="round" stroke-linejoin="round" stroke-miterlimit="10" stroke-width="0.15" x1="287.5" x2="287.5" y1="338.1" y2="328.2"/></g><g id="ARC_6_">
		
			<path d="    M303.3,326.7c0-0.8-0.7-1.5-1.5-1.5" fill="none" id="n_id_169" stroke="#000000" stroke-linecap="round" stroke-linejoin="round" stroke-miterlimit="10" stroke-width="0.15"/></g><g id="ARC_7_">
		
			<path d="    M299.8,328.2c0-0.5-0.4-1-1-1" fill="none" id="n_id_170" stroke="#000000" stroke-linecap="round" stroke-linejoin="round" stroke-miterlimit="10" stroke-width="0.15"/></g><g id="ARC_8_">
		
			<path d="    M301.5,340.5c0.3,0,0.5-0.2,0.5-0.5s-0.2-0.5-0.5-0.5" fill="none" id="n_id_171" stroke="#000000" stroke-linecap="round" stroke-linejoin="round" stroke-miterlimit="10" stroke-width="0.15"/></g><g id="CIRCLE">
		
			<path d="    M301,336.1c0-0.3,0.2-0.5,0.5-0.5s0.5,0.2,0.5,0.5s-0.2,0.5-0.5,0.5S301,336.4,301,336.1L301,336.1z" fill="none" id="n_id_172" stroke="#000000" stroke-linecap="round" stroke-linejoin="round" stroke-miterlimit="10" stroke-width="0.15"/></g><g id="ARC_9_">
		
			<path d="    M298.8,339c0.5,0,1-0.4,1-1" fill="none" id="n_id_173" stroke="#000000" stroke-linecap="round" stroke-linejoin="round" stroke-miterlimit="10" stroke-width="0.15"/></g><g id="LINE_21_">
		
			<line fill="none" id="n_id_174" stroke="#000000" stroke-linecap="round" stroke-linejoin="round" stroke-miterlimit="10" stroke-width="0.15" x1="302.5" x2="300.5" y1="334.1" y2="334.1"/></g><g id="LINE_22_">
		
			<line fill="none" id="n_id_175" stroke="#000000" stroke-linecap="round" stroke-linejoin="round" stroke-miterlimit="10" stroke-width="0.15" x1="300.5" x2="300.5" y1="334.1" y2="339.5"/></g><g id="LINE_23_">
		
			<line fill="none" id="n_id_176" stroke="#000000" stroke-linecap="round" stroke-linejoin="round" stroke-miterlimit="10" stroke-width="0.15" x1="299.8" x2="299.8" y1="328.2" y2="338.1"/></g><g id="LINE_24_">
		
			<line fill="none" id="n_id_177" stroke="#000000" stroke-linecap="round" stroke-linejoin="round" stroke-miterlimit="10" stroke-width="0.15" x1="301.8" x2="287" y1="354.8" y2="354.8"/></g><g id="LINE_25_">
		
			<line fill="none" id="n_id_178" stroke="#000000" stroke-linecap="round" stroke-linejoin="round" stroke-miterlimit="10" stroke-width="0.15" x1="298.8" x2="288.5" y1="352.9" y2="352.9"/></g><g id="ARC_10_">
		
			<path d="    M287.5,351.9c0,0.5,0.4,1,1,1" fill="none" id="n_id_179" stroke="#000000" stroke-linecap="round" stroke-linejoin="round" stroke-miterlimit="10" stroke-width="0.15"/></g><g id="LINE_26_">
		
			<line fill="none" id="n_id_180" stroke="#000000" stroke-linecap="round" stroke-linejoin="round" stroke-miterlimit="10" stroke-width="0.15" x1="287.5" x2="287.5" y1="351.9" y2="342"/></g><g id="ARC_11_">
		
			<path d="    M285.5,353.4c0,0.8,0.7,1.5,1.5,1.5" fill="none" id="n_id_181" stroke="#000000" stroke-linecap="round" stroke-linejoin="round" stroke-miterlimit="10" stroke-width="0.15"/></g><g id="LINE_27_">
		
			<line fill="none" id="n_id_183" stroke="#000000" stroke-linecap="round" stroke-linejoin="round" stroke-miterlimit="10" stroke-width="0.15" x1="300.5" x2="302.5" y1="346" y2="346"/></g><g id="ARC_12_">
		
			<path d="    M301.8,354.8c0.8,0,1.5-0.7,1.5-1.5" fill="none" id="n_id_184" stroke="#000000" stroke-linecap="round" stroke-linejoin="round" stroke-miterlimit="10" stroke-width="0.15"/></g><g id="ARC_13_">
		
			<path d="    M298.8,352.9c0.5,0,1-0.4,1-1" fill="none" id="n_id_185" stroke="#000000" stroke-linecap="round" stroke-linejoin="round" stroke-miterlimit="10" stroke-width="0.15"/></g><g id="ARC_14_">
		
			<path d="    M310.7,157.4c-16.8,0-30.6,13.1-31.6,29.9" fill="none" id="n_id_187" stroke="#000000" stroke-linecap="round" stroke-linejoin="round" stroke-miterlimit="10" stroke-width="0.15"/></g><g id="LINE_29_">
		
			<line fill="none" id="n_id_188" stroke="#000000" stroke-linecap="round" stroke-linejoin="round" stroke-miterlimit="10" stroke-width="0.15" x1="310.7" x2="279.1" y1="189" y2="189"/></g><g id="LINE_30_">
		
			<line fill="none" id="n_id_189" stroke="#000000" stroke-linecap="round" stroke-linejoin="round" stroke-miterlimit="10" stroke-width="0.15" x1="310.7" x2="279.1" y1="187.2" y2="187.2"/></g><g id="LINE_31_">
		
			<line fill="none" id="n_id_190" stroke="#000000" stroke-linecap="round" stroke-linejoin="round" stroke-miterlimit="10" stroke-width="0.15" x1="279.1" x2="279.1" y1="187.2" y2="189"/></g><g id="LINE_32_">
		
			<line fill="none" id="n_id_191" stroke="#000000" stroke-linecap="round" stroke-linejoin="round" stroke-miterlimit="10" stroke-width="0.15" x1="310.7" x2="310.7" y1="187.2" y2="189"/></g><g id="LINE_33_">
		
			<line fill="none" id="n_id_192" stroke="#000000" stroke-linecap="round" stroke-linejoin="round" stroke-miterlimit="10" stroke-width="0.15" x1="260.6" x2="224" y1="193.9" y2="193.9"/></g><g id="LINE_34_">
		
			<line fill="none" id="n_id_193" stroke="#000000" stroke-linecap="round" stroke-linejoin="round" stroke-miterlimit="10" stroke-width="0.15" x1="258.6" x2="295.1" y1="193.4" y2="193.4"/></g><g id="LINE_35_">
		
			<line fill="none" id="n_id_194" stroke="#000000" stroke-linecap="round" stroke-linejoin="round" stroke-miterlimit="10" stroke-width="0.15" x1="258.6" x2="295.1" y1="191.9" y2="191.9"/></g><g id="LINE_36_">
		
			<line fill="none" id="n_id_195" stroke="#000000" stroke-linecap="round" stroke-linejoin="round" stroke-miterlimit="10" stroke-width="0.15" x1="260.6" x2="224" y1="195.4" y2="195.4"/></g><g id="LINE_37_">
		
			<line fill="none" id="n_id_196" stroke="#000000" stroke-linecap="round" stroke-linejoin="round" stroke-miterlimit="10" stroke-width="0.15" x1="258.6" x2="258.6" y1="191.9" y2="193.4"/></g><g id="LINE_38_">
		
			<line fill="none" id="n_id_197" stroke="#000000" stroke-linecap="round" stroke-linejoin="round" stroke-miterlimit="10" stroke-width="0.15" x1="260.6" x2="260.6" y1="195.4" y2="193.9"/></g><g id="ARC_15_">
		
			<path d="    M367,97.6c0-15.7-12.2-28.7-27.9-29.6" fill="none" id="n_id_198" stroke="#000000" stroke-linecap="round" stroke-linejoin="round" stroke-miterlimit="10" stroke-width="0.15"/></g><g id="LINE_39_">
		
			<line fill="none" id="n_id_199" stroke="#000000" stroke-linecap="round" stroke-linejoin="round" stroke-miterlimit="10" stroke-width="0.15" x1="339.1" x2="339.1" y1="97.6" y2="68"/></g><g id="LINE_40_">
		
			<line fill="none" id="n_id_200" stroke="#000000" stroke-linecap="round" stroke-linejoin="round" stroke-miterlimit="10" stroke-width="0.15" x1="337.3" x2="337.3" y1="97.6" y2="68"/></g><g id="LINE_41_">
		
			<line fill="none" id="n_id_201" stroke="#000000" stroke-linecap="round" stroke-linejoin="round" stroke-miterlimit="10" stroke-width="0.15" x1="339.1" x2="337.3" y1="68" y2="68"/></g><g id="LINE_42_">
		
			<line fill="none" id="n_id_202" stroke="#000000" stroke-linecap="round" stroke-linejoin="round" stroke-miterlimit="10" stroke-width="0.15" x1="339.1" x2="337.3" y1="97.6" y2="97.6"/></g><g id="LINE_43_">
		
			<line fill="none" id="n_id_203" stroke="#000000" stroke-linecap="round" stroke-linejoin="round" stroke-miterlimit="10" stroke-width="0.15" x1="373.4" x2="373.4" y1="96.9" y2="37.6"/></g><g id="LINE_44_">
		
			<line fill="none" id="n_id_204" stroke="#000000" stroke-linecap="round" stroke-linejoin="round" stroke-miterlimit="10" stroke-width="0.15" x1="401" x2="401" y1="42.9" y2="84.9"/></g><g id="LINE_45_">
		
			<line fill="none" id="n_id_205" stroke="#000000" stroke-linecap="round" stroke-linejoin="round" stroke-miterlimit="10" stroke-width="0.15" x1="375.3" x2="375.3" y1="84.9" y2="42.9"/></g><g id="LWPOLYLINE_6_">
		
			<path d="    M375.4,84.1c0,0.1,0,0.2,0,0.3c0,1.3,0.3,2.5,0.9,3.6c0.7,1.3,1.7,2.4,2.8,3.3c1.2,0.9,2.6,1.6,4,2.1c1.6,0.5,3.3,0.8,5.1,0.8    s3.4-0.3,5.1-0.8c1.5-0.5,2.8-1.2,4-2.1s2.1-2,2.8-3.3c0.6-1.1,0.9-2.4,0.9-3.6" fill="none" id="n_id_206" stroke="#000000" stroke-linecap="round" stroke-linejoin="round" stroke-miterlimit="10" stroke-width="0.15"/></g><g id="LWPOLYLINE_7_">
		
			<path d="    M401,84.5c0-0.1,0-0.3,0-0.4" fill="none" id="n_id_207" stroke="#000000" stroke-linecap="round" stroke-linejoin="round" stroke-miterlimit="10" stroke-width="0.15"/></g><g id="LINE_46_">
		
			<line fill="none" id="n_id_208" stroke="#000000" stroke-linecap="round" stroke-linejoin="round" stroke-miterlimit="10" stroke-width="0.15" x1="377.3" x2="399.1" y1="41" y2="41"/></g><g id="ARC_16_">
		
			<path d="    M377.3,41c-1.1,0-2,0.9-2,2" fill="none" id="n_id_209" stroke="#000000" stroke-linecap="round" stroke-linejoin="round" stroke-miterlimit="10" stroke-width="0.15"/></g><g id="CIRCLE_2_">
		
			<path d="    M386.8,44c0-0.8,0.6-1.4,1.4-1.4s1.4,0.6,1.4,1.4c0,0.8-0.6,1.4-1.4,1.4S386.8,44.8,386.8,44L386.8,44z" fill="none" id="n_id_210" stroke="#000000" stroke-linecap="round" stroke-linejoin="round" stroke-miterlimit="10" stroke-width="0.15"/></g><g id="ARC_17_">
		
			<path d="    M401,43c0-1.1-0.9-2-2-2" fill="none" id="n_id_211" stroke="#000000" stroke-linecap="round" stroke-linejoin="round" stroke-miterlimit="10" stroke-width="0.15"/></g><g id="LINE_48_">
		
			<line fill="none" id="n_id_212" stroke="#000000" stroke-linecap="round" stroke-linejoin="round" stroke-miterlimit="10" stroke-width="0.15" x1="314.1" x2="314.1" y1="385.9" y2="264"/></g><g id="LINE_50_">
		
			<line fill="none" id="n_id_213" stroke="#000000" stroke-linecap="round" stroke-linejoin="round" stroke-miterlimit="10" stroke-width="0.15" x1="281.5" x2="282.5" y1="380.5" y2="380.5"/></g><g id="LINE_51_">
		
			<line fill="none" id="n_id_214" stroke="#000000" stroke-linecap="round" stroke-linejoin="round" stroke-miterlimit="10" stroke-width="0.15" x1="281.5" x2="281.5" y1="356.8" y2="380.5"/></g><g id="LINE_52_">
		
			<line fill="none" id="n_id_215" stroke="#000000" stroke-linecap="round" stroke-linejoin="round" stroke-miterlimit="10" stroke-width="0.15" x1="306.2" x2="306.2" y1="381.5" y2="355.8"/></g><g id="LINE_54_">
		
			<line fill="none" id="n_id_216" stroke="#000000" stroke-linecap="round" stroke-linejoin="round" stroke-miterlimit="10" stroke-width="0.15" x1="282.5" x2="306.2" y1="381.5" y2="381.5"/></g><g id="LINE_55_">
		
			<line fill="none" id="n_id_217" stroke="#000000" stroke-linecap="round" stroke-linejoin="round" stroke-miterlimit="10" stroke-width="0.15" x1="281.5" x2="282.5" y1="356.8" y2="356.8"/></g><g id="LINE_56_">
		
			<line fill="none" id="n_id_218" stroke="#000000" stroke-linecap="round" stroke-linejoin="round" stroke-miterlimit="10" stroke-width="0.15" x1="282.5" x2="306.2" y1="355.8" y2="355.8"/></g><g id="ARC_18_">
		
			<path d="    M299.8,342c0-0.5-0.4-1-1-1" fill="none" id="n_id_219" stroke="#000000" stroke-linecap="round" stroke-linejoin="round" stroke-miterlimit="10" stroke-width="0.15"/></g><g id="ARC_19_">
		
			<path d="    M288.5,341c-0.5,0-1,0.4-1,1" fill="none" id="n_id_220" stroke="#000000" stroke-linecap="round" stroke-linejoin="round" stroke-miterlimit="10" stroke-width="0.15"/></g><g id="LINE_59_">
		
			<line fill="none" id="n_id_222" stroke="#000000" stroke-linecap="round" stroke-linejoin="round" stroke-miterlimit="10" stroke-width="0.15" x1="302.5" x2="302.5" y1="346" y2="334.1"/></g><g id="LINE_60_">
		
			<line fill="none" id="n_id_223" stroke="#000000" stroke-linecap="round" stroke-linejoin="round" stroke-miterlimit="10" stroke-width="0.15" x1="303.3" x2="303.3" y1="326.7" y2="353.4"/></g><g id="LINE_61_">
		
			<line fill="none" id="n_id_224" stroke="#000000" stroke-linecap="round" stroke-linejoin="round" stroke-miterlimit="10" stroke-width="0.15" x1="285.5" x2="285.5" y1="353.4" y2="326.7"/></g><g id="LINE_62_">
		
			<line fill="none" id="n_id_225" stroke="#000000" stroke-linecap="round" stroke-linejoin="round" stroke-miterlimit="10" stroke-width="0.15" x1="301.8" x2="287" y1="325.2" y2="325.2"/></g><g id="LINE_63_">
		
			<line fill="none" id="n_id_226" stroke="#000000" stroke-linecap="round" stroke-linejoin="round" stroke-miterlimit="10" stroke-width="0.15" x1="288.5" x2="298.8" y1="327.2" y2="327.2"/></g><g id="LINE_64_">
		
			<line fill="none" id="n_id_227" stroke="#000000" stroke-linecap="round" stroke-linejoin="round" stroke-miterlimit="10" stroke-width="0.15" x1="298.8" x2="288.5" y1="339" y2="339"/></g><g id="LINE_65_">
		
			<line fill="none" id="n_id_228" stroke="#000000" stroke-linecap="round" stroke-linejoin="round" stroke-miterlimit="10" stroke-width="0.15" x1="288.5" x2="298.8" y1="341" y2="341"/></g><g id="LINE_66_">
		
			<line fill="none" id="n_id_229" stroke="#000000" stroke-linecap="round" stroke-linejoin="round" stroke-miterlimit="10" stroke-width="0.15" x1="296.1" x2="301.5" y1="339.5" y2="339.5"/></g><g id="LINE_67_">
		
			<line fill="none" id="n_id_230" stroke="#000000" stroke-linecap="round" stroke-linejoin="round" stroke-miterlimit="10" stroke-width="0.15" x1="301.5" x2="296.1" y1="340.5" y2="340.5"/></g><g id="CIRCLE_3_">
		
			<path d="    M294.4,333.1c0-0.8,0.7-1.5,1.5-1.5s1.5,0.7,1.5,1.5s-0.7,1.5-1.5,1.5C295,334.6,294.4,333.9,294.4,333.1L294.4,333.1z" fill="none" id="n_id_231" stroke="#000000" stroke-linecap="round" stroke-linejoin="round" stroke-miterlimit="10" stroke-width="0.15"/></g><g id="ARC_20_">
		
			<path d="    M288.5,327.2c-0.5,0-1,0.4-1,1" fill="none" id="n_id_232" stroke="#000000" stroke-linecap="round" stroke-linejoin="round" stroke-miterlimit="10" stroke-width="0.15"/></g><g id="ARC_21_">
		
			<path d="    M287,325.2c-0.8,0-1.5,0.7-1.5,1.5" fill="none" id="n_id_233" stroke="#000000" stroke-linecap="round" stroke-linejoin="round" stroke-miterlimit="10" stroke-width="0.15"/></g><g id="ARC_22_">
		
			<path d="    M296.1,339.5c-0.3,0-0.5,0.2-0.5,0.5s0.2,0.5,0.5,0.5" fill="none" id="n_id_234" stroke="#000000" stroke-linecap="round" stroke-linejoin="round" stroke-miterlimit="10" stroke-width="0.15"/></g><g id="ARC_23_">
		
			<path d="    M287.5,338.1c0,0.5,0.4,1,1,1" fill="none" id="n_id_235" stroke="#000000" stroke-linecap="round" stroke-linejoin="round" stroke-miterlimit="10" stroke-width="0.15"/></g><g id="LINE_68_">
		
			<line fill="none" id="n_id_236" stroke="#000000" stroke-linecap="round" stroke-linejoin="round" stroke-miterlimit="10" stroke-width="0.15" x1="287.5" x2="287.5" y1="338.1" y2="328.2"/></g><g id="ARC_24_">
		
			<path d="    M303.3,326.7c0-0.8-0.7-1.5-1.5-1.5" fill="none" id="n_id_237" stroke="#000000" stroke-linecap="round" stroke-linejoin="round" stroke-miterlimit="10" stroke-width="0.15"/></g><g id="ARC_25_">
		
			<path d="    M299.8,328.2c0-0.5-0.4-1-1-1" fill="none" id="n_id_238" stroke="#000000" stroke-linecap="round" stroke-linejoin="round" stroke-miterlimit="10" stroke-width="0.15"/></g><g id="ARC_26_">
		
			<path d="    M301.5,340.5c0.3,0,0.5-0.2,0.5-0.5s-0.2-0.5-0.5-0.5" fill="none" id="n_id_239" stroke="#000000" stroke-linecap="round" stroke-linejoin="round" stroke-miterlimit="10" stroke-width="0.15"/></g><g id="CIRCLE_4_">
		
			<path d="    M301,336.1c0-0.3,0.2-0.5,0.5-0.5s0.5,0.2,0.5,0.5s-0.2,0.5-0.5,0.5S301,336.4,301,336.1L301,336.1z" fill="none" id="n_id_240" stroke="#000000" stroke-linecap="round" stroke-linejoin="round" stroke-miterlimit="10" stroke-width="0.15"/></g><g id="ARC_27_">
		
			<path d="    M298.8,339c0.5,0,1-0.4,1-1" fill="none" id="n_id_241" stroke="#000000" stroke-linecap="round" stroke-linejoin="round" stroke-miterlimit="10" stroke-width="0.15"/></g><g id="LINE_69_">
		
			<line fill="none" id="n_id_242" stroke="#000000" stroke-linecap="round" stroke-linejoin="round" stroke-miterlimit="10" stroke-width="0.15" x1="302.5" x2="300.5" y1="334.1" y2="334.1"/></g><g id="LINE_70_">
		
			<line fill="none" id="n_id_243" stroke="#000000" stroke-linecap="round" stroke-linejoin="round" stroke-miterlimit="10" stroke-width="0.15" x1="300.5" x2="300.5" y1="334.1" y2="339.5"/></g><g id="LINE_71_">
		
			<line fill="none" id="n_id_244" stroke="#000000" stroke-linecap="round" stroke-linejoin="round" stroke-miterlimit="10" stroke-width="0.15" x1="299.8" x2="299.8" y1="328.2" y2="338.1"/></g><g id="LINE_72_">
		
			<line fill="none" id="n_id_246" stroke="#000000" stroke-linecap="round" stroke-linejoin="round" stroke-miterlimit="10" stroke-width="0.15" x1="301.8" x2="287" y1="354.8" y2="354.8"/></g><g id="LINE_73_">
		
			<line fill="none" id="n_id_247" stroke="#000000" stroke-linecap="round" stroke-linejoin="round" stroke-miterlimit="10" stroke-width="0.15" x1="298.8" x2="288.5" y1="352.9" y2="352.9"/></g><g id="ARC_28_">
		
			<path d="    M287.5,351.9c0,0.5,0.4,1,1,1" fill="none" id="n_id_248" stroke="#000000" stroke-linecap="round" stroke-linejoin="round" stroke-miterlimit="10" stroke-width="0.15"/></g><g id="LINE_74_">
		
			<line fill="none" id="n_id_249" stroke="#000000" stroke-linecap="round" stroke-linejoin="round" stroke-miterlimit="10" stroke-width="0.15" x1="287.5" x2="287.5" y1="351.9" y2="342"/></g><g id="ARC_29_">
		
			<path d="    M285.5,353.4c0,0.8,0.7,1.5,1.5,1.5" fill="none" id="n_id_250" stroke="#000000" stroke-linecap="round" stroke-linejoin="round" stroke-miterlimit="10" stroke-width="0.15"/></g><g id="LINE_75_">
		
			<line fill="none" id="n_id_252" stroke="#000000" stroke-linecap="round" stroke-linejoin="round" stroke-miterlimit="10" stroke-width="0.15" x1="300.5" x2="302.5" y1="346" y2="346"/></g><g id="ARC_30_">
		
			<path d="    M301.8,354.8c0.8,0,1.5-0.7,1.5-1.5" fill="none" id="n_id_253" stroke="#000000" stroke-linecap="round" stroke-linejoin="round" stroke-miterlimit="10" stroke-width="0.15"/></g><g id="ARC_31_">
		
			<path d="    M298.8,352.9c0.5,0,1-0.4,1-1" fill="none" id="n_id_254" stroke="#000000" stroke-linecap="round" stroke-linejoin="round" stroke-miterlimit="10" stroke-width="0.15"/></g><g id="LINE_77_">
		
			<line fill="none" id="n_id_256" stroke="#000000" stroke-linecap="round" stroke-linejoin="round" stroke-miterlimit="10" stroke-width="0.15" x1="314.1" x2="282.5" y1="385.9" y2="385.9"/></g><g id="LINE_79_">
		
			<line fill="none" id="n_id_257" stroke="#000000" stroke-linecap="round" stroke-linejoin="round" stroke-miterlimit="10" stroke-width="0.15" x1="381.3" x2="381.3" y1="101.1" y2="147"/></g><g id="LWPOLYLINE_13_">
		
			<path d="    M395.1,124.8c-0.1,0.6-0.2,1.3-0.3,1.9c-0.2,0.7-0.6,1.4-1,2.1c-0.4,0.6-1,1.1-1.6,1.5c-0.5,0.3-1.1,0.5-1.7,0.5s-1.2-0.2-1.7-0.5    c-0.6-0.4-1.2-0.9-1.6-1.5s-0.8-1.3-1-2.1c-0.3-0.9-0.4-1.7-0.4-2.6" fill="none" id="n_id_258" stroke="#000000" stroke-linecap="round" stroke-linejoin="round" stroke-miterlimit="10" stroke-width="0.15"/></g><g id="LWPOLYLINE_14_">
		
			<path d="    M384.2,124c0-1.2,0.2-2.4,0.6-3.5c0.4-1,0.9-2,1.6-2.8s1.5-1.5,2.5-2c0.9-0.4,1.8-0.6,2.8-0.6s1.9,0.2,2.8,0.6    c1,0.5,1.8,1.1,2.5,2c0.7,0.8,1.2,1.8,1.6,2.8c0.4,1.1,0.6,2.3,0.6,3.5s-0.2,2.4-0.6,3.5c-0.4,1-0.9,2-1.6,2.8s-1.5,1.5-2.5,2    c-0.9,0.4-1.8,0.6-2.8,0.6s-1.9-0.2-2.8-0.6c-1-0.5-1.8-1.1-2.5-2c-0.7-0.8-1.2-1.8-1.6-2.8C384.4,126.4,384.2,125.2,384.2,124z" fill="none" id="n_id_259" stroke="#000000" stroke-linecap="round" stroke-linejoin="round" stroke-miterlimit="10" stroke-width="0.15"/></g><g id="ARC_32_">
		
			<path d="    M396.4,124.9c0.5,0.1,0.9-0.3,1-0.7c0.1-0.5-0.3-0.9-0.7-1c-0.1,0-0.2,0-0.3,0" fill="none" id="n_id_260" stroke="#000000" stroke-linecap="round" stroke-linejoin="round" stroke-miterlimit="10" stroke-width="0.15"/></g><g id="CIRCLE_7_">
		
			<path d="    M396.1,126.5c0-0.3,0.2-0.5,0.5-0.5s0.5,0.2,0.5,0.5s-0.2,0.5-0.5,0.5S396.1,126.8,396.1,126.5L396.1,126.5z" fill="none" id="n_id_261" stroke="#000000" stroke-linecap="round" stroke-linejoin="round" stroke-miterlimit="10" stroke-width="0.15"/></g><g id="CIRCLE_8_">
		
			<path d="    M396.1,121.6c0-0.3,0.2-0.5,0.5-0.5s0.5,0.2,0.5,0.5s-0.2,0.5-0.5,0.5S396.1,121.8,396.1,121.6L396.1,121.6z" fill="none" id="n_id_262" stroke="#000000" stroke-linecap="round" stroke-linejoin="round" stroke-miterlimit="10" stroke-width="0.15"/></g><g id="LWPOLYLINE_15_">
		
			<path d="    M385.7,124c0-0.9,0.1-1.8,0.4-2.6c0.2-0.7,0.6-1.4,1-2.1c0.4-0.6,1-1.1,1.6-1.5c0.5-0.3,1.1-0.5,1.7-0.5s1.2,0.2,1.7,0.5    c0.6,0.4,1.2,0.9,1.6,1.5s0.8,1.3,1,2.1c0.2,0.6,0.3,1.2,0.3,1.9" fill="none" id="n_id_263" stroke="#000000" stroke-linecap="round" stroke-linejoin="round" stroke-miterlimit="10" stroke-width="0.15"/></g><g id="ARC_33_">
		
			<path d="    M391.6,124.1c0,0.3,0.2,0.5,0.5,0.5" fill="none" id="n_id_264" stroke="#000000" stroke-linecap="round" stroke-linejoin="round" stroke-miterlimit="10" stroke-width="0.15"/></g><g id="ARC_34_">
		
			<path d="    M392.1,123.5c-0.3,0-0.5,0.2-0.5,0.5" fill="none" id="n_id_265" stroke="#000000" stroke-linecap="round" stroke-linejoin="round" stroke-miterlimit="10" stroke-width="0.15"/></g><g id="LINE_80_">
		
			<line fill="none" id="n_id_266" stroke="#000000" stroke-linecap="round" stroke-linejoin="round" stroke-miterlimit="10" stroke-width="0.15" x1="391.6" x2="391.6" y1="124.1" y2="124"/></g><g id="LINE_81_">
		
			<line fill="none" id="n_id_267" stroke="#000000" stroke-linecap="round" stroke-linejoin="round" stroke-miterlimit="10" stroke-width="0.15" x1="396.6" x2="392.1" y1="123.1" y2="123.5"/></g><g id="LINE_82_">
		
			<line fill="none" id="n_id_268" stroke="#000000" stroke-linecap="round" stroke-linejoin="round" stroke-miterlimit="10" stroke-width="0.15" x1="396.6" x2="392.1" y1="124.9" y2="124.6"/></g><g id="ARC_35_">
		
			<path d="    M357.4,177.5c11.1-11.1,11.6-28.9,1.2-40.7" fill="none" id="n_id_269" stroke="#000000" stroke-linecap="round" stroke-linejoin="round" stroke-miterlimit="10" stroke-width="0.15"/></g><g id="LINE_83_">
		
			<line fill="none" id="n_id_270" stroke="#000000" stroke-linecap="round" stroke-linejoin="round" stroke-miterlimit="10" stroke-width="0.15" x1="337.7" x2="358.6" y1="157.8" y2="136.8"/></g><g id="LINE_84_">
		
			<line fill="none" id="n_id_271" stroke="#000000" stroke-linecap="round" stroke-linejoin="round" stroke-miterlimit="10" stroke-width="0.15" x1="336.5" x2="357.4" y1="156.5" y2="135.6"/></g><g id="LINE_85_">
		
			<line fill="none" id="n_id_272" stroke="#000000" stroke-linecap="round" stroke-linejoin="round" stroke-miterlimit="10" stroke-width="0.15" x1="358.6" x2="357.4" y1="136.8" y2="135.6"/></g><g id="LINE_86_">
		
			<line fill="none" id="n_id_273" stroke="#000000" stroke-linecap="round" stroke-linejoin="round" stroke-miterlimit="10" stroke-width="0.15" x1="337.7" x2="336.5" y1="157.8" y2="156.5"/></g><g id="LINE_87_">
		
			<line fill="none" id="n_id_274" stroke="#000000" stroke-linecap="round" stroke-linejoin="round" stroke-miterlimit="10" stroke-width="0.15" x1="342.6" x2="359.4" y1="239.4" y2="222.6"/></g><g id="LINE_88_">
		
			<line fill="none" id="n_id_275" stroke="#000000" stroke-linecap="round" stroke-linejoin="round" stroke-miterlimit="10" stroke-width="0.15" x1="359.4" x2="358.6" y1="222.6" y2="221.8"/></g><g id="ARC_36_">
		
			<path d="    M342.6,239.4c4.4,3.9,10.1,6,15.9,6.1" fill="none" id="n_id_276" stroke="#000000" stroke-linecap="round" stroke-linejoin="round" stroke-miterlimit="10" stroke-width="0.15"/></g><g id="LINE_89_">
		
			<line fill="none" id="n_id_277" stroke="#000000" stroke-linecap="round" stroke-linejoin="round" stroke-miterlimit="10" stroke-width="0.15" x1="358.6" x2="341.8" y1="221.8" y2="238.5"/></g><g id="LINE_90_">
		
			<line fill="none" id="n_id_278" stroke="#000000" stroke-linecap="round" stroke-linejoin="round" stroke-miterlimit="10" stroke-width="0.15" x1="342.6" x2="341.8" y1="239.4" y2="238.5"/></g><g id="LINE_91_">
		
			<line fill="none" id="n_id_279" stroke="#000000" stroke-linecap="round" stroke-linejoin="round" stroke-miterlimit="10" stroke-width="0.15" x1="366" x2="380" y1="160.5" y2="174.4"/></g><g id="LINE_92_">
		
			<line fill="none" id="n_id_280" stroke="#000000" stroke-linecap="round" stroke-linejoin="round" stroke-miterlimit="10" stroke-width="0.15" x1="380" x2="379.3" y1="174.4" y2="175.1"/></g><g id="ARC_37_">
		
			<path d="    M379.3,155.4c-4.9,0.1-9.6,1.9-13.3,5.1" fill="none" id="n_id_281" stroke="#000000" stroke-linecap="round" stroke-linejoin="round" stroke-miterlimit="10" stroke-width="0.15"/></g><g id="LINE_93_">
		
			<line fill="none" id="n_id_282" stroke="#000000" stroke-linecap="round" stroke-linejoin="round" stroke-miterlimit="10" stroke-width="0.15" x1="379.3" x2="365.3" y1="175.1" y2="161.2"/></g><g id="LINE_94_">
		
			<line fill="none" id="n_id_283" stroke="#000000" stroke-linecap="round" stroke-linejoin="round" stroke-miterlimit="10" stroke-width="0.15" x1="366" x2="365.3" y1="160.5" y2="161.2"/></g><g id="LINE_95_">
		
			<line fill="none" id="n_id_284" stroke="#000000" stroke-linecap="round" stroke-linejoin="round" stroke-miterlimit="10" stroke-width="0.15" x1="341.3" x2="359.5" y1="204.6" y2="186.4"/></g><g id="LINE_96_">
		
			<line fill="none" id="n_id_285" stroke="#000000" stroke-linecap="round" stroke-linejoin="round" stroke-miterlimit="10" stroke-width="0.15" x1="359.5" x2="358.6" y1="186.4" y2="185.5"/></g><g id="ARC_38_">
		
			<path d="    M341.3,204.6c4.8,4.2,10.9,6.5,17.2,6.6" fill="none" id="n_id_286" stroke="#000000" stroke-linecap="round" stroke-linejoin="round" stroke-miterlimit="10" stroke-width="0.15"/></g><g id="LINE_97_">
		
			<line fill="none" id="n_id_287" stroke="#000000" stroke-linecap="round" stroke-linejoin="round" stroke-miterlimit="10" stroke-width="0.15" x1="358.6" x2="340.4" y1="185.5" y2="203.6"/></g><g id="LINE_98_">
		
			<line fill="none" id="n_id_288" stroke="#000000" stroke-linecap="round" stroke-linejoin="round" stroke-miterlimit="10" stroke-width="0.15" x1="341.3" x2="340.4" y1="204.6" y2="203.6"/></g><g id="LINE_99_">
		
			<line fill="none" id="n_id_289" stroke="#000000" stroke-linecap="round" stroke-linejoin="round" stroke-miterlimit="10" stroke-width="0.15" x1="215.1" x2="238.8" y1="382.5" y2="382.5"/></g><g id="LINE_100_">
		
			<line fill="none" id="n_id_290" stroke="#000000" stroke-linecap="round" stroke-linejoin="round" stroke-miterlimit="10" stroke-width="0.15" x1="217.1" x2="245.3" y1="225" y2="225"/></g><g id="LINE_101_">
		
			<line fill="none" id="n_id_291" stroke="#000000" stroke-linecap="round" stroke-linejoin="round" stroke-miterlimit="10" stroke-width="0.15" x1="217.1" x2="245.3" y1="260.5" y2="260.5"/></g><g id="LINE_102_">
		
			<line fill="none" id="n_id_292" stroke="#000000" stroke-linecap="round" stroke-linejoin="round" stroke-miterlimit="10" stroke-width="0.15" x1="217.1" x2="217.1" y1="260.5" y2="225"/></g><g id="LINE_103_">
		
			<line fill="none" id="n_id_293" stroke="#000000" stroke-linecap="round" stroke-linejoin="round" stroke-miterlimit="10" stroke-width="0.15" x1="243.3" x2="243.3" y1="260.5" y2="225"/></g><g id="LINE_104_">
		
			<line fill="none" id="n_id_294" stroke="#000000" stroke-linecap="round" stroke-linejoin="round" stroke-miterlimit="10" stroke-width="0.15" x1="245.3" x2="245.3" y1="247.5" y2="225"/></g><g id="LINE_105_">
		
			<line fill="none" id="n_id_295" stroke="#000000" stroke-linecap="round" stroke-linejoin="round" stroke-miterlimit="10" stroke-width="0.15" x1="245.3" x2="245.3" y1="260.5" y2="248"/></g><g id="LINE_106_">
		
			<line fill="none" id="n_id_296" stroke="#000000" stroke-linecap="round" stroke-linejoin="round" stroke-miterlimit="10" stroke-width="0.15" x1="243.3" x2="245.3" y1="248" y2="248"/></g><g id="LINE_107_">
		
			<line fill="none" id="n_id_297" stroke="#000000" stroke-linecap="round" stroke-linejoin="round" stroke-miterlimit="10" stroke-width="0.15" x1="243.3" x2="245.3" y1="247.5" y2="247.5"/></g><g id="LINE_108_">
		
			<line fill="none" id="n_id_298" stroke="#000000" stroke-linecap="round" stroke-linejoin="round" stroke-miterlimit="10" stroke-width="0.15" x1="401.5" x2="401.5" y1="301" y2="355.2"/></g><g id="LINE_109_">
		
			<line fill="none" id="n_id_299" stroke="#000000" stroke-linecap="round" stroke-linejoin="round" stroke-miterlimit="10" stroke-width="0.15" x1="401.5" x2="401.5" y1="362.6" y2="446.2"/></g><g id="LINE_110_">
		
			<line fill="none" id="n_id_300" stroke="#000000" stroke-linecap="round" stroke-linejoin="round" stroke-miterlimit="10" stroke-width="0.15" x1="399.5" x2="399.5" y1="299.1" y2="355.7"/></g><g id="LINE_111_">
		
			<line fill="none" id="n_id_301" stroke="#000000" stroke-linecap="round" stroke-linejoin="round" stroke-miterlimit="10" stroke-width="0.15" x1="399.5" x2="399.5" y1="363.1" y2="448.2"/></g><g id="LINE_112_">
		
			<line fill="none" id="n_id_302" stroke="#000000" stroke-linecap="round" stroke-linejoin="round" stroke-miterlimit="10" stroke-width="0.15" x1="362" x2="358.6" y1="450.6" y2="450.6"/></g><g id="LINE_113_">
		
			<line fill="none" id="n_id_303" stroke="#000000" stroke-linecap="round" stroke-linejoin="round" stroke-miterlimit="10" stroke-width="0.15" x1="403" x2="399.5" y1="299.1" y2="299.1"/></g><g id="LINE_114_">
		
			<line fill="none" id="n_id_304" stroke="#000000" stroke-linecap="round" stroke-linejoin="round" stroke-miterlimit="10" stroke-width="0.15" x1="403" x2="401.5" y1="301" y2="301"/></g><g id="LINE_115_">
		
			<line fill="none" id="n_id_305" stroke="#000000" stroke-linecap="round" stroke-linejoin="round" stroke-miterlimit="10" stroke-width="0.15" x1="403" x2="401.5" y1="326.2" y2="326.2"/></g><g id="LINE_116_">
		
			<line fill="none" id="n_id_306" stroke="#000000" stroke-linecap="round" stroke-linejoin="round" stroke-miterlimit="10" stroke-width="0.15" x1="399.5" x2="362" y1="326.2" y2="326.2"/></g><g id="LINE_117_">
		
			<line fill="none" id="n_id_307" stroke="#000000" stroke-linecap="round" stroke-linejoin="round" stroke-miterlimit="10" stroke-width="0.15" x1="403" x2="401.5" y1="346" y2="346"/></g><g id="LINE_118_">
		
			<line fill="none" id="n_id_308" stroke="#000000" stroke-linecap="round" stroke-linejoin="round" stroke-miterlimit="10" stroke-width="0.15" x1="399.5" x2="362" y1="346" y2="346"/></g><g id="LINE_119_">
		
			<line fill="none" id="n_id_309" stroke="#000000" stroke-linecap="round" stroke-linejoin="round" stroke-miterlimit="10" stroke-width="0.15" x1="398.9" x2="381.9" y1="355.8" y2="355.8"/></g><g id="LINE_120_">
		
			<line fill="none" id="n_id_310" stroke="#000000" stroke-linecap="round" stroke-linejoin="round" stroke-miterlimit="10" stroke-width="0.15" x1="375.6" x2="362" y1="355.8" y2="355.8"/></g><g id="LINE_121_">
		
			<line fill="none" id="n_id_311" stroke="#000000" stroke-linecap="round" stroke-linejoin="round" stroke-miterlimit="10" stroke-width="0.15" x1="403" x2="401.5" y1="373.1" y2="373.1"/></g><g id="LINE_122_">
		
			<line fill="none" id="n_id_312" stroke="#000000" stroke-linecap="round" stroke-linejoin="round" stroke-miterlimit="10" stroke-width="0.15" x1="403" x2="401.5" y1="363.2" y2="363.2"/></g><g id="LINE_123_">
		
			<line fill="none" id="n_id_313" stroke="#000000" stroke-linecap="round" stroke-linejoin="round" stroke-miterlimit="10" stroke-width="0.15" x1="399.5" x2="398.9" y1="363.2" y2="363.2"/></g><g id="LINE_124_">
		
			<line fill="none" id="n_id_314" stroke="#000000" stroke-linecap="round" stroke-linejoin="round" stroke-miterlimit="10" stroke-width="0.15" x1="399.5" x2="362" y1="373.1" y2="373.1"/></g><g id="LINE_125_">
		
			<line fill="none" id="n_id_315" stroke="#000000" stroke-linecap="round" stroke-linejoin="round" stroke-miterlimit="10" stroke-width="0.15" x1="403" x2="401.5" y1="373.1" y2="373.1"/></g><g id="LINE_126_">
		
			<line fill="none" id="n_id_316" stroke="#000000" stroke-linecap="round" stroke-linejoin="round" stroke-miterlimit="10" stroke-width="0.15" x1="399.5" x2="362" y1="373.1" y2="373.1"/></g><g id="LINE_127_">
		
			<line fill="none" id="n_id_317" stroke="#000000" stroke-linecap="round" stroke-linejoin="round" stroke-miterlimit="10" stroke-width="0.15" x1="403" x2="401.5" y1="392.9" y2="392.9"/></g><g id="LINE_128_">
		
			<line fill="none" id="n_id_318" stroke="#000000" stroke-linecap="round" stroke-linejoin="round" stroke-miterlimit="10" stroke-width="0.15" x1="399.5" x2="362" y1="392.9" y2="392.9"/></g><g id="LINE_129_">
		
			<line fill="none" id="n_id_319" stroke="#000000" stroke-linecap="round" stroke-linejoin="round" stroke-miterlimit="10" stroke-width="0.15" x1="403" x2="401.5" y1="402.7" y2="402.7"/></g><g id="LINE_130_">
		
			<line fill="none" id="n_id_320" stroke="#000000" stroke-linecap="round" stroke-linejoin="round" stroke-miterlimit="10" stroke-width="0.15" x1="399.5" x2="362" y1="402.7" y2="402.7"/></g><g id="LINE_131_">
		
			<line fill="none" id="n_id_321" stroke="#000000" stroke-linecap="round" stroke-linejoin="round" stroke-miterlimit="10" stroke-width="0.15" x1="403" x2="401.5" y1="412.6" y2="412.6"/></g><g id="LINE_132_">
		
			<line fill="none" id="n_id_322" stroke="#000000" stroke-linecap="round" stroke-linejoin="round" stroke-miterlimit="10" stroke-width="0.15" x1="399.5" x2="362" y1="412.6" y2="412.6"/></g><g id="LINE_133_">
		
			<line fill="none" id="n_id_323" stroke="#000000" stroke-linecap="round" stroke-linejoin="round" stroke-miterlimit="10" stroke-width="0.15" x1="403" x2="401.5" y1="442.2" y2="442.2"/></g><g id="LINE_134_">
		
			<line fill="none" id="n_id_324" stroke="#000000" stroke-linecap="round" stroke-linejoin="round" stroke-miterlimit="10" stroke-width="0.15" x1="403" x2="399.5" y1="448.2" y2="448.2"/></g><g id="LINE_135_">
		
			<line fill="none" id="n_id_325" stroke="#000000" stroke-linecap="round" stroke-linejoin="round" stroke-miterlimit="10" stroke-width="0.15" x1="403" x2="401.5" y1="446.2" y2="446.2"/></g><g id="LINE_136_">
		
			<line fill="none" id="n_id_326" stroke="#000000" stroke-linecap="round" stroke-linejoin="round" stroke-miterlimit="10" stroke-width="0.15" x1="399.5" x2="362" y1="442.2" y2="442.2"/></g><g id="LINE_139_">
		
			<line fill="none" id="n_id_327" stroke="#000000" stroke-linecap="round" stroke-linejoin="round" stroke-miterlimit="10" stroke-width="0.15" x1="403" x2="401.5" y1="422.5" y2="422.5"/></g><g id="LINE_140_">
		
			<line fill="none" id="n_id_328" stroke="#000000" stroke-linecap="round" stroke-linejoin="round" stroke-miterlimit="10" stroke-width="0.15" x1="399.5" x2="362" y1="422.5" y2="422.5"/></g><g id="LINE_141_">
		
			<line fill="none" id="n_id_329" stroke="#000000" stroke-linecap="round" stroke-linejoin="round" stroke-miterlimit="10" stroke-width="0.15" x1="403" x2="401.5" y1="432.4" y2="432.4"/></g><g id="LINE_142_">
		
			<line fill="none" id="n_id_330" stroke="#000000" stroke-linecap="round" stroke-linejoin="round" stroke-miterlimit="10" stroke-width="0.15" x1="399.5" x2="362" y1="432.4" y2="432.4"/></g><g id="LINE_143_">
		
			<line fill="none" id="n_id_331" stroke="#000000" stroke-linecap="round" stroke-linejoin="round" stroke-miterlimit="10" stroke-width="0.15" x1="362" x2="362" y1="376.6" y2="450.6"/></g><g id="LINE_144_">
		
			<line fill="none" id="n_id_332" stroke="#000000" stroke-linecap="round" stroke-linejoin="round" stroke-miterlimit="10" stroke-width="0.15" x1="358.6" x2="358.6" y1="450.6" y2="376.6"/></g><g id="ELLIPSE_1_">
		
			<path d="    M376.5,372.5c-0.5-1.2-0.9-2.7-1.1-4.3c-0.5-4.5,0.7-8.7,2.6-9.3s3.9,2.5,4.4,7" fill="none" id="n_id_333" stroke="#000000" stroke-linecap="round" stroke-linejoin="round" stroke-miterlimit="10" stroke-width="0.15"/></g><g id="ELLIPSE_2_">
		
			<path d="    M384.5,366.3c0-1.2-0.5-2.4-1-2.5s-0.9,0.7-1,1.8" fill="none" id="n_id_334" stroke="#000000" stroke-linecap="round" stroke-linejoin="round" stroke-miterlimit="10" stroke-width="0.15"/></g><g id="LINE_145_">
		
			<line fill="none" id="n_id_335" stroke="#000000" stroke-linecap="round" stroke-linejoin="round" stroke-miterlimit="10" stroke-width="0.15" x1="382.4" x2="382.7" y1="365.9" y2="368.6"/></g><g id="LINE_146_">
		
			<line fill="none" id="n_id_336" stroke="#000000" stroke-linecap="round" stroke-linejoin="round" stroke-miterlimit="10" stroke-width="0.15" x1="382.7" x2="382.6" y1="368.6" y2="365.6"/></g><g id="LINE_147_">
		
			<line fill="none" id="n_id_337" stroke="#000000" stroke-linecap="round" stroke-linejoin="round" stroke-miterlimit="10" stroke-width="0.15" x1="384.5" x2="384.6" y1="366.3" y2="368.1"/></g><g id="LINE_148_">
		
			<line fill="none" id="n_id_338" stroke="#000000" stroke-linecap="round" stroke-linejoin="round" stroke-miterlimit="10" stroke-width="0.15" x1="384.6" x2="384.9" y1="368.1" y2="364.2"/></g><g id="ARC_39_">
		
			<path d="    M385.3,363.9c-0.2-0.1-0.3,0-0.4,0.1v0.1" fill="none" id="n_id_339" stroke="#000000" stroke-linecap="round" stroke-linejoin="round" stroke-miterlimit="10" stroke-width="0.15"/></g><g id="ARC_40_">
		
			<path d="    M385.6,364.3c0-0.1-0.1-0.3-0.2-0.3" fill="none" id="n_id_340" stroke="#000000" stroke-linecap="round" stroke-linejoin="round" stroke-miterlimit="10" stroke-width="0.15"/></g><g id="ARC_41_">
		
			<path d="    M386.3,368.1c-0.1-1.3-0.3-2.6-0.7-3.8" fill="none" id="n_id_341" stroke="#000000" stroke-linecap="round" stroke-linejoin="round" stroke-miterlimit="10" stroke-width="0.15"/></g><g id="LINE_149_">
		
			<line fill="none" id="n_id_342" stroke="#000000" stroke-linecap="round" stroke-linejoin="round" stroke-miterlimit="10" stroke-width="0.15" x1="386.3" x2="386.4" y1="368.1" y2="364.5"/></g><g id="ARC_42_">
		
			<path d="    M387,364.4c-0.1-0.1-0.3-0.2-0.5-0.1c-0.1,0-0.1,0.1-0.1,0.2" fill="none" id="n_id_343" stroke="#000000" stroke-linecap="round" stroke-linejoin="round" stroke-miterlimit="10" stroke-width="0.15"/></g><g id="ARC_43_">
		
			<path d="    M387.2,364.8c0-0.1-0.1-0.3-0.2-0.4" fill="none" id="n_id_344" stroke="#000000" stroke-linecap="round" stroke-linejoin="round" stroke-miterlimit="10" stroke-width="0.15"/></g><g id="ARC_44_">
		
			<path d="    M387.7,367.5c-0.1-0.9-0.3-1.8-0.6-2.7" fill="none" id="n_id_345" stroke="#000000" stroke-linecap="round" stroke-linejoin="round" stroke-miterlimit="10" stroke-width="0.15"/></g><g id="ARC_45_">
		
			<path d="    M387.7,367.5c0,0.1,0.2,0.2,0.3,0.2c0.1,0,0.1,0,0.1-0.1" fill="none" id="n_id_346" stroke="#000000" stroke-linecap="round" stroke-linejoin="round" stroke-miterlimit="10" stroke-width="0.15"/></g><g id="ARC_46_">
		
			<path d="    M388.2,367.5c0.9-0.8,1.4-2.1,1.1-3.3" fill="none" id="n_id_347" stroke="#000000" stroke-linecap="round" stroke-linejoin="round" stroke-miterlimit="10" stroke-width="0.15"/></g><g id="LWPOLYLINE_16_">
		
			<line fill="none" id="n_id_348" stroke="#000000" stroke-linecap="round" stroke-linejoin="round" stroke-miterlimit="10" stroke-width="0.15" x1="362" x2="375.5" y1="372.1" y2="368.9"/></g><g id="LWPOLYLINE_17_">
		
			<line fill="none" id="n_id_349" stroke="#000000" stroke-linecap="round" stroke-linejoin="round" stroke-miterlimit="10" stroke-width="0.15" x1="389.3" x2="403" y1="365.6" y2="362.2"/></g><g id="ELLIPSE_3_">
		
			<path d="    M375.7,362.6c-0.1-0.6-0.2-1.1-0.3-1.7c-0.5-4.5,0.7-8.7,2.6-9.3s3.9,2.5,4.4,7" fill="none" id="n_id_350" stroke="#000000" stroke-linecap="round" stroke-linejoin="round" stroke-miterlimit="10" stroke-width="0.15"/></g><g id="ELLIPSE_4_">
		
			<path d="    M384.5,358.9c0-1.2-0.5-2.4-1-2.5s-0.9,0.7-1,1.8" fill="none" id="n_id_351" stroke="#000000" stroke-linecap="round" stroke-linejoin="round" stroke-miterlimit="10" stroke-width="0.15"/></g><g id="LINE_150_">
		
			<line fill="none" id="n_id_352" stroke="#000000" stroke-linecap="round" stroke-linejoin="round" stroke-miterlimit="10" stroke-width="0.15" x1="382.4" x2="382.7" y1="358.5" y2="361.2"/></g><g id="LINE_151_">
		
			<line fill="none" id="n_id_353" stroke="#000000" stroke-linecap="round" stroke-linejoin="round" stroke-miterlimit="10" stroke-width="0.15" x1="382.7" x2="382.6" y1="361.2" y2="358.2"/></g><g id="LINE_152_">
		
			<line fill="none" id="n_id_354" stroke="#000000" stroke-linecap="round" stroke-linejoin="round" stroke-miterlimit="10" stroke-width="0.15" x1="384.5" x2="384.6" y1="358.9" y2="360.7"/></g><g id="LINE_153_">
		
			<line fill="none" id="n_id_355" stroke="#000000" stroke-linecap="round" stroke-linejoin="round" stroke-miterlimit="10" stroke-width="0.15" x1="384.6" x2="384.9" y1="360.7" y2="356.8"/></g><g id="ARC_47_">
		
			<path d="    M385.3,356.5c-0.2-0.1-0.3,0-0.4,0.1v0.1" fill="none" id="n_id_356" stroke="#000000" stroke-linecap="round" stroke-linejoin="round" stroke-miterlimit="10" stroke-width="0.15"/></g><g id="ARC_48_">
		
			<path d="    M385.6,356.8c0-0.1-0.1-0.3-0.2-0.3" fill="none" id="n_id_357" stroke="#000000" stroke-linecap="round" stroke-linejoin="round" stroke-miterlimit="10" stroke-width="0.15"/></g><g id="ARC_49_">
		
			<path d="    M386.3,360.7c-0.1-1.3-0.3-2.6-0.7-3.8" fill="none" id="n_id_358" stroke="#000000" stroke-linecap="round" stroke-linejoin="round" stroke-miterlimit="10" stroke-width="0.15"/></g><g id="LINE_154_">
		
			<line fill="none" id="n_id_359" stroke="#000000" stroke-linecap="round" stroke-linejoin="round" stroke-miterlimit="10" stroke-width="0.15" x1="386.3" x2="386.4" y1="360.7" y2="357.1"/></g><g id="ARC_50_">
		
			<path d="    M387,357c-0.1-0.1-0.3-0.2-0.5-0.1c-0.1,0-0.1,0.1-0.1,0.2" fill="none" id="n_id_360" stroke="#000000" stroke-linecap="round" stroke-linejoin="round" stroke-miterlimit="10" stroke-width="0.15"/></g><g id="ARC_51_">
		
			<path d="    M387.2,357.4c0-0.1-0.1-0.3-0.2-0.4" fill="none" id="n_id_361" stroke="#000000" stroke-linecap="round" stroke-linejoin="round" stroke-miterlimit="10" stroke-width="0.15"/></g><g id="ARC_52_">
		
			<path d="    M387.7,360.1c-0.1-0.9-0.3-1.8-0.6-2.7" fill="none" id="n_id_362" stroke="#000000" stroke-linecap="round" stroke-linejoin="round" stroke-miterlimit="10" stroke-width="0.15"/></g><g id="ARC_53_">
		
			<path d="    M387.7,360.1c0,0.1,0.2,0.2,0.3,0.2c0.1,0,0.1,0,0.1-0.1" fill="none" id="n_id_363" stroke="#000000" stroke-linecap="round" stroke-linejoin="round" stroke-miterlimit="10" stroke-width="0.15"/></g><g id="ARC_54_">
		
			<path d="    M388.2,360.1c0.9-0.8,1.4-2.1,1.1-3.3" fill="none" id="n_id_364" stroke="#000000" stroke-linecap="round" stroke-linejoin="round" stroke-miterlimit="10" stroke-width="0.15"/></g><g id="LWPOLYLINE_18_">
		
			<line fill="none" id="n_id_365" stroke="#000000" stroke-linecap="round" stroke-linejoin="round" stroke-miterlimit="10" stroke-width="0.15" x1="362" x2="375.5" y1="364.7" y2="361.5"/></g><g id="LWPOLYLINE_19_">
		
			<line fill="none" id="n_id_366" stroke="#000000" stroke-linecap="round" stroke-linejoin="round" stroke-miterlimit="10" stroke-width="0.15" x1="389.3" x2="403" y1="358.1" y2="354.8"/></g><g id="LINE_155_">
		
			<line fill="none" id="n_id_367" stroke="#000000" stroke-linecap="round" stroke-linejoin="round" stroke-miterlimit="10" stroke-width="0.15" x1="403" x2="401.5" y1="383" y2="383"/></g><g id="LINE_156_">
		
			<line fill="none" id="n_id_368" stroke="#000000" stroke-linecap="round" stroke-linejoin="round" stroke-miterlimit="10" stroke-width="0.15" x1="399.5" x2="362" y1="383" y2="383"/></g><g id="LINE_157_">
		
			<line fill="none" id="n_id_369" stroke="#000000" stroke-linecap="round" stroke-linejoin="round" stroke-miterlimit="10" stroke-width="0.15" x1="403" x2="401.5" y1="336.1" y2="336.1"/></g><g id="LINE_158_">
		
			<line fill="none" id="n_id_370" stroke="#000000" stroke-linecap="round" stroke-linejoin="round" stroke-miterlimit="10" stroke-width="0.15" x1="399.5" x2="362" y1="336.1" y2="336.1"/></g><g id="LINE_160_">
		
			<line fill="none" id="n_id_371" stroke="#000000" stroke-linecap="round" stroke-linejoin="round" stroke-miterlimit="10" stroke-width="0.15" x1="362" x2="399.5" y1="303" y2="303"/></g><g id="LINE_161_">
		
			<line fill="none" id="n_id_372" stroke="#000000" stroke-linecap="round" stroke-linejoin="round" stroke-miterlimit="10" stroke-width="0.15" x1="403" x2="401.5" y1="316.3" y2="316.3"/></g><g id="LINE_162_">
		
			<line fill="none" id="n_id_373" stroke="#000000" stroke-linecap="round" stroke-linejoin="round" stroke-miterlimit="10" stroke-width="0.15" x1="399.5" x2="362" y1="316.3" y2="316.3"/></g><g id="LINE_163_">
		
			<line fill="none" id="n_id_374" stroke="#000000" stroke-linecap="round" stroke-linejoin="round" stroke-miterlimit="10" stroke-width="0.15" x1="403" x2="401.5" y1="306.5" y2="306.5"/></g><g id="LINE_164_">
		
			<line fill="none" id="n_id_375" stroke="#000000" stroke-linecap="round" stroke-linejoin="round" stroke-miterlimit="10" stroke-width="0.15" x1="399.5" x2="362" y1="306.5" y2="306.5"/></g><g id="CIRCLE_9_">
		
			<path d="    M379.8,442.2c0-0.5,0.4-1,1-1c0.5,0,1,0.4,1,1s-0.4,1-1,1C380.2,443.2,379.8,442.8,379.8,442.2L379.8,442.2z" fill="none" id="n_id_376" stroke="#000000" stroke-linecap="round" stroke-linejoin="round" stroke-miterlimit="10" stroke-width="0.15"/></g><g id="LWPOLYLINE_21_">
		
			<polygon fill="none" id="n_id_377" points="    386,377.8 375.5,377.8 380.8,375.2   " stroke="#000000" stroke-linecap="round" stroke-linejoin="round" stroke-miterlimit="10" stroke-width="0.15"/></g><g id="CIRCLE_10_">
		
			<path d="    M361,278.8c0-0.5,0.4-1,1-1s1,0.4,1,1c0,0.5-0.4,1-1,1S361,279.4,361,278.8L361,278.8z" fill="none" id="n_id_378" stroke="#000000" stroke-linecap="round" stroke-linejoin="round" stroke-miterlimit="10" stroke-width="0.15"/></g><g id="LWPOLYLINE_22_">
		
			<polygon fill="none" id="n_id_379" points="    387.8,339.8 377.2,339.8 382.5,342.5   " stroke="#000000" stroke-linecap="round" stroke-linejoin="round" stroke-miterlimit="10" stroke-width="0.15"/></g><g id="LWPOLYLINE_23_">
		
			<polyline fill="none" id="n_id_380" points="    382.5,339.8 382.5,278.8 363,278.8   " stroke="#000000" stroke-linecap="round" stroke-linejoin="round" stroke-miterlimit="10" stroke-width="0.15"/></g><g id="LINE_171_">
		
			<line fill="none" id="n_id_381" stroke="#000000" stroke-linecap="round" stroke-linejoin="round" stroke-miterlimit="10" stroke-width="0.15" x1="238.8" x2="238.8" y1="360.8" y2="316.7"/></g><g id="LINE_172_">
		
			<line fill="none" id="n_id_382" stroke="#000000" stroke-linecap="round" stroke-linejoin="round" stroke-miterlimit="10" stroke-width="0.15" x1="238.8" x2="238.8" y1="285.1" y2="262"/></g><g id="LINE_173_">
		
			<line fill="none" id="n_id_383" stroke="#000000" stroke-linecap="round" stroke-linejoin="round" stroke-miterlimit="10" stroke-width="0.15" x1="215.1" x2="238.8" y1="262" y2="262"/></g><g id="LINE_174_">
		
			<line fill="none" id="n_id_384" stroke="#000000" stroke-linecap="round" stroke-linejoin="round" stroke-miterlimit="10" stroke-width="0.15" x1="215.1" x2="238.8" y1="316.7" y2="316.7"/></g><g id="LINE_175_">
		
			<line fill="none" id="n_id_385" stroke="#000000" stroke-linecap="round" stroke-linejoin="round" stroke-miterlimit="10" stroke-width="0.15" x1="215.1" x2="238.8" y1="285.1" y2="285.1"/></g><g id="LINE_176_">
		
			<line fill="none" id="n_id_386" stroke="#000000" stroke-linecap="round" stroke-linejoin="round" stroke-miterlimit="10" stroke-width="0.15" x1="222.8" x2="226.3" y1="293.5" y2="293.5"/></g><g id="LINE_177_">
		
			<line fill="none" id="n_id_387" stroke="#000000" stroke-linecap="round" stroke-linejoin="round" stroke-miterlimit="10" stroke-width="0.15" x1="222.8" x2="226.3" y1="308.2" y2="308.2"/></g><g id="LINE_178_">
		
			<line fill="none" id="n_id_388" stroke="#000000" stroke-linecap="round" stroke-linejoin="round" stroke-miterlimit="10" stroke-width="0.15" x1="239.8" x2="216.1" y1="286.1" y2="286.1"/></g><g id="LINE_179_">
		
			<line fill="none" id="n_id_389" stroke="#000000" stroke-linecap="round" stroke-linejoin="round" stroke-miterlimit="10" stroke-width="0.15" x1="239.8" x2="216.1" y1="315.6" y2="315.6"/></g><g id="LINE_180_">
		
			<line fill="none" id="n_id_390" stroke="#000000" stroke-linecap="round" stroke-linejoin="round" stroke-miterlimit="10" stroke-width="0.15" x1="239.8" x2="239.8" y1="315.6" y2="286.1"/></g><g id="LINE_181_">
		
			<line fill="none" id="n_id_391" stroke="#000000" stroke-linecap="round" stroke-linejoin="round" stroke-miterlimit="10" stroke-width="0.15" x1="238.1" x2="238.1" y1="315.6" y2="286.1"/></g><g id="LINE_183_">
		
			<line fill="none" id="n_id_392" stroke="#000000" stroke-linecap="round" stroke-linejoin="round" stroke-miterlimit="10" stroke-width="0.15" x1="230" x2="231.7" y1="312" y2="309.1"/></g><g id="LINE_184_">
		
			<line fill="none" id="n_id_393" stroke="#000000" stroke-linecap="round" stroke-linejoin="round" stroke-miterlimit="10" stroke-width="0.15" x1="234.4" x2="232.7" y1="312" y2="309.1"/></g><g id="CIRCLE_11_">
		
			<path d="    M228.2,308.2c0-2.2,1.8-3.9,3.9-3.9c2.2,0,3.9,1.8,3.9,3.9c0,2.2-1.8,3.9-3.9,3.9C230,312.2,228.2,310.4,228.2,308.2L228.2,308.2z    " fill="none" id="n_id_394" stroke="#000000" stroke-linecap="round" stroke-linejoin="round" stroke-miterlimit="10" stroke-width="0.15"/></g><g id="CIRCLE_12_">
		
			<path d="    M228.2,293.5c0-2.2,1.8-3.9,3.9-3.9c2.2,0,3.9,1.8,3.9,3.9c0,2.2-1.8,3.9-3.9,3.9C230,297.5,228.2,295.7,228.2,293.5L228.2,293.5z    " fill="none" id="n_id_395" stroke="#000000" stroke-linecap="round" stroke-linejoin="round" stroke-miterlimit="10" stroke-width="0.15"/></g><g id="LINE_185_">
		
			<line fill="none" id="n_id_396" stroke="#000000" stroke-linecap="round" stroke-linejoin="round" stroke-miterlimit="10" stroke-width="0.15" x1="231.7" x2="230" y1="292.7" y2="289.7"/></g><g id="LINE_186_">
		
			<line fill="none" id="n_id_397" stroke="#000000" stroke-linecap="round" stroke-linejoin="round" stroke-miterlimit="10" stroke-width="0.15" x1="232.7" x2="234.4" y1="292.7" y2="289.7"/></g><g id="LINE_187_">
		
			<line fill="none" id="n_id_398" stroke="#000000" stroke-linecap="round" stroke-linejoin="round" stroke-miterlimit="10" stroke-width="0.15" x1="230" x2="231.7" y1="297.4" y2="294.4"/></g><g id="LINE_188_">
		
			<line fill="none" id="n_id_399" stroke="#000000" stroke-linecap="round" stroke-linejoin="round" stroke-miterlimit="10" stroke-width="0.15" x1="231.7" x2="230" y1="307.3" y2="304.4"/></g><g id="LINE_189_">
		
			<line fill="none" id="n_id_400" stroke="#000000" stroke-linecap="round" stroke-linejoin="round" stroke-miterlimit="10" stroke-width="0.15" x1="234.4" x2="232.7" y1="297.4" y2="294.4"/></g><g id="LINE_190_">
		
			<line fill="none" id="n_id_401" stroke="#000000" stroke-linecap="round" stroke-linejoin="round" stroke-miterlimit="10" stroke-width="0.15" x1="233.2" x2="236.6" y1="293.5" y2="293.5"/></g><g id="LINE_191_">
		
			<line fill="none" id="n_id_402" stroke="#000000" stroke-linecap="round" stroke-linejoin="round" stroke-miterlimit="10" stroke-width="0.15" x1="232.7" x2="234.4" y1="307.3" y2="304.4"/></g><g id="LINE_192_">
		
			<line fill="none" id="n_id_403" stroke="#000000" stroke-linecap="round" stroke-linejoin="round" stroke-miterlimit="10" stroke-width="0.15" x1="233.2" x2="236.6" y1="308.2" y2="308.2"/></g><g id="LINE_193_">
		
			<line fill="none" id="n_id_404" stroke="#000000" stroke-linecap="round" stroke-linejoin="round" stroke-miterlimit="10" stroke-width="0.15" x1="227.7" x2="231.2" y1="293.5" y2="293.5"/></g><g id="LINE_194_">
		
			<line fill="none" id="n_id_405" stroke="#000000" stroke-linecap="round" stroke-linejoin="round" stroke-miterlimit="10" stroke-width="0.15" x1="227.7" x2="231.2" y1="308.2" y2="308.2"/></g><g id="LINE_195_">
		
			<line fill="none" id="n_id_406" stroke="#000000" stroke-linecap="round" stroke-linejoin="round" stroke-miterlimit="10" stroke-width="0.15" x1="224" x2="222.3" y1="312" y2="309.1"/></g><g id="CIRCLE_13_">
		
			<path d="    M217.9,308.2c0-2.2,1.8-3.9,3.9-3.9c2.2,0,3.9,1.8,3.9,3.9c0,2.2-1.8,3.9-3.9,3.9C219.6,312.2,217.9,310.4,217.9,308.2    L217.9,308.2z" fill="none" id="n_id_407" stroke="#000000" stroke-linecap="round" stroke-linejoin="round" stroke-miterlimit="10" stroke-width="0.15"/></g><g id="LINE_196_">
		
			<line fill="none" id="n_id_408" stroke="#000000" stroke-linecap="round" stroke-linejoin="round" stroke-miterlimit="10" stroke-width="0.15" x1="219.6" x2="221.3" y1="312" y2="309.1"/></g><g id="LINE_197_">
		
			<line fill="none" id="n_id_409" stroke="#000000" stroke-linecap="round" stroke-linejoin="round" stroke-miterlimit="10" stroke-width="0.15" x1="216.1" x2="216.1" y1="286.1" y2="315.6"/></g><g id="CIRCLE_14_">
		
			<path d="    M217.9,293.5c0-2.2,1.8-3.9,3.9-3.9c2.2,0,3.9,1.8,3.9,3.9c0,2.2-1.8,3.9-3.9,3.9C219.6,297.5,217.9,295.7,217.9,293.5    L217.9,293.5z" fill="none" id="n_id_410" stroke="#000000" stroke-linecap="round" stroke-linejoin="round" stroke-miterlimit="10" stroke-width="0.15"/></g><g id="LINE_198_">
		
			<line fill="none" id="n_id_411" stroke="#000000" stroke-linecap="round" stroke-linejoin="round" stroke-miterlimit="10" stroke-width="0.15" x1="221.3" x2="219.6" y1="292.7" y2="289.7"/></g><g id="LINE_199_">
		
			<line fill="none" id="n_id_412" stroke="#000000" stroke-linecap="round" stroke-linejoin="round" stroke-miterlimit="10" stroke-width="0.15" x1="222.3" x2="224" y1="292.7" y2="289.7"/></g><g id="LINE_200_">
		
			<line fill="none" id="n_id_413" stroke="#000000" stroke-linecap="round" stroke-linejoin="round" stroke-miterlimit="10" stroke-width="0.15" x1="219.6" x2="221.3" y1="297.4" y2="294.4"/></g><g id="LINE_201_">
		
			<line fill="none" id="n_id_414" stroke="#000000" stroke-linecap="round" stroke-linejoin="round" stroke-miterlimit="10" stroke-width="0.15" x1="217.4" x2="220.8" y1="293.5" y2="293.5"/></g><g id="LINE_202_">
		
			<line fill="none" id="n_id_415" stroke="#000000" stroke-linecap="round" stroke-linejoin="round" stroke-miterlimit="10" stroke-width="0.15" x1="221.3" x2="219.6" y1="307.3" y2="304.4"/></g><g id="LINE_203_">
		
			<line fill="none" id="n_id_416" stroke="#000000" stroke-linecap="round" stroke-linejoin="round" stroke-miterlimit="10" stroke-width="0.15" x1="217.4" x2="220.8" y1="308.2" y2="308.2"/></g><g id="LINE_204_">
		
			<line fill="none" id="n_id_417" stroke="#000000" stroke-linecap="round" stroke-linejoin="round" stroke-miterlimit="10" stroke-width="0.15" x1="224" x2="222.3" y1="297.4" y2="294.4"/></g><g id="LINE_205_">
		
			<line fill="none" id="n_id_418" stroke="#000000" stroke-linecap="round" stroke-linejoin="round" stroke-miterlimit="10" stroke-width="0.15" x1="222.3" x2="224" y1="307.3" y2="304.4"/></g></g>
  <g id="_x33_60dash">
	<g id="LINE_47_">
		
			<line fill="none" id="n_id_421" stroke="#000000" stroke-dasharray="4.9981,2.499" stroke-linecap="round" stroke-linejoin="round" stroke-miterlimit="10" stroke-width="0.15" x1="306.2" x2="306.2" y1="385.9" y2="264"/></g><g id="LINE_49_">
		
			<line fill="none" id="n_id_422" stroke="#000000" stroke-dasharray="1.2495,0.6248" stroke-linecap="round" stroke-linejoin="round" stroke-miterlimit="10" stroke-width="0.15" x1="282.5" x2="305.2" y1="380.5" y2="380.5"/></g><g id="LINE_53_">
		
			<line fill="none" id="n_id_423" stroke="#000000" stroke-dasharray="1.2495,0.6248" stroke-linecap="round" stroke-linejoin="round" stroke-miterlimit="10" stroke-width="0.15" x1="305.2" x2="305.2" y1="380.5" y2="356.8"/></g><g id="LINE_57_">
		
			<line fill="none" id="n_id_424" stroke="#000000" stroke-dasharray="1.2495,0.6248" stroke-linecap="round" stroke-linejoin="round" stroke-miterlimit="10" stroke-width="0.15" x1="305.2" x2="282.5" y1="356.8" y2="356.8"/></g><g id="LINE_78_">
		
			<line fill="none" id="n_id_425" stroke="#000000" stroke-dasharray="4.9981,2.499" stroke-linecap="round" stroke-linejoin="round" stroke-miterlimit="10" stroke-width="0.15" x1="309.7" x2="309.7" y1="385.9" y2="264"/></g><g id="LINE_137_">
		
			<line fill="none" id="n_id_426" stroke="#000000" stroke-dasharray="4.9981,2.499" stroke-linecap="round" stroke-linejoin="round" stroke-miterlimit="10" stroke-width="0.15" x1="358.6" x2="358.6" y1="257.1" y2="300.5"/></g><g id="LINE_138_">
		
			<line fill="none" id="n_id_427" stroke="#000000" stroke-dasharray="4.9981,2.499" stroke-linecap="round" stroke-linejoin="round" stroke-miterlimit="10" stroke-width="0.15" x1="362" x2="362" y1="300.5" y2="257.1"/></g><g id="LINE_159_">
		
			<line fill="none" id="n_id_428" stroke="#000000" stroke-dasharray="4.9981,2.499" stroke-linecap="round" stroke-linejoin="round" stroke-miterlimit="10" stroke-width="0.15" x1="362" x2="403" y1="293.1" y2="293.1"/></g><g id="LWPOLYLINE_20_">
		
			<rect fill="none" height="17.8" id="n_id_429" stroke="#000000" stroke-dasharray="4.9981,2.499" stroke-linecap="round" stroke-linejoin="round" stroke-miterlimit="10" stroke-width="0.15" width="29.6" x="367.5" y="189.9"/></g><g id="LINE_170_">
		
			<line fill="none" id="n_id_430" stroke="#000000" stroke-dasharray="4.9981,2.499" stroke-linecap="round" stroke-linejoin="round" stroke-miterlimit="10" stroke-width="0.15" x1="227" x2="227" y1="346.7" y2="316.7"/></g><g id="LINE_182_">
		
			<line fill="none" id="n_id_431" stroke="#000000" stroke-dasharray="4.9981,2.499" stroke-linecap="round" stroke-linejoin="round" stroke-miterlimit="10" stroke-width="0.15" x1="229.5" x2="229.5" y1="315.6" y2="286.1"/></g><g id="LWPOLYLINE_30_">
		
			<line fill="none" id="n_id_432" stroke="#000000" stroke-dasharray="4.9981,2.499" stroke-linecap="round" stroke-linejoin="round" stroke-miterlimit="10" stroke-width="0.15" x1="227" x2="227" y1="262" y2="285.1"/></g></g>
  <g id="_x33_60walls">
	<g id="LWPOLYLINE_2_">
		
			<line fill="none" id="n_id_433" stroke="#000000" stroke-linecap="round" stroke-linejoin="round" stroke-miterlimit="10" stroke-width="0.15" x1="315.6" x2="248.5" y1="31.5" y2="31.5"/></g><g id="LWPOLYLINE_3_">
		
			<line fill="none" id="n_id_434" stroke="#000000" stroke-linecap="round" stroke-linejoin="round" stroke-miterlimit="10" stroke-width="0.15" x1="317.6" x2="246.5" y1="36.9" y2="36.9"/></g><g id="LWPOLYLINE_8_">
		
			<line fill="none" id="n_id_435" stroke="#000000" stroke-linecap="round" stroke-linejoin="round" stroke-miterlimit="10" stroke-width="0.15" x1="299.8" x2="244.5" y1="666.9" y2="666.9"/></g><g id="LWPOLYLINE_9_">
		
			<line fill="none" id="n_id_436" stroke="#000000" stroke-linecap="round" stroke-linejoin="round" stroke-miterlimit="10" stroke-width="0.15" x1="301.8" x2="242.5" y1="661.4" y2="661.4"/></g><g id="LWPOLYLINE_10_">
		
			<line fill="none" id="n_id_437" stroke="#000000" stroke-linecap="round" stroke-linejoin="round" stroke-miterlimit="10" stroke-width="0.15" x1="351.6" x2="395.1" y1="661.4" y2="661.4"/></g><g id="LWPOLYLINE_11_">
		
			<line fill="none" id="n_id_438" stroke="#000000" stroke-linecap="round" stroke-linejoin="round" stroke-miterlimit="10" stroke-width="0.15" x1="366" x2="342.3" y1="31.5" y2="31.5"/></g><g id="LWPOLYLINE_12_">
		
			<line fill="none" id="n_id_439" stroke="#000000" stroke-linecap="round" stroke-linejoin="round" stroke-miterlimit="10" stroke-width="0.15" x1="366" x2="342.3" y1="36.9" y2="36.9"/></g><g id="LWPOLYLINE_24_">
		
			<rect fill="none" height="76" id="n_id_440" stroke="#000000" stroke-linecap="round" stroke-linejoin="round" stroke-miterlimit="10" stroke-width="0.15" width="3.5" x="358.6" y="300.5"/></g><g id="LWPOLYLINE_25_">
		
			<polygon fill="none" id="n_id_441" points="    205,28 248.5,28 248.5,31.5 246.5,31.5 246.5,36.9 208.5,36.9 208.5,191.9 224,191.9 224,195.4 208.5,195.4 208.5,220.1     310.7,220.1 310.7,195.4 295.1,195.4 295.1,191.9 310.7,191.9 310.7,189 314.1,189 314.1,223.5 215.1,223.5 215.1,382.5     240.8,382.5 240.8,385.9 208.5,385.9 208.5,661.4 242.5,661.4 242.5,666.9 244.5,666.9 244.5,670.3 205,670.3   " stroke="#000000" stroke-linecap="round" stroke-linejoin="round" stroke-miterlimit="10" stroke-width="0.15"/></g><g id="LWPOLYLINE_26_">
		
			<polygon fill="none" id="n_id_442" points="    301.8,661.4 301.8,666.9 299.8,666.9 299.8,670.3 339.3,670.3 339.3,664.9 351.6,664.9 351.6,661.4   " stroke="#000000" stroke-linecap="round" stroke-linejoin="round" stroke-miterlimit="10" stroke-width="0.15"/></g><g id="LWPOLYLINE_27_">
		
			<polygon fill="none" id="n_id_443" points="    379.3,180.1 379.3,175.1 380.3,175.1 380.3,180.1 403,180.1 403,150.4 380.3,150.4 380.3,155.4 379.3,155.4 379.3,147 403,147     403,101.1 367,101.1 367,97.6 403,97.6 403,36.9 366,36.9 366,31.5 364,31.5 364,28 406.4,28 406.4,664.9 395.1,664.9     395.1,661.4 403,661.4 403,254.1 362,254.1 362,258.1 358.6,258.1 358.6,245.5 359.5,245.5 359.5,250.7 403,250.7 403,216.6     359.5,216.6 359.5,221.8 358.6,221.8 358.6,211.2 362,211.2 362,213.1 403,213.1 403,183.5 362,183.5 362,185.5 358.6,185.5     358.6,183.5 355,179.9 357.4,177.5 360,180.1   " stroke="#000000" stroke-linecap="round" stroke-linejoin="round" stroke-miterlimit="10" stroke-width="0.15"/></g><g id="LWPOLYLINE_28_">
		
			<polygon fill="none" id="n_id_444" points="    315.6,28 315.6,31.5 317.6,31.5 317.6,36.9 330.9,36.9 330.9,150.9 310.7,150.9 310.7,157.4 314.1,157.4 314.1,154.4 329.4,154.4     334,159 336.5,156.5 334.4,154.4 334.4,101.1 337.3,101.1 337.3,97.6 334.4,97.6 334.4,36.9 342.3,36.9 342.3,31.5 344.2,31.5     344.2,28   " stroke="#000000" stroke-linecap="round" stroke-linejoin="round" stroke-miterlimit="10" stroke-width="0.15"/></g><g id="LINE_166_">
		
			<line fill="none" id="n_id_445" stroke="#000000" stroke-linecap="round" stroke-linejoin="round" stroke-miterlimit="10" stroke-width="0.15" x1="344.2" x2="364" y1="28" y2="28"/></g><g id="LINE_167_">
		
			<line fill="none" id="n_id_446" stroke="#000000" stroke-linecap="round" stroke-linejoin="round" stroke-miterlimit="10" stroke-width="0.15" x1="248.5" x2="315.6" y1="28" y2="28"/></g><g id="LINE_168_">
		
			<line fill="none" id="n_id_447" stroke="#000000" stroke-linecap="round" stroke-linejoin="round" stroke-miterlimit="10" stroke-width="0.15" x1="244.5" x2="299.8" y1="670.3" y2="670.3"/></g><g id="LINE_169_">
		
			<line fill="none" id="n_id_448" stroke="#000000" stroke-linecap="round" stroke-linejoin="round" stroke-miterlimit="10" stroke-width="0.15" x1="351.6" x2="395.1" y1="664.9" y2="664.9"/></g></g>
  <g id="_x30_">
	<g id="LWPOLYLINE_4_">
		
			<polygon fill="none" id="n_id_449" points="    364.5,45.2 364.5,37.4 343.7,37.4 343.7,45.2 346.3,45.2 348.1,44.3 360.2,44.3 361.9,45.2   " stroke="#000000" stroke-linecap="round" stroke-linejoin="round" stroke-miterlimit="10" stroke-width="0.15"/></g></g>
  <g id="_x33_60hatch">
	<g id="HATCH">
		<path d="M246.5,31.5h2V28H205v642.3h39.5v-3.5h-2v-5.4h-34.1V385.9h32.3v-3.5H215v-159h99V189h-3.5v3h-15.6v3.5h15.6v24.7h-102    v-24.7H224V192h-15.6V37h38v-5.5H246.5z M342.3,31.5h2V28h-28.6v3.5h2v5.4H331v114h-20.2v6.4h3.5v-3h15.3l4.6,4.6l2.4-2.4    l-2.1-2.1V101h3v-3.5h-3V36.9h7.9L342.3,31.5L342.3,31.5z M406.4,28H364v3.5h2v5.4h37v60.7h-36v3.5h36V147h-23.7v8.4h1v-4.9H403    v29.6h-22.7v-4.9h-1v4.9H360l-2.6-2.5L355,180l3.6,3.6v2h3.5v-2h41v29.6h-41v-2h-3.5v10.6h1v-5.2H403v34.1h-43.4v-5.2h-1v12.6h3.5    v-3.9h41v407.3h-7.9v3.5h11.4V28H406.4z M351.6,661.4h-49.9v5.4h-2v3.5h39.5v-5.4h12.3v-3.5H351.6z M362,300.5h-3.5v76h3.5V300.5z    " id="n_id_452"/></g><g id="LINE_165_">
		
			<line fill="none" id="n_id_453" stroke="#000000" stroke-linecap="round" stroke-linejoin="round" stroke-miterlimit="10" stroke-width="0.15" x1="380.8" x2="380.8" y1="377.8" y2="441.2"/></g><g id="LWPOLYLINE_29_">
		
			<rect fill="none" height="35.7" id="n_id_454" stroke="#000000" stroke-linecap="round" stroke-linejoin="round" stroke-miterlimit="10" stroke-width="0.15" width="23.7" x="215.1" y="346.7"/></g></g>
</svg>