<svg xmlns="http://www.w3.org/2000/svg" enable-background="new 0 0 376 310" height="310px" id="Layer_1" version="1.1" viewBox="0 0 376 310" width="376px" x="0px" y="0px" xml:space="preserve">
  <rect fill="#F3F0ED" height="565.476" id="n_id_0" width="1259.001" x="9071.912" y="-275.983"/>
  <rect fill="#F3F0ED" height="1795.101" id="n_id_1" width="1259" x="7340.25" y="1429"/>
  <rect fill="#F3F0ED" height="1795.101" id="n_id_2" width="1259" x="12813.454" y="897"/>
  <g id="n_id_3">
	<g id="n_id_4">
		<polygon fill="#6E8170" id="n_id_5" points="22.05,299.527 10.806,299.527 10.806,13.194 32.403,13.194 32.403,17.202 14.813,17.202     14.813,295.52 22.05,295.52   "/><path d="M22.8,300.277H10.056V12.444h23.098v5.508h-17.59V294.77H22.8V300.277z M11.556,298.777H21.3v-2.508    h-7.236V16.452h17.59v-2.508H11.556V298.777z" fill="#6E8171" id="n_id_6"/></g><g id="n_id_7">
		<rect fill="#6E8170" height="4.008" id="n_id_8" width="40.078" x="49.436" y="295.52"/><path d="M90.264,300.277H48.686v-5.508h41.578V300.277z M50.186,298.777h38.578v-2.508H50.186V298.777z" fill="#6E8171" id="n_id_9"/></g><g id="n_id_10">
		<polygon fill="#6E8170" id="n_id_11" points="171.562,299.527 120.573,299.527 120.573,295.52 167.554,295.52 167.554,17.202 140.946,17.202     140.946,13.194 171.562,13.194   "/><path d="M172.312,300.277h-52.488v-5.508h46.98V17.952h-25.887v-5.508h31.395V300.277z M121.323,298.777h49.488    V13.944h-29.115v2.508h26.607V296.27h-46.98V298.777z" fill="#6E8171" id="n_id_12"/></g><rect fill="#6E8171" height="2.022" id="n_id_13" width="32.173" x="244.035" y="295.531"/><g id="n_id_14">
		<polygon fill="#6E8170" id="n_id_15" points="363.488,299.527 276.208,299.527 276.208,295.52 359.48,295.52 359.48,17.202 281.107,17.202     281.107,13.194 363.488,13.194   "/><path d="M364.238,300.277h-88.78v-5.508h83.272V17.952h-78.373v-5.508h83.881V300.277z M276.958,298.777h85.78    V13.944h-80.881v2.508h78.373V296.27h-83.272V298.777z" fill="#6E8171" id="n_id_16"/></g><rect fill="#6E8171" height="2.045" id="n_id_17" width="34.604" x="246.504" y="15.229"/><g id="n_id_18">
		<polygon fill="#6E8170" id="n_id_19" points="244.425,299.527 202.565,299.527 202.565,13.194 247.766,13.194 247.766,17.202 206.573,17.202     206.573,295.52 244.425,295.52   "/><path d="M245.175,300.277h-43.359V12.444h46.7v5.508h-41.192V294.77h37.852V300.277z M203.315,298.777h40.359    v-2.508h-37.852V16.452h41.192v-2.508h-43.7V298.777z" fill="#6E8171" id="n_id_20"/></g><path d="M140.946,15.198" fill="#6E8171" id="n_id_21"/><path d="M116.232,15.198" fill="#6E8171" id="n_id_22"/><g id="n_id_23">
		<rect fill="#6E8170" height="4.008" id="n_id_24" width="51.1" x="65.133" y="13.194"/><path d="M116.982,17.952h-52.6v-5.508h52.6V17.952z M65.883,16.452h49.6v-2.508h-49.6V16.452z" fill="#6E8171" id="n_id_25"/></g><polygon fill="#6E8171" id="n_id_26" points="114.896,40.804 105.211,40.804 105.211,36.796 110.889,36.796 110.889,16.09 114.896,16.09  "/><polygon fill="#6E8171" id="n_id_27" points="91.184,40.804 82.166,40.804 82.166,15.422 86.174,15.422 86.174,36.796 91.184,36.796  "/><rect fill="#6E8171" height="4.008" id="n_id_28" width="6.012" x="12.03" y="258.225"/><polygon fill="#6E8171" id="n_id_29" points="51.773,261.564 47.766,261.564 47.766,139.328 39.75,139.328 39.75,135.32 51.773,135.32  "/><rect fill="#6E8171" height="4.008" id="n_id_30" width="9.018" x="13.366" y="135.32"/><rect fill="#6E8171" height="4.008" id="n_id_31" width="96.854" x="71.812" y="142"/><rect fill="#6E8171" height="4.008" id="n_id_32" width="37.071" x="12.698" y="170.388"/><rect fill="#6E8171" height="127.914" id="n_id_33" width="2.004" x="140.946" y="15.088"/><polygon fill="#6E8171" id="n_id_34" points="73.482,146.013 71.479,146.013 71.479,115.615 169.669,115.615 169.669,117.619 73.482,117.619     "/><rect fill="#6E8171" height="2.004" id="n_id_35" width="26.051" x="142.616" y="44.144"/><rect fill="#6E8171" height="2.004" id="n_id_36" width="26.051" x="142.616" y="70.862"/><rect fill="#6E8171" height="2.004" id="n_id_37" width="26.051" x="142.616" y="86.893"/><rect fill="#6E8171" height="2.004" id="n_id_38" width="24.631" x="71.812" y="129.309"/><rect fill="#6E8171" height="28.138" id="n_id_39" width="2.004" x="95.358" y="116.617"/><path d="M148.962,100.81c-1.842,0-3.34-1.498-3.34-3.34c0-1.843,1.498-3.34,3.34-3.34s3.34,1.497,3.34,3.34   C152.302,99.312,150.804,100.81,148.962,100.81z M148.962,94.798c-1.473,0-2.672,1.198-2.672,2.672   c0,1.473,1.199,2.672,2.672,2.672s2.672-1.199,2.672-2.672C151.634,95.996,150.435,94.798,148.962,94.798z" fill="#6E8171" id="n_id_40"/><path d="M156.978,100.81c-1.842,0-3.34-1.498-3.34-3.34c0-1.843,1.498-3.34,3.34-3.34s3.34,1.497,3.34,3.34   C160.317,99.312,158.819,100.81,156.978,100.81z M156.978,94.798c-1.473,0-2.672,1.198-2.672,2.672   c0,1.473,1.199,2.672,2.672,2.672s2.672-1.199,2.672-2.672C159.649,95.996,158.45,94.798,156.978,94.798z" fill="#6E8171" id="n_id_41"/><path d="M148.962,111.273c-1.842,0-3.34-1.498-3.34-3.34s1.498-3.34,3.34-3.34s3.34,1.498,3.34,3.34   S150.804,111.273,148.962,111.273z M148.962,105.262c-1.473,0-2.672,1.199-2.672,2.672s1.199,2.672,2.672,2.672   s2.672-1.199,2.672-2.672S150.435,105.262,148.962,105.262z" fill="#6E8171" id="n_id_42"/><path d="M156.978,111.273c-1.842,0-3.34-1.498-3.34-3.34s1.498-3.34,3.34-3.34s3.34,1.498,3.34,3.34   S158.819,111.273,156.978,111.273z M156.978,105.262c-1.473,0-2.672,1.199-2.672,2.672s1.199,2.672,2.672,2.672   s2.672-1.199,2.672-2.672S158.45,105.262,156.978,105.262z" fill="#6E8171" id="n_id_43"/><path d="M114.117,136.211h-6.902c-1.657,0-3.006-1.349-3.006-3.006v-8.684c0-1.656,1.349-3.006,3.006-3.006h6.902   c1.657,0,3.006,1.35,3.006,3.006v8.684C117.123,134.862,115.774,136.211,114.117,136.211z M107.215,122.184   c-1.289,0-2.338,1.049-2.338,2.338v8.684c0,1.289,1.049,2.338,2.338,2.338h6.902c1.289,0,2.338-1.049,2.338-2.338v-8.684   c0-1.289-1.049-2.338-2.338-2.338H107.215z" fill="#6E8171" id="n_id_44"/><path d="M126.401,136.347h-6.902c-1.657,0-3.006-1.349-3.006-3.006v-8.684c0-1.656,1.349-3.006,3.006-3.006h6.902   c1.657,0,3.006,1.35,3.006,3.006v8.684C129.407,134.998,128.059,136.347,126.401,136.347z M119.499,122.319   c-1.289,0-2.338,1.05-2.338,2.338v8.684c0,1.289,1.049,2.338,2.338,2.338h6.902c1.289,0,2.338-1.049,2.338-2.338v-8.684   c0-1.288-1.049-2.338-2.338-2.338H119.499z" fill="#6E8171" id="n_id_45"/><rect fill="#6E8171" height="2.004" id="n_id_46" width="32.729" x="32.403" y="15.15"/><rect fill="#6E8171" height="2.004" id="n_id_47" width="32.729" x="89.18" y="295.464"/><rect fill="#6E8171" height="2.004" id="n_id_48" width="36.737" x="12.698" y="201.782"/><rect fill="#6E8171" height="2.004" id="n_id_49" width="36.737" x="12.698" y="210.967"/><rect fill="#6E8171" height="2.004" id="n_id_50" width="36.737" x="12.698" y="220.151"/><rect fill="#6E8171" height="2.004" id="n_id_51" width="36.737" x="12.698" y="229.336"/><rect fill="#6E8171" height="2.004" id="n_id_52" width="36.737" x="12.698" y="238.52"/><rect fill="#6E8171" height="2.004" id="n_id_53" width="36.737" x="12.698" y="247.704"/><rect fill="#6E8171" height="2.004" id="n_id_54" width="35.144" x="14.292" y="256.889"/><polygon fill="#6E8171" id="n_id_55" points="235.24,117.397 204.736,117.397 204.736,113.39 231.232,113.39 231.232,98.919 235.24,98.919  "/><rect fill="#6E8171" height="24.492" id="n_id_56" width="4.008" x="231.232" y="54.609"/><rect fill="#6E8171" height="17.146" id="n_id_57" width="4.008" x="231.232" y="15.199"/><rect fill="#6E8171" height="4.008" id="n_id_58" width="28.055" x="204.736" y="63.516"/><rect fill="#6E8171" height="4.008" id="n_id_59" width="16.922" x="259.064" y="113.836"/><polygon fill="#6E8171" id="n_id_60" points="361.484,193.991 267.748,193.991 267.748,182.857 271.756,182.857 271.756,189.983    361.484,189.983  "/><rect fill="#6E8171" height="47.871" id="n_id_61" width="4.008" x="267.748" y="116.729"/><rect fill="#6E8171" height="4.008" id="n_id_62" width="91.287" x="269.752" y="136.991"/><rect fill="#6E8171" height="17.146" id="n_id_63" width="4.008" x="238.803" y="279.488"/><rect fill="#6E8171" height="120.9" id="n_id_64" width="4.008" x="238.636" y="143.895"/><rect fill="#6E8171" height="2.004" id="n_id_65" width="36.515" x="204.292" y="143.782"/><rect fill="#6E8171" height="2.004" id="n_id_66" width="36.515" x="204.292" y="152.284"/><rect fill="#6E8171" height="2.004" id="n_id_67" width="36.515" x="204.292" y="160.787"/><rect fill="#6E8171" height="2.004" id="n_id_68" width="36.515" x="204.292" y="169.289"/><rect fill="#6E8171" height="2.004" id="n_id_69" width="36.515" x="204.292" y="177.792"/><rect fill="#6E8171" height="2.004" id="n_id_70" width="36.515" x="204.292" y="186.295"/><rect fill="#6E8171" height="2.004" id="n_id_71" width="36.515" x="204.292" y="194.797"/><rect fill="#6E8171" height="2.004" id="n_id_72" width="36.515" x="204.292" y="203.3"/><rect fill="#6E8171" height="2.004" id="n_id_73" width="36.515" x="204.292" y="211.803"/><rect fill="#6E8171" height="2.004" id="n_id_74" width="36.515" x="204.292" y="220.305"/><rect fill="#6E8171" height="2.004" id="n_id_75" width="36.515" x="204.292" y="228.807"/><rect fill="#6E8171" height="2.004" id="n_id_76" width="36.515" x="204.292" y="237.311"/><rect fill="#6E8171" height="2.004" id="n_id_77" width="36.515" x="204.292" y="245.812"/><polygon fill="#6E8171" id="n_id_78" points="296.414,152.521 280.216,152.521 280.216,139.662 280.884,139.662 280.884,151.853    295.746,151.853 295.746,138.159 296.414,138.159  "/><polygon fill="#6E8171" id="n_id_79" points="327.308,146.509 300.255,146.509 300.255,139.662 300.923,139.662 300.923,145.841 326.64,145.841    326.64,139.161 327.308,139.161  "/><path d="M288.231,150.684c-2.67,0-4.843-2.173-4.843-4.843c0-2.671,2.173-4.843,4.843-4.843   s4.843,2.172,4.843,4.843C293.074,148.511,290.901,150.684,288.231,150.684z M288.231,141.666c-2.302,0-4.175,1.873-4.175,4.175   c0,2.301,1.873,4.175,4.175,4.175s4.175-1.874,4.175-4.175C292.406,143.539,290.533,141.666,288.231,141.666z" fill="#6E8171" id="n_id_80"/><path d="M314.115,164.186c-3.67,0-6.656-3.885-6.656-8.659c0-4.775,2.986-8.66,6.656-8.66s6.655,3.885,6.655,8.66   C320.771,160.301,317.785,164.186,314.115,164.186z M314.115,147.487c-3.328,0-6.035,3.605-6.035,8.039   c0,4.433,2.707,8.038,6.035,8.038s6.035-3.605,6.035-8.038C320.15,151.093,317.443,147.487,314.115,147.487z" fill="#6E8171" id="n_id_81"/><polygon fill="#6E8171" id="n_id_82" points="355.16,178.57 354.562,178.57 354.562,145.974 336.457,145.974 336.457,178.57 335.858,178.57    335.858,145.373 355.16,145.373  "/><path d="M345.501,188.051c-5.319,0-9.647-4.327-9.647-9.647h0.594c0,4.993,4.062,9.056,9.054,9.056   c4.993,0,9.055-4.062,9.055-9.056h0.594C355.149,183.724,350.821,188.051,345.501,188.051z" fill="#6E8171" id="n_id_83"/></g>
  <text fill="#626363" font-family="'JosefinSans-Bold'" font-size="12" id="n_id_85" transform="matrix(1 0 0 1 30.334 42.0381)">Dining</text>
  <text fill="#626363" font-family="'JosefinSans-Bold'" font-size="12" id="n_id_87" transform="matrix(1 0 0 1 83.6675 84.0381)">Kitchen</text>
  <text fill="#626363" font-family="'JosefinSans-Bold'" font-size="12" id="n_id_89" transform="matrix(1 0 0 1 78.001 222.7051)">Living Room</text>
  <text fill="#626363" font-family="'JosefinSans-Bold'" font-size="12" id="n_id_91" transform="matrix(1 0 0 1 276.667 72.0381)">Bedroom</text>
  <text fill="#626363" font-family="'JosefinSans-Bold'" font-size="12" id="n_id_93" transform="matrix(1 0 0 1 276.667 245.7051)">Bedroom</text>
  <text fill="#626363" font-family="'JosefinSans-Bold'" font-size="12" id="n_id_95" transform="matrix(1 0 0 1 279.3335 176.7051)">Bath</text>
  <text fill="#626363" font-family="'JosefinSans-Bold'" font-size="12" id="n_id_97" transform="matrix(1 0 0 1 213.333 135.3711)">Hall</text>
  <text fill="#626363" font-family="'JosefinSans-Bold'" font-size="12" id="n_id_99" transform="matrix(1 0 0 1 20.334 158.3721)">Clos.</text>
  <text fill="#626363" font-family="'JosefinSans-Bold'" font-size="12" id="n_id_101" transform="matrix(1 0 0 1 211.667 273.0391)">Clos.</text>
  <text fill="#626363" font-family="'JosefinSans-Bold'" font-size="12" id="n_id_103" transform="matrix(1 0 0 1 211.667 91.0391)">Clos.</text>
  <text fill="#626363" font-family="'JosefinSans-Bold'" font-size="12" id="n_id_105" transform="matrix(1 0 0 1 211.667 45.0391)">Clos.</text>
</svg>
