<svg enable-background="new 0 0 744.91 692.961" height="692.961px" id="Layer_1" version="1.1" viewBox="0 0 744.91 692.961" width="744.91px" x="0px" y="0px" xml:space="preserve">
  <rect fill="#E0E1E2" height="44.096" id="n_id_0" width="44.68" x="2.814" y="2.814"/>
  <rect fill="#E0E1E2" height="51.557" id="n_id_1" width="99.912" x="116.336" y="4.033"/>
  <rect fill="#C6C8CA" height="37.269" id="n_id_2" width="83.884" x="124.35" y="11.579"/>
  <ellipse cx="26.617" cy="26.122" fill="#C6C8CA" id="n_id_3" rx="15.741" ry="13.179"/>
  <polygon fill="#E0E1E2" id="n_id_4" points="116.336,63.521 73.6,63.521 54.178,44.099 54.178,2.817 116.336,2.817 "/>
  <ellipse cx="83.954" cy="92.798" fill="#E0E1E2" id="n_id_5" rx="17.814" ry="13.666"/>
  <rect fill="#C6C8CA" height="35.055" id="n_id_6" width="18.031" x="98.305" y="75.488"/>
  <ellipse cx="149.182" cy="92.798" fill="#E0E1E2" id="n_id_7" rx="17.814" ry="13.666"/>
  <rect fill="#C6C8CA" height="35.055" id="n_id_8" width="18.03" x="116.801" y="75.488"/>
  <rect fill="#E0E1E2" height="63.327" id="n_id_9" width="42.682" x="116.336" y="120.084"/>
  <ellipse cx="139.446" cy="151.748" fill="#C6C8CA" id="n_id_10" rx="13.63" ry="17.766"/>
  <g id="n_id_11">
	<rect fill="#E0E1E2" height="43.347" id="n_id_12" width="140.022" x="216.245" y="4.032"/><g id="n_id_13">
		<rect fill="#C6C8CA" height="25.243" id="n_id_14" width="21.434" x="289.334" y="17.519"/><rect fill="#C6C8CA" height="25.243" id="n_id_15" width="21.434" x="261.744" y="17.519"/></g><rect fill="#C6C8CA" height="2.936" id="n_id_16" width="20.549" x="275.981" y="11.354"/></g>
  <g id="n_id_17">
	<g id="n_id_18">
		</g></g>
  <g id="n_id_59">
	<g id="n_id_60">
		</g></g>
  <g id="n_id_73">
	<g id="n_id_74">
		</g></g>
  <g id="n_id_90">
	<g id="n_id_91">
		</g></g>
  <g id="n_id_109">
	<g id="n_id_110">
		<path d="M454.194,71.777h-2.793V55.517h3.919c3.13,0,4.729,1.329,4.729,4.797c0,2.612-1.014,3.671-1.96,4.1    l2.365,7.364h-2.838l-1.981-6.734c-0.361,0.045-0.946,0.068-1.441,0.068V71.777z M454.194,62.813h0.99    c1.509,0,2.072-0.562,2.072-2.5c0-1.937-0.563-2.5-2.072-2.5h-0.99V62.813z" fill="#545454" id="n_id_115"/><path d="M478.938,71.777h-2.702l2.995-16.261h3.469l2.995,16.261h-2.703l-0.495-3.604h-3.062L478.938,71.777z     M479.839,65.741h2.252l-1.104-6.981h-0.045L479.839,65.741z" fill="#545454" id="n_id_117"/><path d="M408.474,92.887V76.626h2.793v16.261H408.474z" fill="#545454" id="n_id_120"/></g></g>
  <g id="n_id_132">
	<g id="n_id_133">
		</g></g>
  <g id="n_id_144">
	<g id="n_id_145">
		<path d="M160.712,85.323h-2.197l2.436-13.22h2.819l2.436,13.22h-2.197l-0.403-2.93h-2.49L160.712,85.323z     M161.444,80.416h1.831l-0.897-5.676h-0.036L161.444,80.416z" fill="#545454" id="n_id_152"/><path d="M169.208,74.08h-2.197v-1.977h6.665v1.977h-2.197v11.243h-2.271V74.08z" fill="#545454" id="n_id_153"/><path d="M175.379,85.323v-13.22h2.271v5.383h2.417v-5.383h2.271v13.22h-2.271v-5.859h-2.417v5.859H175.379z" fill="#545454" id="n_id_154"/><path d="M160.647,95.568l-2.417-6.299h2.233l1.393,4.193h0.036l1.264-4.193h2.233l-2.289,6.299l2.564,6.922h-2.234    l-1.538-4.815h-0.036l-1.575,4.815h-2.233L160.647,95.568z" fill="#545454" id="n_id_156"/><path d="M169.528,92.017h-1.795V90.79c1.008-0.513,1.941-1.062,2.691-1.703h1.154v13.403h-2.051V92.017z" fill="#545454" id="n_id_157"/><path d="M175.626,92.713c0-2.49,0.951-3.626,3.223-3.626c2.27,0,3.223,1.136,3.223,3.626v6.335    c0,2.49-0.953,3.626-3.223,3.626c-2.271,0-3.223-1.136-3.223-3.626V92.713z M179.91,92.145c0-0.86-0.385-1.264-1.062-1.264    c-0.678,0-1.062,0.403-1.062,1.264v7.471c0,0.861,0.385,1.264,1.062,1.264c0.677,0,1.062-0.402,1.062-1.264V92.145z" fill="#545454" id="n_id_158"/></g></g>
  <g id="n_id_159">
	<g id="n_id_160">
		<path d="M43.155,72.098h3.369c2.436,0,3.516,1.246,3.516,3.498c0,1.135-0.477,2.325-1.574,2.765    c1.153,0.513,1.83,1.429,1.83,3.131c0,2.179-0.97,3.827-3.552,3.827h-3.589V72.098z M45.426,77.518h0.824    c0.86,0,1.52-0.586,1.52-1.684c0-1.228-0.476-1.868-1.483-1.868h-0.86V77.518z M45.426,83.451h0.952    c1.209,0,1.648-0.696,1.648-2.033c0-1.354-0.514-2.032-1.868-2.032h-0.732V83.451z" fill="#545454" id="n_id_167"/><path d="M53.996,85.318h-2.197l2.436-13.221h2.819l2.436,13.221h-2.197l-0.402-2.93h-2.49L53.996,85.318z     M54.729,80.411h1.831l-0.897-5.677h-0.036L54.729,80.411z" fill="#545454" id="n_id_168"/><path d="M62.492,74.076h-2.197v-1.979h6.665v1.979h-2.197v11.242h-2.271V74.076z" fill="#545454" id="n_id_169"/><path d="M68.663,85.318V72.098h2.271v5.384h2.417v-5.384h2.271v13.221h-2.271v-5.859h-2.417v5.859H68.663z" fill="#545454" id="n_id_170"/><path d="M49.794,98.658v1.062c0,0.714,0.402,1.153,1.007,1.153c0.714,0,1.116-0.421,1.116-1.611V96.26    c0-0.86-0.439-1.209-0.951-1.209c-0.696,0-1.025,0.458-1.228,1.008H47.98c0.073-2.051,0.165-3.662,0.165-6.793h5.512l-0.073,1.867    h-3.571l-0.128,2.856l0.037,0.036c0.567-0.677,1.044-0.769,1.739-0.769c1.739,0,2.417,1.264,2.417,3.479v1.83    c0,2.783-0.879,4.102-3.076,4.102c-1.831,0-3.259-0.805-3.259-3.002v-1.008H49.794z" fill="#545454" id="n_id_171"/><path d="M58.18,95.564l-2.417-6.299h2.234l1.391,4.192h0.037l1.264-4.192h2.233l-2.288,6.299l2.562,6.921h-2.233    l-1.538-4.815h-0.037l-1.574,4.815h-2.234L58.18,95.564z" fill="#545454" id="n_id_172"/><path d="M68.854,92.817V92.14c0-0.86-0.293-1.263-0.971-1.263c-0.677,0-1.062,0.402-1.062,1.263v3.095    c0.586-0.586,0.952-0.879,1.868-0.879c1.318,0,2.416,0.77,2.416,2.71v1.575c0,2.783-0.951,4.027-3.223,4.027    c-2.27,0-3.223-1.135-3.223-3.625v-6.336c0-2.49,0.953-3.625,3.223-3.625c1.795-0.037,2.948,1.245,2.948,2.93v0.806H68.854z     M66.822,99.61c0,0.86,0.385,1.264,1.062,1.264c0.678,0,1.062-0.403,1.062-1.264v-2.197c0-0.86-0.385-1.263-0.952-1.263    c-0.403,0-0.897,0.384-1.172,0.604V99.61z" fill="#545454" id="n_id_173"/></g></g>
  <path d="M250.022,609.816H0V239.237h250.022V609.816z M5.629,604.188h238.765V244.866H5.629V604.188z" fill="#545454" id="n_id_222"/>
  <path d="M460.759,325.666H301.738V221.529h159.021V325.666z M307.367,320.037H455.13v-92.879H307.367V320.037z" fill="#545454" id="n_id_223"/>
  <path d="M384.066,277.82h-82.323v-56.291h82.323V277.82z M307.372,272.191h71.065v-45.033h-71.065V272.191z" fill="#545454" id="n_id_224"/>
  <path d="M460.759,277.82h-82.324v-56.291h82.324V277.82z M384.063,272.191h71.066v-45.033h-71.066V272.191z" fill="#545454" id="n_id_225"/>
  <polygon fill="#545454" id="n_id_226" points="744.91,692.961 513.531,692.961 513.531,604.188 528.311,604.188 528.311,609.816 519.16,609.816   519.16,687.332 739.281,687.332 739.281,609.816 689.087,609.816 689.087,604.188 744.91,604.188 "/>
  <rect fill="#545454" height="5.629" id="n_id_227" width="10.789" x="247.208" y="346.424"/>
  <polygon fill="#545454" id="n_id_228" points="307.367,352.053 297.165,352.053 297.165,346.424 301.738,346.424 301.738,322.852 307.367,322.852   "/>
  <rect fill="#ECEDEE" height="18.295" id="n_id_229" width="49.255" x="318.278" y="219.066"/>
  <rect fill="#ECEDEE" height="18.295" id="n_id_230" width="49.254" x="394.971" y="219.066"/>
  <polygon fill="#545454" id="n_id_231" points="460.759,609.816 244.394,609.816 244.394,322.852 250.022,322.852 250.022,604.188 455.13,604.188   455.13,325.666 304.553,325.666 304.553,320.037 460.759,320.037 "/>
  <rect fill="#ECEDEE" height="15.588" id="n_id_232" width="99.564" x="329.18" y="316.764"/>
  <polygon fill="#545454" id="n_id_233" points="744.91,607.002 739.281,607.002 739.281,5.629 548.83,5.629 548.83,0 744.91,0 "/>
  <g id="n_id_234">
	<rect fill="#545454" height="5.629" id="n_id_235" width="79.455" x="541.991" y="600.576"/><rect fill="#545454" height="5.629" id="n_id_236" width="79.456" x="596.693" y="607.798"/></g>
  <rect fill="#545454" height="11.258" id="n_id_237" width="5.629" x="164.647" y="230.794"/>
  <rect fill="#545454" height="11.258" id="n_id_238" width="5.629" x="79.04" y="230.794"/>
  <rect fill="#545454" height="11.258" id="n_id_239" width="5.629" x="31.662" y="230.794"/>
  <path d="M34.479,124.778" fill="none" id="n_id_240" stroke="#545454" stroke-miterlimit="10" stroke-width="5.629"/>
  <rect fill="#545454" height="5.629" id="n_id_241" width="14.424" x="28.906" y="121.964"/>
  <rect fill="#545454" height="5.629" id="n_id_242" width="9.238" x="72.619" y="121.964"/>
  <polygon fill="#545454" id="n_id_243" points="84.672,133.488 79.043,133.488 79.043,121.964 113.521,121.964 113.521,5.632 5.629,5.632   5.629,121.964 37.293,121.964 37.293,133.488 31.664,133.488 31.664,127.593 0,127.593 0,0.003 119.15,0.003 119.15,127.593   84.672,127.593 "/>
  <polygon fill="#545454" id="n_id_244" points="119.15,244.866 0,244.866 0,121.964 34.479,121.964 34.479,127.593 5.629,127.593 5.629,239.237   113.521,239.237 113.521,127.593 81.857,127.593 81.857,121.964 119.15,121.964 "/>
  <path d="M219.062,244.866H113.521V0.003h105.541V244.866z M119.15,239.237h94.283V5.632H119.15V239.237z" fill="#545454" id="n_id_245"/>
  <polygon fill="#545454" id="n_id_246" points="170.276,192.905 164.647,192.905 164.647,186.23 116.336,186.23 116.336,180.602 170.276,180.602   "/>
  <rect fill="#E0E1E2" height="48.193" id="n_id_247" width="53.123" x="216.248" y="115.985"/>
  <rect fill="#E0E1E2" height="35.063" id="n_id_248" width="44.682" x="309.975" y="127.291"/>
  <g id="n_id_249">
	<g id="n_id_250">
		<circle cx="341.712" cy="151.69" fill="#C6C8CA" id="n_id_251" r="4.192"/><circle cx="341.712" cy="137.354" fill="#C6C8CA" id="n_id_252" r="6.831"/></g><g id="n_id_253">
		<circle cx="322.918" cy="134.715" fill="#C6C8CA" id="n_id_254" r="4.192"/><circle cx="322.918" cy="149.052" fill="#C6C8CA" id="n_id_255" r="6.831"/></g></g>
  <rect fill="#C6C8CA" height="2.695" id="n_id_256" width="25.256" x="319.688" y="124.596"/>
  <path d="M359.085,166.998H213.434V0.003h145.651V166.998z M219.062,161.369h134.394V5.632H219.062V161.369z" fill="#545454" id="n_id_257"/>
  <polygon fill="#545454" id="n_id_258" points="551.645,166.993 474.243,166.993 474.243,161.364 546.016,161.364 546.016,5.629 359.085,5.629   359.085,164.179 353.456,164.179 353.456,0 551.645,0 "/>
  <rect fill="#ECEDEE" height="48.902" id="n_id_259" width="43.196" x="208.233" y="175.441"/>
  <rect fill="#ECEDEE" height="47.064" id="n_id_260" width="43.195" x="232.786" y="273.949"/>
  <rect fill="#ECEDEE" height="20.185" id="n_id_261" width="41.749" x="37.291" y="229.211"/>
  <rect fill="#ECEDEE" height="65.846" id="n_id_262" width="15.479" x="733.416" y="204.994"/>
  <path d="M744.91,335.163h-82.913v-64.382h82.913V335.163z M667.626,329.534h71.655V276.41h-71.655V329.534z" fill="#545454" id="n_id_263"/>
  <rect fill="#545454" height="5.629" id="n_id_264" width="77.284" x="664.812" y="199.365"/>
  <rect fill="#ECEDEE" height="15.128" id="n_id_265" width="40.05" x="683.428" y="267.617"/>
  <g id="n_id_266">
	<path d="M738.944,267.947l-0.309-2.273c0.569-0.077,1.14-0.164,1.712-0.259l0.375,2.264   C740.129,267.777,739.537,267.866,738.944,267.947z" fill="#545454" id="n_id_267"/><path d="M731.628,268.478l-0.025-2.295c1.175-0.012,2.36-0.062,3.523-0.146l0.166,2.289   C734.081,268.413,732.849,268.464,731.628,268.478z M727.958,268.397c-1.224-0.065-2.453-0.17-3.656-0.311l0.268-2.279   c1.154,0.136,2.336,0.236,3.512,0.299L727.958,268.397z M720.673,267.546c-1.207-0.22-2.414-0.479-3.589-0.771l0.555-2.227   c1.127,0.28,2.286,0.529,3.444,0.74L720.673,267.546z M713.553,265.774c-1.168-0.371-2.333-0.784-3.462-1.229l0.84-2.135   c1.081,0.425,2.197,0.821,3.317,1.178L713.553,265.774z M706.72,263.093c-1.114-0.525-2.215-1.091-3.27-1.68l1.119-2.004   c1.009,0.564,2.062,1.104,3.129,1.607L706.72,263.093z M700.304,259.512c-1.025-0.67-2.036-1.385-3.005-2.123l1.393-1.824   c0.924,0.705,1.889,1.387,2.868,2.027L700.304,259.512z M694.456,255.046c-0.925-0.823-1.819-1.683-2.656-2.555l1.654-1.59   c0.796,0.829,1.646,1.646,2.527,2.43L694.456,255.046z M689.351,249.73c-0.782-0.958-1.526-1.953-2.212-2.958l1.895-1.293   c0.648,0.95,1.354,1.893,2.095,2.8L689.351,249.73z M685.189,243.633c-0.605-1.077-1.164-2.189-1.662-3.307l2.096-0.934   c0.469,1.052,0.996,2.101,1.566,3.117L685.189,243.633z" fill="#545454" id="n_id_268"/><path d="M682.17,236.852c-0.193-0.573-0.373-1.151-0.54-1.735l2.205-0.631c0.157,0.549,0.327,1.094,0.509,1.634   L682.17,236.852z" fill="#545454" id="n_id_269"/></g>
  <rect fill="#545454" height="69.469" id="n_id_270" transform="matrix(0.4952 0.8688 -0.8688 0.4952 549.3247 -507.6727)" width="3.53" x="709.785" y="184.161"/>
  <rect fill="#545454" height="5.629" id="n_id_278" width="58.401" x="457.944" y="604.188"/>
  <rect fill="#ECEDEE" height="48.785" id="n_id_279" width="12.665" x="349.938" y="55.59"/>
</svg>