<svg enable-background="new 0 0 375.83 288" height="288px" id="Potomac_I" version="1.1" viewBox="0 0 375.83 288" width="375.83px" x="0px" y="0px" xml:space="preserve">
  <polygon fill="#FFFCD5" id="n_id_1" points="87.169,214.604 164.99,214.604 164.99,68.771 328.067,68.771 328.067,143.452 367.886,143.452   367.886,196.324 257.352,196.324 257.352,277.118 163.903,277.118 163.903,249.524 86.675,249.524 "/>
  <rect fill="#7BD3F7" height="41.336" id="n_id_2" width="46.015" x="282.03" y="9.75"/>
  <polygon fill="#7BD3F7" id="n_id_3" points="327.356,70.691 327.356,50.41 282.709,50.41 282.709,70.691 284.143,70.691 284.143,72.769   284.646,72.769 292.147,80.068 299.786,72.769 306.345,72.769 313.981,80.068 321.702,72.557 321.48,72.556 321.48,70.691 "/>
  <polygon fill="#7BD3F7" id="n_id_4" points="105.167,248.641 96.667,239.929 88.391,248.641 87.975,248.641 87.975,251.448 114.14,251.448   114.14,248.641 "/>
  <polygon fill="#FFE4C0" id="n_id_5" points="281.841,18.253 182.425,18.253 182.425,68.412 204.108,68.412 204.108,70.922 231.058,70.922   231.058,68.412 281.841,68.412 "/>
  <rect fill="#FFE4C0" height="145.667" id="n_id_6" width="132.53" x="9.028" y="70.375"/>
  <path d="M31.429,215.279c0.002,0.78,0.023,10,0.012,10.554c-0.012,0.578,0.917,0.515,0.874,1.147  s-0.043,30.768,0,31.4c0.043,0.632-0.885,0.568-0.874,1.146s0,8.628,0,8.628v8.812H9.27v0.36l77.147-0.36v-61.688H31.429z   M54.137,273.169c0,0.646-0.524,1.17-1.17,1.17h-14.16c-0.646,0-1.17-0.523-1.17-1.17v-5.161c0-0.646,0.524-1.17,1.17-1.17  l3.92-0.002c-1.777-1.379-2.965-3.885-2.965-6.749c0-4.349,2.742-7.876,6.125-7.876s6.125,3.527,6.125,7.876  c0,2.855-1.181,5.354-2.949,6.736l3.904,0.015c0.646,0,1.17,0.524,1.17,1.17V273.169z M85.812,276.146H60.155V252.29h25.657V276.146  z" fill="#DAEBC1" id="n_id_7"/>
  <g id="n_id_8">
	<g id="n_id_9">
		<g id="n_id_10">
			<path d="M63.284,220.274c0,12.771,10.354,23.125,23.125,23.125v-23.125l-23.234-0.157" fill="#C4DF9B" id="n_id_11"/></g><path d="M141.612,249.001l-8.499-8.712l-8.277,8.712h-9.057v28.011h26.171v-28.011H141.612z M128.344,272.578    c-4.706,0-8.521-3.815-8.521-8.523c0-4.706,3.816-8.521,8.521-8.521c4.708,0,8.523,3.816,8.523,8.521    C136.867,268.762,133.052,272.578,128.344,272.578z" fill="#7BD3F7" id="n_id_12"/></g></g>
  <polygon fill="#FFD59C" id="n_id_13" points="141.628,70.81 141.628,72.716 132.994,81.591 141.628,90.625 141.628,105.39 132.994,114.425   141.628,123.299 141.628,125.354 165.037,125.354 165.037,70.81 "/>
  <polygon fill="#FFD59C" id="n_id_14" points="141.628,125.836 141.628,127.743 132.994,136.617 141.628,145.652 141.628,158.617 132.994,167.652   141.628,176.526 141.628,180.38 165.037,180.38 165.037,125.836 "/>
  <path d="M143.916,85.309" fill="#FBB040" id="n_id_15"/>
  <polygon fill="#FFE4C0" id="n_id_16" points="302.027,225.475 302.027,218.812 283.581,218.812 283.581,220.454 258.912,220.454 258.912,219.893   256.673,219.893 256.673,229.039 256.675,229.039 256.675,253.855 327.039,253.855 327.039,225.475 "/>
  <g id="n_id_17">
	<path d="M136.475,192.542c-12.771,0-23.125,10.354-23.125,23.125h23.125l0.157-23.234" fill="#FFD59C" id="n_id_18"/></g>
  <g id="n_id_19">
	<path d="M259.062,23.556c0,12.771,10.354,23.125,23.125,23.125V23.556l-23.234-0.157" fill="#00AEEF" id="n_id_20"/></g>
  <g id="n_id_21">
	<path d="M364.508,165.624c-16.603,0-30.062,13.459-30.062,30.062h30.062l0.205-30.205" fill="#FFF9AE" id="n_id_22"/></g>
  <polygon fill="#7BD3F7" id="n_id_23" points="148.529,214.658 155.228,221.57 162.424,214.658 163.919,214.658 163.919,201.407 139.557,201.407   139.557,214.658 "/>
  <g id="n_id_24">
	<path d="M54.144,272.943c0,0.646-0.524,1.17-1.17,1.17h-14.16c-0.646,0-1.17-0.523-1.17-1.17v-5.16   c0-0.646,0.524-1.17,1.17-1.17h14.16c0.646,0,1.17,0.523,1.17,1.17V272.943z" fill="none" id="n_id_25" stroke="#25408F"/><path d="M42.734,266.61c-1.777-1.378-2.965-3.885-2.965-6.747c0-4.35,2.742-7.875,6.125-7.875   s6.125,3.525,6.125,7.875c0,2.854-1.181,5.354-2.949,6.734L42.734,266.61z" fill="none" id="n_id_26" stroke="#25408F"/></g>
  <g id="n_id_27">
	<g id="n_id_28">
		<circle cx="21.308" cy="262.26" fill="none" id="n_id_29" r="1.466" stroke="#25408F" stroke-width="0.5"/><path d="M29.752,234.165v-6.343c0-4.654-3.773-8.428-8.427-8.428    s-8.427,3.773-8.427,8.428v6.343c-0.009,0.117-0.035,0.229-0.035,0.349v26.166c0,2.485,2.015,4.5,4.5,4.5h7.925    c2.485,0,4.5-2.015,4.5-4.5v-26.166C29.788,234.395,29.762,234.282,29.752,234.165z" fill="none" id="n_id_30" stroke="#25408F" stroke-width="0.75"/></g><path d="M31.448,267.93c0,0,0.012-8.049,0-8.627s0.917-0.516,0.874-1.146   c-0.043-0.633-0.043-30.766,0-31.398c0.043-0.631-0.885-0.568-0.874-1.146s-0.012-10.613-0.012-10.613l-22.159-0.012v61.754h22.171   V267.93" fill="none" id="n_id_31" stroke="#25408F"/><rect fill="#25408F" height="8.811" id="n_id_32" stroke="#25408F" width="22.171" x="9.277" y="267.93"/></g>
  <g id="n_id_33">
	<g id="n_id_34">
		<g id="n_id_35">
			<path d="M81.519,263.992c0,3.381-2.741,6.121-6.121,6.121h-4.813     c-3.38,0-6.121-2.74-6.121-6.121l0,0c0-3.381,2.741-6.121,6.121-6.121h4.813C78.778,257.871,81.519,260.611,81.519,263.992     L81.519,263.992z" fill="none" id="n_id_36" stroke="#25408F" stroke-width="0.75"/><circle cx="72.991" cy="263.992" fill="none" id="n_id_37" r="1.466" stroke="#25408F" stroke-width="0.5"/></g><rect fill="none" height="23.852" id="n_id_38" stroke="#25408F" width="25.657" x="60.163" y="252.066"/></g><g id="n_id_39">
		<path d="M73.72,271.853c0,0.413-0.335,0.749-0.749,0.749l0,0    c-0.414,0-0.749-0.336-0.749-0.749v-2.991c0-0.414,0.335-0.748,0.749-0.748l0,0c0.414,0,0.749,0.334,0.749,0.748V271.853z" fill="#FFFFFF" id="n_id_40" stroke="#25408F" stroke-width="0.75"/><circle cx="75.512" cy="271.839" fill="#FFFFFF" id="n_id_41" r="0.777" stroke="#25408F" stroke-width="0.75"/><circle cx="70.431" cy="271.839" fill="#FFFFFF" id="n_id_42" r="0.777" stroke="#25408F" stroke-width="0.75"/></g></g>
  <g id="n_id_43">
	<rect fill="none" height="27.859" id="n_id_51" stroke="#25408F" stroke-width="0.75" width="23.871" x="302.059" y="197.744"/><rect fill="none" height="21.266" id="n_id_52" stroke="#25408F" stroke-width="0.75" width="18.51" x="283.549" y="197.891"/></g>
  <line fill="none" id="n_id_53" stroke="#25408F" stroke-dasharray="3,3,3,3" stroke-width="0.75" x1="258.443" x2="325.539" y1="210.502" y2="210.502"/>
  <g id="n_id_54">
	<g id="n_id_55">
		<g id="n_id_56">
			<path d="M291.164,269.589c0,1.243-1.008,2.25-2.25,2.25h-7.043     c-1.242,0-2.25-1.007-2.25-2.25v-11.193c0-1.243,1.008-2.25,2.25-2.25h7.043c1.242,0,2.25,1.007,2.25,2.25V269.589z" fill="none" id="n_id_57" stroke="#25408F" stroke-width="0.75"/><circle cx="285.392" cy="263.992" fill="none" id="n_id_58" r="1.595" stroke="#25408F" stroke-width="0.75"/></g><g id="n_id_59">
			<path d="M279.621,269.589c0,1.243,1.008,2.25,2.25,2.25h7.043     c1.242,0,2.25-1.007,2.25-2.25v-11.193c0-1.243-1.008-2.25-2.25-2.25h-7.043c-1.242,0-2.25,1.007-2.25,2.25V269.589z" fill="none" id="n_id_60" stroke="#25408F" stroke-width="0.75"/><circle cx="285.392" cy="263.992" fill="none" id="n_id_61" r="1.595" stroke="#25408F" stroke-width="0.75"/></g><g id="n_id_62">
			<path d="M291.08,269.589c0,1.243,1.008,2.25,2.25,2.25h7.043     c1.242,0,2.25-1.007,2.25-2.25v-11.193c0-1.243-1.008-2.25-2.25-2.25h-7.043c-1.242,0-2.25,1.007-2.25,2.25V269.589z" fill="none" id="n_id_63" stroke="#25408F" stroke-width="0.75"/><circle cx="296.851" cy="263.992" fill="none" id="n_id_64" r="1.595" stroke="#25408F" stroke-width="0.75"/></g><g id="n_id_65">
			<path d="M291.85,273.673c0,0.413-0.334,0.749-0.748,0.749l0,0     c-0.414,0-0.748-0.336-0.748-0.749v-2.991c0-0.414,0.334-0.748,0.748-0.748l0,0c0.414,0,0.748,0.334,0.748,0.748V273.673z" fill="#FFFFFF" id="n_id_66" stroke="#25408F" stroke-width="0.75"/><circle cx="293.642" cy="273.659" fill="#FFFFFF" id="n_id_67" r="0.776" stroke="#25408F" stroke-width="0.75"/><circle cx="288.561" cy="273.659" fill="#FFFFFF" id="n_id_68" r="0.777" stroke="#25408F" stroke-width="0.75"/></g></g><rect fill="none" height="22.773" id="n_id_69" stroke="#25408F" stroke-width="0.75" width="70.012" x="256.742" y="253.992"/><line fill="none" id="n_id_70" stroke="#25408F" stroke-dasharray="3,3,3,3" stroke-width="0.75" x1="256.176" x2="326.271" y1="264.876" y2="264.876"/></g>
  <g id="n_id_71">
	<path d="M113.63,215.334c0-12.771,10.354-23.124,23.125-23.124" fill="none" id="n_id_72" stroke="#25408F" stroke-width="0.5"/><rect fill="none" height="23.115" id="n_id_73" stroke="#25408F" width="1.454" x="135.301" y="192.22"/></g>
  <g id="n_id_74">
	<path d="M86.013,243.33c-12.771,0-23.125-10.354-23.125-23.125" fill="none" id="n_id_75" stroke="#25408F" stroke-width="0.5"/><rect fill="none" height="1.453" id="n_id_76" stroke="#25408F" width="23.115" x="62.898" y="220.205"/></g>
  <g id="n_id_77">
	<path d="M282.375,46.705c-12.771,0-23.125-10.354-23.125-23.125" fill="none" id="n_id_78" stroke="#25408F" stroke-width="0.5"/><rect fill="none" height="1.455" id="n_id_79" stroke="#25408F" width="23.113" x="259.262" y="23.58"/></g>
  <g id="n_id_85">
	<path d="M263.617,257.974h1.312c1.613,0,2.479,0.936,2.479,2.599c0,1.671-0.865,2.646-2.447,2.646h-1.344V257.974z    M264.881,262.675c1.223,0,1.84-0.775,1.84-2.103c0-1.319-0.617-2.055-1.84-2.055h-0.6v4.157H264.881z" fill="#25408F" id="n_id_86"/><path d="M267.879,257.974h0.688l0.551,2.854c0.098,0.567,0.209,1.127,0.305,1.695h0.031   c0.121-0.567,0.248-1.135,0.369-1.695l0.727-2.854h0.607l0.729,2.854c0.127,0.552,0.256,1.127,0.383,1.695h0.033   c0.096-0.567,0.191-1.135,0.295-1.695l0.553-2.854h0.639l-1.088,5.245H271.9l-0.791-3.158c-0.096-0.408-0.176-0.784-0.256-1.191   h-0.033c-0.08,0.408-0.176,0.784-0.264,1.191l-0.775,3.158h-0.791L267.879,257.974z" fill="#25408F" id="n_id_87"/></g>
  <g id="n_id_88">
	<polyline fill="none" id="n_id_89" points="142.109,176.791 133.109,167.541 142.109,158.125  " stroke="#25408F" stroke-width="0.75"/><polyline fill="none" id="n_id_90" points="142.109,127.457 133.109,136.707 142.109,146.125  " stroke="#25408F" stroke-width="0.75"/><line fill="none" id="n_id_91" stroke="#25408F" stroke-dasharray="3,3,3,3" stroke-width="0.75" x1="153.229" x2="153.229" y1="178.875" y2="125.375"/></g>
  <g id="n_id_99">
	<polyline fill="none" id="n_id_100" points="141.653,123.453 132.653,114.203 141.653,104.785  " stroke="#25408F" stroke-width="0.75"/><polyline fill="none" id="n_id_101" points="141.653,72.119 132.653,81.369 141.653,90.785  " stroke="#25408F" stroke-width="0.75"/><line fill="none" id="n_id_102" stroke="#25408F" stroke-dasharray="3,3,3,3" stroke-width="0.75" x1="152.773" x2="152.773" y1="124.535" y2="71.035"/><g id="n_id_103">
		<path d="M144.281,105.68c0-0.631,0.304-1.127,0.647-1.431l0.424,0.376c-0.296,0.271-0.488,0.607-0.488,1.047    c0,1,0.815,1.655,2.119,1.655c1.319,0,2.151-0.632,2.151-1.623c0-0.504-0.208-0.871-0.583-1.207l0.408-0.376    c0.479,0.416,0.759,0.928,0.759,1.599c0,1.319-1.007,2.295-2.718,2.295C145.312,108.015,144.281,107.023,144.281,105.68z" fill="#25408F" id="n_id_104"/><path d="M143.929,103.333v-0.656h4.958c0.208,0,0.288-0.088,0.288-0.184c0-0.04,0-0.072-0.016-0.144l0.496-0.088    c0.04,0.088,0.063,0.199,0.063,0.375c0,0.496-0.312,0.696-0.879,0.696H143.929z" fill="#25408F" id="n_id_105"/><path d="M145.64,99.939c0-0.951,0.744-1.799,2.047-1.799c1.288,0,2.031,0.848,2.031,1.799    s-0.743,1.799-2.031,1.799C146.383,101.738,145.64,100.891,145.64,99.939z M149.174,99.939c0-0.672-0.6-1.119-1.487-1.119    c-0.896,0-1.503,0.447-1.503,1.119c0,0.664,0.607,1.119,1.503,1.119C148.574,101.059,149.174,100.604,149.174,99.939z" fill="#25408F" id="n_id_106"/><path d="M148.742,97.329c0.272-0.336,0.463-0.68,0.463-1.144c0-0.512-0.271-0.768-0.607-0.768    c-0.4,0-0.576,0.464-0.735,0.888c-0.2,0.552-0.464,1.159-1.12,1.159c-0.624,0-1.104-0.495-1.104-1.335    c0-0.487,0.2-0.911,0.44-1.207l0.416,0.312c-0.2,0.264-0.344,0.544-0.344,0.888c0,0.487,0.264,0.711,0.56,0.711    c0.368,0,0.503-0.423,0.671-0.863c0.208-0.56,0.44-1.184,1.175-1.184c0.632,0,1.159,0.504,1.159,1.424    c0,0.552-0.231,1.079-0.536,1.447L148.742,97.329z" fill="#25408F" id="n_id_107"/><path d="M145.64,92.465c0-0.992,0.712-1.552,1.823-1.552c0.136,0,0.264,0.008,0.36,0.024v2.622    c0.839-0.048,1.367-0.552,1.367-1.295c0-0.368-0.12-0.68-0.304-0.968l0.432-0.231c0.216,0.336,0.399,0.751,0.399,1.279    c0,1.039-0.759,1.862-2.031,1.862C146.416,94.207,145.64,93.352,145.64,92.465z M147.391,91.489c-0.792,0-1.231,0.352-1.231,0.959    c0,0.544,0.448,1.04,1.231,1.119V91.489z" fill="#25408F" id="n_id_108"/><path d="M146.271,89.91v0.576h-0.496l-0.04-0.608l-1.087-0.08v-0.552h1.087v-1.047h0.536v1.047h2.159    c0.48,0,0.751-0.151,0.751-0.6c0-0.136-0.056-0.312-0.104-0.439l0.496-0.128c0.072,0.216,0.144,0.479,0.144,0.72    c0,0.831-0.527,1.111-1.295,1.111H146.271z" fill="#25408F" id="n_id_109"/></g></g>
  <g id="n_id_110">
	<polyline fill="none" id="n_id_111" points="321.77,72.334 314.049,79.846 306.148,72.295  " stroke="#25408F" stroke-width="0.75"/><polyline fill="none" id="n_id_112" points="284.52,72.357 292.215,79.846 299.928,72.476  " stroke="#25408F" stroke-width="0.75"/></g>
  <g id="n_id_121">
	<circle cx="128.264" cy="263.83" fill="none" id="n_id_122" r="8.521" stroke="#25408F" stroke-width="0.75"/><g id="n_id_123">
		<path d="M122.477,262.1h0.688l0.552,2.854c0.096,0.567,0.208,1.127,0.304,1.695h0.032    c0.12-0.567,0.248-1.135,0.368-1.695l0.728-2.854h0.607l0.728,2.854c0.128,0.552,0.256,1.127,0.384,1.695h0.032    c0.096-0.567,0.192-1.135,0.296-1.695l0.552-2.854h0.64l-1.087,5.245h-0.8l-0.792-3.158c-0.096-0.408-0.176-0.784-0.256-1.191    h-0.032c-0.08,0.408-0.176,0.784-0.264,1.191l-0.775,3.158h-0.792L122.477,262.1z" fill="#25408F" id="n_id_124"/><path d="M129.204,262.1h0.664v2.199h2.438V262.1h0.672v5.245h-0.672v-2.471h-2.438v2.471h-0.664V262.1z" fill="#25408F" id="n_id_125"/></g></g>
  <g id="n_id_126">
	<polyline fill="none" id="n_id_127" points="162.58,214.926 155.291,221.927 148.864,215.117  " stroke="#25408F"/><line fill="none" id="n_id_128" stroke="#25408F" x1="162.617" x2="140.232" y1="201.689" y2="201.689"/></g>
  <g id="n_id_135">
	<line fill="none" id="n_id_140" stroke="#25408F" x1="87.267" x2="114.985" y1="251.553" y2="251.553"/><polyline fill="none" id="n_id_141" points="87.806,249.155 96.726,239.852 105.646,249.155  " stroke="#25408F"/></g>
  <rect fill="none" height="27.448" id="n_id_142" stroke="#25408F" width="22.214" x="141.977" y="249.293"/>
  <polyline fill="none" id="n_id_149" points="124.153,249.291 133.073,239.988 141.993,249.291 " stroke="#25408F"/>
  <polyline fill="none" id="n_id_150" points="256.549,220.176 256.549,196.521 327.756,196.479 327.756,276.733   9.119,276.74 8.611,69.82 206.168,69.82 " stroke="#25408F" stroke-width="4"/>
  <line fill="none" id="n_id_151" stroke="#25408F" stroke-width="4" x1="256.549" x2="256.742" y1="252.875" y2="276.766"/>
  <line fill="none" id="n_id_152" stroke="#25408F" stroke-width="4" x1="164.696" x2="164.696" y1="217.204" y2="69.82"/>
  <polyline fill="none" id="n_id_153" points="140.582,175.902 140.582,215.202 136.902,215.183 " stroke="#25408F" stroke-width="4"/>
  <line fill="none" id="n_id_154" stroke="#25408F" stroke-width="4" x1="139.271" x2="164.696" y1="125.324" y2="125.132"/>
  <line fill="none" id="n_id_155" stroke="#25408F" stroke-width="4" x1="164.696" x2="139.039" y1="179.05" y2="179.128"/>
  <polyline fill="none" id="n_id_156" points="9.277,276.74 9.277,214.986 87.072,214.998 87.072,221.156 " stroke="#25408F" stroke-width="4"/>
  <line fill="none" id="n_id_157" stroke="#25408F" stroke-width="4" x1="164.696" x2="164.696" y1="178.905" y2="187.501"/>
  <polyline fill="none" id="n_id_158" points="182.49,69.823 182.49,18.391 282.463,18.391 282.463,8.808   327.756,8.808 327.744,112.775 " stroke="#25408F" stroke-width="4"/>
  <line fill="none" id="n_id_159" stroke="#25408F" stroke-width="4" x1="327.756" x2="320.338" y1="69.82" y2="69.82"/>
  <line fill="none" id="n_id_160" stroke="#25408F" stroke-width="4" x1="328.133" x2="282.461" y1="50.219" y2="50.219"/>
  <polyline fill="none" id="n_id_161" points="282.463,46.733 282.463,69.82 256.742,69.82 " stroke="#25408F" stroke-width="4"/>
  <line fill="none" id="n_id_162" stroke="#25408F" stroke-width="4" x1="282.463" x2="282.461" y1="23.404" y2="16.396"/>
  <line fill="none" id="n_id_163" stroke="#25408F" stroke-width="4" x1="86.967" x2="86.967" y1="242.723" y2="276.586"/>
  <line fill="none" id="n_id_164" stroke="#25408F" stroke-width="4" x1="87.134" x2="87.267" y1="276.84" y2="248.553"/>
  <polyline fill="none" id="n_id_165" points="115.141,276.84 115.141,249.343 124.524,249.088 " stroke="#25408F" stroke-width="4"/>
  <polyline fill="none" id="n_id_166" points="164.19,276.741 164.19,249.293 140.792,249.088 " stroke="#25408F" stroke-width="4"/>
  <g id="n_id_167">
	<rect fill="#FFFFFF" height="7.326" id="n_id_168" stroke="#25408F" width="27.122" x="76.647" y="66.115"/><line fill="none" id="n_id_169" stroke="#25408F" x1="76.647" x2="103.717" y1="69.778" y2="69.778"/></g>
  <g id="n_id_170">
	<line fill="none" id="n_id_171" stroke="#25408F" x1="91.651" x2="118.722" y1="69.426" y2="69.426"/></g>
  <polyline fill="none" id="n_id_172" points="206.168,71.06 231.137,71.06 231.137,68.527 256.742,68.456 " stroke="#25408F"/>
  <g id="n_id_173">
	<path d="M52.959,141.498h-4.455v-0.995h5.757v0.714c-2.115,2.704-2.549,4.735-2.704,8.223h-1.19   C50.521,146.078,51.194,143.949,52.959,141.498z" fill="#25408F" id="n_id_184"/><path d="M55.275,142.871c0.701-0.462,1.051-0.939,1.051-1.751c-0.042,0.014-0.07,0.014-0.112,0.014   c-0.392,0-0.742-0.252-0.742-0.7c0-0.49,0.308-0.785,0.742-0.785c0.546,0,0.883,0.462,0.883,1.275c0,1.121-0.532,1.919-1.499,2.479   L55.275,142.871z M57.74,142.871c0.701-0.462,1.065-0.939,1.065-1.751c-0.042,0.014-0.084,0.014-0.126,0.014   c-0.392,0-0.742-0.252-0.742-0.7c0-0.49,0.308-0.785,0.742-0.785c0.561,0,0.883,0.462,0.883,1.275c0,1.121-0.519,1.919-1.485,2.479   L57.74,142.871z" fill="#25408F" id="n_id_185"/><path d="M64.908,145.882l-2.059-3.25h1.247l0.911,1.499c0.21,0.364,0.434,0.757,0.672,1.135h0.056   c0.196-0.378,0.406-0.771,0.616-1.135l0.826-1.499h1.205l-2.059,3.376l2.213,3.432h-1.247l-0.995-1.583   c-0.238-0.406-0.49-0.826-0.742-1.218h-0.056c-0.238,0.392-0.462,0.798-0.687,1.218l-0.924,1.583h-1.205L64.908,145.882z" fill="#25408F" id="n_id_186"/><path d="M96.252,142.871c0.701-0.462,1.051-0.939,1.051-1.751c-0.042,0.014-0.07,0.014-0.112,0.014   c-0.392,0-0.742-0.252-0.742-0.7c0-0.49,0.308-0.785,0.742-0.785c0.546,0,0.883,0.462,0.883,1.275c0,1.121-0.532,1.919-1.499,2.479   L96.252,142.871z M98.717,142.871c0.701-0.462,1.065-0.939,1.065-1.751c-0.042,0.014-0.084,0.014-0.126,0.014   c-0.392,0-0.742-0.252-0.742-0.7c0-0.49,0.308-0.785,0.742-0.785c0.561,0,0.883,0.462,0.883,1.275c0,1.121-0.519,1.919-1.485,2.479   L98.717,142.871z" fill="#25408F" id="n_id_191"/></g>
  <g id="n_id_192">
	<path d="M212.088,117.17h1.162v8.194h4.02v0.995h-5.182V117.17z" fill="#25408F" id="n_id_193"/><path d="M218.131,117.409c0-0.448,0.35-0.743,0.799-0.743c0.447,0,0.797,0.294,0.797,0.743   c0,0.434-0.35,0.742-0.797,0.742C218.48,118.151,218.131,117.843,218.131,117.409z M218.34,119.552h1.148v6.808h-1.148V119.552z" fill="#25408F" id="n_id_194"/><path d="M220.414,119.552h1.191l1.289,3.866c0.195,0.672,0.42,1.358,0.629,2.003h0.057   c0.197-0.645,0.42-1.331,0.617-2.003l1.289-3.866h1.133l-2.408,6.808h-1.346L220.414,119.552z" fill="#25408F" id="n_id_195"/><path d="M227.348,117.409c0-0.448,0.352-0.743,0.799-0.743c0.449,0,0.799,0.294,0.799,0.743   c0,0.434-0.35,0.742-0.799,0.742C227.699,118.151,227.348,117.843,227.348,117.409z M227.559,119.552h1.148v6.808h-1.148V119.552z" fill="#25408F" id="n_id_196"/><path d="M230.461,119.552h0.953l0.098,0.98h0.041c0.645-0.645,1.346-1.148,2.283-1.148   c1.43,0,2.074,0.924,2.074,2.661v4.314h-1.148v-4.16c0-1.275-0.393-1.821-1.289-1.821c-0.701,0-1.178,0.364-1.863,1.051v4.931   h-1.148V119.552z" fill="#25408F" id="n_id_197"/><path d="M238.09,126.121v-0.056c-0.336-0.21-0.602-0.575-0.602-1.107c0-0.574,0.393-1.022,0.742-1.261v-0.056   c-0.449-0.364-0.883-1.023-0.883-1.835c0-1.485,1.178-2.423,2.564-2.423c0.377,0,0.713,0.07,0.965,0.168h2.367v0.882h-1.4   c0.322,0.308,0.561,0.827,0.561,1.401c0,1.457-1.105,2.367-2.492,2.367c-0.338,0-0.715-0.084-1.023-0.238   c-0.238,0.21-0.434,0.435-0.434,0.812c0,0.435,0.279,0.743,1.203,0.743h1.318c1.582,0,2.381,0.49,2.381,1.625   c0,1.261-1.332,2.354-3.445,2.354c-1.668,0-2.816-0.658-2.816-1.835C237.096,127.088,237.475,126.542,238.09,126.121z    M240.08,128.699c1.303,0,2.156-0.672,2.156-1.387c0-0.63-0.49-0.84-1.373-0.84h-1.176c-0.266,0-0.588-0.028-0.883-0.112   c-0.49,0.35-0.701,0.756-0.701,1.148C238.104,128.236,238.846,128.699,240.08,128.699z M241.354,121.807   c0-0.995-0.645-1.583-1.441-1.583c-0.799,0-1.443,0.588-1.443,1.583c0,0.994,0.658,1.625,1.443,1.625   C240.695,123.432,241.354,122.801,241.354,121.807z" fill="#25408F" id="n_id_198"/><path d="M251.953,126.359l-2.215-3.88h-1.666v3.88h-1.162v-9.189h2.871c1.877,0,3.221,0.672,3.221,2.578   c0,1.429-0.811,2.297-2.059,2.605l2.326,4.006H251.953z M248.072,121.527h1.541c1.428,0,2.227-0.588,2.227-1.779   c0-1.205-0.799-1.639-2.227-1.639h-1.541V121.527z" fill="#25408F" id="n_id_199"/><path d="M268.746,119.552h0.953l0.098,0.98h0.041c0.588-0.645,1.303-1.148,2.115-1.148   c1.037,0,1.598,0.49,1.877,1.303c0.715-0.771,1.416-1.303,2.242-1.303c1.4,0,2.072,0.924,2.072,2.661v4.314h-1.148v-4.16   c0-1.275-0.406-1.821-1.26-1.821c-0.533,0-1.08,0.351-1.709,1.051v4.931h-1.148v-4.16c0-1.275-0.406-1.821-1.275-1.821   c-0.504,0-1.078,0.351-1.709,1.051v4.931h-1.148V119.552z" fill="#25408F" id="n_id_202"/><path d="M209.619,141.673c2.689-2.675,4.203-4.286,4.203-5.729c0-1.022-0.561-1.751-1.695-1.751   c-0.742,0-1.387,0.477-1.904,1.079l-0.66-0.658c0.744-0.812,1.541-1.359,2.705-1.359c1.652,0,2.674,1.051,2.674,2.633   c0,1.681-1.525,3.348-3.641,5.561c0.49-0.042,1.035-0.084,1.498-0.084h2.592v0.995h-5.771V141.673z" fill="#25408F" id="n_id_203"/><path d="M216.082,137.863c0-2.998,1.078-4.608,2.871-4.608c1.779,0,2.857,1.611,2.857,4.608   s-1.078,4.665-2.857,4.665C217.16,142.527,216.082,140.86,216.082,137.863z M220.689,137.863c0-2.619-0.699-3.684-1.736-3.684   c-1.051,0-1.75,1.065-1.75,3.684c0,2.62,0.699,3.74,1.75,3.74C219.99,141.603,220.689,140.482,220.689,137.863z" fill="#25408F" id="n_id_204"/><path d="M222.826,135.79c0.699-0.462,1.049-0.938,1.049-1.751c-0.041,0.014-0.068,0.014-0.111,0.014   c-0.393,0-0.742-0.252-0.742-0.7c0-0.49,0.309-0.785,0.742-0.785c0.547,0,0.883,0.462,0.883,1.275c0,1.121-0.533,1.919-1.498,2.479   L222.826,135.79z" fill="#25408F" id="n_id_205"/><path d="M229.812,137.667v-0.056c-0.658-0.462-1.246-1.121-1.246-2.059c0-1.373,1.094-2.297,2.535-2.297   c1.555,0,2.521,0.995,2.521,2.381c0,0.938-0.686,1.737-1.232,2.157v0.056c0.799,0.462,1.555,1.092,1.555,2.297   c0,1.331-1.148,2.381-2.885,2.381c-1.682,0-2.928-1.037-2.928-2.451C228.133,138.914,228.973,138.115,229.812,137.667z    M231.088,141.673c1.037,0,1.752-0.644,1.752-1.569c0-1.148-1.135-1.569-2.424-2.087c-0.715,0.476-1.246,1.135-1.246,1.947   C229.17,140.958,229.996,141.673,231.088,141.673z M232.629,135.692c0-0.883-0.574-1.583-1.555-1.583   c-0.826,0-1.443,0.574-1.443,1.443c0,1.064,0.98,1.513,2.059,1.933C232.293,136.953,232.629,136.35,232.629,135.692z" fill="#25408F" id="n_id_206"/><path d="M234.916,135.79c0.699-0.462,1.049-0.938,1.049-1.751c-0.041,0.014-0.068,0.014-0.111,0.014   c-0.393,0-0.742-0.252-0.742-0.7c0-0.49,0.309-0.785,0.742-0.785c0.547,0,0.883,0.462,0.883,1.275c0,1.121-0.533,1.919-1.498,2.479   L234.916,135.79z M237.381,135.79c0.699-0.462,1.064-0.938,1.064-1.751c-0.043,0.014-0.084,0.014-0.127,0.014   c-0.391,0-0.742-0.252-0.742-0.7c0-0.49,0.309-0.785,0.742-0.785c0.561,0,0.883,0.462,0.883,1.275c0,1.121-0.518,1.919-1.484,2.479   L237.381,135.79z" fill="#25408F" id="n_id_207"/><path d="M244.547,138.801l-2.059-3.25h1.248l0.91,1.499c0.209,0.364,0.434,0.757,0.672,1.135h0.057   c0.195-0.378,0.406-0.771,0.615-1.135l0.826-1.499h1.205l-2.059,3.376l2.213,3.432h-1.246l-0.994-1.583   c-0.238-0.406-0.492-0.826-0.744-1.219h-0.055c-0.238,0.393-0.463,0.799-0.688,1.219l-0.924,1.583h-1.205L244.547,138.801z" fill="#25408F" id="n_id_208"/><path d="M251.604,141.407h2.045v-6.583h-1.625v-0.742c0.812-0.14,1.4-0.364,1.891-0.659h0.883v7.984h1.85v0.953   h-5.043V141.407z" fill="#25408F" id="n_id_209"/><path d="M263.221,139.894h-1.219v2.465h-1.092v-2.465h-4.02v-0.756l3.824-5.715h1.287v5.547h1.219V139.894z    M260.91,138.97v-2.592c0-0.476,0.043-1.247,0.07-1.723h-0.057c-0.225,0.434-0.477,0.826-0.729,1.261l-2.086,3.054H260.91z" fill="#25408F" id="n_id_210"/><path d="M263.801,135.79c0.699-0.462,1.049-0.938,1.049-1.751c-0.041,0.014-0.068,0.014-0.111,0.014   c-0.393,0-0.742-0.252-0.742-0.7c0-0.49,0.309-0.785,0.742-0.785c0.547,0,0.883,0.462,0.883,1.275c0,1.121-0.533,1.919-1.498,2.479   L263.801,135.79z" fill="#25408F" id="n_id_211"/><path d="M269.148,137.863c0-2.998,1.08-4.608,2.873-4.608c1.777,0,2.857,1.611,2.857,4.608s-1.08,4.665-2.857,4.665   C270.229,142.527,269.148,140.86,269.148,137.863z M273.758,137.863c0-2.619-0.701-3.684-1.736-3.684   c-1.051,0-1.752,1.065-1.752,3.684c0,2.62,0.701,3.74,1.752,3.74C273.057,141.603,273.758,140.482,273.758,137.863z" fill="#25408F" id="n_id_212"/><path d="M275.893,135.79c0.701-0.462,1.051-0.938,1.051-1.751c-0.043,0.014-0.07,0.014-0.111,0.014   c-0.393,0-0.744-0.252-0.744-0.7c0-0.49,0.309-0.785,0.744-0.785c0.545,0,0.881,0.462,0.881,1.275c0,1.121-0.531,1.919-1.498,2.479   L275.893,135.79z M278.357,135.79c0.701-0.462,1.064-0.938,1.064-1.751c-0.041,0.014-0.084,0.014-0.125,0.014   c-0.393,0-0.742-0.252-0.742-0.7c0-0.49,0.309-0.785,0.742-0.785c0.561,0,0.883,0.462,0.883,1.275c0,1.121-0.52,1.919-1.486,2.479   L278.357,135.79z" fill="#25408F" id="n_id_213"/></g>
  <g id="n_id_214">
	<path d="M202.834,228.325h0.953l0.098,0.98h0.041c0.645-0.645,1.346-1.148,2.283-1.148   c1.43,0,2.074,0.924,2.074,2.661v4.314h-1.148v-4.16c0-1.275-0.393-1.821-1.289-1.821c-0.701,0-1.178,0.364-1.863,1.051v4.931   h-1.148V228.325z" fill="#25408F" id="n_id_219"/><path d="M210.463,234.895v-0.056c-0.336-0.21-0.604-0.575-0.604-1.107c0-0.574,0.393-1.022,0.742-1.261v-0.056   c-0.447-0.364-0.881-1.023-0.881-1.835c0-1.485,1.176-2.423,2.562-2.423c0.379,0,0.715,0.07,0.967,0.168h2.367v0.882h-1.4   c0.322,0.308,0.561,0.827,0.561,1.401c0,1.457-1.107,2.367-2.494,2.367c-0.336,0-0.715-0.084-1.023-0.238   c-0.236,0.21-0.434,0.435-0.434,0.812c0,0.435,0.281,0.743,1.205,0.743h1.316c1.584,0,2.381,0.49,2.381,1.625   c0,1.261-1.33,2.354-3.445,2.354c-1.666,0-2.816-0.658-2.816-1.835C209.467,235.861,209.846,235.315,210.463,234.895z    M212.451,237.472c1.303,0,2.158-0.672,2.158-1.387c0-0.63-0.49-0.84-1.373-0.84h-1.178c-0.266,0-0.588-0.028-0.883-0.112   c-0.49,0.35-0.699,0.756-0.699,1.148C210.477,237.01,211.219,237.472,212.451,237.472z M213.727,230.581   c0-0.995-0.645-1.583-1.443-1.583s-1.443,0.588-1.443,1.583c0,0.994,0.658,1.625,1.443,1.625S213.727,231.575,213.727,230.581z" fill="#25408F" id="n_id_220"/><path d="M223.484,232.331h-3.348l-0.883,2.802h-1.191l3.109-9.189h1.318l3.109,9.189h-1.248L223.484,232.331z    M223.189,231.393l-0.434-1.4c-0.336-1.022-0.631-2.031-0.924-3.096h-0.057c-0.281,1.064-0.574,2.073-0.91,3.096l-0.436,1.4   H223.189z" fill="#25408F" id="n_id_221"/><path d="M226.508,228.325h0.953l0.098,1.232h0.043c0.461-0.854,1.162-1.4,1.932-1.4c0.295,0,0.506,0.042,0.729,0.14   l-0.223,1.009c-0.225-0.07-0.379-0.112-0.658-0.112c-0.574,0-1.262,0.42-1.725,1.569v4.37h-1.148V228.325z" fill="#25408F" id="n_id_222"/><path d="M233.479,228.157c1.736,0,2.717,1.247,2.717,3.193c0,0.238-0.014,0.462-0.043,0.63h-4.594   c0.084,1.471,0.967,2.396,2.27,2.396c0.645,0,1.191-0.21,1.695-0.532l0.406,0.756c-0.59,0.378-1.316,0.7-2.242,0.7   c-1.82,0-3.264-1.331-3.264-3.558C230.424,229.516,231.924,228.157,233.479,228.157z M235.188,231.225   c0-1.387-0.617-2.157-1.682-2.157c-0.953,0-1.82,0.785-1.961,2.157H235.188z" fill="#25408F" id="n_id_223"/><path d="M241.162,230.818c0-0.868-0.293-1.709-1.4-1.709c-0.799,0-1.498,0.364-2.031,0.729l-0.463-0.798   c0.631-0.406,1.584-0.882,2.676-0.882c1.668,0,2.367,1.106,2.367,2.801v4.174h-0.951l-0.1-0.812h-0.027   c-0.658,0.532-1.414,0.98-2.256,0.98c-1.148,0-2.002-0.714-2.002-1.933C236.975,231.883,238.264,231.141,241.162,230.818z    M239.299,234.376c0.658,0,1.205-0.322,1.863-0.911v-1.891c-2.283,0.28-3.053,0.841-3.053,1.709   C238.109,234.054,238.627,234.376,239.299,234.376z" fill="#25408F" id="n_id_224"/><path d="M183.297,249.326c0.532,0.532,1.205,1.023,2.256,1.023c1.093,0,1.961-0.799,1.961-2.045   c0-1.232-0.757-1.961-1.905-1.961c-0.616,0-0.994,0.196-1.526,0.546l-0.617-0.393l0.295-4.3h4.468v0.995h-3.46l-0.237,2.647   c0.42-0.224,0.826-0.364,1.372-0.364c1.527,0,2.773,0.869,2.773,2.802s-1.456,3.025-3.012,3.025c-1.429,0-2.311-0.602-2.927-1.219   L183.297,249.326z" fill="#25408F" id="n_id_225"/><path d="M189.473,244.563c0.7-0.462,1.05-0.938,1.05-1.751c-0.042,0.014-0.069,0.014-0.111,0.014   c-0.393,0-0.743-0.252-0.743-0.7c0-0.49,0.309-0.785,0.743-0.785c0.546,0,0.882,0.462,0.882,1.275c0,1.121-0.532,1.919-1.498,2.479   L189.473,244.563z" fill="#25408F" id="n_id_226"/><path d="M201.406,244.563c0.7-0.462,1.049-0.938,1.049-1.751c-0.041,0.014-0.068,0.014-0.111,0.014   c-0.393,0-0.743-0.252-0.743-0.7c0-0.49,0.309-0.785,0.743-0.785c0.546,0,0.882,0.462,0.882,1.275c0,1.121-0.533,1.919-1.499,2.479   L201.406,244.563z M203.871,244.563c0.699-0.462,1.064-0.938,1.064-1.751c-0.043,0.014-0.084,0.014-0.127,0.014   c-0.391,0-0.742-0.252-0.742-0.7c0-0.49,0.309-0.785,0.742-0.785c0.561,0,0.883,0.462,0.883,1.275c0,1.121-0.518,1.919-1.484,2.479   L203.871,244.563z" fill="#25408F" id="n_id_228"/><path d="M236.412,244.563c0.701-0.462,1.051-0.938,1.051-1.751c-0.043,0.014-0.07,0.014-0.111,0.014   c-0.393,0-0.744-0.252-0.744-0.7c0-0.49,0.309-0.785,0.744-0.785c0.545,0,0.881,0.462,0.881,1.275c0,1.121-0.531,1.919-1.498,2.479   L236.412,244.563z M238.877,244.563c0.701-0.462,1.064-0.938,1.064-1.751c-0.041,0.014-0.084,0.014-0.125,0.014   c-0.393,0-0.742-0.252-0.742-0.7c0-0.49,0.309-0.785,0.742-0.785c0.561,0,0.883,0.462,0.883,1.275c0,1.121-0.52,1.919-1.486,2.479   L238.877,244.563z" fill="#25408F" id="n_id_233"/></g>
  <g id="n_id_263">
	<g id="n_id_264">
		<path d="M334.609,195.984c0-16.762,13.588-30.352,30.352-30.352" fill="none" id="n_id_265" stroke="#25408F" stroke-width="0.5"/><rect fill="none" height="30.338" id="n_id_266" stroke="#25408F" width="1.908" x="363.053" y="165.646"/></g><polyline fill="none" id="n_id_267" points="327.782,111.836 327.82,143.337 367.916,143.502 367.891,199.564     " stroke="#25408F" stroke-width="4"/></g>
  <line fill="none" id="n_id_274" stroke="#25408F" stroke-width="4" x1="322.557" x2="334.398" y1="196.487" y2="196.47"/>
  <line fill="none" id="n_id_275" stroke="#25408F" stroke-width="4" x1="71.845" x2="114.097" y1="215.078" y2="215.078"/>
</svg>