<?xml version="1.0" encoding="utf-8"?>
<!-- Generator: Adobe Illustrator 22.1.0, SVG Export Plug-In . SVG Version: 6.00 Build 0)  -->
<svg version="1.1" xmlns="http://www.w3.org/2000/svg" xmlns:xlink="http://www.w3.org/1999/xlink" x="0px" y="0px"
	 viewBox="0 0 540 390" style="enable-background:new 0 0 540 390;" xml:space="preserve">
<style type="text/css">
	.st0{fill:none;stroke:#231F20;stroke-width:0.3126;stroke-linecap:square;stroke-miterlimit:10;}
	.st1{fill:none;stroke:#231F20;stroke-width:0.3126;stroke-linecap:round;stroke-linejoin:round;stroke-miterlimit:10;}
	.st2{fill:none;stroke:#A7A9AC;stroke-width:0.3126;stroke-linecap:round;stroke-linejoin:round;stroke-miterlimit:10;}
	.st3{fill:none;stroke:#231F20;stroke-width:0.3126;stroke-miterlimit:10;}
	.st4{fill:none;stroke:#231F20;stroke-width:0.3126;stroke-linecap:round;stroke-miterlimit:10;}
	.st5{fill:none;stroke:#231F20;stroke-width:0.3126;stroke-linecap:round;stroke-miterlimit:10;stroke-dasharray:3.2749,2.1833;}
	.st6{fill:none;stroke:#231F20;stroke-width:0.3126;stroke-linecap:round;stroke-miterlimit:10;stroke-dasharray:3.3062,2.2045;}
	.st7{fill:none;stroke:#231F20;stroke-width:0.3126;stroke-linecap:round;stroke-miterlimit:10;stroke-dasharray:3.2937,2.1958;}
	.st8{fill:none;stroke:#231F20;stroke-width:0.3126;stroke-linecap:round;stroke-miterlimit:10;stroke-dasharray:3.7726,2.5159;}
	.st9{fill:none;stroke:#231F20;stroke-width:0.3126;stroke-linecap:round;stroke-miterlimit:10;stroke-dasharray:3.2149,2.1433;}
	.st10{fill:none;stroke:#231F20;stroke-width:0.3126;stroke-linecap:round;stroke-miterlimit:10;stroke-dasharray:3.6475,2.4321;}
	.st11{fill:none;stroke:#231F20;stroke-width:0.3126;stroke-linecap:round;stroke-miterlimit:10;stroke-dasharray:3.7688,2.5121;}
	.st12{fill:none;stroke:#231F20;stroke-width:0.3126;stroke-linecap:round;stroke-linejoin:round;}
	.st13{fill:none;stroke:#231F20;stroke-width:0.3126;stroke-linecap:round;stroke-linejoin:round;stroke-dasharray:3.7476,2.4984;}
	
		.st14{fill:none;stroke:#231F20;stroke-width:0.3126;stroke-linecap:round;stroke-linejoin:round;stroke-miterlimit:10;stroke-dasharray:27.0095,16.2057;}
	
		.st15{fill:none;stroke:#231F20;stroke-width:0.3126;stroke-linecap:round;stroke-linejoin:round;stroke-miterlimit:10;stroke-dasharray:70.2247,32.4114;}
	.st16{fill:none;stroke:#231F20;stroke-width:0.3126;stroke-linecap:round;stroke-miterlimit:10;stroke-dasharray:3.7801,2.5209;}
	.st17{fill:none;stroke:#231F20;stroke-width:0.3126;stroke-linecap:round;stroke-miterlimit:10;stroke-dasharray:3.9564,2.6372;}
	.st18{fill:none;stroke:#231F20;stroke-width:0.3126;stroke-linecap:round;stroke-linejoin:round;stroke-dasharray:3.8851,2.5897;}
	.st19{fill:none;stroke:#231F20;stroke-width:0.3126;stroke-linecap:round;stroke-linejoin:round;stroke-dasharray:3.65,2.4334;}
	.st20{fill:none;stroke:#231F20;stroke-width:0.3126;stroke-linecap:round;stroke-linejoin:round;stroke-dasharray:3.6763,2.4509;}
	.st21{fill:#231F20;}
	.st22{fill:none;stroke:#231F20;stroke-width:0.3464;stroke-linecap:round;stroke-linejoin:round;stroke-miterlimit:10;}
	.st23{fill-rule:evenodd;clip-rule:evenodd;fill:#231F20;}
	.st24{fill:none;stroke:#231F20;stroke-width:0.6252;stroke-miterlimit:10;}
	.st25{fill:none;stroke:#A7A9AC;stroke-width:0.4226;stroke-linecap:round;stroke-linejoin:round;stroke-miterlimit:10;}
	.st26{fill:none;stroke:#231F20;stroke-width:0.3126;stroke-linecap:round;stroke-miterlimit:10;stroke-dasharray:3.6926,2.4621;}
	.st27{fill:none;stroke:#231F20;stroke-width:0.3126;stroke-linecap:round;stroke-miterlimit:10;stroke-dasharray:3.6375,2.4246;}
	.st28{fill:none;stroke:#231F20;stroke-width:0.3126;stroke-linecap:round;stroke-linejoin:round;stroke-dasharray:3.8113,2.5409;}
	.st29{fill:none;stroke:#231F20;stroke-width:0.3126;stroke-linecap:round;stroke-linejoin:round;stroke-dasharray:4.3378,2.8923;}
	.st30{fill:none;stroke:#231F20;stroke-width:0.3126;stroke-linecap:round;stroke-linejoin:round;stroke-dasharray:3.3099,2.207;}
	.st31{fill:none;stroke:#231F20;stroke-width:0.3126;stroke-linecap:round;stroke-linejoin:round;stroke-dasharray:3.9376,2.6247;}
	.st32{fill:none;stroke:#231F20;stroke-width:0.3126;stroke-linecap:round;stroke-linejoin:round;stroke-dasharray:3.2149,2.1433;}
	.st33{fill:none;stroke:#231F20;stroke-width:0.3126;stroke-linecap:round;stroke-linejoin:round;stroke-dasharray:3.6475,2.4309;}
	.st34{fill:none;stroke:#231F20;stroke-width:0.3126;stroke-linecap:round;stroke-linejoin:round;stroke-dasharray:3.4074,2.2708;}
	.st35{fill:none;stroke:#231F20;stroke-width:0.4226;stroke-linecap:round;stroke-linejoin:round;stroke-miterlimit:10;}
	.st36{fill:none;stroke:#231F20;stroke-width:0.3139;stroke-linecap:round;stroke-miterlimit:10;}
	.st37{fill:none;stroke:#231F20;stroke-width:0.3139;stroke-linecap:round;stroke-miterlimit:10;stroke-dasharray:3.5075,2.3383;}
	.st38{fill:none;stroke:#231F20;stroke-width:0.3139;stroke-linecap:round;stroke-linejoin:round;stroke-miterlimit:10;}
	.st39{fill:none;stroke:#231F20;stroke-width:0.3139;stroke-linecap:round;stroke-miterlimit:10;stroke-dasharray:3.8226,2.5484;}
	.st40{fill:none;stroke:#231F20;stroke-width:0.3139;stroke-linecap:round;stroke-miterlimit:10;stroke-dasharray:3.8213,2.5471;}
	.st41{fill:none;stroke:#231F20;stroke-width:0.3139;stroke-linecap:round;stroke-miterlimit:10;stroke-dasharray:3.6938,2.4634;}
	
		.st42{fill:none;stroke:#231F20;stroke-width:0.3126;stroke-linecap:round;stroke-linejoin:round;stroke-miterlimit:10;stroke-dasharray:16.2057,10.8038;}
	.st43{fill:none;stroke:#231F20;stroke-width:0.3126;stroke-linecap:round;stroke-miterlimit:10;stroke-dasharray:3.7876,2.5246;}
	.st44{fill:none;stroke:#231F20;stroke-width:0.3139;stroke-linecap:round;stroke-miterlimit:10;stroke-dasharray:3.7751,2.5159;}
	.st45{fill:none;stroke:#231F20;stroke-width:0.3126;stroke-linecap:round;stroke-linejoin:round;stroke-dasharray:3.7288,2.4859;}
	.st46{fill:none;stroke:#231F20;stroke-width:0.3126;stroke-linecap:round;stroke-miterlimit:10;stroke-dasharray:3.7676,2.5121;}
	.st47{fill:none;stroke:#231F20;stroke-width:0.3126;stroke-linecap:round;stroke-miterlimit:10;stroke-dasharray:3.2161,2.1445;}
	.st48{fill:none;stroke:#231F20;stroke-width:0.3126;stroke-linecap:round;stroke-miterlimit:10;stroke-dasharray:3.9064,2.6034;}
	.st49{fill:none;stroke:#231F20;stroke-width:0.3126;stroke-linecap:square;stroke-miterlimit:10;stroke-dasharray:4.1365,2.7572;}
	.st50{fill:none;stroke:#231F20;stroke-width:0.3126;stroke-linecap:round;stroke-miterlimit:10;stroke-dasharray:3.7938,2.5296;}
	.st51{fill:#2F3042;}
	.st52{fill:none;stroke:#A7A9AC;stroke-width:0.3126;stroke-linecap:square;stroke-miterlimit:10;}
	.st53{fill:none;stroke:#231F20;stroke-width:0.3126;stroke-linecap:square;stroke-miterlimit:10;stroke-dasharray:3.4525,2.3021;}
	.st54{fill:none;stroke:#231F20;stroke-width:0.3126;stroke-linecap:round;stroke-linejoin:round;stroke-dasharray:3.7438,2.4959;}
	.st55{fill:none;stroke:#231F20;stroke-width:0.3126;stroke-linecap:round;stroke-miterlimit:10;stroke-dasharray:3.7276,2.4859;}
	.st56{fill:none;stroke:#231F20;stroke-width:0.3126;stroke-linecap:round;stroke-linejoin:round;stroke-dasharray:3.2774,2.1845;}
	.st57{fill:none;stroke:#231F20;stroke-width:0.3226;stroke-linecap:square;stroke-miterlimit:10;}
	.st58{fill:none;stroke:#231F20;stroke-width:0.3226;stroke-linecap:square;stroke-miterlimit:10;stroke-dasharray:3.9126,2.6084;}
	.st59{fill:none;stroke:#231F20;stroke-width:0.3226;stroke-linecap:square;stroke-miterlimit:10;stroke-dasharray:4.0089,2.6722;}
	.st60{fill:none;stroke:#231F20;stroke-width:0.3226;stroke-linecap:square;stroke-miterlimit:10;stroke-dasharray:3.7851,2.5234;}
	.st61{fill:none;stroke:#231F20;stroke-width:0.3126;stroke-linecap:round;stroke-linejoin:round;stroke-dasharray:3.9089,2.6059;}
	.st62{fill:none;stroke:#231F20;stroke-width:0.3126;stroke-linecap:round;stroke-miterlimit:10;stroke-dasharray:3.6738,2.4496;}
	.st63{fill:none;stroke:#231F20;stroke-width:0.6252;stroke-linecap:square;stroke-miterlimit:10;}
	.st64{fill:none;stroke:#808285;stroke-width:0.3126;stroke-linecap:square;stroke-miterlimit:10;}
	.st65{fill:none;stroke:#80D2EC;stroke-width:0.3126;stroke-linecap:round;stroke-linejoin:round;stroke-miterlimit:10;}
	.st66{fill:none;stroke:#80D2EC;stroke-width:0.3126;stroke-linecap:square;stroke-miterlimit:10;}
	
		.st67{fill:none;stroke:#231F20;stroke-width:0.3126;stroke-linecap:square;stroke-miterlimit:10;stroke-dasharray:27.0095,16.2057;}
	.st68{fill:none;stroke:#231F20;stroke-width:0.3126;stroke-linecap:square;stroke-miterlimit:10;stroke-dasharray:3.3099,2.207;}
	.st69{fill:none;stroke:#231F20;stroke-width:0.3126;stroke-linecap:square;stroke-miterlimit:10;stroke-dasharray:3.7101,2.4734;}
	.st70{fill:none;stroke:#231F20;stroke-width:0.3126;stroke-linecap:square;stroke-miterlimit:10;stroke-dasharray:3.6775,2.4521;}
	.st71{fill:none;stroke:#231F20;stroke-width:0.3126;stroke-linecap:square;stroke-miterlimit:10;stroke-dasharray:3.7113,2.4746;}
	.st72{fill:none;stroke:#231F20;stroke-width:0.3126;stroke-linecap:square;stroke-miterlimit:10;stroke-dasharray:3.7513,2.5009;}
	.st73{fill:none;stroke:#231F20;stroke-width:0.2951;stroke-linecap:square;stroke-miterlimit:10;}
	.st74{fill:none;stroke:#231F20;stroke-width:0.3226;stroke-linecap:square;stroke-miterlimit:10;stroke-dasharray:3.8514,2.5672;}
	.st75{fill:none;stroke:#231F20;stroke-width:0.2738;stroke-linecap:square;stroke-miterlimit:10;stroke-dasharray:23.6833,14.21;}
	.st76{fill:none;stroke:#A7A9AC;stroke-width:0.3126;stroke-miterlimit:10;}
	.st77{fill:none;stroke:#231F20;stroke-width:0.3126;stroke-linecap:square;stroke-miterlimit:10;stroke-dasharray:3.7376,2.4921;}
	.st78{fill:none;stroke:#231F20;stroke-width:0.3126;stroke-linecap:square;stroke-miterlimit:10;stroke-dasharray:2.3921,3.5875;}
	.st79{fill:none;stroke:#231F20;stroke-width:0.3226;stroke-linecap:square;stroke-miterlimit:10;stroke-dasharray:3.59,2.3933;}
	.st80{fill:none;stroke:#231F20;stroke-width:0.3126;stroke-linecap:square;stroke-miterlimit:10;stroke-dasharray:3.59,2.3933;}
	.st81{fill:none;stroke:#808285;stroke-width:0.3126;stroke-linecap:square;stroke-miterlimit:10;stroke-dasharray:3.7088,2.4721;}
	
		.st82{fill:none;stroke:#808285;stroke-width:0.3126;stroke-linecap:square;stroke-miterlimit:10;stroke-dasharray:43.2152,21.6076;}
</style>
<g id="B2">
	<g>
		<path class="st2" d="M262.46,322.08c0,15.77,12.78,28.56,28.56,28.56"/>
		<path class="st2" d="M132,354.92c0-12.62-10.23-22.84-22.84-22.84"/>
		<path class="st2" d="M154.85,332.08c-12.62,0-22.84,10.23-22.84,22.84"/>
		<path class="st2" d="M150.14,170.42c-15.77,0-28.56,12.79-28.56,28.56"/>
		<path class="st2" d="M192.98,198.97c0-15.77-12.79-28.56-28.56-28.56"/>
		<path class="st2" d="M133.01,252.28c0,15.77,12.78,28.56,28.56,28.56"/>
		<path class="st2" d="M161.56,280.83c-15.77,0-28.56,12.79-28.56,28.56"/>
		<path class="st2" d="M297.63,278.9c17.87,0,32.36-14.49,32.36-32.36"/>
		<path class="st2" d="M262.41,263.67c0,15.77,12.79,28.56,28.56,28.56"/>
		<path class="st2" d="M229.11,242.73c0-10.51-8.52-19.04-19.04-19.04h-0.02"/>
		<path class="st2" d="M248.16,223.7c-10.51-0.01-19.04,8.51-19.05,19.02v0.02"/>
		<path class="st2" d="M290.01,223.7c-10.51-0.01-19.04,8.51-19.05,19.02v0.02"/>
		<path class="st2" d="M270.96,242.73c0-10.51-8.52-19.04-19.04-19.04h-0.01"/>
		<path class="st2" d="M339.72,52.23c-17.87,0-32.36,14.49-32.36,32.36"/>
		<path class="st2" d="M78.67,217.92c-0.15,18.25,14.13,33.37,32.36,34.27"/>
		<path class="st2" d="M88.03,369.56c0-18.93-15.34-34.56-34.27-34.56"/>
		<polygon class="st23" points="291.1,257.74 249.22,257.74 209.24,257.74 209.24,242.51 161.65,242.51 161.65,252.03 
			165.45,252.03 165.45,248.23 205.43,248.23 205.43,249.18 205.43,312.95 165.45,312.95 165.45,318.66 291.1,318.66 291.1,321.99 
			294.91,321.99 294.91,292.01 291.1,292.01 291.1,314.86 279.68,314.86 279.68,317.71 279.6,317.71 279.6,314.86 209.24,314.86 
			209.24,261.55 291.1,261.55 291.1,263.46 294.91,263.46 294.91,246.32 297.76,246.32 297.76,242.51 291.1,242.51 		"/>
		<polygon class="st24" points="291.1,257.74 249.22,257.74 209.24,257.74 209.24,242.51 161.65,242.51 161.65,252.03 
			165.45,252.03 165.45,248.23 205.43,248.23 205.43,249.18 205.43,312.95 165.45,312.95 165.45,318.66 291.1,318.66 291.1,321.99 
			294.91,321.99 294.91,292.01 291.1,292.01 291.1,314.86 279.68,314.86 279.68,317.71 279.6,317.71 279.6,314.86 209.24,314.86 
			209.24,261.55 291.1,261.55 291.1,263.46 294.91,263.46 294.91,246.32 297.76,246.32 297.76,242.51 291.1,242.51 		"/>
		<polygon class="st23" points="97.87,375.78 97.87,385.29 444.35,385.29 444.35,360.55 438.64,360.55 438.64,381.49 294.91,381.49 
			294.91,350.55 291.1,350.55 291.1,381.49 165.45,381.49 165.45,382.44 165.45,309.46 161.65,309.46 161.65,354.83 154.98,354.83 
			154.98,358.64 161.65,358.64 161.65,381.49 103.58,381.49 103.58,358.64 109.29,358.64 109.29,354.83 99.77,354.83 99.77,370.06 
			88.35,370.06 88.35,375.78 		"/>
		<polygon class="st24" points="97.87,375.78 97.87,385.29 444.35,385.29 444.35,360.55 438.64,360.55 438.64,381.49 294.91,381.49 
			294.91,350.55 291.1,350.55 291.1,381.49 165.45,381.49 165.45,382.44 165.45,309.46 161.65,309.46 161.65,354.83 154.98,354.83 
			154.98,358.64 161.65,358.64 161.65,381.49 103.58,381.49 103.58,358.64 109.29,358.64 109.29,354.83 99.77,354.83 99.77,370.06 
			88.35,370.06 88.35,375.78 		"/>
		<polygon class="st23" points="115,202.54 121.67,202.54 121.67,198.73 115,198.73 115,179.69 108.34,179.69 108.34,183.5 
			111.2,183.5 111.2,213.96 111.2,217.77 115,217.77 		"/>
		<polygon class="st24" points="115,202.54 121.67,202.54 121.67,198.73 115,198.73 115,179.69 108.34,179.69 108.34,183.5 
			111.2,183.5 111.2,213.96 111.2,217.77 115,217.77 		"/>
		<polygon class="st23" points="345.36,42.86 375.82,42.86 375.82,37.15 339.64,37.15 339.64,52.38 345.36,52.38 		"/>
		<polygon class="st24" points="345.36,42.86 375.82,42.86 375.82,37.15 339.64,37.15 339.64,52.38 345.36,52.38 		"/>
		<polygon class="st23" points="495.75,250.13 490.04,250.13 490.04,263.46 349.16,263.46 349.16,242.51 330.13,242.51 
			330.13,246.32 345.36,246.32 345.36,267.26 438.64,267.26 438.64,292.01 444.35,292.01 444.35,269.17 495.75,269.17 		"/>
		<polygon class="st24" points="495.75,250.13 490.04,250.13 490.04,263.46 349.16,263.46 349.16,242.51 330.13,242.51 
			330.13,246.32 345.36,246.32 345.36,267.26 438.64,267.26 438.64,292.01 444.35,292.01 444.35,269.17 495.75,269.17 		"/>
		<rect x="341.71" y="93.94" class="st23" width="3.33" height="24.27"/>
		<rect x="341.71" y="93.94" class="st24" width="3.33" height="24.27"/>
		<line class="st1" x1="109.13" y1="270.63" x2="110.56" y2="270.63"/>
		<line class="st1" x1="109.13" y1="254.69" x2="109.13" y2="270.63"/>
		<line class="st1" x1="110.56" y1="254.69" x2="109.13" y2="254.69"/>
		<line class="st1" x1="110.56" y1="271.23" x2="108.54" y2="271.23"/>
		<line class="st1" x1="108.54" y1="271.23" x2="108.54" y2="254.1"/>
		<line class="st1" x1="108.54" y1="254.1" x2="110.56" y2="254.1"/>
		<line class="st1" x1="111.04" y1="219.59" x2="78.72" y2="219.59"/>
		<polyline class="st1" points="111.04,217.92 78.67,217.92 78.67,219.64 		"/>
		<path class="st1" d="M58.44,225.78c-4.02,0-7.29,3.94-7.29,8.8c0,4.86,3.26,8.8,7.29,8.8c4.02,0,7.29-3.94,7.29-8.8
			C65.72,229.72,62.46,225.78,58.44,225.78z"/>
		<line class="st1" x1="69.18" y1="210.31" x2="69.18" y2="248.38"/>
		<line class="st1" x1="48.24" y1="248.38" x2="69.18" y2="248.38"/>
		<path class="st1" d="M73.67,257.66c-0.73-0.65-1.57-1.16-2.49-1.51"/>
		<path class="st1" d="M75.37,259.97c-0.4-0.88-0.98-1.66-1.7-2.31"/>
		<path class="st1" d="M75.37,265.25c0.77-1.68,0.77-3.6,0-5.28"/>
		<path class="st1" d="M73.67,267.55c0.72-0.65,1.3-1.43,1.7-2.31"/>
		<path class="st1" d="M71.18,269.06c0.92-0.34,1.76-0.85,2.49-1.51"/>
		<path class="st1" d="M66.36,269.41c1.61,0.34,3.28,0.22,4.82-0.35"/>
		<line class="st1" x1="66.36" y1="269.41" x2="57.07" y2="267.48"/>
		<path class="st1" d="M55.88,253.36c0.65,0,1.18,0.53,1.18,1.18v16.13c0,0.65-0.53,1.18-1.18,1.18h-5.51
			c-0.65,0-1.18-0.53-1.18-1.18v-16.13c0-0.65,0.53-1.18,1.18-1.18H55.88z"/>
		<line class="st1" x1="57.07" y1="257.74" x2="66.36" y2="255.8"/>
		<path class="st1" d="M68.16,255.61c-0.61,0-1.21,0.06-1.8,0.19"/>
		<path class="st1" d="M71.18,256.16c-0.96-0.36-1.99-0.54-3.02-0.54"/>
		<line class="st1" x1="111.04" y1="276.94" x2="53.93" y2="276.94"/>
		<path class="st1" d="M61.48,280.76c-2.72,0.49-4.7,2.86-4.7,5.62v9.68c0,2.76,1.98,5.13,4.7,5.62c14.2,2.55,28.75,2.55,42.95,0
			c2.72-0.49,4.7-2.86,4.7-5.62v-9.68c0-2.76-1.98-5.13-4.7-5.62C90.23,278.2,75.69,278.2,61.48,280.76z"/>
		<circle class="st1" cx="60.42" cy="292.17" r="0.95"/>
		<path class="st3" d="M53.93,275.04h-5.71l0.02-26.65h20.94v-38.07h41.86v64.73 M57.06,267.53v3.2c0,0.65-0.53,1.18-1.18,1.18
			h-5.51c-0.65,0-1.18-0.53-1.18-1.18V254.6c0-0.65,0.53-1.18,1.18-1.18h5.51c0.65,0,1.18,0.53,1.18,1.18v3.2l9.3-1.94
			c0.59-0.13,1.2-0.19,1.8-0.19c1.03,0,2.05,0.19,3.02,0.54c0.92,0.34,1.76,0.85,2.49,1.51c0.72,0.64,1.3,1.43,1.7,2.31
			c0.38,0.83,0.58,1.73,0.58,2.64c0,0.91-0.2,1.81-0.58,2.64c-0.4,0.88-0.98,1.66-1.7,2.31c-0.73,0.65-1.57,1.17-2.49,1.51
			c-0.96,0.36-1.99,0.54-3.02,0.54c-0.61,0-1.21-0.06-1.8-0.19L57.06,267.53z"/>
		<path class="st1" d="M111.04,275.04v-64.73 M111.04,275.04v-64.73"/>
		<line class="st1" x1="249.1" y1="320.73" x2="249.1" y2="319.3"/>
		<line class="st1" x1="233.15" y1="320.73" x2="249.1" y2="320.73"/>
		<line class="st1" x1="233.15" y1="319.3" x2="233.15" y2="320.73"/>
		<line class="st1" x1="249.69" y1="319.3" x2="249.69" y2="321.32"/>
		<line class="st1" x1="249.69" y1="321.32" x2="232.56" y2="321.32"/>
		<line class="st1" x1="232.56" y1="321.32" x2="232.56" y2="319.3"/>
		<polyline class="st1" points="291.06,323.82 262.59,323.82 262.59,322.24 		"/>
		<line class="st1" x1="291.1" y1="322.15" x2="262.54" y2="322.15"/>
		<line class="st1" x1="167.36" y1="320.25" x2="195.9" y2="320.25"/>
		<line class="st1" x1="167.36" y1="320.25" x2="167.36" y2="374.51"/>
		<line class="st1" x1="167.36" y1="374.51" x2="195.9" y2="374.51"/>
		<line class="st1" x1="195.9" y1="320.25" x2="195.9" y2="374.51"/>
		<line class="st1" x1="167.36" y1="320.25" x2="180.76" y2="346.21"/>
		<line class="st1" x1="195.9" y1="320.25" x2="182.44" y2="346.21"/>
		<circle class="st1" cx="181.6" cy="347.38" r="1.44"/>
		<line class="st1" x1="180.76" y1="348.54" x2="167.36" y2="374.51"/>
		<line class="st1" x1="182.44" y1="348.54" x2="195.9" y2="374.51"/>
		<line class="st1" x1="196.86" y1="347.38" x2="196.86" y2="375.93"/>
		<line class="st1" x1="196.86" y1="347.38" x2="197.82" y2="347.38"/>
		<path class="st1" d="M204.75,378.56c0,0.65,0.53,1.18,1.18,1.18h16.13c0.65,0,1.18-0.53,1.18-1.18v-5.51
			c0-0.65-0.53-1.18-1.18-1.18h-16.13c-0.65,0-1.18,0.53-1.18,1.18V378.56z"/>
		<path class="st1" d="M209.13,371.86l-1.94-9.29c-0.13-0.59-0.19-1.2-0.19-1.8c0-1.03,0.18-2.05,0.54-3.02
			c0.34-0.92,0.85-1.76,1.51-2.49c0.64-0.72,1.43-1.3,2.31-1.7c0.83-0.38,1.73-0.58,2.64-0.58c0.91,0,1.81,0.2,2.64,0.58
			c0.88,0.4,1.66,0.98,2.31,1.7c0.65,0.73,1.17,1.57,1.51,2.49c0.36,0.96,0.54,1.98,0.54,3.02c0,0.6-0.06,1.21-0.19,1.8l-1.94,9.29"
			/>
		<path class="st1" d="M268.5,371.88c0-4.02,3.94-7.29,8.8-7.29c4.86,0,8.8,3.26,8.8,7.29c0,4.02-3.94,7.29-8.8,7.29
			C272.44,379.16,268.5,375.9,268.5,371.88z"/>
		<path class="st1" d="M249.92,371.88c0-4.02-3.94-7.29-8.8-7.29c-4.86,0-8.8,3.26-8.8,7.29c0,4.02,3.94,7.29,8.8,7.29
			C245.99,379.16,249.92,375.9,249.92,371.88z"/>
		<path class="st3" d="M291.1,318.82v41.88h-64.25v20.94h-27.13l-1.9-5.71v-57.11H291.1z M218.86,371.87h3.2
			c0.65,0,1.18,0.53,1.18,1.18v5.51c0,0.65-0.53,1.18-1.18,1.18h-16.13c-0.65,0-1.18-0.53-1.18-1.18v-5.51
			c0-0.65,0.53-1.18,1.18-1.18h3.2l-1.94-9.3c-0.13-0.59-0.19-1.2-0.19-1.8c0-1.03,0.18-2.05,0.54-3.02
			c0.34-0.92,0.85-1.76,1.51-2.49c0.64-0.72,1.43-1.3,2.31-1.7c0.83-0.38,1.73-0.58,2.64-0.58c0.91,0,1.81,0.2,2.64,0.58
			c0.88,0.4,1.66,0.98,2.31,1.7c0.65,0.73,1.17,1.57,1.51,2.49c0.36,0.96,0.54,1.98,0.54,3.02c0,0.61-0.06,1.21-0.19,1.8
			L218.86,371.87z"/>
		<line class="st42" x1="291.1" y1="360.7" x2="291.1" y2="318.82"/>
		<line class="st1" x1="291.1" y1="360.7" x2="226.85" y2="360.7"/>
		<line class="st1" x1="226.85" y1="381.65" x2="226.85" y2="360.7"/>
		<line class="st1" x1="198.66" y1="347.54" x2="198.66" y2="318.98"/>
		<line class="st1" x1="197.71" y1="347.54" x2="198.66" y2="347.54"/>
		<line class="st1" x1="199.14" y1="345.39" x2="199.14" y2="343.97"/>
		<line class="st1" x1="199.14" y1="343.97" x2="198.66" y2="343.97"/>
		<line class="st1" x1="198.66" y1="343.97" x2="198.66" y2="345.39"/>
		<line class="st1" x1="198.66" y1="345.39" x2="199.14" y2="345.39"/>
		<line class="st1" x1="199.14" y1="344.98" x2="201.16" y2="344.98"/>
		<line class="st1" x1="201.16" y1="344.98" x2="201.16" y2="321.54"/>
		<line class="st1" x1="201.16" y1="321.54" x2="199.14" y2="321.54"/>
		<line class="st1" x1="199.14" y1="322.55" x2="199.14" y2="321.12"/>
		<line class="st1" x1="199.14" y1="321.12" x2="198.66" y2="321.12"/>
		<line class="st1" x1="198.66" y1="322.55" x2="199.14" y2="322.55"/>
		<line class="st1" x1="199.14" y1="322.13" x2="200.57" y2="322.13"/>
		<line class="st1" x1="200.57" y1="322.13" x2="200.57" y2="344.38"/>
		<line class="st1" x1="200.57" y1="344.38" x2="199.14" y2="344.38"/>
		<line class="st1" x1="198.66" y1="321.12" x2="198.66" y2="322.55"/>
		<line class="st1" x1="226.27" y1="261.87" x2="226.27" y2="299.94"/>
		<line class="st4" x1="220.56" y1="261.87" x2="220.56" y2="263.77"/>
		<line class="st26" x1="220.56" y1="266.27" x2="220.56" y2="302.5"/>
		<line class="st4" x1="220.56" y1="303.75" x2="220.56" y2="305.65"/>
		<line class="st1" x1="226.27" y1="299.94" x2="290.99" y2="299.94"/>
		<line class="st4" x1="220.56" y1="305.65" x2="222.46" y2="305.65"/>
		<line class="st43" x1="225.02" y1="305.65" x2="287.81" y2="305.65"/>
		<line class="st4" x1="289.09" y1="305.65" x2="290.99" y2="305.65"/>
		<polyline class="st1" points="55.46,370.22 55.46,335.03 54.04,335.03 		"/>
		<line class="st1" x1="54.03" y1="335" x2="54.03" y2="370.22"/>
		<polyline class="st1" points="154.93,332.15 154.93,354.99 153.26,354.99 153.26,332.2 154.78,332.2 		"/>
		<polyline class="st1" points="109.24,332.15 109.24,354.99 110.9,354.99 110.9,332.2 109.33,332.2 		"/>
		<line class="st1" x1="54.03" y1="375.93" x2="88.3" y2="375.93"/>
		<line class="st36" x1="161.18" y1="368.32" x2="159.28" y2="368.32"/>
		<line class="st44" x1="156.72" y1="368.32" x2="106.92" y2="368.32"/>
		<line class="st36" x1="105.64" y1="368.32" x2="103.74" y2="368.32"/>
		<line class="st38" x1="161.18" y1="364.51" x2="103.74" y2="364.51"/>
		<line class="st1" x1="54.03" y1="370.33" x2="88.3" y2="370.33"/>
		<polyline class="st1" points="150.18,199.05 148.56,199.05 148.56,170.54 150.22,170.54 		"/>
		<line class="st1" x1="150.22" y1="200" x2="150.22" y2="170.49"/>
		<polyline class="st1" points="164.22,200 166.17,200 166.17,170.54 164.5,170.54 		"/>
		<line class="st1" x1="164.5" y1="200" x2="164.5" y2="170.49"/>
		<rect x="79.79" y="182.39" class="st1" width="28.56" height="1.43"/>
		<rect x="51.23" y="180.96" class="st1" width="28.56" height="1.43"/>
		<polyline class="st1" points="161.65,254.02 161.65,252.35 133.09,252.35 133.09,253.99 		"/>
		<polyline class="st1" points="161.65,254.02 161.45,254.02 133.14,254.02 		"/>
		<polyline class="st1" points="161.65,309.46 133.09,309.46 133.09,307.82 		"/>
		<polyline class="st1" points="133.14,307.8 161.65,307.8 161.65,309.46 		"/>
		<line class="st1" x1="297.71" y1="244.71" x2="297.71" y2="277.07"/>
		<line class="st1" x1="299.38" y1="278.93" x2="299.38" y2="254.23"/>
		<line class="st1" x1="297.71" y1="254.23" x2="297.71" y2="278.98"/>
		<polyline class="st1" points="299.38,277.03 299.38,246.45 297.76,246.45 		"/>
		<polyline class="st1" points="291.05,263.75 262.49,263.75 262.49,265.41 		"/>
		<polyline class="st1" points="262.54,265.41 291.05,265.41 291.05,263.75 		"/>
		<line class="st1" x1="210.14" y1="242.81" x2="210.14" y2="223.77"/>
		<line class="st1" x1="248.24" y1="242.81" x2="248.24" y2="223.77"/>
		<line class="st1" x1="251.99" y1="242.81" x2="251.99" y2="223.77"/>
		<line class="st1" x1="250.12" y1="242.81" x2="250.12" y2="258.04"/>
		<line class="st1" x1="291.05" y1="242.81" x2="209.19" y2="242.81"/>
		<line class="st1" x1="289.99" y1="242.59" x2="289.99" y2="223.56"/>
		<line class="st1" x1="331.43" y1="304.75" x2="399.97" y2="304.75"/>
		<line class="st1" x1="399.97" y1="304.75" x2="399.97" y2="380.9"/>
		<line class="st1" x1="399.97" y1="380.9" x2="331.43" y2="380.9"/>
		<line class="st1" x1="331.43" y1="380.9" x2="331.43" y2="304.75"/>
		<line class="st1" x1="402.82" y1="363.76" x2="425.67" y2="363.76"/>
		<line class="st1" x1="425.67" y1="363.76" x2="425.67" y2="380.9"/>
		<line class="st1" x1="425.67" y1="380.9" x2="402.82" y2="380.9"/>
		<line class="st1" x1="402.82" y1="380.9" x2="402.82" y2="363.76"/>
		<line class="st1" x1="328.58" y1="363.76" x2="305.73" y2="363.76"/>
		<line class="st1" x1="305.73" y1="363.76" x2="305.73" y2="380.9"/>
		<line class="st1" x1="305.73" y1="380.9" x2="328.58" y2="380.9"/>
		<line class="st1" x1="328.58" y1="380.9" x2="328.58" y2="363.76"/>
		<line class="st1" x1="334.98" y1="378.04" x2="334.98" y2="363.76"/>
		<line class="st1" x1="363.54" y1="378.04" x2="334.98" y2="378.04"/>
		<line class="st1" x1="363.54" y1="363.76" x2="363.54" y2="378.04"/>
		<line class="st1" x1="334.98" y1="363.76" x2="363.54" y2="363.76"/>
		<line class="st1" x1="399.97" y1="360.91" x2="331.43" y2="360.91"/>
		<line class="st1" x1="396.41" y1="363.76" x2="367.86" y2="363.76"/>
		<line class="st1" x1="367.86" y1="363.76" x2="367.86" y2="378.04"/>
		<line class="st1" x1="367.86" y1="378.04" x2="396.41" y2="378.04"/>
		<line class="st1" x1="396.41" y1="378.04" x2="396.41" y2="363.76"/>
		<line class="st1" x1="439.8" y1="100.05" x2="439.8" y2="111.47"/>
		<line class="st1" x1="422.67" y1="111.47" x2="422.67" y2="100.05"/>
		<line class="st1" x1="389.3" y1="92.26" x2="377.88" y2="92.26"/>
		<line class="st1" x1="377.88" y1="75.13" x2="389.3" y2="75.13"/>
		<line class="st1" x1="439.8" y1="111.47" x2="422.67" y2="111.47"/>
		<path class="st1" d="M439.8,108.3c-5.56,1.89-11.58,1.89-17.14,0"/>
		<line class="st1" x1="377.88" y1="92.26" x2="377.88" y2="75.13"/>
		<path class="st1" d="M381.05,92.26c-1.89-5.56-1.89-11.58,0-17.14"/>
		<line class="st1" x1="389.3" y1="67.69" x2="446.41" y2="67.69"/>
		<line class="st1" x1="446.41" y1="100.05" x2="389.3" y2="100.05"/>
		<line class="st1" x1="439.8" y1="56.27" x2="422.67" y2="56.27"/>
		<path class="st1" d="M422.66,59.44c5.56-1.89,11.58-1.89,17.14,0"/>
		<line class="st1" x1="439.8" y1="67.69" x2="439.8" y2="56.27"/>
		<line class="st1" x1="446.41" y1="67.69" x2="446.41" y2="100.05"/>
		<line class="st1" x1="411.94" y1="67.69" x2="411.94" y2="56.27"/>
		<line class="st1" x1="422.67" y1="56.27" x2="422.67" y2="67.69"/>
		<line class="st1" x1="394.8" y1="56.27" x2="394.8" y2="67.69"/>
		<line class="st1" x1="389.3" y1="100.05" x2="389.3" y2="67.69"/>
		<line class="st1" x1="411.94" y1="56.27" x2="394.8" y2="56.27"/>
		<path class="st1" d="M394.8,59.44c5.56-1.89,11.58-1.89,17.14,0"/>
		<line class="st1" x1="411.94" y1="100.05" x2="411.94" y2="111.47"/>
		<line class="st1" x1="394.8" y1="111.47" x2="394.8" y2="100.05"/>
		<line class="st1" x1="411.94" y1="111.47" x2="394.8" y2="111.47"/>
		<path class="st1" d="M411.94,108.3c-5.56,1.89-11.58,1.89-17.14,0"/>
		<line class="st1" x1="446.41" y1="92.26" x2="457.84" y2="92.26"/>
		<line class="st1" x1="457.84" y1="75.13" x2="446.41" y2="75.13"/>
		<line class="st1" x1="457.84" y1="92.26" x2="457.84" y2="75.13"/>
		<path class="st1" d="M454.66,75.12c1.89,5.56,1.89,11.58,0,17.14"/>
		<line class="st1" x1="484.49" y1="168.59" x2="461.64" y2="168.59"/>
		<line class="st1" x1="461.64" y1="145.74" x2="484.49" y2="145.74"/>
		<line class="st1" x1="484.49" y1="145.74" x2="484.49" y2="168.59"/>
		<line class="st1" x1="461.64" y1="168.59" x2="461.64" y2="145.74"/>
		<line class="st1" x1="488.29" y1="254.25" x2="457.84" y2="254.25"/>
		<line class="st1" x1="488.29" y1="248.54" x2="457.84" y2="248.54"/>
		<line class="st1" x1="488.29" y1="225.7" x2="457.84" y2="225.7"/>
		<line class="st1" x1="457.84" y1="202.85" x2="488.29" y2="202.85"/>
		<line class="st1" x1="457.84" y1="174.3" x2="488.29" y2="174.3"/>
		<line class="st1" x1="488.29" y1="174.3" x2="488.29" y2="254.25"/>
		<line class="st1" x1="482.58" y1="174.3" x2="482.58" y2="254.25"/>
		<line class="st1" x1="457.84" y1="254.25" x2="457.84" y2="174.3"/>
		<line class="st1" x1="457.84" y1="180.01" x2="488.29" y2="180.01"/>
		<line class="st1" x1="408.34" y1="191.43" x2="431.18" y2="191.43"/>
		<line class="st1" x1="408.34" y1="237.12" x2="408.34" y2="191.43"/>
		<line class="st1" x1="431.18" y1="237.12" x2="408.34" y2="237.12"/>
		<line class="st1" x1="431.18" y1="191.43" x2="431.18" y2="237.12"/>
		<line class="st1" x1="397.87" y1="253.3" x2="397.87" y2="249.49"/>
		<line class="st1" x1="441.65" y1="253.3" x2="441.65" y2="249.49"/>
		<line class="st1" x1="441.65" y1="253.3" x2="397.87" y2="253.3"/>
		<line class="st1" x1="441.65" y1="253.3" x2="426.42" y2="254.15"/>
		<line class="st1" x1="397.87" y1="253.3" x2="413.1" y2="254.15"/>
		<line class="st1" x1="426.42" y1="254.15" x2="413.1" y2="254.15"/>
		<line class="st1" x1="441.65" y1="249.49" x2="397.87" y2="249.49"/>
		<line class="st1" x1="419.28" y1="255.11" x2="419.28" y2="257.93"/>
		<line class="st1" x1="420.24" y1="255.11" x2="420.24" y2="257.93"/>
		<line class="st1" x1="417.86" y1="254.15" x2="417.86" y2="255.11"/>
		<line class="st1" x1="421.66" y1="254.15" x2="421.66" y2="255.11"/>
		<line class="st1" x1="415.48" y1="257.93" x2="424.04" y2="257.93"/>
		<line class="st1" x1="421.66" y1="255.11" x2="417.86" y2="255.11"/>
		<line class="st1" x1="415.48" y1="257.93" x2="415.48" y2="258.88"/>
		<line class="st1" x1="424.04" y1="257.93" x2="424.04" y2="258.88"/>
		<line class="st1" x1="424.04" y1="258.88" x2="415.48" y2="258.88"/>
		<rect x="396.92" y="246.64" class="st1" width="45.69" height="15.23"/>
		<line class="st1" x1="389.24" y1="138.13" x2="389.24" y2="168.59"/>
		<line class="st1" x1="394.95" y1="138.13" x2="394.95" y2="168.59"/>
		<line class="st1" x1="417.8" y1="138.13" x2="417.8" y2="168.59"/>
		<line class="st1" x1="446.35" y1="168.59" x2="446.35" y2="138.13"/>
		<line class="st1" x1="446.35" y1="138.13" x2="389.24" y2="138.13"/>
		<line class="st1" x1="446.35" y1="143.84" x2="417.8" y2="143.84"/>
		<line class="st1" x1="417.8" y1="143.84" x2="389.24" y2="143.84"/>
		<line class="st1" x1="389.24" y1="168.59" x2="446.35" y2="168.59"/>
		<line class="st1" x1="440.64" y1="168.59" x2="440.64" y2="138.13"/>
		<polyline class="st1" points="339.76,83 307.48,83 307.48,84.66 		"/>
		<line class="st1" x1="339.8" y1="84.66" x2="307.44" y2="84.66"/>
		<line class="st1" x1="345.36" y1="52.29" x2="345.36" y2="84.65"/>
		<polyline class="st1" points="322.67,37.07 322.67,8.51 162.76,8.51 162.76,54.2 		"/>
		<line class="st1" x1="339.8" y1="37.07" x2="322.67" y2="37.07"/>
		<polyline class="st1" points="326.48,35.17 324.57,35.17 324.57,6.61 160.85,6.61 160.85,52.3 158.95,52.3 158.95,4.71 
			326.48,4.71 326.48,33.26 		"/>
		<polyline class="st1" points="326.48,33.26 339.8,33.26 339.8,35.17 326.48,35.17 		"/>
		<line class="st1" x1="326.48" y1="35.17" x2="339.8" y2="35.17"/>
		<line class="st1" x1="326.48" y1="33.26" x2="339.8" y2="33.26"/>
		<path class="st1" d="M326.48,33.26h13.33H326.48z"/>
		<line class="st1" x1="251.76" y1="172.47" x2="228.44" y2="172.47"/>
		<line class="st1" x1="228.44" y1="172.47" x2="228.44" y2="201.03"/>
		<line class="st1" x1="228.44" y1="201.03" x2="251.76" y2="201.03"/>
		<line class="st1" x1="251.76" y1="172.47" x2="251.76" y2="201.03"/>
		<line class="st1" x1="250.33" y1="201.03" x2="250.33" y2="172.47"/>
		<line class="st12" x1="345.71" y1="183.18" x2="343.81" y2="183.18"/>
		<line class="st45" x1="341.29" y1="183.18" x2="292.08" y2="183.18"/>
		<line class="st12" x1="290.82" y1="183.18" x2="288.92" y2="183.18"/>
		<line class="st14" x1="227.48" y1="171.52" x2="250.33" y2="171.52"/>
		<line class="st14" x1="227.48" y1="201.98" x2="251.76" y2="201.98"/>
		<line class="st1" x1="230.81" y1="124.88" x2="230.81" y2="153.44"/>
		<circle class="st1" cx="236.62" cy="146.72" r="4.28"/>
		<circle class="st1" cx="245.89" cy="131.3" r="4.28"/>
		<line class="st1" x1="245.89" y1="136.29" x2="245.89" y2="133.94"/>
		<line class="st1" x1="250.88" y1="131.3" x2="248.53" y2="131.3"/>
		<line class="st1" x1="245.89" y1="128.65" x2="245.89" y2="126.28"/>
		<line class="st1" x1="243.24" y1="131.3" x2="240.87" y2="131.3"/>
		<line class="st1" x1="236.62" y1="151.72" x2="236.62" y2="149.37"/>
		<line class="st1" x1="241.61" y1="146.72" x2="239.26" y2="146.72"/>
		<line class="st1" x1="236.62" y1="144.08" x2="236.62" y2="141.71"/>
		<line class="st1" x1="233.97" y1="146.72" x2="231.6" y2="146.72"/>
		<line class="st1" x1="235.89" y1="133.93" x2="235.89" y2="132.05"/>
		<line class="st1" x1="239.19" y1="130.63" x2="237.31" y2="130.63"/>
		<line class="st1" x1="235.89" y1="129.21" x2="235.89" y2="127.33"/>
		<line class="st1" x1="234.48" y1="130.63" x2="232.6" y2="130.63"/>
		<circle class="st1" cx="246.54" cy="147.45" r="2.86"/>
		<circle class="st1" cx="235.89" cy="130.63" r="2.86"/>
		<line class="st1" x1="246.54" y1="150.75" x2="246.54" y2="148.86"/>
		<line class="st1" x1="249.84" y1="147.45" x2="247.96" y2="147.45"/>
		<line class="st1" x1="246.54" y1="146.03" x2="246.54" y2="144.15"/>
		<line class="st1" x1="245.12" y1="147.45" x2="243.24" y2="147.45"/>
		<line class="st1" x1="251.76" y1="124.88" x2="228.91" y2="124.88"/>
		<line class="st1" x1="228.91" y1="124.88" x2="251.76" y2="124.88"/>
		<line class="st1" x1="251.76" y1="124.88" x2="251.76" y2="153.44"/>
		<line class="st1" x1="251.76" y1="153.44" x2="228.91" y2="153.44"/>
		<line class="st1" x1="228.91" y1="153.44" x2="228.91" y2="124.88"/>
		<line class="st1" x1="318.39" y1="117.03" x2="318.39" y2="94.39"/>
		<line class="st1" x1="341.23" y1="118.45" x2="318.39" y2="118.45"/>
		<line class="st1" x1="318.39" y1="118.45" x2="318.39" y2="117.03"/>
		<rect x="285.55" y="99.61" class="st1" width="11.9" height="13.81"/>
		<rect x="271.74" y="99.61" class="st1" width="11.9" height="13.81"/>
		<rect x="269.83" y="96.28" class="st1" width="29.52" height="19.05"/>
		<rect x="281.26" y="97.33" class="st1" width="6.66" height="1.43"/>
		<line class="st1" x1="341.95" y1="155.58" x2="319.1" y2="155.58"/>
		<line class="st4" x1="238.91" y1="105.6" x2="240.81" y2="105.6"/>
		<line class="st46" x1="243.36" y1="105.6" x2="254.83" y2="105.6"/>
		<polyline class="st4" points="256.1,105.6 258.01,105.6 258.01,103.7 		"/>
		<line class="st47" x1="258.01" y1="101.52" x2="258.01" y2="97.17"/>
		<line class="st4" x1="258.01" y1="96.08" x2="258.01" y2="94.18"/>
		<line class="st4" x1="238.91" y1="171.52" x2="238.91" y2="169.62"/>
		<line class="st48" x1="238.91" y1="166.97" x2="238.91" y2="108.83"/>
		<line class="st4" x1="238.91" y1="107.51" x2="238.91" y2="105.6"/>
		<polyline class="st1" points="322.95,192.7 288.88,192.7 288.88,155.58 345.99,155.58 345.99,192.7 322.95,192.7 		"/>
		<line class="st1" x1="251.76" y1="171.52" x2="251.76" y2="153.49"/>
		<line class="st1" x1="251.76" y1="125.01" x2="251.76" y2="118.45"/>
		<line class="st1" x1="318.39" y1="118.45" x2="251.76" y2="118.45"/>
		<line class="st1" x1="251.76" y1="118.45" x2="258.89" y2="118.45"/>
		<line class="st1" x1="227.48" y1="202.69" x2="251.76" y2="202.69"/>
		<line class="st1" x1="251.76" y1="201.98" x2="251.76" y2="202.69"/>
		<line class="st1" x1="250.33" y1="171.52" x2="251.76" y2="171.52"/>
		<path class="st1" d="M341.23,192.7c0,3.15-2.56,5.71-5.71,5.71c-3.15,0-5.71-2.56-5.71-5.71"/>
		<path class="st1" d="M304.11,192.7c0,3.15-2.56,5.71-5.71,5.71c-3.15,0-5.71-2.56-5.71-5.71"/>
		<path class="st1" d="M323.15,192.7c0,3.15-2.56,5.71-5.71,5.71c-3.15,0-5.71-2.56-5.71-5.71"/>
		<line class="st3" x1="62.65" y1="54.36" x2="44.57" y2="54.36"/>
		<line class="st3" x1="62.65" y1="60.07" x2="47.42" y2="60.07"/>
		<line class="st3" x1="490.04" y1="77.21" x2="490.04" y2="82.92"/>
		<line class="st3" x1="495.75" y1="77.21" x2="495.75" y2="82.92"/>
		<line class="st3" x1="490.04" y1="117.18" x2="490.04" y2="122.9"/>
		<line class="st3" x1="495.75" y1="117.18" x2="495.75" y2="122.9"/>
		<line class="st3" x1="455.77" y1="42.94" x2="450.06" y2="42.94"/>
		<line class="st3" x1="415.79" y1="42.94" x2="410.08" y2="42.94"/>
		<line class="st3" x1="438.64" y1="360.86" x2="438.64" y2="292.33"/>
		<line class="st3" x1="444.35" y1="360.86" x2="444.35" y2="292.33"/>
		<line class="st3" x1="61.7" y1="54.36" x2="130.23" y2="54.36"/>
		<line class="st3" x1="61.7" y1="60.07" x2="130.23" y2="60.07"/>
		<line class="st3" x1="215.86" y1="88.31" x2="170.17" y2="88.31"/>
		<line class="st3" x1="215.86" y1="94.02" x2="170.17" y2="94.02"/>
		<line class="st3" x1="495.75" y1="181.91" x2="495.75" y2="250.45"/>
		<line class="st3" x1="490.04" y1="181.91" x2="490.04" y2="250.45"/>
		<line class="st3" x1="495.75" y1="42.94" x2="495.75" y2="77.21"/>
		<line class="st3" x1="495.75" y1="82.92" x2="495.75" y2="117.18"/>
		<line class="st3" x1="495.75" y1="122.9" x2="495.75" y2="157.16"/>
		<line class="st3" x1="490.04" y1="42.94" x2="490.04" y2="77.21"/>
		<line class="st3" x1="490.04" y1="82.92" x2="490.04" y2="117.18"/>
		<line class="st3" x1="490.04" y1="122.9" x2="490.04" y2="157.16"/>
		<line class="st3" x1="261.55" y1="88.31" x2="307.24" y2="88.31"/>
		<line class="st3" x1="490.04" y1="42.94" x2="455.77" y2="42.94"/>
		<line class="st3" x1="450.06" y1="42.94" x2="415.79" y2="42.94"/>
		<line class="st3" x1="410.08" y1="42.94" x2="375.82" y2="42.94"/>
		<line class="st3" x1="441.49" y1="318.98" x2="441.49" y2="294.23"/>
		<line class="st3" x1="63.6" y1="57.22" x2="88.35" y2="57.22"/>
		<line class="st3" x1="191.11" y1="91.17" x2="172.07" y2="91.17"/>
		<line class="st3" x1="492.9" y1="183.82" x2="492.9" y2="223.79"/>
		<line class="st3" x1="492.9" y1="44.84" x2="492.9" y2="75.3"/>
		<line class="st3" x1="492.9" y1="84.82" x2="492.9" y2="115.28"/>
		<line class="st3" x1="492.9" y1="124.8" x2="492.9" y2="155.26"/>
		<line class="st3" x1="263.45" y1="91.17" x2="282.49" y2="91.17"/>
		<line class="st3" x1="488.14" y1="40.08" x2="457.68" y2="40.08"/>
		<line class="st3" x1="448.16" y1="40.08" x2="417.7" y2="40.08"/>
		<line class="st3" x1="408.18" y1="40.08" x2="377.72" y2="40.08"/>
		<polyline class="st3" points="438.64,360.86 438.64,358.96 444.35,358.96 444.35,360.86 		"/>
		<polyline class="st3" points="490.04,250.45 490.04,248.54 495.75,248.54 495.75,250.45 		"/>
		<polyline class="st3" points="444.35,292.33 444.35,294.23 438.64,294.23 438.64,292.33 		"/>
		<polyline class="st3" points="61.7,60.07 63.6,60.07 63.6,54.36 61.7,54.36 		"/>
		<polyline class="st3" points="215.86,94.02 213.95,94.02 213.95,88.31 215.86,88.31 		"/>
		<polyline class="st3" points="170.17,88.31 172.07,88.31 172.07,94.02 170.17,94.02 		"/>
		<polyline class="st3" points="130.23,60.07 128.33,60.07 128.33,54.36 130.23,54.36 		"/>
		<polyline class="st3" points="490.04,181.91 490.04,183.82 495.75,183.82 495.75,181.91 		"/>
		<polyline class="st3" points="490.04,157.16 490.04,155.26 495.75,155.26 495.75,157.16 		"/>
		<polyline class="st3" points="490.04,42.94 490.04,44.84 495.75,44.84 495.75,42.94 		"/>
		<rect x="490.04" y="82.92" class="st3" width="5.71" height="1.9"/>
		<rect x="88.35" y="54.36" class="st3" width="1.9" height="5.71"/>
		<rect x="191.11" y="88.31" class="st3" width="1.9" height="5.71"/>
		<rect x="438.64" y="318.98" class="st3" width="5.71" height="1.9"/>
		<rect x="490.04" y="223.79" class="st3" width="5.71" height="1.9"/>
		<polyline class="st3" points="261.55,94.02 263.45,94.02 263.45,88.31 261.55,88.31 		"/>
		<polyline class="st3" points="307.24,94.02 305.33,94.02 305.33,88.31 307.24,88.31 		"/>
		<rect x="490.04" y="75.3" class="st3" width="5.71" height="1.9"/>
		<rect x="490.04" y="115.28" class="st3" width="5.71" height="1.9"/>
		<rect x="490.04" y="122.9" class="st3" width="5.71" height="1.9"/>
		<polyline class="st3" points="375.82,37.23 377.72,37.23 377.72,42.94 375.82,42.94 		"/>
		<polyline class="st3" points="490.04,37.23 488.14,37.23 488.14,42.94 490.04,42.94 		"/>
		<rect x="448.16" y="37.23" class="st3" width="1.9" height="5.71"/>
		<rect x="455.77" y="37.23" class="st3" width="1.9" height="5.71"/>
		<rect x="415.79" y="37.23" class="st3" width="1.9" height="5.71"/>
		<rect x="408.18" y="37.23" class="st3" width="1.9" height="5.71"/>
		<rect x="282.49" y="88.31" class="st3" width="1.9" height="5.71"/>
		<line class="st3" x1="162.6" y1="54.36" x2="44.57" y2="54.36"/>
		<line class="st3" x1="490.3" y1="37.23" x2="456.04" y2="37.23"/>
		<line class="st3" x1="450.33" y1="37.23" x2="416.06" y2="37.23"/>
		<line class="st3" x1="410.35" y1="37.23" x2="376.08" y2="37.23"/>
		<rect x="50.28" y="92.45" class="st1" width="73.29" height="51.4"/>
		<rect x="50.28" y="145.75" class="st1" width="19.04" height="22.84"/>
		<rect x="50.28" y="67.7" class="st1" width="19.04" height="22.84"/>
		<line class="st1" x1="73.12" y1="143.85" x2="73.12" y2="92.45"/>
		<line class="st1" x1="55.99" y1="120.05" x2="55.99" y2="140.3"/>
		<line class="st1" x1="70.27" y1="140.3" x2="70.27" y2="120.05"/>
		<line class="st1" x1="55.99" y1="140.3" x2="70.27" y2="140.3"/>
		<line class="st1" x1="70.27" y1="120.05" x2="55.99" y2="120.05"/>
		<line class="st1" x1="53.13" y1="143.85" x2="53.13" y2="92.45"/>
		<line class="st1" x1="55.99" y1="116.25" x2="55.99" y2="96"/>
		<line class="st1" x1="70.27" y1="96" x2="70.27" y2="116.25"/>
		<line class="st1" x1="55.99" y1="96" x2="70.27" y2="96"/>
		<line class="st1" x1="70.27" y1="116.25" x2="55.99" y2="116.25"/>
		<line class="st0" x1="48.35" y1="189.53" x2="111.2" y2="189.53"/>
		<line class="st0" x1="48.35" y1="193.55" x2="50.38" y2="193.55"/>
		<line class="st49" x1="53.18" y1="193.55" x2="107.76" y2="193.55"/>
		<line class="st0" x1="109.16" y1="193.55" x2="111.2" y2="193.55"/>
		<line class="st1" x1="339.8" y1="52.29" x2="339.8" y2="84.65"/>
		<line class="st3" x1="261.75" y1="94.02" x2="307.44" y2="94.02"/>
		<path class="st0" d="M209.16,358.38c-0.07,0.2-0.14,0.4-0.21,0.59c-0.06,0.21-0.11,0.42-0.16,0.63c-0.04,0.22-0.08,0.44-0.12,0.66
			c-0.03,0.23-0.05,0.45-0.07,0.68c-0.01,0.23-0.01,0.46-0.01,0.69c0.01,0.23,0.02,0.47,0.04,0.7c0.03,0.24,0.06,0.48,0.09,0.71
			c0.04,0.23,0.09,0.46,0.14,0.68c0.06,0.21,0.12,0.43,0.18,0.64c0.07,0.2,0.15,0.4,0.23,0.59c0.09,0.18,0.18,0.37,0.27,0.54
			c0.1,0.17,0.21,0.34,0.32,0.51c0.12,0.16,0.23,0.31,0.36,0.47c0.13,0.14,0.26,0.29,0.4,0.43c0.14,0.13,0.29,0.26,0.44,0.39
			c0.15,0.11,0.3,0.22,0.46,0.33c0.15,0.09,0.31,0.18,0.47,0.27c0.16,0.07,0.32,0.14,0.48,0.2c0.16,0.05,0.33,0.1,0.49,0.14
			c0.16,0.03,0.33,0.06,0.5,0.07c0.16,0.01,0.33,0.02,0.49,0.02c0.17-0.01,0.33-0.03,0.49-0.05c0.17-0.03,0.33-0.07,0.5-0.11
			c0.16-0.05,0.33-0.11,0.49-0.17c0.16-0.07,0.32-0.15,0.48-0.23c0.16-0.1,0.31-0.2,0.46-0.3c0.15-0.12,0.31-0.24,0.45-0.36
			c0.14-0.13,0.28-0.27,0.42-0.4c0.13-0.14,0.26-0.29,0.38-0.45c0.12-0.16,0.23-0.32,0.34-0.48c0.1-0.17,0.2-0.35,0.3-0.53
			c0.09-0.19,0.17-0.38,0.25-0.57c0.07-0.2,0.14-0.41,0.21-0.61c0.06-0.22,0.11-0.44,0.16-0.66c0.04-0.23,0.08-0.47,0.12-0.7
			c0.03-0.24,0.05-0.47,0.07-0.71c0.01-0.23,0.01-0.46,0.01-0.7c-0.01-0.23-0.02-0.46-0.04-0.69c-0.03-0.22-0.06-0.45-0.09-0.67
			c-0.04-0.22-0.09-0.43-0.14-0.64c-0.06-0.21-0.12-0.41-0.19-0.61c-0.07-0.19-0.15-0.38-0.23-0.58c-0.09-0.18-0.18-0.36-0.27-0.54
			c-0.1-0.17-0.21-0.34-0.32-0.51c-0.12-0.16-0.23-0.31-0.36-0.46c-0.13-0.15-0.26-0.29-0.4-0.43c-0.14-0.13-0.29-0.26-0.44-0.39
			c-0.15-0.11-0.3-0.22-0.46-0.33c-0.15-0.09-0.31-0.18-0.47-0.27c-0.16-0.07-0.32-0.14-0.48-0.2c-0.16-0.05-0.32-0.1-0.49-0.14
			c-0.16-0.03-0.33-0.06-0.49-0.08c-0.17-0.01-0.33-0.02-0.5-0.02c-0.16,0.01-0.33,0.03-0.49,0.05c-0.17,0.03-0.33,0.07-0.5,0.11
			c-0.16,0.05-0.33,0.11-0.49,0.17c-0.16,0.07-0.32,0.15-0.48,0.23c-0.16,0.1-0.31,0.2-0.46,0.3c-0.15,0.12-0.31,0.24-0.45,0.36
			c-0.14,0.13-0.28,0.27-0.42,0.4c-0.13,0.14-0.26,0.29-0.38,0.45c-0.12,0.16-0.23,0.32-0.34,0.48c-0.1,0.17-0.2,0.35-0.3,0.53
			C209.32,358,209.24,358.19,209.16,358.38z"/>
		<line class="st1" x1="297.71" y1="278.98" x2="299.23" y2="278.98"/>
		<path class="st0" d="M64.1,267.37c0.2,0.07,0.39,0.14,0.59,0.21c0.21,0.06,0.42,0.11,0.62,0.16c0.22,0.04,0.44,0.08,0.66,0.12
			c0.22,0.03,0.45,0.05,0.68,0.07c0.23,0.01,0.46,0.01,0.69,0.01c0.23-0.01,0.47-0.02,0.7-0.04c0.24-0.03,0.48-0.06,0.71-0.09
			c0.23-0.04,0.46-0.09,0.68-0.14c0.21-0.06,0.43-0.12,0.64-0.18c0.2-0.07,0.4-0.15,0.59-0.23c0.18-0.09,0.36-0.18,0.54-0.27
			c0.17-0.1,0.34-0.21,0.51-0.32c0.16-0.11,0.31-0.23,0.47-0.36c0.14-0.13,0.29-0.26,0.43-0.4c0.13-0.14,0.26-0.29,0.39-0.44
			c0.11-0.15,0.22-0.3,0.33-0.46c0.09-0.15,0.18-0.31,0.27-0.47c0.07-0.16,0.14-0.32,0.2-0.48c0.05-0.16,0.1-0.32,0.14-0.49
			c0.03-0.16,0.06-0.33,0.08-0.5c0.01-0.16,0.02-0.33,0.02-0.49c-0.01-0.16-0.03-0.33-0.05-0.49c-0.03-0.17-0.07-0.33-0.11-0.5
			c-0.05-0.16-0.11-0.33-0.17-0.49c-0.07-0.16-0.15-0.32-0.23-0.47c-0.1-0.16-0.19-0.31-0.3-0.46c-0.12-0.16-0.24-0.31-0.36-0.46
			c-0.13-0.14-0.27-0.28-0.41-0.42c-0.14-0.13-0.29-0.26-0.45-0.38c-0.16-0.12-0.32-0.23-0.48-0.34c-0.17-0.1-0.35-0.2-0.53-0.3
			c-0.19-0.09-0.38-0.17-0.57-0.25c-0.2-0.07-0.41-0.14-0.61-0.21c-0.22-0.06-0.44-0.11-0.66-0.16c-0.23-0.04-0.47-0.08-0.71-0.12
			c-0.23-0.03-0.47-0.05-0.71-0.07c-0.23-0.01-0.46-0.01-0.7-0.01c-0.23,0.01-0.46,0.02-0.69,0.04c-0.22,0.03-0.45,0.06-0.67,0.09
			c-0.22,0.04-0.43,0.09-0.64,0.14c-0.2,0.06-0.41,0.12-0.61,0.19c-0.19,0.07-0.39,0.15-0.58,0.23c-0.18,0.09-0.36,0.18-0.54,0.28
			c-0.17,0.1-0.34,0.21-0.51,0.32c-0.16,0.12-0.31,0.23-0.46,0.36c-0.15,0.13-0.29,0.26-0.43,0.4c-0.13,0.14-0.26,0.29-0.39,0.44
			c-0.11,0.15-0.22,0.3-0.33,0.46c-0.09,0.15-0.18,0.31-0.27,0.47c-0.07,0.16-0.14,0.32-0.2,0.48c-0.05,0.16-0.1,0.32-0.14,0.49
			c-0.03,0.16-0.06,0.33-0.08,0.5c-0.01,0.16-0.01,0.33-0.01,0.49c0.01,0.17,0.03,0.33,0.05,0.49c0.03,0.17,0.07,0.33,0.11,0.5
			c0.05,0.16,0.11,0.33,0.17,0.49c0.07,0.16,0.15,0.32,0.23,0.47c0.1,0.16,0.19,0.31,0.3,0.46c0.12,0.16,0.24,0.31,0.36,0.46
			c0.13,0.14,0.27,0.28,0.41,0.42c0.14,0.13,0.29,0.26,0.45,0.38c0.16,0.12,0.32,0.23,0.49,0.34c0.17,0.1,0.35,0.2,0.53,0.3
			C63.73,267.21,63.92,267.29,64.1,267.37z"/>
		<line class="st3" x1="90.26" y1="57.22" x2="128.33" y2="57.22"/>
		<line class="st3" x1="213.95" y1="91.17" x2="193.01" y2="91.17"/>
		<line class="st3" x1="284.39" y1="91.17" x2="305.33" y2="91.17"/>
		<line class="st3" x1="492.9" y1="225.7" x2="492.9" y2="248.54"/>
		<line class="st3" x1="441.49" y1="358.96" x2="441.49" y2="320.88"/>
		<line class="st4" x1="188.19" y1="248.86" x2="188.19" y2="250.76"/>
		<line class="st50" x1="188.19" y1="253.33" x2="188.19" y2="309.82"/>
		<line class="st4" x1="188.19" y1="311.1" x2="188.19" y2="313"/>
		<polyline class="st1" points="251.93,127.1 253.13,127.1 253.13,151.34 251.98,151.34 		"/>
		<polygon class="st23" points="61.38,54.04 44.25,54.04 44.25,375.78 53.77,375.78 53.77,370.06 48.06,370.06 48.06,309.14 
			114.69,309.14 114.69,252.03 110.88,252.03 110.88,305.34 48.06,305.34 48.06,210.15 110.88,210.15 110.88,206.34 74.71,206.34 
			70.9,206.34 48.06,206.34 48.06,183.5 50.91,183.5 50.91,179.69 48.06,179.69 48.06,162.56 48.06,158.75 48.06,59.76 61.38,59.76 
					"/>
		<polygon class="st24" points="61.38,54.04 44.25,54.04 44.25,375.78 53.77,375.78 53.77,370.06 48.06,370.06 48.06,309.14 
			114.69,309.14 114.69,252.03 110.88,252.03 110.88,305.34 48.06,305.34 48.06,210.15 110.88,210.15 110.88,206.34 74.71,206.34 
			70.9,206.34 48.06,206.34 48.06,183.5 50.91,183.5 50.91,179.69 48.06,179.69 48.06,162.56 48.06,158.75 48.06,59.76 61.38,59.76 
					"/>
		<rect x="490.04" y="37.23" class="st23" width="5.71" height="5.71"/>
		<rect x="490.04" y="37.23" class="st24" width="5.71" height="5.71"/>
		<polygon class="st23" points="162.28,54.05 129.92,54.04 129.92,59.76 156.57,59.76 156.57,198.73 149.91,198.73 149.91,202.54 
			164.18,202.54 164.18,198.73 160.38,198.73 160.38,94.02 169.9,94.02 169.9,88.31 162.28,88.31 		"/>
		<polygon class="st24" points="162.28,54.05 129.92,54.04 129.92,59.76 156.57,59.76 156.57,198.73 149.91,198.73 149.91,202.54 
			164.18,202.54 164.18,198.73 160.38,198.73 160.38,94.02 169.9,94.02 169.9,88.31 162.28,88.31 		"/>
		<path class="st23" d="M307.28,94.02h38.07V84.5h-5.71v3.81h-32.36V94.02z M227.32,202.54V94.02h34.27v-5.71H215.9v5.71h7.61
			v104.71h-30.46v3.81H227.32z"/>
		<path class="st24" d="M307.28,94.02h38.07V84.5h-5.71v3.81h-32.36V94.02z M227.32,202.54V94.02h34.27v-5.71H215.9v5.71h7.61
			v104.71h-30.46v3.81H227.32z"/>
		<rect x="490.04" y="157.16" class="st23" width="5.71" height="24.75"/>
		<rect x="490.04" y="157.16" class="st24" width="5.71" height="24.75"/>
		<rect x="48.06" y="274.88" class="st23" width="5.71" height="30.46"/>
		<rect x="48.06" y="274.88" class="st24" width="5.71" height="30.46"/>
		<rect x="165.14" y="375.77" class="st23" width="34.27" height="5.71"/>
		<rect x="165.14" y="375.77" class="st24" width="34.27" height="5.71"/>
		<rect x="410.2" y="37.23" class="st23" width="5.71" height="5.71"/>
		<rect x="410.2" y="37.23" class="st24" width="5.71" height="5.71"/>
		<rect x="450.06" y="37.23" class="st23" width="5.71" height="5.71"/>
		<rect x="450.06" y="37.23" class="st24" width="5.71" height="5.71"/>
		<rect x="490.04" y="77.21" class="st23" width="5.71" height="5.71"/>
		<rect x="490.04" y="77.21" class="st24" width="5.71" height="5.71"/>
		<rect x="490.04" y="117.18" class="st23" width="5.71" height="5.71"/>
		<rect x="490.04" y="117.18" class="st24" width="5.71" height="5.71"/>
		<rect x="342.02" y="94.34" class="st23" width="3.33" height="24.27"/>
		<rect x="342.02" y="94.34" class="st24" width="3.33" height="24.27"/>
		<rect x="168.55" y="254.65" class="st0" width="29.98" height="23.8"/>
		<rect x="168.55" y="281.22" class="st0" width="29.98" height="23.8"/>
		<g>
			<path class="st21" d="M181.2,264.73c0,0-0.07,0.37-0.14,0.64l-0.82,3.01h-0.51l-1.11-4.28h0.44l0.83,3.32
				c0.05,0.22,0.1,0.46,0.1,0.46H180c0.01,0,0.04-0.24,0.1-0.46l0.9-3.32h0.4l0.9,3.32c0.06,0.22,0.09,0.46,0.1,0.46h0.01
				c0,0,0.04-0.24,0.1-0.46l0.86-3.32h0.44l-1.14,4.28h-0.51l-0.82-3.01c-0.07-0.27-0.14-0.64-0.14-0.64H181.2z"/>
		</g>
		<g>
			<path class="st21" d="M180.67,291.86h1.38c1.28,0,2.15,0.79,2.15,2.14c0,1.36-0.86,2.14-2.15,2.14h-1.38V291.86z M182.01,295.76
				c1.05,0,1.75-0.62,1.75-1.77c0-1.14-0.71-1.76-1.75-1.76h-0.92v3.52H182.01z"/>
		</g>
		<g>
			<path class="st51" d="M350.1,320.59h0.84l1.31,3.1c0.13,0.32,0.28,0.77,0.28,0.77h0.02c0,0,0.15-0.45,0.28-0.77l1.31-3.1H355
				l0.46,5.73h-0.8l-0.28-3.61c-0.02-0.35-0.01-0.84-0.01-0.84h-0.02c0,0-0.17,0.53-0.31,0.84l-1.14,2.58h-0.71l-1.14-2.58
				c-0.13-0.31-0.31-0.86-0.31-0.86h-0.02c0,0,0.01,0.51-0.02,0.86l-0.28,3.61h-0.8L350.1,320.59z"/>
			<path class="st51" d="M359.69,324.67h-2.16l-0.57,1.65h-0.83l2.06-5.73h0.84l2.06,5.73h-0.84L359.69,324.67z M358.61,321.38
				c0,0-0.13,0.52-0.23,0.81l-0.64,1.82h1.74l-0.63-1.82c-0.1-0.29-0.22-0.81-0.22-0.81H358.61z"/>
			<path class="st51" d="M361.96,325.05c0,0,0.61,0.62,1.46,0.62c0.54,0,0.99-0.3,0.99-0.84c0-1.24-2.78-0.97-2.78-2.74
				c0-0.89,0.77-1.6,1.85-1.6c1.06,0,1.62,0.58,1.62,0.58l-0.37,0.67c0,0-0.53-0.5-1.26-0.5c-0.61,0-1.04,0.38-1.04,0.84
				c0,1.18,2.78,0.87,2.78,2.73c0,0.88-0.68,1.62-1.82,1.62c-1.22,0-1.9-0.75-1.9-0.75L361.96,325.05z"/>
			<path class="st51" d="M367.61,321.29h-1.96v-0.7h4.73v0.7h-1.96v5.03h-0.8V321.29z"/>
			<path class="st51" d="M371.2,320.59h3.33v0.7H372v1.79h2.05v0.7H372v1.84h2.66v0.7h-3.47V320.59z"/>
			<path class="st51" d="M375.85,320.59h1.75c0.6,0,0.85,0.05,1.07,0.13c0.58,0.22,0.97,0.8,0.97,1.55c0,0.73-0.41,1.35-1.03,1.55
				v0.02c0,0,0.07,0.07,0.17,0.26l1.22,2.22h-0.91l-1.21-2.28h-1.23v2.28h-0.8V320.59z M377.8,323.34c0.62,0,1.01-0.4,1.01-1.04
				c0-0.42-0.16-0.72-0.45-0.88c-0.15-0.08-0.34-0.13-0.79-0.13h-0.93v2.05H377.8z"/>
			<path class="st51" d="M345.79,330.33h2c0.97,0,1.66,0.54,1.66,1.46c0,0.56-0.28,1.01-0.71,1.23v0.02
				c0.6,0.18,0.94,0.75,0.94,1.39c0,1.08-0.84,1.63-1.84,1.63h-2.05V330.33z M347.79,332.74c0.52,0,0.84-0.37,0.84-0.87
				c0-0.5-0.31-0.84-0.86-0.84h-1.19v1.71H347.79z M347.88,335.37c0.62,0,0.98-0.39,0.98-0.97c0-0.58-0.39-0.98-0.99-0.98h-1.28
				v1.96H347.88z"/>
			<path class="st51" d="M350.94,330.33h3.33v0.7h-2.52v1.79h2.05v0.7h-2.05v1.84h2.66v0.7h-3.47V330.33z"/>
			<path class="st51" d="M355.59,330.33h1.9c1.75,0,2.91,1.05,2.91,2.86c0,1.82-1.15,2.87-2.91,2.87h-1.9V330.33z M357.43,335.37
				c1.29,0,2.13-0.76,2.13-2.18c0-1.4-0.85-2.16-2.13-2.16h-1.04v4.33H357.43z"/>
			<path class="st51" d="M361.6,330.33h1.75c0.6,0,0.85,0.05,1.07,0.13c0.58,0.22,0.97,0.8,0.97,1.55c0,0.73-0.41,1.35-1.03,1.55
				v0.02c0,0,0.07,0.07,0.17,0.26l1.22,2.22h-0.91l-1.21-2.28h-1.23v2.28h-0.8V330.33z M363.55,333.08c0.62,0,1.01-0.4,1.01-1.04
				c0-0.42-0.16-0.72-0.45-0.88c-0.15-0.08-0.34-0.13-0.79-0.13h-0.93v2.05H363.55z"/>
			<path class="st51" d="M369.36,330.24c1.66,0,2.94,1.27,2.94,2.92c0,1.69-1.28,3-2.94,3c-1.66,0-2.95-1.32-2.95-3
				C366.41,331.51,367.7,330.24,369.36,330.24z M369.36,335.42c1.17,0,2.11-0.97,2.11-2.26c0-1.25-0.94-2.19-2.11-2.19
				s-2.12,0.94-2.12,2.19C367.24,334.45,368.19,335.42,369.36,335.42z"/>
			<path class="st51" d="M376.03,330.24c1.66,0,2.94,1.27,2.94,2.92c0,1.69-1.28,3-2.94,3c-1.66,0-2.95-1.32-2.95-3
				C373.08,331.51,374.37,330.24,376.03,330.24z M376.03,335.42c1.17,0,2.11-0.97,2.11-2.26c0-1.25-0.94-2.19-2.11-2.19
				s-2.12,0.94-2.12,2.19C373.91,334.45,374.86,335.42,376.03,335.42z"/>
			<path class="st51" d="M380.42,330.33h0.84l1.31,3.1c0.13,0.32,0.28,0.77,0.28,0.77h0.02c0,0,0.15-0.45,0.28-0.77l1.31-3.1h0.84
				l0.46,5.73h-0.8l-0.28-3.61c-0.02-0.35-0.01-0.84-0.01-0.84h-0.02c0,0-0.17,0.53-0.31,0.84l-1.14,2.58h-0.71l-1.14-2.58
				c-0.13-0.31-0.31-0.86-0.31-0.86h-0.02c0,0,0.01,0.51-0.02,0.86l-0.28,3.61h-0.8L380.42,330.33z"/>
		</g>
		<g>
			<path class="st51" d="M404.61,78.14h1.9c1.75,0,2.91,1.05,2.91,2.86c0,1.82-1.15,2.87-2.91,2.87h-1.9V78.14z M406.45,83.17
				c1.29,0,2.13-0.76,2.13-2.18c0-1.4-0.85-2.16-2.13-2.16h-1.04v4.33H406.45z"/>
			<path class="st51" d="M410.62,78.14h0.8v5.73h-0.8V78.14z"/>
			<path class="st51" d="M412.98,78.14h0.8l2.55,3.73c0.21,0.31,0.48,0.83,0.48,0.83h0.02c0,0-0.06-0.51-0.06-0.83v-3.73h0.8v5.73
				h-0.79l-2.56-3.72c-0.21-0.32-0.48-0.84-0.48-0.84h-0.02c0,0,0.06,0.51,0.06,0.84v3.72h-0.8V78.14z"/>
			<path class="st51" d="M419.13,78.14h0.8v5.73h-0.8V78.14z"/>
			<path class="st51" d="M421.49,78.14h0.8l2.55,3.73c0.21,0.31,0.48,0.83,0.48,0.83h0.02c0,0-0.06-0.51-0.06-0.83v-3.73h0.8v5.73
				h-0.79l-2.56-3.72c-0.21-0.32-0.48-0.84-0.48-0.84h-0.02c0,0,0.06,0.51,0.06,0.84v3.72h-0.8V78.14z"/>
			<path class="st51" d="M430.18,78.04c1.37,0,2.09,0.69,2.09,0.69l-0.41,0.6c0,0-0.64-0.56-1.62-0.56c-1.35,0-2.16,0.98-2.16,2.21
				c0,1.33,0.91,2.25,2.11,2.25c0.99,0,1.62-0.71,1.62-0.71v-0.83h-0.93v-0.7h1.66v2.88h-0.71v-0.36c0-0.12,0.01-0.24,0.01-0.24
				h-0.02c0,0-0.62,0.7-1.76,0.7c-1.54,0-2.82-1.22-2.82-2.97C427.25,79.34,428.5,78.04,430.18,78.04z"/>
		</g>
		<g>
			<path class="st51" d="M227.36,39.97h2c0.97,0,1.66,0.54,1.66,1.46c0,0.56-0.28,1.01-0.71,1.23v0.02c0.6,0.18,0.94,0.75,0.94,1.39
				c0,1.08-0.84,1.63-1.84,1.63h-2.05V39.97z M229.37,42.38c0.52,0,0.84-0.37,0.84-0.87c0-0.5-0.31-0.84-0.86-0.84h-1.19v1.71
				H229.37z M229.46,45c0.62,0,0.98-0.39,0.98-0.97c0-0.58-0.39-0.98-0.99-0.98h-1.28V45H229.46z"/>
			<path class="st51" d="M235.35,44.05h-2.16l-0.57,1.65h-0.83l2.06-5.73h0.84l2.06,5.73h-0.84L235.35,44.05z M234.27,40.76
				c0,0-0.13,0.52-0.23,0.81l-0.64,1.82h1.74l-0.63-1.82c-0.1-0.29-0.22-0.81-0.22-0.81H234.27z"/>
			<path class="st51" d="M237.61,39.97h0.8V45h2.56v0.7h-3.37V39.97z"/>
			<path class="st51" d="M244.43,39.87c1.38,0,2.09,0.75,2.09,0.75l-0.4,0.6c0,0-0.67-0.62-1.66-0.62c-1.28,0-2.12,0.97-2.12,2.19
				c0,1.23,0.85,2.26,2.13,2.26c1.08,0,1.77-0.75,1.77-0.75l0.43,0.58c0,0-0.79,0.91-2.22,0.91c-1.72,0-2.93-1.32-2.93-3
				C241.52,41.14,242.77,39.87,244.43,39.87z"/>
			<path class="st51" d="M250.32,39.87c1.66,0,2.94,1.27,2.94,2.92c0,1.69-1.28,3-2.94,3c-1.66,0-2.95-1.32-2.95-3
				C247.38,41.15,248.67,39.87,250.32,39.87z M250.32,45.06c1.17,0,2.11-0.97,2.11-2.26c0-1.25-0.94-2.19-2.11-2.19
				s-2.12,0.94-2.12,2.19C248.21,44.09,249.16,45.06,250.32,45.06z"/>
			<path class="st51" d="M254.43,39.97h0.8l2.55,3.73c0.21,0.31,0.48,0.83,0.48,0.83h0.02c0,0-0.06-0.51-0.06-0.83v-3.73h0.8v5.73
				h-0.79l-2.56-3.72c-0.21-0.32-0.48-0.84-0.48-0.84h-0.02c0,0,0.06,0.51,0.06,0.84v3.72h-0.8V39.97z"/>
			<path class="st51" d="M261.79,43.27l-1.92-3.3h0.91l1.06,1.88c0.18,0.32,0.35,0.72,0.35,0.72h0.02c0,0,0.17-0.4,0.35-0.72
				l1.05-1.88h0.91l-1.92,3.3v2.43h-0.8V43.27z"/>
		</g>
		<g>
			<path class="st51" d="M184.71,130.41h3.16v0.7h-2.35v1.88h2v0.7h-2v2.45h-0.8V130.41z"/>
			<path class="st51" d="M188.94,130.41h0.8v5.03h2.56v0.7h-3.37V130.41z"/>
			<path class="st51" d="M193.23,130.41h3.33v0.7h-2.52v1.79h2.05v0.7h-2.05v1.84h2.66v0.7h-3.47V130.41z"/>
			<path class="st51" d="M199.09,133.19l-1.7-2.78h0.93l0.9,1.55c0.18,0.31,0.37,0.68,0.37,0.68h0.02c0,0,0.16-0.37,0.35-0.68
				l0.9-1.55h0.93l-1.7,2.78l1.81,2.96h-0.91l-1.04-1.76c-0.19-0.32-0.37-0.66-0.37-0.66h-0.02c0,0-0.15,0.34-0.34,0.66l-1.04,1.76
				h-0.9L199.09,133.19z"/>
		</g>
		<g>
			<path class="st21" d="M237.7,184.37h2.25v0.38h-1.83v1.61h1.57v0.38h-1.57v1.92h-0.42V184.37z"/>
		</g>
		<g>
			<path class="st21" d="M228.49,248.27h1.48c0.77,0,1.32,0.5,1.32,1.29c0,0.8-0.55,1.31-1.32,1.31h-1.06v1.68h-0.42V248.27z
				 M229.91,250.49c0.57,0,0.94-0.35,0.94-0.93c0-0.58-0.37-0.91-0.94-0.91h-1.01v1.84H229.91z"/>
		</g>
		<g>
			<path class="st21" d="M325.46,100.39h0.44l1.12,2.51c0.1,0.22,0.21,0.52,0.21,0.52h0.01c0,0,0.12-0.3,0.21-0.52l1.12-2.51H329
				l0.34,4.28h-0.42l-0.24-3c-0.02-0.23-0.01-0.6-0.01-0.6h-0.01c0,0-0.13,0.38-0.23,0.6l-1,2.2h-0.4l-1-2.2
				c-0.1-0.21-0.23-0.61-0.23-0.61h-0.01c0,0,0.01,0.38-0.01,0.61l-0.24,3h-0.42L325.46,100.39z"/>
			<path class="st21" d="M332.64,101.02c0,0-0.07,0.37-0.14,0.64l-0.82,3.01h-0.5l-1.11-4.28h0.44l0.83,3.32
				c0.05,0.22,0.1,0.46,0.1,0.46h0.01c0.01,0,0.04-0.24,0.1-0.46l0.9-3.32h0.4l0.9,3.32c0.06,0.22,0.09,0.46,0.1,0.46h0.01
				c0,0,0.04-0.24,0.1-0.46l0.86-3.32h0.44l-1.14,4.28h-0.51l-0.82-3.01c-0.07-0.27-0.14-0.64-0.14-0.64H332.64z"/>
		</g>
		<g>
			<path class="st21" d="M325.6,108.46h1.38c1.28,0,2.15,0.79,2.15,2.14c0,1.36-0.86,2.14-2.15,2.14h-1.38V108.46z M326.94,112.36
				c1.05,0,1.75-0.62,1.75-1.76c0-1.14-0.71-1.76-1.75-1.76h-0.92v3.52H326.94z"/>
			<path class="st21" d="M332.29,109.08c0,0-0.07,0.37-0.14,0.64l-0.82,3.01h-0.51l-1.11-4.28h0.44l0.83,3.32
				c0.05,0.22,0.1,0.46,0.1,0.46h0.01c0.01,0,0.04-0.24,0.1-0.46l0.9-3.32h0.4l0.9,3.32c0.06,0.22,0.09,0.46,0.1,0.46h0.01
				c0,0,0.04-0.24,0.1-0.46l0.86-3.32h0.44l-1.14,4.28h-0.51l-0.82-3.01c-0.07-0.27-0.14-0.64-0.14-0.64H332.29z"/>
		</g>
		<g>
			<path class="st51" d="M281.18,132.7h0.8v2.41h0.85l1.44-2.41h0.88l-1.66,2.72v0.02l1.77,3h-0.91l-1.53-2.63h-0.85v2.63h-0.8
				V132.7z"/>
			<path class="st51" d="M286.24,132.7h0.8v5.73h-0.8V132.7z"/>
			<path class="st51" d="M289.83,133.39h-1.96v-0.7h4.73v0.7h-1.96v5.03h-0.8V133.39z"/>
			<path class="st51" d="M295.94,132.6c1.38,0,2.09,0.75,2.09,0.75l-0.4,0.6c0,0-0.67-0.62-1.66-0.62c-1.28,0-2.12,0.97-2.12,2.19
				c0,1.23,0.85,2.26,2.13,2.26c1.08,0,1.77-0.75,1.77-0.75l0.43,0.58c0,0-0.79,0.91-2.22,0.91c-1.72,0-2.93-1.32-2.93-3
				C293.03,133.86,294.28,132.6,295.94,132.6z"/>
			<path class="st51" d="M299.28,132.7h0.8v2.52h2.97v-2.52h0.8v5.73h-0.8v-2.52h-2.97v2.52h-0.8V132.7z"/>
			<path class="st51" d="M305.42,132.7h3.33v0.7h-2.52v1.79h2.05v0.7h-2.05v1.84h2.66v0.7h-3.47V132.7z"/>
			<path class="st51" d="M310.07,132.7h0.8l2.55,3.73c0.21,0.31,0.48,0.83,0.48,0.83h0.02c0,0-0.06-0.51-0.06-0.83v-3.73h0.8v5.73
				h-0.79l-2.56-3.72c-0.21-0.32-0.48-0.84-0.48-0.84h-0.02c0,0,0.06,0.51,0.06,0.84v3.72h-0.8V132.7z"/>
		</g>
		<g>
			<path class="st51" d="M80.08,232.85h2c0.97,0,1.66,0.54,1.66,1.46c0,0.56-0.28,1.01-0.71,1.23v0.02c0.6,0.18,0.94,0.75,0.94,1.39
				c0,1.08-0.84,1.63-1.84,1.63h-2.05V232.85z M82.08,235.26c0.52,0,0.84-0.37,0.84-0.87c0-0.5-0.31-0.84-0.86-0.84h-1.19v1.71
				H82.08z M82.17,237.88c0.62,0,0.98-0.39,0.98-0.97c0-0.58-0.39-0.98-0.99-0.98h-1.28v1.96H82.17z"/>
			<path class="st51" d="M88.07,236.93h-2.16l-0.57,1.65h-0.83l2.06-5.73h0.84l2.06,5.73h-0.84L88.07,236.93z M86.99,233.64
				c0,0-0.13,0.52-0.23,0.81l-0.64,1.82h1.74l-0.63-1.82c-0.1-0.29-0.22-0.81-0.22-0.81H86.99z"/>
			<path class="st51" d="M91.55,233.55h-1.96v-0.7h4.73v0.7h-1.96v5.03h-0.8V233.55z"/>
			<path class="st51" d="M95.14,232.85h0.8v2.52h2.97v-2.52h0.8v5.73h-0.8v-2.52h-2.97v2.52h-0.8V232.85z"/>
		</g>
		<g>
			<path class="st21" d="M181.11,141.53c0,0,0.32,0.5,0.97,0.5c0.59,0,1.07-0.42,1.07-1c0-0.58-0.48-1-1.08-1
				c-0.46,0-0.78,0.23-0.78,0.23l-0.27-0.1l0.23-2.08h2.07v0.38h-1.71l-0.12,1.1c-0.02,0.15-0.04,0.24-0.04,0.24h0.01
				c0,0,0.27-0.16,0.65-0.16c0.86,0,1.47,0.62,1.47,1.39c0,0.79-0.65,1.41-1.49,1.41c-0.85,0-1.25-0.61-1.25-0.61L181.11,141.53z"/>
			<path class="st21" d="M184.33,138.02h0.36v1.03h-0.36V138.02z"/>
			<path class="st21" d="M185.5,140.42c0-1.07,0.56-2.42,1.88-2.42c0.48,0,0.79,0.18,0.79,0.18l-0.16,0.37c0,0-0.27-0.15-0.62-0.15
				c-0.9,0-1.35,0.88-1.42,1.72h0.01c0.21-0.3,0.64-0.5,1.08-0.5c0.78,0,1.33,0.57,1.33,1.38c0,0.89-0.6,1.43-1.35,1.43
				C186.12,142.43,185.5,141.58,185.5,140.42z M187.96,141c0-0.61-0.38-1.01-0.97-1.01c-0.57,0-1.03,0.38-1.03,0.73
				c0,0.57,0.44,1.31,1.08,1.31C187.62,142.03,187.96,141.6,187.96,141z"/>
			<path class="st21" d="M189.15,138.02h0.36v1.03h-0.36V138.02z M189.89,138.02h0.36v1.03h-0.36V138.02z"/>
			<path class="st21" d="M192.15,141.03c0,0-0.05,0.09-0.1,0.17l-0.74,1.15h-0.49l1.08-1.59l-0.99-1.47h0.49l0.66,1.03
				c0.05,0.08,0.1,0.18,0.1,0.18h0.01c0,0,0.06-0.1,0.1-0.18l0.66-1.03h0.49l-0.99,1.47l1.08,1.59h-0.49l-0.74-1.15
				c-0.05-0.08-0.1-0.17-0.1-0.17H192.15L192.15,141.03z"/>
			<path class="st21" d="M195.85,142.25l0.16-0.37c0,0,0.27,0.15,0.62,0.15c0.9,0,1.35-0.88,1.43-1.72h-0.01
				c-0.21,0.3-0.65,0.5-1.09,0.5c-0.78,0-1.33-0.57-1.33-1.38c0-0.89,0.59-1.43,1.34-1.43c0.93,0,1.55,0.85,1.55,2.01
				c0,1.07-0.55,2.42-1.88,2.42C196.17,142.43,195.85,142.25,195.85,142.25z M198.06,139.71c0-0.57-0.44-1.31-1.08-1.31
				c-0.58,0-0.92,0.44-0.92,1.03c0,0.61,0.38,1.01,0.97,1.01C197.6,140.44,198.06,140.05,198.06,139.71z"/>
			<path class="st21" d="M199.33,138.02h0.36v1.03h-0.36V138.02z"/>
			<path class="st21" d="M200.48,142.08c0-1.5,2.19-1.7,2.19-2.85c0-0.47-0.35-0.82-0.89-0.82c-0.63,0-0.96,0.58-0.96,0.58
				l-0.32-0.21c0,0,0.39-0.77,1.3-0.77c0.82,0,1.3,0.53,1.3,1.2c0,1.44-2.16,1.64-2.17,2.78h2.23v0.38h-2.67
				C200.48,142.26,200.48,142.17,200.48,142.08z"/>
			<path class="st21" d="M203.97,138.02h0.36v1.03h-0.36V138.02z M204.71,138.02h0.36v1.03h-0.36V138.02z"/>
		</g>
		<g>
			<path class="st21" d="M350.64,342.29h0.96v-3.14c0-0.12,0.01-0.24,0.01-0.24h-0.01c0,0-0.04,0.09-0.21,0.26l-0.46,0.46
				l-0.27-0.27l0.97-0.96h0.39v3.9h0.94v0.38h-2.32V342.29z"/>
			<path class="st21" d="M353.5,342.4c0-1.5,2.19-1.7,2.19-2.85c0-0.47-0.35-0.82-0.89-0.82c-0.63,0-0.96,0.58-0.96,0.58l-0.32-0.21
				c0,0,0.39-0.77,1.3-0.77c0.82,0,1.3,0.53,1.3,1.2c0,1.44-2.16,1.64-2.17,2.78h2.23v0.38h-2.67
				C353.51,342.57,353.5,342.48,353.5,342.4z"/>
			<path class="st21" d="M357,338.33h0.36v1.03H357V338.33z"/>
			<path class="st21" d="M360.1,339.16c0.12-0.23,0.24-0.4,0.24-0.4v-0.01c0,0-0.11,0.01-0.32,0.01h-2v-0.38h2.78v0.29l-1.98,3.99
				h-0.44L360.1,339.16z"/>
			<path class="st21" d="M361.36,338.33h0.36v1.03h-0.36V338.33z M362.1,338.33h0.36v1.03h-0.36V338.33z"/>
			<path class="st21" d="M364.37,341.35c0,0-0.05,0.09-0.1,0.17l-0.74,1.15h-0.49l1.08-1.59l-0.99-1.47h0.49l0.66,1.03
				c0.05,0.08,0.1,0.18,0.1,0.18h0.01c0,0,0.06-0.1,0.1-0.18l0.66-1.03h0.49l-0.99,1.47l1.08,1.59h-0.49l-0.74-1.15
				c-0.05-0.08-0.1-0.17-0.1-0.17H364.37L364.37,341.35z"/>
			<path class="st21" d="M367.85,342.29h0.96v-3.14c0-0.12,0.01-0.24,0.01-0.24h-0.01c0,0-0.04,0.09-0.21,0.26l-0.46,0.46
				l-0.27-0.27l0.97-0.96h0.39v3.9h0.94v0.38h-2.32V342.29z"/>
			<path class="st21" d="M370.77,340.53c0-1.23,0.37-2.21,1.48-2.21s1.47,0.98,1.47,2.21c0,1.24-0.36,2.22-1.47,2.22
				S370.77,341.77,370.77,340.53z M373.29,340.53c0-1.02-0.23-1.81-1.03-1.81c-0.82,0-1.04,0.8-1.04,1.81
				c0,1.02,0.23,1.82,1.04,1.82C373.06,342.35,373.29,341.55,373.29,340.53z"/>
			<path class="st21" d="M374.57,338.33h0.36v1.03h-0.36V338.33z"/>
			<path class="st21" d="M375.78,340.53c0-1.23,0.37-2.21,1.48-2.21c1.11,0,1.47,0.98,1.47,2.21c0,1.24-0.36,2.22-1.47,2.22
				C376.14,342.74,375.78,341.77,375.78,340.53z M378.29,340.53c0-1.02-0.23-1.81-1.03-1.81c-0.82,0-1.04,0.8-1.04,1.81
				c0,1.02,0.23,1.82,1.04,1.82C378.07,342.35,378.29,341.55,378.29,340.53z"/>
			<path class="st21" d="M379.58,338.33h0.36v1.03h-0.36V338.33z M380.32,338.33h0.36v1.03h-0.36V338.33z"/>
		</g>
		<g>
			<path class="st21" d="M231.84,51.84h0.96V48.7c0-0.12,0.01-0.24,0.01-0.24h-0.01c0,0-0.04,0.09-0.21,0.26l-0.46,0.46l-0.27-0.27
				l0.97-0.96h0.39v3.9h0.94v0.38h-2.32V51.84z"/>
			<path class="st21" d="M234.55,50.76l2.11-2.82h0.46v2.72h0.61v0.37h-0.61v1.19h-0.42v-1.19h-2.14V50.76z M236.69,50.66v-1.79
				c0-0.18,0.02-0.4,0.02-0.4h-0.01c0,0-0.1,0.17-0.21,0.32l-1.42,1.86v0.01H236.69z"/>
			<path class="st21" d="M238.4,47.88h0.36v1.03h-0.36V47.88z"/>
			<path class="st21" d="M239.6,50.08c0-1.23,0.37-2.21,1.48-2.21s1.47,0.98,1.47,2.21c0,1.24-0.36,2.22-1.47,2.22
				S239.6,51.32,239.6,50.08z M242.12,50.08c0-1.02-0.23-1.81-1.03-1.81c-0.82,0-1.04,0.8-1.04,1.81c0,1.02,0.23,1.82,1.04,1.82
				C241.89,51.9,242.12,51.1,242.12,50.08z"/>
			<path class="st21" d="M243.4,47.88h0.36v1.03h-0.36V47.88z M244.14,47.88h0.36v1.03h-0.36V47.88z"/>
			<path class="st21" d="M246.4,50.9c0,0-0.05,0.09-0.1,0.17l-0.74,1.15h-0.49l1.08-1.59l-0.99-1.47h0.49l0.66,1.03
				c0.05,0.08,0.1,0.18,0.1,0.18h0.01c0,0,0.06-0.1,0.1-0.18l0.66-1.03h0.49l-0.99,1.47l1.08,1.59h-0.49l-0.74-1.15
				c-0.05-0.08-0.1-0.17-0.1-0.17H246.4L246.4,50.9z"/>
			<path class="st21" d="M251.87,48.71c0.12-0.23,0.24-0.4,0.24-0.4v-0.01c0,0-0.11,0.01-0.32,0.01h-2v-0.38h2.78v0.29l-1.98,3.99
				h-0.44L251.87,48.71z"/>
			<path class="st21" d="M253.13,47.88h0.36v1.03h-0.36V47.88z"/>
			<path class="st21" d="M254.34,50.08c0-1.23,0.37-2.21,1.48-2.21s1.47,0.98,1.47,2.21c0,1.24-0.36,2.22-1.47,2.22
				S254.34,51.32,254.34,50.08z M256.85,50.08c0-1.02-0.23-1.81-1.03-1.81c-0.82,0-1.04,0.8-1.04,1.81c0,1.02,0.23,1.82,1.04,1.82
				C256.63,51.9,256.85,51.1,256.85,50.08z"/>
			<path class="st21" d="M258.14,47.88h0.36v1.03h-0.36V47.88z M258.88,47.88h0.36v1.03h-0.36V47.88z"/>
		</g>
		<g>
			<path class="st21" d="M283.99,144.62h0.96v-3.14c0-0.12,0.01-0.24,0.01-0.24h-0.01c0,0-0.04,0.09-0.21,0.26l-0.46,0.46
				l-0.27-0.27l0.97-0.96h0.39v3.9h0.94V145h-2.32V144.62z"/>
			<path class="st21" d="M286.91,142.86c0-1.23,0.37-2.21,1.48-2.21s1.47,0.98,1.47,2.21c0,1.24-0.36,2.22-1.47,2.22
				S286.91,144.1,286.91,142.86z M289.43,142.86c0-1.02-0.23-1.81-1.03-1.81c-0.82,0-1.04,0.8-1.04,1.81c0,1.02,0.23,1.82,1.04,1.82
				C289.2,144.68,289.43,143.88,289.43,142.86z"/>
			<path class="st21" d="M290.88,140.66h0.44l-0.34,1.05h-0.33L290.88,140.66z"/>
			<path class="st21" d="M291.77,143.54l2.11-2.82h0.46v2.72h0.61v0.37h-0.61V145h-0.42v-1.19h-2.14V143.54z M293.92,143.44v-1.79
				c0-0.18,0.02-0.4,0.02-0.4h-0.01c0,0-0.1,0.17-0.21,0.32l-1.42,1.86v0.01H293.92z"/>
			<path class="st21" d="M295.62,140.66h0.36v1.03h-0.36V140.66z M296.36,140.66h0.36v1.03h-0.36V140.66z"/>
			<path class="st21" d="M298.62,143.68c0,0-0.05,0.09-0.1,0.17l-0.74,1.15h-0.49l1.08-1.59l-0.99-1.47h0.49l0.66,1.03
				c0.05,0.08,0.1,0.18,0.1,0.18h0.01c0,0,0.06-0.1,0.1-0.18l0.66-1.03h0.49l-0.99,1.47l1.08,1.59h-0.49l-0.74-1.15
				c-0.05-0.08-0.1-0.17-0.1-0.17H298.62L298.62,143.68z"/>
			<path class="st21" d="M302.32,144.9l0.16-0.37c0,0,0.27,0.15,0.62,0.15c0.9,0,1.35-0.88,1.43-1.72h-0.01
				c-0.21,0.3-0.65,0.5-1.09,0.5c-0.78,0-1.33-0.57-1.33-1.38c0-0.89,0.59-1.43,1.34-1.43c0.93,0,1.55,0.85,1.55,2.01
				c0,1.07-0.55,2.42-1.88,2.42C302.64,145.07,302.32,144.9,302.32,144.9z M304.53,142.35c0-0.57-0.44-1.31-1.08-1.31
				c-0.58,0-0.92,0.44-0.92,1.03c0,0.61,0.38,1.01,0.97,1.01C304.07,143.08,304.53,142.7,304.53,142.35z"/>
			<path class="st21" d="M305.8,140.66h0.36v1.03h-0.36V140.66z"/>
			<path class="st21" d="M307.67,142.6c-0.3-0.2-0.53-0.46-0.53-0.87c0-0.55,0.43-1.08,1.29-1.08c0.8,0,1.31,0.45,1.31,1.11
				c0,0.61-0.47,1.11-0.52,1.16c0.35,0.2,0.62,0.47,0.62,0.92c0,0.67-0.59,1.24-1.42,1.24c-0.77,0-1.45-0.49-1.45-1.3
				C306.97,143.08,307.58,142.66,307.67,142.6z M308.02,142.78c-0.13,0.08-0.62,0.42-0.62,0.97c0,0.58,0.5,0.93,1.02,0.93
				c0.5,0,0.99-0.35,0.99-0.85C309.41,143.28,308.65,143.09,308.02,142.78z M308.87,142.75c0.08-0.07,0.44-0.46,0.44-0.97
				c0-0.46-0.37-0.74-0.88-0.74c-0.55,0-0.86,0.32-0.86,0.7C307.57,142.29,308.26,142.48,308.87,142.75z"/>
			<path class="st21" d="M310.67,140.66h0.36v1.03h-0.36V140.66z M311.41,140.66h0.36v1.03h-0.36V140.66z"/>
		</g>
		<g>
			<path class="st21" d="M77.88,244.36c0,0,0.32,0.5,0.97,0.5c0.59,0,1.07-0.42,1.07-1c0-0.58-0.48-1-1.08-1
				c-0.46,0-0.78,0.23-0.78,0.23l-0.27-0.1l0.23-2.08h2.07v0.38h-1.71l-0.12,1.1c-0.02,0.15-0.04,0.24-0.04,0.24h0.01
				c0,0,0.27-0.16,0.65-0.16c0.86,0,1.47,0.62,1.47,1.39c0,0.79-0.65,1.41-1.49,1.41c-0.85,0-1.25-0.61-1.25-0.61L77.88,244.36z"/>
			<path class="st21" d="M81.11,240.84h0.36v1.03h-0.36V240.84z"/>
			<path class="st21" d="M82.28,243.25c0-1.07,0.56-2.42,1.88-2.42c0.48,0,0.79,0.18,0.79,0.18l-0.16,0.37c0,0-0.27-0.15-0.62-0.15
				c-0.9,0-1.35,0.88-1.42,1.72h0.01c0.21-0.3,0.64-0.5,1.08-0.5c0.78,0,1.33,0.57,1.33,1.38c0,0.89-0.6,1.43-1.35,1.43
				C82.9,245.26,82.28,244.41,82.28,243.25z M84.74,243.83c0-0.61-0.38-1.01-0.97-1.01c-0.57,0-1.03,0.38-1.03,0.73
				c0,0.57,0.44,1.31,1.08,1.31C84.4,244.86,84.74,244.42,84.74,243.83z"/>
			<path class="st21" d="M85.93,240.84h0.36v1.03h-0.36V240.84z M86.67,240.84h0.36v1.03h-0.36V240.84z"/>
			<path class="st21" d="M88.93,243.86c0,0-0.05,0.09-0.1,0.17l-0.74,1.15H87.6l1.08-1.59l-0.99-1.47h0.49l0.66,1.03
				c0.05,0.08,0.1,0.18,0.1,0.18h0.01c0,0,0.06-0.1,0.1-0.18l0.66-1.03h0.49l-0.99,1.47l1.08,1.59H89.8l-0.74-1.15
				c-0.05-0.08-0.1-0.17-0.1-0.17H88.93L88.93,243.86z"/>
			<path class="st21" d="M93.16,242.79c-0.3-0.2-0.53-0.46-0.53-0.87c0-0.55,0.43-1.08,1.29-1.08c0.8,0,1.31,0.45,1.31,1.11
				c0,0.61-0.47,1.11-0.52,1.16c0.35,0.2,0.62,0.47,0.62,0.92c0,0.67-0.59,1.24-1.42,1.24c-0.77,0-1.45-0.49-1.45-1.3
				C92.46,243.27,93.07,242.85,93.16,242.79z M93.51,242.97c-0.13,0.08-0.62,0.42-0.62,0.97c0,0.58,0.5,0.93,1.02,0.93
				c0.5,0,0.99-0.35,0.99-0.85C94.9,243.46,94.14,243.27,93.51,242.97z M94.36,242.93c0.08-0.07,0.44-0.46,0.44-0.97
				c0-0.46-0.37-0.74-0.88-0.74c-0.55,0-0.86,0.32-0.86,0.7C93.06,242.48,93.75,242.66,94.36,242.93z"/>
			<path class="st21" d="M96.16,240.84h0.36v1.03h-0.36V240.84z"/>
			<path class="st21" d="M97.15,243.72l2.11-2.82h0.46v2.72h0.61V244h-0.61v1.19h-0.42V244h-2.14V243.72z M99.29,243.63v-1.79
				c0-0.18,0.02-0.4,0.02-0.4h-0.01c0,0-0.1,0.17-0.21,0.32l-1.42,1.86v0.01H99.29z"/>
			<path class="st21" d="M100.99,240.84h0.36v1.03h-0.36V240.84z M101.73,240.84h0.36v1.03h-0.36V240.84z"/>
		</g>
		<g>
			<path class="st21" d="M404.96,90.43h0.96v-3.14c0-0.12,0.01-0.24,0.01-0.24h-0.01c0,0-0.04,0.09-0.21,0.26l-0.46,0.46l-0.27-0.27
				l0.97-0.96h0.39v3.9h0.94v0.38h-2.32V90.43z"/>
			<path class="st21" d="M407.82,90.53c0-1.5,2.19-1.7,2.19-2.85c0-0.47-0.35-0.82-0.89-0.82c-0.63,0-0.96,0.58-0.96,0.58
				l-0.32-0.21c0,0,0.39-0.77,1.3-0.77c0.82,0,1.3,0.53,1.3,1.2c0,1.44-2.16,1.64-2.17,2.78h2.23v0.38h-2.67
				C407.83,90.71,407.82,90.62,407.82,90.53z"/>
			<path class="st21" d="M411.32,86.47h0.36v1.03h-0.36V86.47z"/>
			<path class="st21" d="M412.31,89.35l2.11-2.82h0.46v2.72h0.61v0.37h-0.61v1.19h-0.42v-1.19h-2.14V89.35z M414.45,89.25v-1.79
				c0-0.18,0.02-0.4,0.02-0.4h-0.01c0,0-0.1,0.17-0.21,0.32l-1.42,1.86v0.01H414.45z"/>
			<path class="st21" d="M416.15,86.47h0.36v1.03h-0.36V86.47z M416.89,86.47h0.36v1.03h-0.36V86.47z"/>
			<path class="st21" d="M419.16,89.48c0,0-0.05,0.09-0.1,0.17l-0.74,1.15h-0.49l1.08-1.59l-0.99-1.47h0.49l0.66,1.03
				c0.05,0.08,0.1,0.18,0.1,0.18h0.01c0,0,0.06-0.1,0.1-0.18l0.66-1.03h0.49l-0.99,1.47l1.08,1.59h-0.49l-0.74-1.15
				c-0.05-0.08-0.1-0.17-0.1-0.17H419.16L419.16,89.48z"/>
			<path class="st21" d="M424.62,87.3c0.12-0.23,0.24-0.4,0.24-0.4v-0.01c0,0-0.11,0.01-0.32,0.01h-2v-0.38h2.78v0.29l-1.98,3.99
				h-0.44L424.62,87.3z"/>
			<path class="st21" d="M425.88,86.47h0.36v1.03h-0.36V86.47z"/>
			<path class="st21" d="M426.87,89.35l2.11-2.82h0.46v2.72h0.61v0.37h-0.61v1.19h-0.42v-1.19h-2.14V89.35z M429.01,89.25v-1.79
				c0-0.18,0.02-0.4,0.02-0.4h-0.01c0,0-0.1,0.17-0.21,0.32l-1.42,1.86v0.01H429.01z"/>
			<path class="st21" d="M430.72,86.47h0.36v1.03h-0.36V86.47z M431.46,86.47h0.36v1.03h-0.36V86.47z"/>
		</g>
		<g>
			<path class="st51" d="M374.09,208.57h0.8v5.03h2.56v0.7h-3.37V208.57z"/>
			<path class="st51" d="M378.39,208.57h0.8v5.73h-0.8V208.57z"/>
			<path class="st51" d="M380.02,208.57h0.87l1.42,4.05c0.11,0.31,0.22,0.79,0.22,0.79h0.02c0,0,0.11-0.48,0.22-0.79l1.44-4.05h0.85
				l-2.11,5.73h-0.8L380.02,208.57z"/>
			<path class="st51" d="M385.88,208.57h0.8v5.73h-0.8V208.57z"/>
			<path class="st51" d="M388.24,208.57h0.8l2.55,3.73c0.21,0.31,0.48,0.83,0.48,0.83h0.02c0,0-0.06-0.51-0.06-0.83v-3.73h0.8v5.73
				h-0.79l-2.56-3.72c-0.21-0.32-0.48-0.84-0.48-0.84h-0.02c0,0,0.06,0.51,0.06,0.84v3.72h-0.8V208.57z"/>
			<path class="st51" d="M396.93,208.47c1.37,0,2.09,0.69,2.09,0.69l-0.41,0.6c0,0-0.64-0.56-1.62-0.56c-1.35,0-2.16,0.98-2.16,2.21
				c0,1.33,0.91,2.25,2.11,2.25c0.99,0,1.62-0.71,1.62-0.71v-0.83h-0.93v-0.7h1.66v2.88h-0.71v-0.36c0-0.12,0.01-0.24,0.01-0.24
				h-0.02c0,0-0.62,0.7-1.76,0.7c-1.54,0-2.82-1.22-2.82-2.97C394.01,209.77,395.26,208.47,396.93,208.47z"/>
		</g>
		<g>
			<path class="st21" d="M371.42,220.85h0.96v-3.14c0-0.12,0.01-0.24,0.01-0.24h-0.01c0,0-0.04,0.09-0.21,0.26l-0.46,0.46
				l-0.27-0.27l0.97-0.96h0.39v3.9h0.94v0.38h-2.32V220.85z"/>
			<path class="st21" d="M374.28,220.96c0-1.5,2.19-1.7,2.19-2.85c0-0.47-0.35-0.82-0.89-0.82c-0.63,0-0.96,0.58-0.96,0.58
				l-0.32-0.21c0,0,0.39-0.77,1.3-0.77c0.82,0,1.3,0.53,1.3,1.2c0,1.44-2.16,1.64-2.17,2.78h2.23v0.38h-2.67
				C374.29,221.13,374.28,221.04,374.28,220.96z"/>
			<path class="st21" d="M377.78,216.89h0.36v1.03h-0.36V216.89z"/>
			<path class="st21" d="M379.65,218.83c-0.3-0.2-0.53-0.46-0.53-0.87c0-0.55,0.43-1.08,1.29-1.08c0.8,0,1.31,0.45,1.31,1.11
				c0,0.61-0.47,1.11-0.52,1.16c0.35,0.2,0.62,0.47,0.62,0.92c0,0.67-0.59,1.24-1.42,1.24c-0.77,0-1.45-0.49-1.45-1.3
				C378.95,219.31,379.55,218.89,379.65,218.83z M380,219.02c-0.13,0.08-0.62,0.42-0.62,0.97c0,0.58,0.5,0.93,1.02,0.93
				c0.5,0,0.99-0.35,0.99-0.85C381.38,219.51,380.63,219.32,380,219.02z M380.85,218.98c0.08-0.07,0.44-0.46,0.44-0.97
				c0-0.46-0.37-0.74-0.88-0.74c-0.55,0-0.86,0.32-0.86,0.7C379.55,218.52,380.23,218.71,380.85,218.98z"/>
			<path class="st21" d="M382.65,216.89H383v1.03h-0.36V216.89z M383.38,216.89h0.36v1.03h-0.36V216.89z"/>
			<path class="st21" d="M385.65,219.91c0,0-0.05,0.09-0.1,0.17l-0.74,1.15h-0.49l1.08-1.59l-0.99-1.47h0.49l0.66,1.03
				c0.05,0.08,0.1,0.18,0.1,0.18h0.01c0,0,0.06-0.1,0.1-0.18l0.66-1.03h0.49l-0.99,1.47l1.08,1.59h-0.49l-0.74-1.15
				c-0.05-0.08-0.1-0.17-0.1-0.17H385.65L385.65,219.91z"/>
			<path class="st21" d="M389.13,220.85h0.96v-3.14c0-0.12,0.01-0.24,0.01-0.24h-0.01c0,0-0.04,0.09-0.21,0.26l-0.46,0.46
				l-0.27-0.27l0.97-0.96h0.39v3.9h0.94v0.38h-2.32V220.85z"/>
			<path class="st21" d="M391.99,220.96c0-1.5,2.19-1.7,2.19-2.85c0-0.47-0.35-0.82-0.89-0.82c-0.63,0-0.96,0.58-0.96,0.58
				l-0.32-0.21c0,0,0.39-0.77,1.3-0.77c0.82,0,1.3,0.53,1.3,1.2c0,1.44-2.16,1.64-2.17,2.78h2.23v0.38h-2.67
				C392,221.13,391.99,221.04,391.99,220.96z"/>
			<path class="st21" d="M395.49,216.89h0.36v1.03h-0.36V216.89z"/>
			<path class="st21" d="M396.69,219.09c0-1.23,0.37-2.21,1.48-2.21c1.11,0,1.47,0.98,1.47,2.21c0,1.24-0.36,2.22-1.47,2.22
				C397.06,221.3,396.69,220.33,396.69,219.09z M399.21,219.09c0-1.02-0.23-1.81-1.03-1.81c-0.82,0-1.04,0.8-1.04,1.81
				c0,1.02,0.23,1.82,1.04,1.82C398.98,220.91,399.21,220.11,399.21,219.09z"/>
			<path class="st21" d="M400.49,216.89h0.36v1.03h-0.36V216.89z M401.23,216.89h0.36v1.03h-0.36V216.89z"/>
		</g>
		<g>
			<path class="st51" d="M221.79,332.29h3.33v0.7h-2.52v1.79h2.05v0.7h-2.05v1.84h2.66v0.7h-3.47V332.29z"/>
			<path class="st51" d="M226.44,332.29h0.8l2.55,3.73c0.21,0.31,0.48,0.83,0.48,0.83h0.02c0,0-0.06-0.51-0.06-0.83v-3.73h0.8v5.73
				h-0.79l-2.56-3.72c-0.21-0.32-0.48-0.84-0.48-0.84h-0.02c0,0,0.06,0.51,0.06,0.84v3.72h-0.8V332.29z"/>
			<path class="st51" d="M232.61,336.75c0,0,0.61,0.62,1.46,0.62c0.54,0,0.99-0.3,0.99-0.84c0-1.24-2.78-0.97-2.78-2.74
				c0-0.89,0.77-1.6,1.85-1.6c1.06,0,1.62,0.58,1.62,0.58l-0.37,0.67c0,0-0.53-0.5-1.26-0.5c-0.61,0-1.04,0.38-1.04,0.84
				c0,1.18,2.78,0.87,2.78,2.73c0,0.88-0.68,1.62-1.82,1.62c-1.22,0-1.9-0.75-1.9-0.75L232.61,336.75z"/>
			<path class="st51" d="M236.94,332.29h0.8v3.7c0,0.88,0.57,1.39,1.44,1.39c0.88,0,1.46-0.51,1.46-1.4v-3.69h0.8v3.7
				c0,1.27-0.92,2.13-2.26,2.13c-1.34,0-2.26-0.85-2.26-2.13V332.29z"/>
			<path class="st51" d="M242.94,332.29h0.8v5.73h-0.8V332.29z"/>
			<path class="st51" d="M246.52,332.99h-1.96v-0.7h4.73v0.7h-1.96v5.03h-0.8V332.99z"/>
			<path class="st51" d="M250.11,332.29h3.33v0.7h-2.52v1.79h2.05v0.7h-2.05v1.84h2.66v0.7h-3.47V332.29z"/>
		</g>
		<g>
			<path class="st21" d="M224.14,344.24h0.96v-3.14c0-0.12,0.01-0.24,0.01-0.24h-0.01c0,0-0.04,0.09-0.21,0.26l-0.46,0.46
				l-0.27-0.27l0.97-0.96h0.39v3.9h0.94v0.38h-2.32V344.24z"/>
			<path class="st21" d="M226.98,344.24h0.96v-3.14c0-0.12,0.01-0.24,0.01-0.24h-0.01c0,0-0.04,0.09-0.21,0.26l-0.46,0.46L227,341.3
				l0.97-0.96h0.39v3.9h0.94v0.38h-2.32V344.24z"/>
			<path class="st21" d="M229.89,340.28h0.36v1.03h-0.36V340.28z"/>
			<path class="st21" d="M231.1,342.48c0-1.23,0.37-2.21,1.48-2.21s1.47,0.98,1.47,2.21c0,1.24-0.36,2.22-1.47,2.22
				S231.1,343.72,231.1,342.48z M233.61,342.48c0-1.02-0.23-1.81-1.03-1.81c-0.82,0-1.04,0.8-1.04,1.81c0,1.02,0.23,1.82,1.04,1.82
				C233.39,344.3,233.61,343.5,233.61,342.48z"/>
			<path class="st21" d="M234.9,340.28h0.36v1.03h-0.36V340.28z M235.64,340.28H236v1.03h-0.36V340.28z"/>
			<path class="st21" d="M237.9,343.3c0,0-0.05,0.09-0.1,0.17l-0.74,1.15h-0.49l1.08-1.59l-0.99-1.47h0.49l0.66,1.03
				c0.05,0.08,0.1,0.18,0.1,0.18h0.01c0,0,0.06-0.1,0.1-0.18l0.66-1.03h0.49l-0.99,1.47l1.08,1.59h-0.49l-0.74-1.15
				c-0.05-0.08-0.1-0.17-0.1-0.17H237.9L237.9,343.3z"/>
			<path class="st21" d="M241.64,343.79c0,0,0.32,0.5,0.97,0.5c0.59,0,1.07-0.42,1.07-1c0-0.58-0.48-1-1.08-1
				c-0.46,0-0.78,0.23-0.78,0.23l-0.27-0.1l0.23-2.08h2.07v0.38h-1.71l-0.12,1.1c-0.02,0.15-0.04,0.24-0.04,0.24h0.01
				c0,0,0.27-0.16,0.65-0.16c0.86,0,1.47,0.62,1.47,1.39c0,0.79-0.65,1.41-1.49,1.41c-0.85,0-1.25-0.61-1.25-0.61L241.64,343.79z"/>
			<path class="st21" d="M244.86,340.28h0.36v1.03h-0.36V340.28z"/>
			<path class="st21" d="M246.04,342.68c0-1.07,0.56-2.42,1.88-2.42c0.48,0,0.79,0.18,0.79,0.18l-0.16,0.37c0,0-0.27-0.15-0.62-0.15
				c-0.9,0-1.35,0.88-1.42,1.72h0.01c0.21-0.3,0.64-0.5,1.08-0.5c0.78,0,1.33,0.57,1.33,1.38c0,0.89-0.6,1.43-1.35,1.43
				C246.65,344.69,246.04,343.84,246.04,342.68z M248.5,343.27c0-0.61-0.38-1.01-0.97-1.01c-0.57,0-1.03,0.38-1.03,0.73
				c0,0.57,0.44,1.31,1.08,1.31C248.16,344.3,248.5,343.86,248.5,343.27z"/>
			<path class="st21" d="M249.69,340.28h0.36v1.03h-0.36V340.28z M250.42,340.28h0.36v1.03h-0.36V340.28z"/>
		</g>
		<g>
			<path class="st51" d="M64.12,325.3h3.33v0.7h-2.52v1.79h2.05v0.7h-2.05v1.84h2.66v0.7h-3.47V325.3z"/>
			<path class="st51" d="M68.77,325.3h0.8l2.55,3.73c0.21,0.31,0.48,0.83,0.48,0.83h0.02c0,0-0.06-0.51-0.06-0.83v-3.73h0.8v5.73
				h-0.79l-2.56-3.72c-0.21-0.32-0.48-0.84-0.48-0.84h-0.02c0,0,0.06,0.51,0.06,0.84v3.72h-0.8V325.3z"/>
			<path class="st51" d="M76.14,326h-1.96v-0.7h4.73v0.7h-1.96v5.03h-0.8V326z"/>
			<path class="st51" d="M79.73,325.3h1.75c0.6,0,0.85,0.05,1.07,0.13c0.58,0.22,0.97,0.8,0.97,1.55c0,0.73-0.41,1.35-1.03,1.55
				v0.02c0,0,0.07,0.07,0.17,0.26l1.22,2.22h-0.91l-1.21-2.28h-1.23v2.28h-0.8V325.3z M81.69,328.05c0.62,0,1.01-0.4,1.01-1.04
				c0-0.42-0.16-0.72-0.45-0.88c-0.15-0.08-0.34-0.13-0.79-0.13h-0.93v2.05H81.69z"/>
			<path class="st51" d="M86.14,328.6l-1.92-3.3h0.91l1.06,1.88c0.18,0.32,0.35,0.72,0.35,0.72h0.02c0,0,0.17-0.4,0.35-0.72
				l1.05-1.88h0.91l-1.92,3.3v2.43h-0.8V328.6z"/>
		</g>
		<g>
			<path class="st51" d="M247.2,278.07l1.12,4.21c0.08,0.32,0.12,0.61,0.12,0.61h0.02c0,0,0.02-0.3,0.11-0.61l1.06-4.21h0.83
				l-1.5,5.73h-0.93l-0.99-3.72c-0.1-0.37-0.17-0.81-0.17-0.81h-0.02c0,0-0.07,0.45-0.17,0.81l-0.99,3.72h-0.93l-1.46-5.73h0.83
				l1.02,4.21c0.07,0.31,0.11,0.61,0.11,0.61h0.02c0,0,0.04-0.29,0.12-0.61l1.12-4.21H247.2z"/>
			<path class="st51" d="M251.49,278.07h0.8v5.73h-0.8V278.07z"/>
			<path class="st51" d="M256.38,277.97c1.38,0,2.09,0.75,2.09,0.75l-0.4,0.6c0,0-0.67-0.62-1.66-0.62c-1.28,0-2.12,0.97-2.12,2.19
				c0,1.23,0.85,2.26,2.13,2.26c1.08,0,1.77-0.75,1.77-0.75l0.43,0.58c0,0-0.79,0.91-2.22,0.91c-1.72,0-2.93-1.32-2.93-3
				C253.46,279.24,254.71,277.97,256.38,277.97z"/>
		</g>
		<g>
			<path class="st51" d="M78.58,109.56h2c0.97,0,1.66,0.54,1.66,1.46c0,0.56-0.28,1.01-0.71,1.23v0.02c0.6,0.18,0.94,0.75,0.94,1.39
				c0,1.08-0.84,1.63-1.84,1.63h-2.05V109.56z M80.58,111.97c0.52,0,0.84-0.37,0.84-0.87c0-0.5-0.31-0.84-0.86-0.84h-1.19v1.71
				H80.58z M80.67,114.59c0.62,0,0.98-0.39,0.98-0.97c0-0.58-0.39-0.98-0.99-0.98h-1.28v1.96H80.67z"/>
			<path class="st51" d="M83.72,109.56h3.33v0.7h-2.52v1.79h2.05v0.7h-2.05v1.84h2.66v0.7h-3.47V109.56z"/>
			<path class="st51" d="M88.38,109.56h1.9c1.75,0,2.91,1.05,2.91,2.86c0,1.82-1.15,2.87-2.91,2.87h-1.9V109.56z M90.22,114.59
				c1.29,0,2.13-0.76,2.13-2.18c0-1.4-0.85-2.16-2.13-2.16h-1.04v4.33H90.22z"/>
			<path class="st51" d="M94.38,109.56h1.75c0.6,0,0.85,0.05,1.07,0.13c0.58,0.22,0.97,0.8,0.97,1.55c0,0.73-0.41,1.35-1.03,1.55
				v0.02c0,0,0.06,0.07,0.17,0.26l1.22,2.22h-0.91l-1.21-2.28h-1.23v2.28h-0.8V109.56z M96.34,112.31c0.62,0,1.01-0.4,1.01-1.04
				c0-0.42-0.16-0.72-0.45-0.88c-0.15-0.08-0.34-0.13-0.79-0.13h-0.93v2.05H96.34z"/>
			<path class="st51" d="M102.15,109.46c1.66,0,2.94,1.27,2.94,2.92c0,1.69-1.28,3-2.94,3c-1.66,0-2.95-1.32-2.95-3
				C99.2,110.73,100.49,109.46,102.15,109.46z M102.15,114.65c1.17,0,2.11-0.97,2.11-2.26c0-1.25-0.94-2.19-2.11-2.19
				s-2.12,0.94-2.12,2.19C100.03,113.67,100.98,114.65,102.15,114.65z"/>
			<path class="st51" d="M108.81,109.46c1.66,0,2.94,1.27,2.94,2.92c0,1.69-1.28,3-2.94,3c-1.66,0-2.95-1.32-2.95-3
				C105.87,110.73,107.16,109.46,108.81,109.46z M108.81,114.65c1.17,0,2.11-0.97,2.11-2.26c0-1.25-0.94-2.19-2.11-2.19
				s-2.12,0.94-2.12,2.19C106.69,113.67,107.64,114.65,108.81,114.65z"/>
			<path class="st51" d="M113.21,109.56h0.84l1.31,3.1c0.13,0.32,0.28,0.77,0.28,0.77h0.02c0,0,0.15-0.45,0.28-0.77l1.31-3.1h0.84
				l0.46,5.73h-0.8l-0.28-3.61c-0.02-0.35-0.01-0.84-0.01-0.84h-0.02c0,0-0.17,0.53-0.31,0.84l-1.14,2.58h-0.71l-1.14-2.58
				c-0.13-0.31-0.31-0.86-0.31-0.86h-0.02c0,0,0.01,0.51-0.02,0.86l-0.28,3.61h-0.8L113.21,109.56z"/>
		</g>
		<g>
			<path class="st21" d="M84.84,121.84l0.16-0.37c0,0,0.27,0.15,0.62,0.15c0.9,0,1.35-0.88,1.43-1.72h-0.01
				c-0.21,0.3-0.65,0.5-1.09,0.5c-0.78,0-1.33-0.57-1.33-1.38c0-0.89,0.59-1.43,1.34-1.43c0.93,0,1.55,0.85,1.55,2.01
				c0,1.07-0.55,2.42-1.88,2.42C85.15,122.01,84.84,121.84,84.84,121.84z M87.05,119.29c0-0.57-0.44-1.31-1.08-1.31
				c-0.58,0-0.92,0.44-0.92,1.03c0,0.61,0.38,1.01,0.97,1.01C86.59,120.02,87.05,119.64,87.05,119.29z"/>
			<path class="st21" d="M88.32,117.6h0.36v1.03h-0.36V117.6z"/>
			<path class="st21" d="M89.49,120c0-1.07,0.56-2.42,1.88-2.42c0.48,0,0.79,0.18,0.79,0.18L92,118.13c0,0-0.27-0.15-0.62-0.15
				c-0.9,0-1.35,0.88-1.42,1.72h0.01c0.21-0.3,0.64-0.5,1.08-0.5c0.78,0,1.33,0.57,1.33,1.38c0,0.89-0.6,1.43-1.35,1.43
				C90.11,122.01,89.49,121.16,89.49,120z M91.95,120.59c0-0.61-0.38-1.01-0.97-1.01c-0.57,0-1.03,0.38-1.03,0.73
				c0,0.57,0.44,1.31,1.08,1.31C91.61,121.62,91.95,121.18,91.95,120.59z"/>
			<path class="st21" d="M93.14,117.6h0.36v1.03h-0.36V117.6z M93.88,117.6h0.36v1.03h-0.36V117.6z"/>
			<path class="st21" d="M96.14,120.62c0,0-0.05,0.09-0.1,0.17l-0.74,1.15h-0.49l1.08-1.59l-0.99-1.47h0.49l0.66,1.03
				c0.05,0.08,0.1,0.18,0.1,0.18h0.01c0,0,0.06-0.1,0.1-0.18l0.66-1.03h0.49l-0.99,1.47l1.08,1.59h-0.49l-0.74-1.15
				c-0.05-0.08-0.1-0.17-0.1-0.17H96.14L96.14,120.62z"/>
			<path class="st21" d="M99.63,121.56h0.96v-3.14c0-0.12,0.01-0.24,0.01-0.24h-0.01c0,0-0.04,0.09-0.21,0.26l-0.46,0.46l-0.27-0.27
				l0.97-0.96H101v3.9h0.94v0.38h-2.32V121.56z"/>
			<path class="st21" d="M102.55,119.8c0-1.23,0.37-2.21,1.48-2.21c1.11,0,1.47,0.98,1.47,2.21c0,1.24-0.36,2.22-1.47,2.22
				C102.92,122.01,102.55,121.04,102.55,119.8z M105.06,119.8c0-1.02-0.23-1.81-1.03-1.81c-0.82,0-1.04,0.8-1.04,1.81
				c0,1.02,0.23,1.82,1.04,1.82C104.84,121.62,105.06,120.82,105.06,119.8z"/>
			<path class="st21" d="M106.35,117.6h0.36v1.03h-0.36V117.6z"/>
			<path class="st21" d="M107.53,120c0-1.07,0.56-2.42,1.88-2.42c0.48,0,0.79,0.18,0.79,0.18l-0.16,0.37c0,0-0.27-0.15-0.62-0.15
				c-0.9,0-1.35,0.88-1.42,1.72H108c0.21-0.3,0.64-0.5,1.08-0.5c0.78,0,1.33,0.57,1.33,1.38c0,0.89-0.6,1.43-1.35,1.43
				C108.14,122.01,107.53,121.16,107.53,120z M109.98,120.59c0-0.61-0.38-1.01-0.97-1.01c-0.57,0-1.03,0.38-1.03,0.73
				c0,0.57,0.44,1.31,1.08,1.31C109.64,121.62,109.98,121.18,109.98,120.59z"/>
			<path class="st21" d="M111.17,117.6h0.36v1.03h-0.36V117.6z M111.91,117.6h0.36v1.03h-0.36V117.6z"/>
		</g>
		<g>
			<path class="st21" d="M269.74,248.12h1.48c0.77,0,1.32,0.5,1.32,1.29c0,0.8-0.55,1.31-1.32,1.31h-1.06v1.68h-0.42V248.12z
				 M271.16,250.34c0.57,0,0.94-0.35,0.94-0.93c0-0.58-0.37-0.91-0.94-0.91h-1.01v1.84H271.16z"/>
		</g>
	</g>
</g>
</svg>
