<svg xmlns="http://www.w3.org/2000/svg" xmlns:ns1="http://www.w3.org/1999/xlink" enable-background="new 0 0 595.275 501" height="501px" id="Layer_1" version="1.1" viewBox="0 0 595.275 501" width="595.275px" x="0px" y="0px" xml:space="preserve">
<symbol id="Corner_Stairs" viewBox="-14.424 -14.423 28.848 28.848">
	<g id="n_id_0">
		<line id="n_id_1" stroke="#000000" x1="-13.924" x2="14.424" y1="-13.923" y2="-13.923" />
		<line id="n_id_2" stroke="#000000" x1="-13.924" x2="10.625" y1="-13.923" y2="0.249" />
		<line id="n_id_3" stroke="#000000" x1="-13.924" x2="0.25" y1="-13.923" y2="10.626" />
		<line id="n_id_4" stroke="#000000" x1="-13.924" x2="-13.924" y1="-13.923" y2="14.425" />
	</g>
</symbol>
<symbol id="Deleted_Symbol" viewBox="-43.258 -3.385 86.516 6.771">
	<g id="n_id_5">
		<g id="n_id_6">
			<polygon fill="#FFFFFF" id="n_id_7" points="42.763,-3.309 -40.917,-3.309 -40.917,3.387 42.763,3.387    " />
			<polygon id="n_id_8" points="43.258,3.375 43.258,-3.385 41.045,-3.385 41.045,-1.172 40.207,-1.172 40.207,1.041 40.926,1.041 40.916,3.387         " />
			<polygon id="n_id_9" points="-43.258,3.375 -43.258,-3.385 -41.045,-3.385 -41.045,-1.172 -40.208,-1.172 -40.208,1.041 -40.925,1.041      -40.917,3.387    " />
			<polygon id="n_id_10" points="1.231,-2.832 -41.288,-2.832 -41.288,0.002 1.231,0.002    " />
			<polygon id="n_id_11" points="41.664,0.002 -1.08,0.002 -1.08,2.838 41.664,2.838    " />
		</g>
	</g>
</symbol>
<symbol id="Door_1_-_Inside" viewBox="-12.624 -13.336 25.248 26.672">
	<g id="n_id_12">
		<g id="n_id_13">
			<polygon id="n_id_14" points="10.882,-7.963 8.758,-7.963 8.758,13.298 10.882,13.298    " />
			<path d="M-10.418-8.229c0,0-0.283,7.854,5.497,14.261     s12.422,6.66,15.493,6.88" fill="none" id="n_id_15" stroke="#000000" stroke-width="0.8504" />
			<polygon fill="#CCE1F0" id="n_id_16" points="11.072,-13.291 -11.1,-13.291 -11.1,-7.622 11.072,-7.622    " />
			<polygon id="n_id_17" points="-12.625,-7.675 -12.625,-13.335 -10.963,-13.335 -10.963,-11.481 -10.336,-11.481 -10.336,-9.629      -10.875,-9.629 -10.865,-7.667    " />
			<polygon id="n_id_18" points="12.624,-13.326 12.624,-7.667 10.966,-7.667 10.966,-9.521 10.338,-9.521 10.338,-11.374 10.875,-11.374      10.869,-13.336    " />
		</g>
	</g>
</symbol>
<symbol id="Door_2_-_Inside" viewBox="-12.624 -13.337 25.248 26.673">
	<g id="n_id_19">
		<g id="n_id_20">
			<polygon id="n_id_21" points="-10.88,-7.963 -8.756,-7.963 -8.756,13.297 -10.88,13.297    " />
			<path d="M10.42-8.229c0,0,0.283,7.854-5.496,14.261     s-12.425,6.659-15.493,6.88" fill="none" id="n_id_22" stroke="#000000" stroke-width="0.8504" />
			<polygon fill="#CCE1F0" id="n_id_23" points="-11.07,-13.29 11.102,-13.29 11.102,-7.622 -11.07,-7.622    " />
			<polygon id="n_id_24" points="12.624,-7.675 12.624,-13.335 10.965,-13.335 10.965,-11.48 10.338,-11.48 10.338,-9.63 10.874,-9.63      10.867,-7.668    " />
			<polygon id="n_id_25" points="-12.625,-13.326 -12.625,-7.668 -10.964,-7.668 -10.964,-9.521 -10.336,-9.521 -10.336,-11.374 -10.876,-11.374      -10.867,-13.337    " />
		</g>
	</g>
</symbol>
<symbol id="Door_2_-_Outside" viewBox="-12.625 -13.337 25.25 26.673">
	<g id="n_id_26">
		<polygon id="n_id_27" points="-10.881,-7.963 -8.756,-7.963 -8.756,13.297 -10.881,13.297   " />
		<path d="M10.417-8.229c0,0,0.284,7.854-5.496,14.261    S-7.5,12.691-10.57,12.912" fill="none" id="n_id_28" stroke="#000000" stroke-width="0.8504" />
		<polygon fill="#FFFFFF" id="n_id_29" points="-11.071,-13.286 11.101,-13.286 11.101,-7.616 -11.071,-7.616   " />
		<polygon id="n_id_30" points="12.625,-7.675 12.625,-13.335 10.963,-13.335 10.963,-11.48 10.336,-11.48 10.336,-9.63 10.873,-9.63     10.867,-7.668   " />
		<polygon id="n_id_31" points="-12.625,-13.326 -12.625,-7.668 -10.965,-7.668 -10.965,-9.521 -10.336,-9.521 -10.336,-11.374 -10.875,-11.374     -10.868,-13.337   " />
	</g>
</symbol>
<symbol id="Sliding_Patio_Doors" viewBox="-28.347 -3.385 56.694 6.771">
	
		<use height="6.771" id="XMLID_3_" overflow="visible" transform="matrix(0.6553 0 0 1 0 0)" width="86.516" x="-43.258" y="-3.385" ns1:href="#Deleted_Symbol" />
</symbol>
<polygon fill="#FFFFFF" id="n_id_32" points="259.665,196.37 259.665,272.667 557.721,322.667 557.721,245.172 406.998,245.172   406.998,162.354 287.678,162.354 287.678,196.37 " stroke="#000000" />
<rect fill="#CCE1F0" height="107.951" id="n_id_33" stroke="#000000" stroke-width="3" width="74.614" x="148.025" y="117" />
<rect fill="#CCE1F0" height="68.031" id="n_id_34" stroke="#000000" stroke-width="3" width="42.52" x="245.158" y="48.968" />
<rect fill="#CCE1F0" height="79.37" id="n_id_35" stroke="#000000" stroke-width="3" width="82.205" x="205.473" y="117" />
<rect fill="#CCE1F0" height="107.951" id="n_id_36" stroke="#000000" stroke-width="3" width="113.386" x="34.639" y="117" />
<rect fill="#CCE1F0" height="48.189" id="n_id_37" stroke="#000000" stroke-width="3" width="76.535" x="34.639" y="105.23" />
<rect fill="#CCE1F0" height="82.818" id="n_id_38" stroke="#000000" stroke-width="3" width="51.023" x="458.318" y="48.968" />
<rect fill="#CCE1F0" height="82.818" id="n_id_39" stroke="#000000" stroke-width="3" width="48.189" x="509.531" y="48.968" />
<rect fill="#CCE1F0" height="82.818" id="n_id_40" stroke="#000000" stroke-width="3" width="102.047" x="408.5" y="162.354" />
<rect fill="#CCE1F0" height="113.386" id="n_id_41" stroke="#000000" stroke-width="3" width="47.174" x="510.547" y="131.787" />
<polygon fill="#CCE1F0" id="n_id_42" points="457.756,132.248 457.756,48.968 287.678,48.968 287.678,162.354   287.678,162.354 457.756,162.354 509.531,162.354 509.531,132.248 " stroke="#000000" stroke-width="3" />
<rect fill="#CCE1F0" height="29.5" id="n_id_43" width="18.999" x="277.173" y="68.248" />
<text font-family="'Verdana'" font-size="12" id="n_id_44" transform="matrix(1 0 0 1 222.6963 156.354)">Kitchen</text>
<text font-family="'Verdana'" font-size="12" id="n_id_45" transform="matrix(1 0 0 1 159.8813 177.6875)">Utility</text>
<text font-family="'Verdana'" font-size="12" id="n_id_46" transform="matrix(1 0 0 1 432.418 210.354)">Bedroom</text>
<text font-family="'Verdana'" font-size="12" id="n_id_47" transform="matrix(1 0 0 1 62.4185 192.4019)">Bedroom</text>
<text font-family="'Verdana'" font-size="12" id="n_id_48" transform="matrix(1 0 0 1 464.3525 90.3774)">Bthrm</text>
<text font-family="'Verdana'" font-size="12" id="n_id_49" transform="matrix(1 0 0 1 392.8027 100.6611)">Lounge</text>
<text font-family="'Verdana'" font-size="12" id="n_id_50" transform="matrix(1 0 0 1 294.9893 188.4795)">Covered Terrace</text>
<text font-family="'Verdana'" font-size="12" id="n_id_51" transform="matrix(0 1 -1 0 530.626 60.8989)">Ensuite</text>
<text font-family="'Verdana'" font-size="12" id="n_id_52" transform="matrix(1 0 0 1 47.6563 130.5703)">Ensuite</text>
<text font-family="'Verdana'" font-size="12" id="n_id_53" transform="matrix(0 1 -1 0 530.626 167.2964)">Bedroom</text>
<use height="26.673" id="n_id_54" overflow="visible" transform="matrix(0 1 1 0 256.3398 84.7471)" width="25.25" x="-12.625" y="-13.337" ns1:href="#Door_2_-_Outside" />
<use height="26.673" id="n_id_55" overflow="visible" transform="matrix(0 1 1 0 520.3398 147.3013)" width="25.248" x="-12.624" y="-13.337" ns1:href="#Door_2_-_Inside" />
<use height="26.673" id="n_id_56" overflow="visible" transform="matrix(1 0 0 -1 481.8184 121.9971)" width="25.248" x="-12.624" y="-13.337" ns1:href="#Door_2_-_Inside" />
<use height="26.673" id="n_id_57" overflow="visible" transform="matrix(-1 0 0 1 481.834 172.5742)" width="25.248" x="-12.624" y="-13.337" ns1:href="#Door_2_-_Inside" />
<use height="26.673" id="n_id_58" overflow="visible" transform="matrix(-1 0 0 1 266.417 127.2407)" width="25.248" x="-12.624" y="-13.337" ns1:href="#Door_2_-_Inside" />
<use height="26.673" id="n_id_59" overflow="visible" transform="matrix(0 1 1 0 158.5005 134.4468)" width="25.248" x="-12.624" y="-13.337" ns1:href="#Door_2_-_Inside" />
<use height="26.673" id="n_id_60" overflow="visible" transform="matrix(0 -1 -1 0 100.769 134.4458)" width="25.248" x="-12.624" y="-13.337" ns1:href="#Door_2_-_Inside" />
<use height="26.673" id="n_id_61" overflow="visible" transform="matrix(1 0 0 -1 534.626 121.7026)" width="25.248" x="-12.624" y="-13.337" ns1:href="#Door_2_-_Inside" />
<use height="26.672" id="n_id_62" overflow="visible" transform="matrix(0 -1 -1 0 195.1392 134.4458)" width="25.248" x="-12.624" y="-13.336" ns1:href="#Door_1_-_Inside" />
<use height="6.771" id="n_id_63" overflow="visible" transform="matrix(1 0 0 -1 86.1392 224.9517)" width="56.694" x="-28.347" y="-3.385" ns1:href="#Sliding_Patio_Doors" />
<use height="6.771" id="n_id_64" overflow="visible" transform="matrix(1 0 0 -1 346.0098 162.355)" width="56.694" x="-28.347" y="-3.385" ns1:href="#Sliding_Patio_Doors" />
<polygon fill="#A6E1E2" id="n_id_65" points="218.094,339.59 218.094,450.445 331.639,430.749   444.865,450.301 444.865,339.515 443.77,339.515 330.973,359.082 " stroke="#000000" stroke-width="3" />
<text id="n_id_66" transform="matrix(1 0 0 1 317.8096 382.126)"><tspan font-family="'Verdana'" font-size="12" id="n_id_67" x="0" y="0">Pool</tspan><tspan font-family="'Verdana'" font-size="12" id="n_id_68" x="-26.517" y="15">8.0m x 4.0m</tspan></text>
<g id="n_id_69" onclick="parent.viewFloorplanImage('01raquel_ext_12')">
	<circle cx="331.371" cy="413.259" fill="#343433" id="n_id_70" r="3.277" />
	<path d="M338.956,406.264h-3.023l-1.671-2.53h-5.815l-1.919,2.53h-6.524c-0.698,0-1.265,0.565-1.265,1.261v11.368   c0,0.696,0.565,1.264,1.265,1.264h18.955c0.696,0,1.263-0.567,1.263-1.264v-11.367   C340.221,406.829,339.654,406.264,338.956,406.264z M331.371,418.399c-2.863,0-5.188-2.323-5.188-5.188   c0-2.866,2.324-5.189,5.188-5.189c2.865,0,5.188,2.323,5.188,5.189C336.559,416.076,334.236,418.399,331.371,418.399z" fill="#343433" id="n_id_71" />
</g>
<g id="n_id_72" onclick="parent.viewFloorplanImage('01raquel_int_12')">
	<circle cx="416.582" cy="113.97" fill="#343433" id="n_id_73" r="3.277" />
	<path d="M424.167,106.974h-3.023l-1.671-2.53h-5.815l-1.919,2.53h-6.524c-0.698,0-1.265,0.565-1.265,1.261v11.368   c0,0.696,0.565,1.264,1.265,1.264h18.955c0.696,0,1.263-0.567,1.263-1.264v-11.367C425.432,107.54,424.865,106.974,424.167,106.974   z M416.582,119.11c-2.863,0-5.188-2.323-5.188-5.188c0-2.866,2.324-5.189,5.188-5.189c2.865,0,5.188,2.323,5.188,5.189   C421.77,116.787,419.447,119.11,416.582,119.11z" fill="#343433" id="n_id_74" />
</g>
<g id="n_id_75" onclick="parent.viewFloorplanImage('01raquel_gal10_12')">
	<circle cx="347.901" cy="205.078" fill="#343433" id="n_id_76" r="3.277" />
	<path d="M355.486,198.082h-3.023l-1.671-2.53h-5.815l-1.919,2.53h-6.524c-0.698,0-1.265,0.565-1.265,1.261v11.368   c0,0.696,0.565,1.264,1.265,1.264h18.955c0.696,0,1.263-0.567,1.263-1.264v-11.367   C356.751,198.647,356.185,198.082,355.486,198.082z M347.901,210.218c-2.863,0-5.188-2.323-5.188-5.188   c0-2.866,2.324-5.189,5.188-5.189c2.865,0,5.188,2.323,5.188,5.189C353.089,207.895,350.767,210.218,347.901,210.218z" fill="#343433" id="n_id_77" />
</g>
<text id="n_id_78" transform="matrix(1 0 0 1 308.8457 88.6611)"><tspan font-family="'Verdana'" font-size="12" id="n_id_79" x="0" y="0">Dining</tspan><tspan font-family="'Verdana'" font-size="12" id="n_id_80" x="5.408" y="15">Area</tspan></text>
<g id="n_id_81" onclick="parent.viewFloorplanImage('01raquel_gal03_12')">
	<circle cx="329.985" cy="117.97" fill="#343433" id="n_id_82" r="3.277" />
	<path d="M337.57,110.974h-3.023l-1.671-2.53h-5.815l-1.919,2.53h-6.524c-0.698,0-1.265,0.565-1.265,1.261v11.368   c0,0.696,0.565,1.264,1.265,1.264h18.955c0.696,0,1.263-0.567,1.263-1.264v-11.367C338.835,111.54,338.269,110.974,337.57,110.974z    M329.985,123.11c-2.863,0-5.188-2.323-5.188-5.188c0-2.866,2.324-5.189,5.188-5.189c2.865,0,5.188,2.323,5.188,5.189   C335.173,120.787,332.851,123.11,329.985,123.11z" fill="#343433" id="n_id_83" />
</g>
<g id="n_id_84" onclick="parent.viewFloorplanImage('01raquel_gal04_12')">
	<circle cx="247.05" cy="170.002" fill="#343433" id="n_id_85" r="3.277" />
	<path d="M254.635,163.006h-3.023l-1.671-2.53h-5.815l-1.919,2.53h-6.524c-0.698,0-1.265,0.565-1.265,1.261v11.368   c0,0.696,0.565,1.264,1.265,1.264h18.955c0.696,0,1.263-0.567,1.263-1.264v-11.367   C255.899,163.572,255.333,163.006,254.635,163.006z M247.05,175.142c-2.863,0-5.188-2.323-5.188-5.188   c0-2.866,2.324-5.189,5.188-5.189c2.865,0,5.188,2.323,5.188,5.189C252.237,172.819,249.915,175.142,247.05,175.142z" fill="#343433" id="n_id_86" />
</g>
</svg>