<svg xmlns="http://www.w3.org/2000/svg" enable-background="new 0 0 459 287.918" height="287.918px" id="The_Aquia" version="1.1" viewBox="0 0 459 287.918" width="459px" x="0px" y="0px" xml:space="preserve">
<polygon fill="#FFFFFF" id="n_id_0" points="14.97,279.273 14.97,71.373 300.926,71.373 300.926,20.691 400.872,20.691 400.872,11.108   446.708,11.108 446.708,279.274 " />
<path d="M115.2,217.357c0.002,0.78,0.023,10,0.012,10.554c-0.012,0.578,0.917,0.515,0.874,1.147  s-0.043,30.768,0,31.4c0.043,0.632-0.885,0.568-0.874,1.146s0,8.628,0,8.628v8.812H93.041v0.36l77.147-0.36v-61.688H115.2z   M137.908,275.248c0,0.646-0.524,1.17-1.17,1.17h-14.16c-0.646,0-1.17-0.523-1.17-1.17v-5.161c0-0.646,0.524-1.17,1.17-1.17  l3.92-0.002c-1.777-1.379-2.965-3.885-2.965-6.749c0-4.349,2.742-7.876,6.125-7.876s6.125,3.527,6.125,7.876  c0,2.855-1.181,5.354-2.949,6.736l3.904,0.015c0.646,0,1.17,0.524,1.17,1.17V275.248z M169.583,278.224h-25.657v-23.856h25.657  V278.224z" fill="#DAEBC1" id="n_id_1" />
<g id="n_id_2">
	<path d="M147.143,222.667c0,12.771,10.354,23.125,23.125,23.125v-23.125l-23.234-0.157" fill="#C4DF9B" id="n_id_3" />
</g>
<polygon fill="#FFFCD5" id="n_id_4" points="283.334,71.965 283.334,191.572 283.103,191.572 283.103,217.319 211.549,217.319 211.549,213.358   211.449,213.358 211.449,181.206 163.768,181.206 163.768,217.071 169.924,217.071 169.924,222.505 169.957,222.505   169.957,251.483 283.103,251.483 283.103,278.472 375.195,278.472 375.195,199.743 447.235,199.743 447.235,71.965 " />
<rect fill="#7BD3F7" height="41.336" id="n_id_5" width="46.015" x="400.693" y="11.108" />
<polygon fill="#7BD3F7" id="n_id_6" points="446.376,72.769 446.376,52.488 401.729,52.488 401.729,72.769 403.162,72.769 403.162,74.847   403.666,74.847 411.167,82.146 418.806,74.847 425.364,74.847 433.001,82.146 440.722,74.635 440.5,74.634 440.5,72.769 " />
<polygon fill="#7BD3F7" id="n_id_7" points="186.13,251.079 179.432,244.167 172.236,251.079 170.74,251.079 170.74,264.33 195.103,264.33   195.103,251.079 " />
<polygon fill="#7BD3F7" id="n_id_8" points="213.031,251.079 204.532,242.367 196.255,251.079 195.839,251.079 195.839,253.886 222.004,253.886   222.004,251.079 " />
<polygon fill="#FFE4C0" id="n_id_9" points="400.872,20.691 301.442,20.691 301.442,70.85 323.14,70.85 323.14,73.36 350.089,73.36   350.089,70.85 400.872,70.85 " />
<polygon fill="#FFE4C0" id="n_id_10" points="283.334,173.42 283.334,71.965 165.564,71.965 165.564,180.705 211.449,180.705 211.449,217.299   283.696,217.299 283.696,173.42 " />
<polygon fill="#FFE4C0" id="n_id_11" points="163.582,181.471 141.065,181.471 141.065,71.373 15.732,71.373 15.732,217.04 141.065,217.04   141.065,216.411 163.582,216.411 " />
<path d="M38.132,217.357c0.002,0.78,0.023,10,0.012,10.554c-0.012,0.578,0.917,0.515,0.874,1.147  s-0.043,30.768,0,31.4c0.043,0.632-0.885,0.568-0.874,1.146s0,8.628,0,8.628v8.812H15.973v0.36l77.147-0.36v-61.688H38.132z   M60.84,275.248c0,0.646-0.524,1.17-1.17,1.17H45.51c-0.646,0-1.17-0.523-1.17-1.17v-5.161c0-0.646,0.524-1.17,1.17-1.17l3.92-0.002  c-1.777-1.379-2.965-3.885-2.965-6.749c0-4.349,2.742-7.876,6.125-7.876s6.125,3.527,6.125,7.876c0,2.855-1.181,5.354-2.949,6.736  l3.904,0.015c0.646,0,1.17,0.524,1.17,1.17V275.248z M92.516,278.224H66.859v-23.856h25.657V278.224z" fill="#DAEBC1" id="n_id_12" />
<g id="n_id_13">
	<g id="n_id_14">
		<g id="n_id_15">
			<path d="M64.715,217.299c0,12.771,10.354,23.125,23.125,23.125v-23.125l-23.234-0.157" fill="#C4DF9B" id="n_id_16" />
		</g>
		<g id="n_id_17">
			<path d="M15.973,217.286v0.071h22.159c0-0.035,0-0.059,0-0.059L15.973,217.286z" fill="#FFDB78" id="n_id_18" />
		</g>
		<path d="M249.469,251.079l-8.5-8.712l-8.276,8.712h-9.057v28.011h37.328v-28.011H249.469z M236.2,274.656    c-4.706,0-8.522-3.815-8.522-8.523c0-4.706,3.816-8.521,8.522-8.521c4.708,0,8.522,3.816,8.522,8.521    C244.723,270.84,240.908,274.656,236.2,274.656z" fill="#7BD3F7" id="n_id_19" />
	</g>
</g>
<polygon fill="#FFD59C" id="n_id_20" points="141.135,72.888 141.135,74.794 132.5,83.669 141.135,92.704 141.135,107.468 132.5,116.503   141.135,125.377 141.135,127.432 164.543,127.432 164.543,72.888 " />
<path d="M150.619,86.307" fill="#FBB040" id="n_id_21" />
<polygon fill="#FFD59C" id="n_id_22" points="165.732,162.142 165.732,146.709 173.092,139.009 165.732,131.444 165.732,128.539 141.399,128.539   141.399,181.372 165.732,181.372 165.732,177.407 173.092,169.843 " />
<polygon fill="#FFE4C0" id="n_id_23" points="421.047,227.913 421.047,221.25 402.601,221.25 402.601,222.892 377.932,222.892 377.932,222.331   375.692,222.331 375.692,231.477 375.694,231.477 375.694,256.293 446.059,256.293 446.059,227.913 " />
<g id="n_id_24">
	<path d="M163.697,189.223c-12.771,0-23.125,10.354-23.125,23.125h23.125l0.157-23.234" fill="#FFD59C" id="n_id_25" />
</g>
<g id="n_id_26">
	<path d="M211.685,189.223c12.773,0,23.128,10.354,23.128,23.125h-23.128l-0.157-23.234" fill="#FFD59C" id="n_id_27" />
</g>
<g id="n_id_28">
	<path d="M378.446,26.354c0,12.771,10.354,23.125,23.125,23.125V26.354l-23.234-0.157" fill="#00AEEF" id="n_id_29" />
</g>
<g id="n_id_30">
	<path d="M416.205,166.293c0,16.603,13.459,30.062,30.062,30.062v-30.062l-30.205-0.205" fill="#FFF9AE" id="n_id_31" />
</g>
<g id="n_id_32">
	<g id="n_id_33">
		<g id="n_id_34">
			<path d="M60.442,275.124c0,0.646-0.524,1.17-1.17,1.17h-14.16c-0.646,0-1.17-0.524-1.17-1.17v-5.16     c0-0.646,0.524-1.17,1.17-1.17h14.16c0.646,0,1.17,0.524,1.17,1.17V275.124z" fill="none" id="n_id_35" stroke="#25408F" />
			<path d="M49.032,268.791c-1.777-1.378-2.965-3.885-2.965-6.747c0-4.349,2.742-7.875,6.125-7.875     s6.125,3.526,6.125,7.875c0,2.854-1.181,5.354-2.949,6.735L49.032,268.791z" fill="none" id="n_id_36" stroke="#25408F" />
		</g>
		<g id="n_id_37">
			<path d="M64.317,217.179c0,12.771,10.354,23.125,23.125,23.125" fill="none" id="n_id_38" stroke="#25408F" stroke-width="0.5" />
			<rect fill="none" height="23.115" id="n_id_39" stroke="#25408F" width="1.454" x="85.988" y="217.179" />
		</g>
		<g id="n_id_40">
			<g id="n_id_41">
				<circle cx="27.606" cy="264.44" fill="none" id="n_id_42" r="1.466" stroke="#25408F" stroke-width="0.5" />
				<path d="M36.051,236.345v-6.343c0-4.654-3.773-8.427-8.427-8.427      s-8.427,3.773-8.427,8.427v6.343c-0.009,0.117-0.035,0.229-0.035,0.349v26.166c0,2.485,2.015,4.5,4.5,4.5h7.925      c2.485,0,4.5-2.015,4.5-4.5v-26.166C36.086,236.574,36.06,236.462,36.051,236.345z" fill="none" id="n_id_43" stroke="#25408F" stroke-width="0.75" />
			</g>
			<path d="M37.746,270.11c0,0,0.012-8.049,0-8.627s0.917-0.515,0.874-1.147s-0.043-30.766,0-31.397     s-0.885-0.569-0.874-1.147s-0.012-10.613-0.012-10.613l-22.159-0.013v61.754h22.171V270.11" fill="none" id="n_id_44" stroke="#25408F" />
			<rect fill="#25408F" height="8.811" id="n_id_45" stroke="#25408F" width="22.171" x="15.575" y="270.11" />
		</g>
		<g id="n_id_46">
			<g id="n_id_47">
				<g id="n_id_48">
					<path d="M87.817,266.172c0,3.381-2.741,6.121-6.121,6.121h-4.813       c-3.38,0-6.121-2.74-6.121-6.121l0,0c0-3.381,2.741-6.121,6.121-6.121h4.813C85.077,260.051,87.817,262.792,87.817,266.172       L87.817,266.172z" fill="none" id="n_id_49" stroke="#25408F" stroke-width="0.75" />
					<circle cx="79.29" cy="266.172" fill="none" id="n_id_50" r="1.466" stroke="#25408F" stroke-width="0.5" />
				</g>
				<rect fill="none" height="23.853" id="n_id_51" stroke="#25408F" width="25.657" x="66.461" y="254.246" />
			</g>
			<g id="n_id_52">
				<path d="M80.019,274.033c0,0.414-0.335,0.749-0.749,0.749l0,0      c-0.414,0-0.749-0.335-0.749-0.749v-2.991c0-0.414,0.335-0.749,0.749-0.749l0,0c0.414,0,0.749,0.335,0.749,0.749V274.033z" fill="#FFFFFF" id="n_id_53" stroke="#25408F" stroke-width="0.75" />
				<circle cx="81.811" cy="274.019" fill="#FFFFFF" id="n_id_54" r="0.777" stroke="#25408F" stroke-width="0.75" />
				<circle cx="76.729" cy="274.019" fill="#FFFFFF" id="n_id_55" r="0.777" stroke="#25408F" stroke-width="0.75" />
			</g>
		</g>
		<g id="n_id_56">
			<path d="M137.658,275.124c0,0.646-0.524,1.17-1.17,1.17h-14.16c-0.646,0-1.17-0.524-1.17-1.17     v-5.16c0-0.646,0.524-1.17,1.17-1.17h14.16c0.646,0,1.17,0.524,1.17,1.17V275.124z" fill="none" id="n_id_57" stroke="#25408F" />
			<path d="M126.248,268.791c-1.777-1.378-2.965-3.885-2.965-6.747c0-4.349,2.742-7.875,6.125-7.875     s6.125,3.526,6.125,7.875c0,2.854-1.181,5.354-2.949,6.735L126.248,268.791z" fill="none" id="n_id_58" stroke="#25408F" />
		</g>
		<g id="n_id_59">
			<g id="n_id_60">
				<circle cx="104.821" cy="264.44" fill="none" id="n_id_61" r="1.466" stroke="#25408F" stroke-width="0.5" />
				<path d="M113.266,236.345v-6.343c0-4.654-3.773-8.427-8.427-8.427      s-8.427,3.773-8.427,8.427v6.343c-0.009,0.117-0.035,0.229-0.035,0.349v26.166c0,2.485,2.015,4.5,4.5,4.5h7.925      c2.485,0,4.5-2.015,4.5-4.5v-26.166C113.301,236.574,113.275,236.462,113.266,236.345z" fill="none" id="n_id_62" stroke="#25408F" stroke-width="0.75" />
			</g>
			<path d="M114.961,270.11c0,0,0.012-8.049,0-8.627s0.917-0.515,0.874-1.147s-0.043-30.766,0-31.397     s-0.885-0.569-0.874-1.147s-0.012-10.613-0.012-10.613l-22.159-0.013v61.754h22.171V270.11" fill="none" id="n_id_63" stroke="#25408F" />
			<rect fill="#25408F" height="8.811" id="n_id_64" stroke="#25408F" width="22.171" x="92.791" y="270.11" />
		</g>
		<g id="n_id_65">
			<g id="n_id_66">
				<g id="n_id_67">
					<path d="M165.033,266.172c0,3.381-2.741,6.121-6.121,6.121h-4.813       c-3.38,0-6.121-2.74-6.121-6.121l0,0c0-3.381,2.741-6.121,6.121-6.121h4.813C162.292,260.051,165.033,262.792,165.033,266.172       L165.033,266.172z" fill="none" id="n_id_68" stroke="#25408F" stroke-width="0.75" />
					<circle cx="156.505" cy="266.172" fill="none" id="n_id_69" r="1.466" stroke="#25408F" stroke-width="0.5" />
				</g>
				<rect fill="none" height="23.853" id="n_id_70" stroke="#25408F" width="25.657" x="143.676" y="254.246" />
			</g>
			<g id="n_id_71">
				<path d="M157.234,274.033c0,0.414-0.335,0.749-0.749,0.749l0,0      c-0.414,0-0.749-0.335-0.749-0.749v-2.991c0-0.414,0.335-0.749,0.749-0.749l0,0c0.414,0,0.749,0.335,0.749,0.749V274.033z" fill="#FFFFFF" id="n_id_72" stroke="#25408F" stroke-width="0.75" />
				<circle cx="159.026" cy="274.019" fill="#FFFFFF" id="n_id_73" r="0.777" stroke="#25408F" stroke-width="0.75" />
				<circle cx="153.945" cy="274.019" fill="#FFFFFF" id="n_id_74" r="0.777" stroke="#25408F" stroke-width="0.75" />
			</g>
		</g>
		<g id="n_id_75">
			<g id="n_id_76">
				<rect fill="none" height="22.225" id="n_id_77" stroke="#25408F" stroke-width="0.75" width="24.828" x="377.37" y="200.226" />
				<rect fill="none" height="3.225" id="n_id_78" stroke="#25408F" stroke-width="0.75" width="24.828" x="377.37" y="200.226" />
				<circle cx="395.253" cy="217.179" fill="none" id="n_id_79" r="3.361" stroke="#25408F" stroke-width="0.75" />
				<circle cx="384.489" cy="217.179" fill="none" id="n_id_80" r="3.361" stroke="#25408F" stroke-width="0.75" />
				<circle cx="395.253" cy="208.179" fill="none" id="n_id_81" r="3.361" stroke="#25408F" stroke-width="0.75" />
				<circle cx="384.489" cy="208.179" fill="none" id="n_id_82" r="3.361" stroke="#25408F" stroke-width="0.75" />
			</g>
			<rect fill="none" height="27.86" id="n_id_83" stroke="#25408F" stroke-width="0.75" width="23.871" x="420.603" y="199.924" />
			<rect fill="none" height="21.265" id="n_id_84" stroke="#25408F" stroke-width="0.75" width="18.51" x="402.093" y="200.071" />
		</g>
		
			<line fill="none" id="n_id_85" stroke="#25408F" stroke-dasharray="3,3,3,3" stroke-width="0.75" x1="376.987" x2="444.083" y1="212.683" y2="212.683" />
		<g id="n_id_86">
			<g id="n_id_87">
				<g id="n_id_88">
					<path d="M409.708,271.769c0,1.243-1.008,2.25-2.25,2.25h-7.043       c-1.242,0-2.25-1.007-2.25-2.25v-11.193c0-1.243,1.008-2.25,2.25-2.25h7.043c1.242,0,2.25,1.007,2.25,2.25V271.769z" fill="none" id="n_id_89" stroke="#25408F" stroke-width="0.75" />
					<circle cx="403.936" cy="266.172" fill="none" id="n_id_90" r="1.595" stroke="#25408F" stroke-width="0.75" />
				</g>
				<g id="n_id_91">
					<path d="M398.165,271.769c0,1.243,1.008,2.25,2.25,2.25h7.043       c1.242,0,2.25-1.007,2.25-2.25v-11.193c0-1.243-1.008-2.25-2.25-2.25h-7.043c-1.242,0-2.25,1.007-2.25,2.25V271.769z" fill="none" id="n_id_92" stroke="#25408F" stroke-width="0.75" />
					<circle cx="403.936" cy="266.172" fill="none" id="n_id_93" r="1.595" stroke="#25408F" stroke-width="0.75" />
				</g>
				<g id="n_id_94">
					<path d="M409.624,271.769c0,1.243,1.008,2.25,2.25,2.25h7.043       c1.242,0,2.25-1.007,2.25-2.25v-11.193c0-1.243-1.008-2.25-2.25-2.25h-7.043c-1.242,0-2.25,1.007-2.25,2.25V271.769z" fill="none" id="n_id_95" stroke="#25408F" stroke-width="0.75" />
					<circle cx="415.395" cy="266.172" fill="none" id="n_id_96" r="1.595" stroke="#25408F" stroke-width="0.75" />
				</g>
				<g id="n_id_97">
					<path d="M410.394,275.853c0,0.414-0.334,0.749-0.748,0.749l0,0       c-0.414,0-0.748-0.335-0.748-0.749v-2.991c0-0.414,0.334-0.749,0.748-0.749l0,0c0.414,0,0.748,0.335,0.748,0.749V275.853z" fill="#FFFFFF" id="n_id_98" stroke="#25408F" stroke-width="0.75" />
					<circle cx="412.186" cy="275.839" fill="#FFFFFF" id="n_id_99" r="0.776" stroke="#25408F" stroke-width="0.75" />
					<circle cx="407.104" cy="275.839" fill="#FFFFFF" id="n_id_100" r="0.777" stroke="#25408F" stroke-width="0.75" />
				</g>
			</g>
			<rect fill="none" height="22.773" id="n_id_101" stroke="#25408F" stroke-width="0.75" width="70.012" x="375.286" y="256.172" />
			
				<line fill="none" id="n_id_102" stroke="#25408F" stroke-dasharray="3,3,3,3" stroke-width="0.75" x1="374.72" x2="444.815" y1="267.056" y2="267.056" />
		</g>
		<g id="n_id_103">
			<path d="M162.991,189.385c-12.771,0-23.125,10.354-23.125,23.125" fill="none" id="n_id_104" stroke="#25408F" stroke-width="0.5" />
			<rect fill="none" height="1.454" id="n_id_105" stroke="#25408F" width="23.115" x="139.876" y="211.056" />
		</g>
		<g id="n_id_106">
			<path d="M211.156,189.385c12.771,0,23.124,10.354,23.125,23.125" fill="none" id="n_id_107" stroke="#25408F" stroke-width="0.5" />
			<rect fill="none" height="1.454" id="n_id_108" stroke="#25408F" width="23.115" x="211.156" y="211.056" />
		</g>
		<g id="n_id_109">
			<path d="M169.526,245.51c-12.771,0-23.125-10.354-23.125-23.125" fill="none" id="n_id_110" stroke="#25408F" stroke-width="0.5" />
			<rect fill="none" height="1.454" id="n_id_111" stroke="#25408F" width="23.115" x="146.412" y="222.385" />
		</g>
		<g id="n_id_112">
			<path d="M446.587,196.401c-16.762,0-30.352-13.589-30.352-30.352" fill="none" id="n_id_113" stroke="#25408F" stroke-width="0.5" />
			<rect fill="none" height="1.908" id="n_id_114" stroke="#25408F" width="30.338" x="416.249" y="166.05" />
		</g>
		<g id="n_id_115">
			<path d="M400.919,48.886c-12.771,0-23.125-10.354-23.125-23.125" fill="none" id="n_id_116" stroke="#25408F" stroke-width="0.5" />
			<rect fill="none" height="1.454" id="n_id_117" stroke="#25408F" width="23.113" x="377.806" y="25.761" />
		</g>
		<g id="n_id_118">
			<path d="M430.734,222.971l-1.263-2.215h-0.952v2.215h-0.663v-5.245h1.639c1.071,0,1.839,0.384,1.839,1.471     c0,0.815-0.463,1.312-1.175,1.487l1.327,2.287H430.734z M428.52,220.212h0.88c0.815,0,1.271-0.336,1.271-1.016     c0-0.688-0.456-0.936-1.271-0.936h-0.88V220.212z" fill="#25408F" id="n_id_119" />
			<path d="M433.725,218.989c0.991,0,1.551,0.712,1.551,1.823c0,0.136-0.008,0.264-0.024,0.36h-2.622     c0.048,0.839,0.552,1.367,1.295,1.367c0.368,0,0.68-0.12,0.968-0.304l0.231,0.432c-0.336,0.216-0.751,0.4-1.279,0.4     c-1.039,0-1.862-0.76-1.862-2.031C431.981,219.765,432.837,218.989,433.725,218.989z M434.699,220.74     c0-0.792-0.352-1.231-0.959-1.231c-0.544,0-1.039,0.448-1.119,1.231H434.699z" fill="#25408F" id="n_id_120" />
			<path d="M437.896,217.813c-0.144-0.064-0.296-0.096-0.439-0.096c-0.368,0-0.544,0.256-0.544,0.751v0.616h0.824     v0.536h-0.824v3.35h-0.655v-3.35h-0.527v-0.496l0.527-0.04v-0.616c0-0.792,0.359-1.287,1.136-1.287     c0.239,0,0.472,0.056,0.647,0.128L437.896,217.813z" fill="#25408F" id="n_id_121" />
			<path d="M438.591,222.059c0.256,0,0.472,0.208,0.472,0.512c0,0.288-0.216,0.496-0.472,0.496     c-0.264,0-0.479-0.208-0.479-0.496C438.111,222.267,438.327,222.059,438.591,222.059z" fill="#25408F" id="n_id_122" />
		</g>
		<g id="n_id_123">
			<path d="M383.242,260.156h1.311c1.615,0,2.479,0.936,2.479,2.599c0,1.671-0.863,2.646-2.447,2.646h-1.342V260.156     z M384.506,264.857c1.223,0,1.838-0.775,1.838-2.103c0-1.319-0.615-2.055-1.838-2.055h-0.602v4.157H384.506z" fill="#25408F" id="n_id_124" />
			<path d="M387.502,260.156h0.688l0.553,2.854c0.096,0.567,0.207,1.127,0.305,1.695h0.031     c0.119-0.567,0.248-1.135,0.367-1.695l0.729-2.854h0.607l0.727,2.854c0.129,0.552,0.256,1.127,0.385,1.695h0.031     c0.096-0.567,0.193-1.135,0.297-1.695l0.551-2.854h0.641l-1.088,5.245h-0.799l-0.793-3.158c-0.096-0.408-0.176-0.784-0.256-1.191     h-0.031c-0.08,0.408-0.176,0.784-0.264,1.191l-0.775,3.158h-0.793L387.502,260.156z" fill="#25408F" id="n_id_125" />
		</g>
		<g id="n_id_126">
			<polyline fill="none" id="n_id_127" points="163.694,129.639 172.694,138.889 163.694,148.306    " stroke="#25408F" stroke-width="0.75" />
			<polyline fill="none" id="n_id_128" points="163.694,178.973 172.694,169.723 163.694,160.306    " stroke="#25408F" stroke-width="0.75" />
			
				<line fill="none" id="n_id_129" stroke="#25408F" stroke-dasharray="3,3,3,3" stroke-width="0.75" x1="152.574" x2="152.574" y1="127.556" y2="181.056" />
			<g id="n_id_130">
				<path d="M161.086,147.411c0,0.631-0.304,1.127-0.647,1.431l-0.424-0.376c0.296-0.271,0.488-0.607,0.488-1.047      c0-1-0.815-1.655-2.119-1.655c-1.319,0-2.151,0.632-2.151,1.623c0,0.504,0.208,0.871,0.583,1.207l-0.408,0.376      c-0.479-0.416-0.759-0.928-0.759-1.599c0-1.319,1.007-2.295,2.718-2.295C160.055,145.076,161.086,146.067,161.086,147.411z" fill="#25408F" id="n_id_131" />
				<path d="M161.438,149.757v0.656h-4.958c-0.208,0-0.288,0.088-0.288,0.184c0,0.04,0,0.072,0.016,0.144      l-0.496,0.088c-0.04-0.088-0.063-0.199-0.063-0.375c0-0.496,0.312-0.696,0.879-0.696H161.438z" fill="#25408F" id="n_id_132" />
				<path d="M159.727,153.151c0,0.951-0.744,1.799-2.047,1.799c-1.288,0-2.031-0.848-2.031-1.799      s0.743-1.799,2.031-1.799C158.983,151.352,159.727,152.2,159.727,153.151z M156.193,153.151c0,0.672,0.6,1.119,1.487,1.119      c0.896,0,1.503-0.447,1.503-1.119c0-0.664-0.607-1.119-1.503-1.119C156.792,152.032,156.193,152.487,156.193,153.151z" fill="#25408F" id="n_id_133" />
				<path d="M156.625,155.761c-0.272,0.336-0.463,0.68-0.463,1.144c0,0.512,0.271,0.768,0.607,0.768      c0.4,0,0.576-0.464,0.735-0.888c0.2-0.552,0.464-1.159,1.12-1.159c0.624,0,1.104,0.495,1.104,1.335      c0,0.487-0.2,0.911-0.44,1.207l-0.416-0.312c0.2-0.264,0.344-0.544,0.344-0.888c0-0.487-0.264-0.711-0.56-0.711      c-0.368,0-0.503,0.423-0.671,0.863c-0.208,0.56-0.44,1.184-1.175,1.184c-0.632,0-1.159-0.504-1.159-1.424      c0-0.552,0.231-1.079,0.536-1.447L156.625,155.761z" fill="#25408F" id="n_id_134" />
				<path d="M159.727,160.625c0,0.992-0.712,1.552-1.823,1.552c-0.136,0-0.264-0.008-0.36-0.024v-2.622      c-0.839,0.048-1.367,0.552-1.367,1.295c0,0.368,0.12,0.68,0.304,0.968l-0.432,0.231c-0.216-0.336-0.399-0.751-0.399-1.279      c0-1.039,0.759-1.862,2.031-1.862C158.951,158.883,159.727,159.739,159.727,160.625z M157.976,161.601      c0.792,0,1.231-0.352,1.231-0.959c0-0.544-0.448-1.04-1.231-1.119V161.601z" fill="#25408F" id="n_id_135" />
				<path d="M159.095,163.18v-0.576h0.496l0.04,0.608l1.087,0.08v0.552h-1.087v1.047h-0.536v-1.047h-2.159      c-0.48,0-0.751,0.151-0.751,0.6c0,0.136,0.056,0.312,0.104,0.439l-0.496,0.128c-0.072-0.216-0.144-0.479-0.144-0.72      c0-0.831,0.527-1.111,1.295-1.111H159.095z" fill="#25408F" id="n_id_136" />
			</g>
		</g>
		<g id="n_id_137">
			<polyline fill="none" id="n_id_138" points="141.102,125.633 132.102,116.383 141.102,106.966    " stroke="#25408F" stroke-width="0.75" />
			<polyline fill="none" id="n_id_139" points="141.102,74.299 132.102,83.549 141.102,92.966    " stroke="#25408F" stroke-width="0.75" />
			
				<line fill="none" id="n_id_140" stroke="#25408F" stroke-dasharray="3,3,3,3" stroke-width="0.75" x1="152.222" x2="152.222" y1="126.716" y2="73.216" />
			<g id="n_id_141">
				<path d="M143.729,107.86c0-0.631,0.304-1.127,0.647-1.431l0.424,0.376c-0.296,0.271-0.488,0.607-0.488,1.047      c0,1,0.815,1.655,2.119,1.655c1.319,0,2.151-0.632,2.151-1.623c0-0.504-0.208-0.871-0.583-1.207l0.408-0.376      c0.479,0.416,0.759,0.928,0.759,1.599c0,1.319-1.007,2.295-2.718,2.295C144.761,110.195,143.729,109.204,143.729,107.86z" fill="#25408F" id="n_id_142" />
				<path d="M143.377,105.513v-0.656h4.958c0.208,0,0.288-0.088,0.288-0.184c0-0.04,0-0.072-0.016-0.144l0.496-0.088      c0.04,0.088,0.063,0.199,0.063,0.375c0,0.496-0.312,0.696-0.879,0.696H143.377z" fill="#25408F" id="n_id_143" />
				<path d="M145.088,102.12c0-0.951,0.744-1.799,2.047-1.799c1.288,0,2.031,0.848,2.031,1.799      s-0.743,1.799-2.031,1.799C145.832,103.918,145.088,103.071,145.088,102.12z M148.623,102.12c0-0.672-0.6-1.119-1.487-1.119      c-0.896,0-1.503,0.447-1.503,1.119c0,0.664,0.607,1.119,1.503,1.119C148.023,103.239,148.623,102.784,148.623,102.12z" fill="#25408F" id="n_id_144" />
				<path d="M148.191,99.509c0.272-0.336,0.463-0.68,0.463-1.144c0-0.512-0.271-0.768-0.607-0.768      c-0.4,0-0.576,0.464-0.735,0.888c-0.2,0.552-0.464,1.159-1.12,1.159c-0.624,0-1.104-0.495-1.104-1.335      c0-0.487,0.2-0.911,0.44-1.207l0.416,0.312c-0.2,0.264-0.344,0.544-0.344,0.888c0,0.487,0.264,0.711,0.56,0.711      c0.368,0,0.503-0.423,0.671-0.863c0.208-0.56,0.44-1.184,1.175-1.184c0.632,0,1.159,0.504,1.159,1.424      c0,0.552-0.231,1.079-0.536,1.447L148.191,99.509z" fill="#25408F" id="n_id_145" />
				<path d="M145.088,94.645c0-0.992,0.712-1.552,1.823-1.552c0.136,0,0.264,0.008,0.36,0.024v2.622      c0.839-0.048,1.367-0.552,1.367-1.295c0-0.368-0.12-0.68-0.304-0.968l0.432-0.231c0.216,0.336,0.399,0.751,0.399,1.279      c0,1.039-0.759,1.862-2.031,1.862C145.864,96.387,145.088,95.532,145.088,94.645z M146.839,93.669      c-0.792,0-1.231,0.352-1.231,0.959c0,0.544,0.448,1.04,1.231,1.119V93.669z" fill="#25408F" id="n_id_146" />
				<path d="M145.72,92.09v0.576h-0.496l-0.04-0.608l-1.087-0.08v-0.552h1.087v-1.047h0.536v1.047h2.159      c0.48,0,0.751-0.151,0.751-0.6c0-0.136-0.056-0.312-0.104-0.439l0.496-0.128c0.072,0.216,0.144,0.479,0.144,0.72      c0,0.831-0.527,1.111-1.295,1.111H145.72z" fill="#25408F" id="n_id_147" />
			</g>
		</g>
		<g id="n_id_148">
			<polyline fill="none" id="n_id_149" points="440.313,74.515 432.593,82.026 424.692,74.475    " stroke="#25408F" stroke-width="0.75" />
			<polyline fill="none" id="n_id_150" points="403.063,74.538 410.759,82.026 418.472,74.656    " stroke="#25408F" stroke-width="0.75" />
			
				<line fill="none" id="n_id_151" stroke="#25408F" stroke-dasharray="3,3,3,3" stroke-width="0.75" x1="445.927" x2="402.427" y1="61.907" y2="61.907" />
			<g id="n_id_152">
				<path d="M417.105,64.722c0.631,0,1.127,0.304,1.432,0.647l-0.377,0.424c-0.271-0.296-0.607-0.488-1.047-0.488      c-1,0-1.654,0.815-1.654,2.119c0,1.319,0.631,2.151,1.623,2.151c0.504,0,0.871-0.208,1.207-0.583l0.375,0.408      c-0.416,0.479-0.928,0.759-1.598,0.759c-1.32,0-2.295-1.007-2.295-2.718C414.771,65.753,415.762,64.722,417.105,64.722z" fill="#25408F" id="n_id_153" />
				<path d="M419.453,64.37h0.656v4.958c0,0.208,0.088,0.288,0.184,0.288c0.039,0,0.072,0,0.143-0.016l0.088,0.496      c-0.088,0.04-0.199,0.063-0.375,0.063c-0.496,0-0.695-0.312-0.695-0.879V64.37z" fill="#25408F" id="n_id_154" />
				<path d="M422.846,66.081c0.951,0,1.799,0.744,1.799,2.047c0,1.288-0.848,2.031-1.799,2.031      s-1.799-0.743-1.799-2.031C421.047,66.825,421.895,66.081,422.846,66.081z M422.846,69.615c0.672,0,1.119-0.6,1.119-1.487      c0-0.896-0.447-1.503-1.119-1.503c-0.664,0-1.119,0.607-1.119,1.503C421.727,69.016,422.182,69.615,422.846,69.615z" fill="#25408F" id="n_id_155" />
				<path d="M425.457,69.184c0.336,0.272,0.68,0.463,1.143,0.463c0.512,0,0.768-0.271,0.768-0.607      c0-0.4-0.463-0.576-0.887-0.735c-0.553-0.2-1.16-0.464-1.16-1.12c0-0.624,0.496-1.104,1.336-1.104c0.486,0,0.91,0.2,1.207,0.44      l-0.312,0.416c-0.264-0.2-0.543-0.344-0.887-0.344c-0.488,0-0.711,0.264-0.711,0.56c0,0.368,0.422,0.503,0.863,0.671      C427.375,68.032,428,68.264,428,69c0,0.632-0.504,1.159-1.424,1.159c-0.553,0-1.08-0.231-1.447-0.536L425.457,69.184z" fill="#25408F" id="n_id_156" />
				<path d="M430.32,66.081c0.992,0,1.553,0.712,1.553,1.823c0,0.136-0.008,0.264-0.025,0.36h-2.621      c0.047,0.839,0.551,1.367,1.295,1.367c0.367,0,0.68-0.12,0.967-0.304l0.232,0.432c-0.336,0.216-0.752,0.399-1.279,0.399      c-1.039,0-1.863-0.759-1.863-2.031C428.578,66.857,429.434,66.081,430.32,66.081z M431.297,67.832      c0-0.792-0.352-1.231-0.959-1.231c-0.545,0-1.041,0.448-1.119,1.231H431.297z" fill="#25408F" id="n_id_157" />
				<path d="M432.875,66.713h-0.576v-0.496l0.609-0.04l0.08-1.087h0.551v1.087h1.047v0.536h-1.047v2.159      c0,0.48,0.152,0.751,0.6,0.751c0.137,0,0.312-0.056,0.439-0.104l0.129,0.496c-0.217,0.072-0.48,0.144-0.721,0.144      c-0.83,0-1.111-0.527-1.111-1.295V66.713z" fill="#25408F" id="n_id_158" />
			</g>
		</g>
		<g id="n_id_159">
			<circle cx="235.797" cy="266.01" fill="none" id="n_id_160" r="8.521" stroke="#25408F" stroke-width="0.75" />
			<g id="n_id_161">
				<path d="M230.012,264.281h0.688l0.552,2.854c0.096,0.567,0.208,1.127,0.304,1.695h0.032      c0.12-0.567,0.248-1.135,0.368-1.695l0.728-2.854h0.607l0.728,2.854c0.128,0.552,0.256,1.127,0.384,1.695h0.032      c0.096-0.567,0.192-1.135,0.296-1.695l0.552-2.854h0.64l-1.087,5.245h-0.8l-0.792-3.158c-0.096-0.408-0.176-0.784-0.256-1.191      h-0.032c-0.08,0.408-0.176,0.784-0.264,1.191l-0.775,3.158h-0.792L230.012,264.281z" fill="#25408F" id="n_id_162" />
				<path d="M236.739,264.281h0.664v2.199h2.438v-2.199h0.672v5.245h-0.672v-2.471h-2.438v2.471h-0.664V264.281z" fill="#25408F" id="n_id_163" />
			</g>
		</g>
		<g id="n_id_164">
			<polyline fill="none" id="n_id_165" points="171.745,251.048 179.034,244.046 185.46,250.856    " stroke="#25408F" />
			<line fill="none" id="n_id_166" stroke="#25408F" x1="171.708" x2="194.092" y1="264.283" y2="264.283" />
			<g id="n_id_167">
				<path d="M173.563,266.903h0.664v4.677h2.294v0.568h-2.958V266.903z" fill="#25408F" id="n_id_168" />
				<path d="M177.164,267.039c0-0.256,0.2-0.424,0.456-0.424s0.456,0.168,0.456,0.424c0,0.248-0.2,0.424-0.456,0.424      S177.164,267.287,177.164,267.039z M177.284,268.262h0.655v3.886h-0.655V268.262z" fill="#25408F" id="n_id_169" />
				<path d="M179.09,268.262h0.543l0.056,0.56h0.024c0.368-0.368,0.768-0.656,1.303-0.656      c0.815,0,1.184,0.528,1.184,1.519v2.463h-0.656v-2.375c0-0.728-0.224-1.04-0.736-1.04c-0.399,0-0.671,0.208-1.063,0.6v2.814      h-0.655V268.262z" fill="#25408F" id="n_id_170" />
				<path d="M184.829,268.166c0.991,0,1.551,0.712,1.551,1.823c0,0.136-0.008,0.264-0.024,0.36h-2.623      c0.048,0.839,0.551,1.367,1.295,1.367c0.368,0,0.68-0.12,0.968-0.304l0.232,0.432c-0.336,0.216-0.752,0.399-1.279,0.399      c-1.04,0-1.863-0.759-1.863-2.031C183.085,268.942,183.941,268.166,184.829,268.166z M185.804,269.917      c0-0.792-0.352-1.231-0.959-1.231c-0.544,0-1.04,0.448-1.12,1.231H185.804z" fill="#25408F" id="n_id_171" />
				<path d="M187.269,268.262h0.543l0.056,0.56h0.024c0.368-0.368,0.768-0.656,1.303-0.656      c0.815,0,1.184,0.528,1.184,1.519v2.463h-0.656v-2.375c0-0.728-0.224-1.04-0.736-1.04c-0.399,0-0.671,0.208-1.063,0.6v2.814      h-0.656V268.262z" fill="#25408F" id="n_id_172" />
			</g>
		</g>
		<g id="n_id_173">
			<g id="n_id_174">
				<path d="M202.97,264.834h0.688l0.552,2.854c0.096,0.567,0.208,1.127,0.304,1.695h0.032      c0.12-0.567,0.248-1.135,0.368-1.695l0.728-2.854h0.607l0.728,2.854c0.128,0.552,0.256,1.127,0.384,1.695h0.032      c0.096-0.567,0.192-1.135,0.296-1.695l0.552-2.854h0.64l-1.087,5.245h-0.8l-0.792-3.158c-0.096-0.408-0.176-0.784-0.256-1.191      h-0.032c-0.08,0.408-0.176,0.784-0.264,1.191l-0.775,3.158h-0.792L202.97,264.834z" fill="#25408F" id="n_id_175" />
				<path d="M209.489,264.403h0.479l-2.135,6.956h-0.479L209.489,264.403z" fill="#25408F" id="n_id_176" />
				<path d="M210.674,264.834h1.311c1.615,0,2.479,0.936,2.479,2.599c0,1.671-0.863,2.646-2.446,2.646h-1.343      V264.834z M211.937,269.536c1.223,0,1.839-0.775,1.839-2.103c0-1.319-0.616-2.055-1.839-2.055h-0.6v4.157H211.937z" fill="#25408F" id="n_id_177" />
			</g>
			<line fill="none" id="n_id_178" stroke="#25408F" x1="194.8" x2="222.519" y1="253.733" y2="253.733" />
			<polyline fill="none" id="n_id_179" points="195.339,251.335 204.259,242.032 213.179,251.335    " stroke="#25408F" />
		</g>
		<rect fill="none" height="27.448" id="n_id_180" stroke="#25408F" width="22.214" x="260.521" y="251.474" />
		<g id="n_id_181">
			<path d="M263.535,264.822h3.022v0.56h-2.359v1.775h1.999v0.56h-1.999v2.351h-0.664V264.822z" fill="#25408F" id="n_id_182" />
			<path d="M267.118,266.182h0.664v2.375c0,0.728,0.216,1.04,0.728,1.04c0.4,0,0.68-0.2,1.048-0.656v-2.758h0.655     v3.886h-0.543l-0.056-0.608h-0.024c-0.36,0.424-0.744,0.704-1.279,0.704c-0.824,0-1.191-0.528-1.191-1.52V266.182z" fill="#25408F" id="n_id_183" />
			<path d="M271.372,266.182h0.544l0.056,0.704h0.024c0.264-0.488,0.663-0.8,1.104-0.8     c0.168,0,0.287,0.024,0.415,0.08l-0.128,0.576c-0.128-0.04-0.216-0.064-0.375-0.064c-0.328,0-0.721,0.24-0.984,0.896v2.495     h-0.655V266.182z" fill="#25408F" id="n_id_184" />
			<path d="M274.127,266.182h0.544l0.056,0.56h0.024c0.368-0.368,0.768-0.656,1.304-0.656     c0.814,0,1.184,0.528,1.184,1.52v2.462h-0.656v-2.375c0-0.728-0.225-1.04-0.736-1.04c-0.398,0-0.671,0.208-1.062,0.6v2.814     h-0.656V266.182z" fill="#25408F" id="n_id_185" />
			<path d="M278.764,269.156c0.256,0,0.472,0.208,0.472,0.512c0,0.288-0.216,0.496-0.472,0.496     c-0.264,0-0.48-0.208-0.48-0.496C278.283,269.364,278.5,269.156,278.764,269.156z" fill="#25408F" id="n_id_186" />
		</g>
		<polyline fill="none" id="n_id_187" points="231.687,251.471 240.606,242.168 249.526,251.471   " stroke="#25408F" />
		<polyline fill="none" id="n_id_188" points="375.093,222.356 375.093,198.701 446.3,198.659 446.3,278.914     15.575,278.92 15.067,72 324.712,72   " stroke="#25408F" stroke-width="4" />
		<line fill="none" id="n_id_189" stroke="#25408F" stroke-width="4" x1="375.093" x2="375.286" y1="255.056" y2="278.946" />
		<polyline fill="none" id="n_id_190" points="282.926,71.845 282.693,217.179 211.049,217.179     210.991,212.615   " stroke="#25408F" stroke-width="4" />
		<polyline fill="none" id="n_id_191" points="211.156,189.385 211.049,181.085 140.49,181.308     140.722,127.505 164.146,127.312 164.146,72   " stroke="#25408F" stroke-width="4" />
		<line fill="none" id="n_id_192" stroke="#25408F" stroke-width="4" x1="15.575" x2="64.208" y1="217.166" y2="217.022" />
		<polyline fill="none" id="n_id_193" points="92.791,278.92 92.791,217.166 170.586,217.179 170.586,223.336       " stroke="#25408F" stroke-width="4" />
		<line fill="none" id="n_id_194" stroke="#25408F" stroke-width="4" x1="92.791" x2="87.442" y1="217.166" y2="217.179" />
		<line fill="none" id="n_id_195" stroke="#25408F" stroke-width="4" x1="164.146" x2="164.146" y1="181.085" y2="189.681" />
		<line fill="none" id="n_id_196" stroke="#25408F" stroke-width="4" x1="164.146" x2="164.146" y1="217.179" y2="212.683" />
		<polyline fill="none" id="n_id_197" points="301.034,72.003 301.034,20.571 401.007,20.571 401.007,10.988     446.3,10.988 446.462,165.603   " stroke="#25408F" stroke-width="4" />
		<line fill="none" id="n_id_198" stroke="#25408F" stroke-width="4" x1="446.3" x2="438.882" y1="72" y2="72" />
		<line fill="none" id="n_id_199" stroke="#25408F" stroke-width="4" x1="446.677" x2="401.005" y1="52.399" y2="52.399" />
		<polyline fill="none" id="n_id_200" points="401.007,48.914 401.007,72 375.286,72   " stroke="#25408F" stroke-width="4" />
		<line fill="none" id="n_id_201" stroke="#25408F" stroke-width="4" x1="401.007" x2="401.005" y1="25.584" y2="18.577" />
		<line fill="none" id="n_id_202" stroke="#25408F" stroke-width="4" x1="170.48" x2="170.48" y1="244.903" y2="278.766" />
		<line fill="none" id="n_id_203" stroke="#25408F" stroke-width="4" x1="194.667" x2="194.8" y1="279.02" y2="250.733" />
		<polyline fill="none" id="n_id_204" points="222.674,279.02 222.674,251.523 232.057,251.269   " stroke="#25408F" stroke-width="4" />
		<polyline fill="none" id="n_id_205" points="282.734,278.921 282.734,251.474 259.336,251.269   " stroke="#25408F" stroke-width="4" />
		<g id="n_id_206">
			<rect fill="#FFFFFF" height="7.327" id="n_id_207" stroke="#25408F" width="27.122" x="80.167" y="68.336" />
			<line fill="none" id="n_id_208" stroke="#25408F" x1="80.167" x2="107.237" y1="72" y2="72" />
		</g>
		<g id="n_id_209">
			<rect fill="#FFFFFF" height="7.327" id="n_id_210" stroke="#25408F" width="27.122" x="205.199" y="68.295" />
			<line fill="none" id="n_id_211" stroke="#25408F" x1="205.199" x2="232.269" y1="71.958" y2="71.958" />
		</g>
		<g id="n_id_212">
			<line fill="none" id="n_id_213" stroke="#25408F" x1="210.195" x2="237.266" y1="71.606" y2="71.606" />
		</g>
		<polyline fill="none" id="n_id_214" points="324.712,73.24 349.681,73.24 349.681,70.708 375.286,70.636   " stroke="#25408F" />
		<g id="n_id_215">
			<path d="M30.293,126.432h1.373l1.779,4.931l0.672,1.877h0.056l0.645-1.877l1.765-4.931h1.373v9.189h-1.106v-5.057     c0-0.812,0.084-1.905,0.154-2.718h-0.056l-0.742,2.045l-1.765,4.805h-0.658l-1.779-4.805l-0.729-2.045h-0.056     c0.056,0.812,0.154,1.905,0.154,2.718v5.057h-1.079V126.432z" fill="#25408F" id="n_id_216" />
			<path d="M43.643,131.307c0-0.868-0.294-1.709-1.4-1.709c-0.799,0-1.499,0.364-2.031,0.729l-0.462-0.798     c0.63-0.406,1.583-0.882,2.676-0.882c1.667,0,2.367,1.106,2.367,2.801v4.174h-0.953l-0.098-0.812h-0.028     c-0.658,0.532-1.415,0.98-2.255,0.98c-1.148,0-2.003-0.714-2.003-1.933C39.455,132.372,40.743,131.629,43.643,131.307z      M41.78,134.865c0.658,0,1.205-0.322,1.863-0.911v-1.891c-2.283,0.28-3.053,0.841-3.053,1.709     C40.589,134.542,41.107,134.865,41.78,134.865z" fill="#25408F" id="n_id_217" />
			<path d="M46.352,134.08c0.588,0.477,1.191,0.812,2.003,0.812c0.896,0,1.345-0.476,1.345-1.064     c0-0.7-0.812-1.008-1.555-1.289c-0.966-0.35-2.031-0.812-2.031-1.961c0-1.093,0.868-1.933,2.339-1.933     c0.854,0,1.597,0.35,2.115,0.77l-0.546,0.729c-0.462-0.35-0.953-0.602-1.555-0.602c-0.854,0-1.247,0.462-1.247,0.98     c0,0.644,0.742,0.882,1.513,1.176c0.98,0.364,2.073,0.771,2.073,2.06c0,1.106-0.882,2.031-2.493,2.031     c-0.967,0-1.891-0.406-2.536-0.938L46.352,134.08z" fill="#25408F" id="n_id_218" />
			<path d="M52.362,129.752h-1.009v-0.869l1.065-0.07l0.14-1.905h0.966v1.905h1.835v0.938h-1.835v3.782     c0,0.84,0.266,1.316,1.051,1.316c0.238,0,0.546-0.098,0.77-0.182l0.224,0.869c-0.378,0.126-0.84,0.252-1.26,0.252     c-1.457,0-1.947-0.924-1.947-2.269V129.752z" fill="#25408F" id="n_id_219" />
			<path d="M58.877,128.646c1.737,0,2.717,1.247,2.717,3.193c0,0.238-0.014,0.462-0.042,0.63h-4.595     c0.084,1.471,0.967,2.396,2.27,2.396c0.644,0,1.19-0.21,1.695-0.532l0.406,0.756c-0.588,0.378-1.317,0.7-2.241,0.7     c-1.821,0-3.264-1.331-3.264-3.558C55.823,130.004,57.322,128.646,58.877,128.646z M60.585,131.713     c0-1.387-0.616-2.157-1.681-2.157c-0.953,0-1.821,0.785-1.961,2.157H60.585z" fill="#25408F" id="n_id_220" />
			<path d="M62.896,128.813h0.953l0.098,1.232h0.042c0.462-0.854,1.163-1.4,1.933-1.4     c0.294,0,0.504,0.042,0.729,0.14l-0.224,1.008c-0.224-0.07-0.378-0.112-0.659-0.112c-0.574,0-1.261,0.42-1.723,1.568v4.371     h-1.149V128.813z" fill="#25408F" id="n_id_221" />
			<path d="M69.994,126.432h2.731c1.863,0,3.152,0.63,3.152,2.241c0,0.911-0.519,1.723-1.597,2.003v0.056     c1.345,0.21,2.129,0.938,2.129,2.199c0,1.807-1.429,2.689-3.488,2.689h-2.928V126.432z M72.516,130.354     c1.569,0,2.213-0.56,2.213-1.583c0-0.995-0.729-1.415-2.157-1.415h-1.415v2.998H72.516z M72.753,134.697     c1.583,0,2.507-0.575,2.507-1.821c0-1.134-0.896-1.653-2.507-1.653h-1.597v3.474H72.753z" fill="#25408F" id="n_id_222" />
			<path d="M80.379,128.646c1.737,0,2.717,1.247,2.717,3.193c0,0.238-0.014,0.462-0.042,0.63h-4.595     c0.084,1.471,0.967,2.396,2.27,2.396c0.644,0,1.19-0.21,1.695-0.532l0.406,0.756c-0.588,0.378-1.317,0.7-2.241,0.7     c-1.821,0-3.264-1.331-3.264-3.558C77.325,130.004,78.824,128.646,80.379,128.646z M82.087,131.713     c0-1.387-0.616-2.157-1.681-2.157c-0.953,0-1.821,0.785-1.961,2.157H82.087z" fill="#25408F" id="n_id_223" />
			<path d="M86.926,128.646c0.785,0,1.303,0.294,1.905,0.784l-0.056-1.163v-2.619h1.163v9.973h-0.953l-0.098-0.798     h-0.042c-0.533,0.518-1.261,0.966-2.06,0.966c-1.708,0-2.815-1.289-2.815-3.558C83.971,130.018,85.372,128.646,86.926,128.646z      M87.039,134.823c0.63,0,1.177-0.308,1.737-0.938v-3.558c-0.574-0.518-1.093-0.714-1.653-0.714c-1.093,0-1.961,1.051-1.961,2.605     C85.162,133.842,85.848,134.823,87.039,134.823z" fill="#25408F" id="n_id_224" />
			<path d="M91.705,128.813h0.953l0.098,1.232h0.042c0.462-0.854,1.163-1.4,1.933-1.4     c0.294,0,0.504,0.042,0.729,0.14l-0.224,1.008c-0.224-0.07-0.378-0.112-0.659-0.112c-0.574,0-1.261,0.42-1.723,1.568v4.371     h-1.149V128.813z" fill="#25408F" id="n_id_225" />
			<path d="M98.779,128.646c1.667,0,3.152,1.303,3.152,3.586c0,2.255-1.485,3.558-3.152,3.558     c-1.667,0-3.151-1.303-3.151-3.558C95.627,129.948,97.112,128.646,98.779,128.646z M98.779,134.836     c1.177,0,1.961-1.05,1.961-2.605c0-1.569-0.785-2.634-1.961-2.634c-1.163,0-1.961,1.065-1.961,2.634     C96.818,133.786,97.616,134.836,98.779,134.836z" fill="#25408F" id="n_id_226" />
			<path d="M106.005,128.646c1.667,0,3.152,1.303,3.152,3.586c0,2.255-1.485,3.558-3.152,3.558     c-1.667,0-3.151-1.303-3.151-3.558C102.854,129.948,104.339,128.646,106.005,128.646z M106.005,134.836     c1.177,0,1.961-1.05,1.961-2.605c0-1.569-0.785-2.634-1.961-2.634c-1.163,0-1.961,1.065-1.961,2.634     C104.044,133.786,104.843,134.836,106.005,134.836z" fill="#25408F" id="n_id_227" />
			<path d="M110.513,128.813h0.953l0.098,0.98h0.042c0.588-0.645,1.303-1.148,2.115-1.148     c1.037,0,1.597,0.49,1.877,1.303c0.714-0.771,1.415-1.303,2.241-1.303c1.401,0,2.073,0.924,2.073,2.661v4.314h-1.149v-4.16     c0-1.275-0.406-1.821-1.261-1.821c-0.532,0-1.078,0.351-1.708,1.051v4.931h-1.149v-4.16c0-1.275-0.406-1.821-1.274-1.821     c-0.504,0-1.079,0.351-1.709,1.051v4.931h-1.149V128.813z" fill="#25408F" id="n_id_228" />
			<path d="M39.096,150.668h2.045v-6.583h-1.625v-0.742c0.812-0.14,1.401-0.364,1.891-0.659h0.882v7.984h1.849v0.953     h-5.043V150.668z" fill="#25408F" id="n_id_229" />
			<path d="M49.775,144.183c-0.364-0.434-0.91-0.7-1.471-0.7c-1.247,0-2.297,0.966-2.353,3.796     c0.56-0.687,1.358-1.121,2.087-1.121c1.541,0,2.549,0.924,2.549,2.759c0,1.709-1.205,2.872-2.647,2.872     c-1.751,0-3.082-1.429-3.082-4.3c0-3.586,1.625-4.973,3.404-4.973c0.966,0,1.653,0.406,2.157,0.953L49.775,144.183z      M49.495,148.917c0-1.163-0.546-1.891-1.653-1.891c-0.56,0-1.26,0.336-1.863,1.176c0.14,1.737,0.827,2.676,1.961,2.676     C48.823,150.879,49.495,150.094,49.495,148.917z" fill="#25408F" id="n_id_230" />
			<path d="M51.387,145.052c0.701-0.462,1.051-0.939,1.051-1.751c-0.042,0.014-0.07,0.014-0.112,0.014     c-0.392,0-0.742-0.252-0.742-0.7c0-0.49,0.308-0.785,0.742-0.785c0.546,0,0.883,0.462,0.883,1.275     c0,1.121-0.532,1.919-1.499,2.479L51.387,145.052z" fill="#25408F" id="n_id_231" />
			<path d="M56.734,147.125c0-2.998,1.079-4.608,2.872-4.608c1.779,0,2.857,1.611,2.857,4.608     s-1.079,4.665-2.857,4.665C57.813,151.789,56.734,150.122,56.734,147.125z M61.343,147.125c0-2.619-0.7-3.684-1.737-3.684     c-1.05,0-1.751,1.064-1.751,3.684c0,2.62,0.701,3.74,1.751,3.74C60.643,150.865,61.343,149.744,61.343,147.125z" fill="#25408F" id="n_id_232" />
			<path d="M63.479,145.052c0.701-0.462,1.051-0.939,1.051-1.751c-0.042,0.014-0.07,0.014-0.112,0.014     c-0.392,0-0.742-0.252-0.742-0.7c0-0.49,0.308-0.785,0.742-0.785c0.546,0,0.883,0.462,0.883,1.275     c0,1.121-0.532,1.919-1.499,2.479L63.479,145.052z M65.944,145.052c0.701-0.462,1.065-0.939,1.065-1.751     c-0.042,0.014-0.084,0.014-0.126,0.014c-0.392,0-0.742-0.252-0.742-0.7c0-0.49,0.308-0.785,0.742-0.785     c0.561,0,0.883,0.462,0.883,1.275c0,1.121-0.519,1.919-1.485,2.479L65.944,145.052z" fill="#25408F" id="n_id_233" />
			<path d="M73.111,148.063l-2.059-3.25h1.247l0.911,1.499c0.21,0.364,0.434,0.757,0.672,1.135h0.056     c0.196-0.378,0.406-0.771,0.617-1.135l0.826-1.499h1.205l-2.059,3.376l2.213,3.432h-1.247l-0.995-1.583     c-0.238-0.406-0.49-0.826-0.742-1.218H73.7c-0.238,0.392-0.462,0.798-0.687,1.218l-0.924,1.583h-1.205L73.111,148.063z" fill="#25408F" id="n_id_234" />
			<path d="M80.167,150.668h2.045v-6.583h-1.625v-0.742c0.812-0.14,1.401-0.364,1.891-0.659h0.882v7.984h1.849v0.953     h-5.043V150.668z" fill="#25408F" id="n_id_235" />
			<path d="M91.784,149.156h-1.218v2.465h-1.093v-2.465h-4.02v-0.756l3.824-5.715h1.289v5.547h1.218V149.156z      M89.473,148.231v-2.592c0-0.476,0.042-1.247,0.07-1.723h-0.056c-0.224,0.434-0.477,0.826-0.729,1.261l-2.087,3.054H89.473z" fill="#25408F" id="n_id_236" />
			<path d="M92.364,145.052c0.701-0.462,1.051-0.939,1.051-1.751c-0.042,0.014-0.07,0.014-0.112,0.014     c-0.392,0-0.742-0.252-0.742-0.7c0-0.49,0.308-0.785,0.742-0.785c0.546,0,0.883,0.462,0.883,1.275     c0,1.121-0.532,1.919-1.499,2.479L92.364,145.052z" fill="#25408F" id="n_id_237" />
			<path d="M97.711,147.125c0-2.998,1.079-4.608,2.872-4.608c1.779,0,2.857,1.611,2.857,4.608     s-1.078,4.665-2.857,4.665C98.79,151.789,97.711,150.122,97.711,147.125z M102.32,147.125c0-2.619-0.7-3.684-1.737-3.684     c-1.05,0-1.751,1.064-1.751,3.684c0,2.62,0.701,3.74,1.751,3.74C101.62,150.865,102.32,149.744,102.32,147.125z" fill="#25408F" id="n_id_238" />
			<path d="M104.455,145.052c0.701-0.462,1.051-0.939,1.051-1.751c-0.042,0.014-0.07,0.014-0.112,0.014     c-0.392,0-0.742-0.252-0.742-0.7c0-0.49,0.308-0.785,0.742-0.785c0.546,0,0.883,0.462,0.883,1.275     c0,1.121-0.532,1.919-1.499,2.479L104.455,145.052z M106.92,145.052c0.701-0.462,1.065-0.939,1.065-1.751     c-0.042,0.014-0.084,0.014-0.126,0.014c-0.392,0-0.742-0.252-0.742-0.7c0-0.49,0.308-0.785,0.742-0.785     c0.561,0,0.883,0.462,0.883,1.275c0,1.121-0.519,1.919-1.485,2.479L106.92,145.052z" fill="#25408F" id="n_id_239" />
		</g>
		<g id="n_id_240">
			<path d="M195.404,116.284h2.731c1.863,0,3.152,0.63,3.152,2.241c0,0.911-0.519,1.723-1.597,2.003v0.056     c1.345,0.21,2.129,0.938,2.129,2.199c0,1.807-1.429,2.689-3.488,2.689h-2.928V116.284z M197.925,120.206     c1.569,0,2.213-0.56,2.213-1.583c0-0.995-0.729-1.415-2.157-1.415h-1.415v2.998H197.925z M198.163,124.548     c1.583,0,2.507-0.575,2.507-1.821c0-1.134-0.896-1.653-2.507-1.653h-1.597v3.474H198.163z" fill="#25408F" id="n_id_241" />
			<path d="M205.789,118.497c1.737,0,2.718,1.247,2.718,3.193c0,0.238-0.014,0.462-0.042,0.63h-4.595     c0.084,1.471,0.967,2.396,2.27,2.396c0.644,0,1.19-0.21,1.695-0.532l0.406,0.756c-0.588,0.378-1.317,0.7-2.241,0.7     c-1.821,0-3.264-1.331-3.264-3.558C202.735,119.855,204.234,118.497,205.789,118.497z M207.498,121.564     c0-1.387-0.616-2.157-1.681-2.157c-0.953,0-1.821,0.785-1.961,2.157H207.498z" fill="#25408F" id="n_id_242" />
			<path d="M212.336,118.497c0.785,0,1.303,0.294,1.905,0.784l-0.056-1.163V115.5h1.163v9.973h-0.953l-0.098-0.798     h-0.042c-0.533,0.518-1.261,0.966-2.059,0.966c-1.709,0-2.816-1.289-2.816-3.558C209.381,119.87,210.782,118.497,212.336,118.497     z M212.449,124.674c0.63,0,1.177-0.308,1.737-0.938v-3.558c-0.574-0.518-1.092-0.714-1.653-0.714     c-1.093,0-1.961,1.051-1.961,2.605C210.572,123.694,211.258,124.674,212.449,124.674z" fill="#25408F" id="n_id_243" />
			<path d="M217.115,118.665h0.953l0.098,1.232h0.042c0.462-0.854,1.163-1.4,1.933-1.4     c0.294,0,0.504,0.042,0.729,0.14l-0.224,1.008c-0.224-0.07-0.378-0.112-0.659-0.112c-0.574,0-1.261,0.42-1.723,1.568v4.371     h-1.149V118.665z" fill="#25408F" id="n_id_244" />
			<path d="M224.188,118.497c1.667,0,3.152,1.303,3.152,3.586c0,2.255-1.485,3.558-3.152,3.558     c-1.667,0-3.151-1.303-3.151-3.558C221.037,119.8,222.522,118.497,224.188,118.497z M224.188,124.688     c1.177,0,1.961-1.05,1.961-2.605c0-1.569-0.785-2.634-1.961-2.634c-1.163,0-1.961,1.065-1.961,2.634     C222.228,123.638,223.026,124.688,224.188,124.688z" fill="#25408F" id="n_id_245" />
			<path d="M231.416,118.497c1.667,0,3.152,1.303,3.152,3.586c0,2.255-1.485,3.558-3.152,3.558     s-3.151-1.303-3.151-3.558C228.264,119.8,229.749,118.497,231.416,118.497z M231.416,124.688c1.177,0,1.961-1.05,1.961-2.605     c0-1.569-0.785-2.634-1.961-2.634c-1.163,0-1.961,1.065-1.961,2.634C229.455,123.638,230.253,124.688,231.416,124.688z" fill="#25408F" id="n_id_246" />
			<path d="M235.923,118.665h0.953l0.098,0.98h0.042c0.588-0.645,1.303-1.148,2.115-1.148     c1.037,0,1.597,0.49,1.877,1.303c0.714-0.771,1.415-1.303,2.241-1.303c1.401,0,2.073,0.924,2.073,2.661v4.314h-1.149v-4.16     c0-1.275-0.406-1.821-1.261-1.821c-0.532,0-1.079,0.351-1.708,1.051v4.931h-1.149v-4.16c0-1.275-0.406-1.821-1.274-1.821     c-0.504,0-1.079,0.351-1.709,1.051v4.931h-1.149V118.665z" fill="#25408F" id="n_id_247" />
			<path d="M249.069,124.786c2.689-2.675,4.203-4.286,4.203-5.729c0-1.022-0.561-1.751-1.695-1.751     c-0.743,0-1.387,0.477-1.905,1.079l-0.658-0.658c0.742-0.812,1.541-1.359,2.703-1.359c1.653,0,2.676,1.051,2.676,2.633     c0,1.681-1.527,3.348-3.642,5.561c0.49-0.042,1.037-0.084,1.499-0.084h2.591v0.995h-5.771V124.786z" fill="#25408F" id="n_id_248" />
			<path d="M190.042,140.52h2.045v-6.583h-1.625v-0.742c0.812-0.14,1.401-0.364,1.891-0.659h0.882v7.984h1.849v0.953     h-5.043V140.52z" fill="#25408F" id="n_id_249" />
			<path d="M195.784,136.976c0-2.998,1.079-4.608,2.872-4.608c1.779,0,2.857,1.611,2.857,4.608     s-1.079,4.665-2.857,4.665C196.862,141.641,195.784,139.974,195.784,136.976z M200.392,136.976c0-2.619-0.7-3.684-1.737-3.684     c-1.05,0-1.751,1.064-1.751,3.684c0,2.62,0.701,3.74,1.751,3.74C199.692,140.716,200.392,139.596,200.392,136.976z" fill="#25408F" id="n_id_250" />
			<path d="M202.527,134.903c0.701-0.462,1.051-0.939,1.051-1.751c-0.042,0.014-0.07,0.014-0.112,0.014     c-0.392,0-0.742-0.252-0.742-0.7c0-0.49,0.308-0.785,0.742-0.785c0.546,0,0.883,0.462,0.883,1.275     c0,1.121-0.532,1.919-1.499,2.479L202.527,134.903z" fill="#25408F" id="n_id_251" />
			<path d="M209.515,136.78v-0.056c-0.659-0.462-1.247-1.121-1.247-2.059c0-1.373,1.092-2.297,2.535-2.297     c1.555,0,2.521,0.995,2.521,2.381c0,0.938-0.687,1.737-1.233,2.157v0.056c0.798,0.462,1.555,1.092,1.555,2.297     c0,1.331-1.149,2.381-2.886,2.381c-1.681,0-2.928-1.037-2.928-2.451C207.833,138.027,208.674,137.229,209.515,136.78z      M210.789,140.786c1.037,0,1.751-0.644,1.751-1.569c0-1.148-1.134-1.569-2.423-2.087c-0.714,0.476-1.247,1.135-1.247,1.947     C208.87,140.072,209.697,140.786,210.789,140.786z M212.33,134.805c0-0.883-0.574-1.583-1.555-1.583     c-0.827,0-1.443,0.574-1.443,1.443c0,1.064,0.98,1.513,2.059,1.933C211.994,136.066,212.33,135.463,212.33,134.805z" fill="#25408F" id="n_id_252" />
			<path d="M214.617,134.903c0.701-0.462,1.051-0.939,1.051-1.751c-0.042,0.014-0.07,0.014-0.112,0.014     c-0.392,0-0.742-0.252-0.742-0.7c0-0.49,0.308-0.785,0.742-0.785c0.546,0,0.883,0.462,0.883,1.275     c0,1.121-0.532,1.919-1.499,2.479L214.617,134.903z M217.082,134.903c0.701-0.462,1.065-0.939,1.065-1.751     c-0.042,0.014-0.084,0.014-0.126,0.014c-0.392,0-0.742-0.252-0.742-0.7c0-0.49,0.308-0.785,0.742-0.785     c0.561,0,0.883,0.462,0.883,1.275c0,1.121-0.519,1.919-1.485,2.479L217.082,134.903z" fill="#25408F" id="n_id_253" />
			<path d="M224.25,137.915l-2.059-3.25h1.247l0.911,1.499c0.21,0.364,0.434,0.757,0.672,1.135h0.056     c0.196-0.378,0.406-0.771,0.617-1.135l0.826-1.499h1.205l-2.059,3.376l2.213,3.432h-1.247l-0.995-1.583     c-0.238-0.406-0.49-0.826-0.742-1.218h-0.056c-0.238,0.392-0.462,0.798-0.687,1.218l-0.924,1.583h-1.205L224.25,137.915z" fill="#25408F" id="n_id_254" />
			<path d="M231.305,140.52h2.045v-6.583h-1.625v-0.742c0.812-0.14,1.401-0.364,1.891-0.659h0.882v7.984h1.849v0.953     h-5.043V140.52z" fill="#25408F" id="n_id_255" />
			<path d="M242.922,139.007h-1.218v2.465h-1.093v-2.465h-4.02v-0.756l3.824-5.715h1.289v5.547h1.218V139.007z      M240.611,138.083v-2.592c0-0.476,0.042-1.247,0.07-1.723h-0.056c-0.224,0.434-0.477,0.826-0.729,1.261l-2.087,3.054H240.611z" fill="#25408F" id="n_id_256" />
			<path d="M243.501,134.903c0.701-0.462,1.051-0.939,1.051-1.751c-0.042,0.014-0.07,0.014-0.112,0.014     c-0.392,0-0.742-0.252-0.742-0.7c0-0.49,0.308-0.785,0.742-0.785c0.546,0,0.883,0.462,0.883,1.275     c0,1.121-0.532,1.919-1.499,2.479L243.501,134.903z" fill="#25408F" id="n_id_257" />
			<path d="M248.85,136.976c0-2.998,1.079-4.608,2.872-4.608c1.779,0,2.857,1.611,2.857,4.608     s-1.078,4.665-2.857,4.665C249.928,141.641,248.85,139.974,248.85,136.976z M253.458,136.976c0-2.619-0.7-3.684-1.737-3.684     c-1.05,0-1.751,1.064-1.751,3.684c0,2.62,0.701,3.74,1.751,3.74C252.758,140.716,253.458,139.596,253.458,136.976z" fill="#25408F" id="n_id_258" />
			<path d="M255.593,134.903c0.701-0.462,1.051-0.939,1.051-1.751c-0.042,0.014-0.07,0.014-0.112,0.014     c-0.392,0-0.742-0.252-0.742-0.7c0-0.49,0.308-0.785,0.742-0.785c0.546,0,0.883,0.462,0.883,1.275     c0,1.121-0.532,1.919-1.499,2.479L255.593,134.903z M258.059,134.903c0.701-0.462,1.065-0.939,1.065-1.751     c-0.042,0.014-0.084,0.014-0.126,0.014c-0.392,0-0.742-0.252-0.742-0.7c0-0.49,0.308-0.785,0.742-0.785     c0.561,0,0.883,0.462,0.883,1.275c0,1.121-0.519,1.919-1.485,2.479L258.059,134.903z" fill="#25408F" id="n_id_259" />
		</g>
		<g id="n_id_260">
			<path d="M330.631,119.352h1.162v8.194h4.021v0.995h-5.184V119.352z" fill="#25408F" id="n_id_261" />
			<path d="M336.674,119.59c0-0.448,0.352-0.743,0.799-0.743c0.449,0,0.799,0.294,0.799,0.743     c0,0.434-0.35,0.742-0.799,0.742C337.025,120.332,336.674,120.024,336.674,119.59z M336.885,121.733h1.148v6.808h-1.148V121.733z     " fill="#25408F" id="n_id_262" />
			<path d="M338.959,121.733h1.189l1.289,3.866c0.197,0.672,0.42,1.358,0.631,2.003h0.057     c0.195-0.645,0.42-1.331,0.615-2.003l1.289-3.866h1.135l-2.41,6.808h-1.344L338.959,121.733z" fill="#25408F" id="n_id_263" />
			<path d="M345.893,119.59c0-0.448,0.35-0.743,0.799-0.743c0.447,0,0.797,0.294,0.797,0.743     c0,0.434-0.35,0.742-0.797,0.742C346.242,120.332,345.893,120.024,345.893,119.59z M346.102,121.733h1.148v6.808h-1.148V121.733z     " fill="#25408F" id="n_id_264" />
			<path d="M349.004,121.733h0.953l0.098,0.98h0.043c0.645-0.645,1.344-1.148,2.283-1.148     c1.428,0,2.072,0.924,2.072,2.661v4.314h-1.148v-4.16c0-1.275-0.393-1.821-1.289-1.821c-0.699,0-1.176,0.364-1.863,1.051v4.931     h-1.148V121.733z" fill="#25408F" id="n_id_265" />
			<path d="M356.635,128.302v-0.056c-0.336-0.21-0.604-0.575-0.604-1.107c0-0.574,0.393-1.022,0.742-1.261v-0.056     c-0.447-0.364-0.881-1.023-0.881-1.835c0-1.485,1.176-2.423,2.562-2.423c0.379,0,0.715,0.07,0.967,0.168h2.367v0.882h-1.4     c0.322,0.308,0.561,0.827,0.561,1.401c0,1.457-1.107,2.367-2.494,2.367c-0.336,0-0.715-0.084-1.023-0.238     c-0.236,0.21-0.434,0.435-0.434,0.812c0,0.435,0.281,0.743,1.205,0.743h1.316c1.584,0,2.381,0.49,2.381,1.625     c0,1.261-1.33,2.354-3.445,2.354c-1.666,0-2.816-0.658-2.816-1.835C355.639,129.269,356.018,128.723,356.635,128.302z      M358.623,130.88c1.303,0,2.158-0.672,2.158-1.387c0-0.63-0.49-0.84-1.373-0.84h-1.178c-0.266,0-0.588-0.028-0.883-0.112     c-0.49,0.35-0.699,0.756-0.699,1.148C356.648,130.417,357.391,130.88,358.623,130.88z M359.898,123.988     c0-0.995-0.645-1.583-1.443-1.583s-1.443,0.588-1.443,1.583c0,0.994,0.658,1.625,1.443,1.625S359.898,124.982,359.898,123.988z" fill="#25408F" id="n_id_266" />
			<path d="M370.496,128.541l-2.213-3.88h-1.668v3.88h-1.162v-9.189h2.871c1.877,0,3.223,0.672,3.223,2.578     c0,1.429-0.812,2.297-2.059,2.605l2.324,4.006H370.496z M366.615,123.708h1.541c1.43,0,2.229-0.588,2.229-1.779     c0-1.205-0.799-1.639-2.229-1.639h-1.541V123.708z" fill="#25408F" id="n_id_267" />
			<path d="M375.555,121.565c1.668,0,3.152,1.303,3.152,3.586c0,2.255-1.484,3.558-3.152,3.558     c-1.666,0-3.15-1.303-3.15-3.558C372.404,122.868,373.889,121.565,375.555,121.565z M375.555,127.756     c1.178,0,1.961-1.051,1.961-2.605c0-1.569-0.783-2.634-1.961-2.634c-1.162,0-1.961,1.065-1.961,2.634     C373.594,126.706,374.393,127.756,375.555,127.756z" fill="#25408F" id="n_id_268" />
			<path d="M382.781,121.565c1.668,0,3.152,1.303,3.152,3.586c0,2.255-1.484,3.558-3.152,3.558     c-1.666,0-3.15-1.303-3.15-3.558C379.631,122.868,381.115,121.565,382.781,121.565z M382.781,127.756     c1.178,0,1.961-1.051,1.961-2.605c0-1.569-0.783-2.634-1.961-2.634c-1.162,0-1.961,1.065-1.961,2.634     C380.82,126.706,381.619,127.756,382.781,127.756z" fill="#25408F" id="n_id_269" />
			<path d="M387.289,121.733h0.953l0.098,0.98h0.043c0.588-0.645,1.303-1.148,2.115-1.148     c1.035,0,1.596,0.49,1.877,1.303c0.713-0.771,1.414-1.303,2.24-1.303c1.4,0,2.074,0.924,2.074,2.661v4.314h-1.148v-4.16     c0-1.275-0.406-1.821-1.262-1.821c-0.531,0-1.078,0.351-1.709,1.051v4.931h-1.148v-4.16c0-1.275-0.406-1.821-1.275-1.821     c-0.504,0-1.078,0.351-1.709,1.051v4.931h-1.148V121.733z" fill="#25408F" id="n_id_270" />
			<path d="M328.164,143.854c2.689-2.675,4.201-4.286,4.201-5.729c0-1.022-0.561-1.751-1.695-1.751     c-0.742,0-1.387,0.477-1.904,1.079l-0.658-0.658c0.742-0.812,1.541-1.359,2.703-1.359c1.652,0,2.676,1.051,2.676,2.633     c0,1.681-1.527,3.348-3.643,5.561c0.49-0.042,1.037-0.084,1.5-0.084h2.59v0.995h-5.77V143.854z" fill="#25408F" id="n_id_271" />
			<path d="M334.625,140.044c0-2.998,1.08-4.608,2.873-4.608c1.777,0,2.857,1.611,2.857,4.608     s-1.08,4.665-2.857,4.665C335.705,144.708,334.625,143.042,334.625,140.044z M339.234,140.044c0-2.619-0.701-3.684-1.736-3.684     c-1.051,0-1.752,1.065-1.752,3.684c0,2.62,0.701,3.74,1.752,3.74C338.533,143.784,339.234,142.664,339.234,140.044z" fill="#25408F" id="n_id_272" />
			<path d="M341.369,137.971c0.701-0.462,1.051-0.938,1.051-1.751c-0.043,0.014-0.07,0.014-0.111,0.014     c-0.393,0-0.744-0.252-0.744-0.7c0-0.49,0.309-0.785,0.744-0.785c0.545,0,0.881,0.462,0.881,1.275     c0,1.121-0.531,1.919-1.498,2.479L341.369,137.971z" fill="#25408F" id="n_id_273" />
			<path d="M348.357,139.848v-0.056c-0.658-0.462-1.246-1.121-1.246-2.059c0-1.373,1.092-2.297,2.535-2.297     c1.555,0,2.521,0.995,2.521,2.381c0,0.938-0.688,1.737-1.232,2.157v0.056c0.797,0.462,1.555,1.092,1.555,2.297     c0,1.331-1.148,2.381-2.887,2.381c-1.68,0-2.928-1.037-2.928-2.451C346.676,141.095,347.518,140.296,348.357,139.848z      M349.633,143.854c1.035,0,1.75-0.644,1.75-1.569c0-1.148-1.135-1.569-2.424-2.087c-0.713,0.476-1.246,1.135-1.246,1.947     C347.713,143.14,348.539,143.854,349.633,143.854z M351.172,137.873c0-0.883-0.574-1.583-1.555-1.583     c-0.826,0-1.441,0.574-1.441,1.443c0,1.064,0.98,1.513,2.059,1.933C350.836,139.134,351.172,138.531,351.172,137.873z" fill="#25408F" id="n_id_274" />
			<path d="M353.459,137.971c0.701-0.462,1.051-0.938,1.051-1.751c-0.043,0.014-0.07,0.014-0.111,0.014     c-0.393,0-0.744-0.252-0.744-0.7c0-0.49,0.309-0.785,0.744-0.785c0.545,0,0.881,0.462,0.881,1.275     c0,1.121-0.531,1.919-1.498,2.479L353.459,137.971z M355.924,137.971c0.701-0.462,1.064-0.938,1.064-1.751     c-0.041,0.014-0.084,0.014-0.125,0.014c-0.393,0-0.742-0.252-0.742-0.7c0-0.49,0.309-0.785,0.742-0.785     c0.561,0,0.883,0.462,0.883,1.275c0,1.121-0.52,1.919-1.486,2.479L355.924,137.971z" fill="#25408F" id="n_id_275" />
			<path d="M363.092,140.982l-2.059-3.25h1.246l0.91,1.499c0.211,0.364,0.436,0.757,0.672,1.135h0.057     c0.197-0.378,0.406-0.771,0.617-1.135l0.826-1.499h1.205l-2.061,3.376l2.213,3.432h-1.246l-0.994-1.583     c-0.238-0.406-0.49-0.826-0.742-1.219h-0.057c-0.238,0.393-0.461,0.799-0.686,1.219l-0.926,1.583h-1.203L363.092,140.982z" fill="#25408F" id="n_id_276" />
			<path d="M370.146,143.588h2.045v-6.583h-1.625v-0.742c0.812-0.14,1.402-0.364,1.893-0.659h0.883v7.984h1.848     v0.953h-5.043V143.588z" fill="#25408F" id="n_id_277" />
			<path d="M381.766,142.075h-1.219v2.465h-1.094v-2.465h-4.02v-0.756l3.824-5.715h1.289v5.547h1.219V142.075z      M379.453,141.151v-2.592c0-0.476,0.043-1.247,0.07-1.723h-0.055c-0.225,0.434-0.477,0.826-0.729,1.261l-2.088,3.054H379.453z" fill="#25408F" id="n_id_278" />
			<path d="M382.344,137.971c0.701-0.462,1.051-0.938,1.051-1.751c-0.043,0.014-0.07,0.014-0.111,0.014     c-0.393,0-0.744-0.252-0.744-0.7c0-0.49,0.309-0.785,0.744-0.785c0.545,0,0.881,0.462,0.881,1.275     c0,1.121-0.531,1.919-1.498,2.479L382.344,137.971z" fill="#25408F" id="n_id_279" />
			<path d="M387.693,140.044c0-2.998,1.078-4.608,2.871-4.608c1.779,0,2.857,1.611,2.857,4.608     s-1.078,4.665-2.857,4.665C388.771,144.708,387.693,143.042,387.693,140.044z M392.301,140.044c0-2.619-0.699-3.684-1.736-3.684     c-1.051,0-1.75,1.065-1.75,3.684c0,2.62,0.699,3.74,1.75,3.74C391.602,143.784,392.301,142.664,392.301,140.044z" fill="#25408F" id="n_id_280" />
			<path d="M394.438,137.971c0.699-0.462,1.049-0.938,1.049-1.751c-0.041,0.014-0.068,0.014-0.111,0.014     c-0.393,0-0.742-0.252-0.742-0.7c0-0.49,0.309-0.785,0.742-0.785c0.547,0,0.883,0.462,0.883,1.275     c0,1.121-0.533,1.919-1.498,2.479L394.438,137.971z M396.902,137.971c0.699-0.462,1.064-0.938,1.064-1.751     c-0.043,0.014-0.084,0.014-0.127,0.014c-0.391,0-0.742-0.252-0.742-0.7c0-0.49,0.309-0.785,0.742-0.785     c0.561,0,0.883,0.462,0.883,1.275c0,1.121-0.518,1.919-1.484,2.479L396.902,137.971z" fill="#25408F" id="n_id_281" />
		</g>
		<g id="n_id_282">
			<path d="M300.352,228.125h2.297c2.83,0,4.342,1.639,4.342,4.552c0,2.928-1.512,4.637-4.285,4.637h-2.354V228.125z      M302.564,236.361c2.143,0,3.221-1.358,3.221-3.684c0-2.311-1.078-3.6-3.221-3.6h-1.051v7.284H302.564z" fill="#25408F" id="n_id_283" />
			<path d="M308.221,228.363c0-0.448,0.352-0.743,0.799-0.743c0.449,0,0.799,0.294,0.799,0.743     c0,0.434-0.35,0.742-0.799,0.742C308.572,229.105,308.221,228.797,308.221,228.363z M308.432,230.506h1.148v6.808h-1.148V230.506     z" fill="#25408F" id="n_id_284" />
			<path d="M311.334,230.506h0.953l0.098,0.98h0.041c0.645-0.645,1.346-1.148,2.283-1.148     c1.43,0,2.074,0.924,2.074,2.661v4.314h-1.148v-4.16c0-1.275-0.393-1.821-1.289-1.821c-0.701,0-1.178,0.364-1.863,1.051v4.931     h-1.148V230.506z" fill="#25408F" id="n_id_285" />
			<path d="M318.264,228.363c0-0.448,0.352-0.743,0.799-0.743c0.449,0,0.799,0.294,0.799,0.743     c0,0.434-0.35,0.742-0.799,0.742C318.615,229.105,318.264,228.797,318.264,228.363z M318.475,230.506h1.148v6.808h-1.148V230.506     z" fill="#25408F" id="n_id_286" />
			<path d="M321.377,230.506h0.953l0.098,0.98h0.043c0.645-0.645,1.344-1.148,2.283-1.148     c1.428,0,2.072,0.924,2.072,2.661v4.314h-1.148v-4.16c0-1.275-0.393-1.821-1.289-1.821c-0.699,0-1.176,0.364-1.863,1.051v4.931     h-1.148V230.506z" fill="#25408F" id="n_id_287" />
			<path d="M329.006,237.076v-0.056c-0.336-0.21-0.602-0.575-0.602-1.107c0-0.574,0.393-1.022,0.742-1.261v-0.056     c-0.449-0.364-0.883-1.023-0.883-1.835c0-1.485,1.178-2.423,2.564-2.423c0.377,0,0.713,0.07,0.965,0.168h2.367v0.882h-1.4     c0.322,0.308,0.561,0.827,0.561,1.401c0,1.457-1.105,2.367-2.492,2.367c-0.338,0-0.715-0.084-1.023-0.238     c-0.238,0.21-0.434,0.435-0.434,0.812c0,0.435,0.279,0.743,1.203,0.743h1.318c1.582,0,2.381,0.49,2.381,1.625     c0,1.261-1.332,2.354-3.445,2.354c-1.668,0-2.816-0.658-2.816-1.835C328.012,238.042,328.391,237.496,329.006,237.076z      M330.996,239.653c1.303,0,2.156-0.672,2.156-1.387c0-0.63-0.49-0.84-1.373-0.84h-1.176c-0.266,0-0.588-0.028-0.883-0.112     c-0.49,0.35-0.701,0.756-0.701,1.148C329.02,239.191,329.762,239.653,330.996,239.653z M332.27,232.762     c0-0.995-0.645-1.583-1.441-1.583c-0.799,0-1.443,0.588-1.443,1.583c0,0.994,0.658,1.625,1.443,1.625     C331.611,234.386,332.27,233.756,332.27,232.762z" fill="#25408F" id="n_id_288" />
			<path d="M342.027,234.512h-3.348l-0.883,2.802h-1.189l3.109-9.189h1.316l3.109,9.189h-1.246L342.027,234.512z      M341.734,233.574l-0.436-1.4c-0.336-1.022-0.629-2.031-0.924-3.096h-0.057c-0.279,1.064-0.574,2.073-0.91,3.096l-0.434,1.4     H341.734z" fill="#25408F" id="n_id_289" />
			<path d="M345.053,230.506h0.953l0.098,1.232h0.041c0.463-0.854,1.164-1.4,1.934-1.4     c0.295,0,0.504,0.042,0.729,0.14l-0.225,1.009c-0.225-0.07-0.377-0.112-0.658-0.112c-0.574,0-1.26,0.42-1.723,1.569v4.37h-1.148     V230.506z" fill="#25408F" id="n_id_290" />
			<path d="M352.021,230.338c1.736,0,2.717,1.247,2.717,3.193c0,0.238-0.014,0.462-0.041,0.63h-4.594     c0.084,1.471,0.965,2.396,2.268,2.396c0.645,0,1.191-0.21,1.695-0.532l0.406,0.756c-0.588,0.378-1.316,0.7-2.24,0.7     c-1.822,0-3.264-1.331-3.264-3.558C348.969,231.697,350.467,230.338,352.021,230.338z M353.73,233.406     c0-1.387-0.615-2.157-1.682-2.157c-0.951,0-1.82,0.785-1.961,2.157H353.73z" fill="#25408F" id="n_id_291" />
			<path d="M359.707,233c0-0.868-0.295-1.709-1.402-1.709c-0.797,0-1.498,0.364-2.031,0.729l-0.461-0.798     c0.631-0.406,1.582-0.882,2.676-0.882c1.666,0,2.367,1.106,2.367,2.801v4.174h-0.953l-0.098-0.812h-0.029     c-0.658,0.532-1.414,0.98-2.254,0.98c-1.148,0-2.004-0.714-2.004-1.933C355.518,234.064,356.807,233.322,359.707,233z      M357.844,236.558c0.658,0,1.205-0.322,1.863-0.911v-1.891c-2.283,0.28-3.055,0.841-3.055,1.709     C356.652,236.235,357.17,236.558,357.844,236.558z" fill="#25408F" id="n_id_292" />
			<path d="M306.463,245.876c-0.365-0.434-0.91-0.7-1.471-0.7c-1.248,0-2.297,0.966-2.354,3.796     c0.561-0.687,1.359-1.121,2.088-1.121c1.539,0,2.549,0.924,2.549,2.759c0,1.709-1.205,2.872-2.648,2.872     c-1.75,0-3.082-1.429-3.082-4.3c0-3.586,1.625-4.973,3.404-4.973c0.967,0,1.654,0.406,2.158,0.953L306.463,245.876z      M306.182,250.61c0-1.163-0.545-1.891-1.652-1.891c-0.561,0-1.26,0.336-1.863,1.177c0.141,1.737,0.826,2.676,1.961,2.676     C305.51,252.572,306.182,251.787,306.182,250.61z" fill="#25408F" id="n_id_293" />
			<path d="M308.074,246.745c0.701-0.462,1.051-0.938,1.051-1.751c-0.043,0.014-0.07,0.014-0.111,0.014     c-0.393,0-0.744-0.252-0.744-0.7c0-0.49,0.309-0.785,0.744-0.785c0.545,0,0.881,0.462,0.881,1.275     c0,1.121-0.531,1.919-1.498,2.479L308.074,246.745z" fill="#25408F" id="n_id_294" />
			<path d="M318.395,245.876c-0.363-0.434-0.91-0.7-1.471-0.7c-1.246,0-2.297,0.966-2.354,3.796     c0.561-0.687,1.359-1.121,2.088-1.121c1.541,0,2.549,0.924,2.549,2.759c0,1.709-1.203,2.872-2.646,2.872     c-1.752,0-3.082-1.429-3.082-4.3c0-3.586,1.625-4.973,3.404-4.973c0.967,0,1.652,0.406,2.156,0.953L318.395,245.876z      M318.115,250.61c0-1.163-0.547-1.891-1.652-1.891c-0.561,0-1.262,0.336-1.863,1.177c0.139,1.737,0.826,2.676,1.961,2.676     C317.443,252.572,318.115,251.787,318.115,250.61z" fill="#25408F" id="n_id_295" />
			<path d="M320.008,246.745c0.699-0.462,1.049-0.938,1.049-1.751c-0.041,0.014-0.068,0.014-0.111,0.014     c-0.393,0-0.742-0.252-0.742-0.7c0-0.49,0.309-0.785,0.742-0.785c0.547,0,0.883,0.462,0.883,1.275     c0,1.121-0.533,1.919-1.498,2.479L320.008,246.745z M322.473,246.745c0.699-0.462,1.064-0.938,1.064-1.751     c-0.043,0.014-0.084,0.014-0.127,0.014c-0.391,0-0.742-0.252-0.742-0.7c0-0.49,0.309-0.785,0.742-0.785     c0.561,0,0.883,0.462,0.883,1.275c0,1.121-0.518,1.919-1.484,2.479L322.473,246.745z" fill="#25408F" id="n_id_296" />
			<path d="M329.639,249.756l-2.059-3.25h1.248l0.91,1.499c0.209,0.364,0.434,0.757,0.672,1.135h0.057     c0.195-0.378,0.406-0.771,0.615-1.135l0.826-1.499h1.205l-2.059,3.376l2.213,3.432h-1.246l-0.996-1.583     c-0.236-0.406-0.49-0.826-0.742-1.219h-0.055c-0.238,0.393-0.463,0.799-0.688,1.219l-0.924,1.583h-1.205L329.639,249.756z" fill="#25408F" id="n_id_297" />
			<path d="M336.947,251.815c0.363,0.435,0.91,0.715,1.471,0.715c1.26,0,2.324-0.981,2.367-3.838     c-0.561,0.714-1.359,1.149-2.102,1.149c-1.541,0-2.535-0.925-2.535-2.76c0-1.709,1.205-2.872,2.633-2.872     c1.766,0,3.082,1.429,3.082,4.3c0,3.586-1.625,4.973-3.404,4.973c-0.951,0-1.666-0.406-2.156-0.938L336.947,251.815z      M340.758,247.781c-0.154-1.737-0.842-2.661-1.977-2.661c-0.867,0-1.555,0.784-1.555,1.961c0,1.163,0.547,1.891,1.654,1.891     C339.455,248.972,340.154,248.635,340.758,247.781z" fill="#25408F" id="n_id_298" />
			<path d="M342.922,246.745c0.699-0.462,1.049-0.938,1.049-1.751c-0.041,0.014-0.068,0.014-0.111,0.014     c-0.393,0-0.742-0.252-0.742-0.7c0-0.49,0.309-0.785,0.742-0.785c0.547,0,0.883,0.462,0.883,1.275     c0,1.121-0.533,1.919-1.498,2.479L342.922,246.745z" fill="#25408F" id="n_id_299" />
			<path d="M348.27,248.817c0-2.998,1.078-4.608,2.871-4.608c1.779,0,2.857,1.611,2.857,4.608     s-1.078,4.665-2.857,4.665C349.348,253.482,348.27,251.815,348.27,248.817z M352.877,248.817c0-2.619-0.699-3.684-1.736-3.684     c-1.051,0-1.75,1.065-1.75,3.684c0,2.62,0.699,3.74,1.75,3.74C352.178,252.558,352.877,251.437,352.877,248.817z" fill="#25408F" id="n_id_300" />
			<path d="M355.014,246.745c0.699-0.462,1.049-0.938,1.049-1.751c-0.041,0.014-0.068,0.014-0.111,0.014     c-0.393,0-0.742-0.252-0.742-0.7c0-0.49,0.309-0.785,0.742-0.785c0.547,0,0.883,0.462,0.883,1.275     c0,1.121-0.533,1.919-1.498,2.479L355.014,246.745z M357.479,246.745c0.699-0.462,1.064-0.938,1.064-1.751     c-0.043,0.014-0.084,0.014-0.127,0.014c-0.391,0-0.742-0.252-0.742-0.7c0-0.49,0.309-0.785,0.742-0.785     c0.561,0,0.883,0.462,0.883,1.275c0,1.121-0.518,1.919-1.484,2.479L357.479,246.745z" fill="#25408F" id="n_id_301" />
		</g>
		<g id="n_id_302">
			<path d="M391.594,234.515h1.162v4.608h0.043l3.824-4.608h1.316l-2.871,3.502l3.32,5.687h-1.303l-2.746-4.776     l-1.584,1.863v2.914h-1.162V234.515z" fill="#25408F" id="n_id_303" />
			<path d="M399.1,234.753c0-0.448,0.352-0.743,0.799-0.743c0.449,0,0.799,0.294,0.799,0.743     c0,0.434-0.35,0.742-0.799,0.742C399.451,235.495,399.1,235.187,399.1,234.753z M399.311,236.896h1.148v6.808h-1.148V236.896z" fill="#25408F" id="n_id_304" />
			<path d="M402.477,237.834h-1.008v-0.869l1.064-0.07l0.141-1.905h0.967v1.905h1.834v0.938h-1.834v3.782     c0,0.84,0.266,1.316,1.049,1.316c0.238,0,0.547-0.098,0.771-0.182l0.225,0.869c-0.379,0.126-0.842,0.252-1.262,0.252     c-1.457,0-1.947-0.924-1.947-2.269V237.834z" fill="#25408F" id="n_id_305" />
			<path d="M409.229,236.728c0.896,0,1.527,0.378,1.99,0.812l-0.574,0.742c-0.406-0.35-0.826-0.603-1.373-0.603     c-1.232,0-2.129,1.065-2.129,2.634c0,1.555,0.854,2.605,2.102,2.605c0.643,0,1.189-0.322,1.596-0.687l0.52,0.756     c-0.617,0.546-1.402,0.882-2.215,0.882c-1.807,0-3.193-1.303-3.193-3.558C405.951,238.031,407.479,236.728,409.229,236.728z" fill="#25408F" id="n_id_306" />
			<path d="M412.381,233.73h1.148v2.718l-0.043,1.401c0.645-0.617,1.332-1.121,2.27-1.121     c1.43,0,2.074,0.924,2.074,2.661v4.314h-1.148v-4.16c0-1.275-0.393-1.821-1.289-1.821c-0.701,0-1.178,0.364-1.863,1.051v4.931     h-1.148V233.73z" fill="#25408F" id="n_id_307" />
			<path d="M422.156,236.728c1.736,0,2.717,1.247,2.717,3.193c0,0.238-0.014,0.462-0.043,0.63h-4.594     c0.084,1.471,0.967,2.396,2.27,2.396c0.645,0,1.191-0.21,1.695-0.532l0.406,0.756c-0.59,0.378-1.316,0.7-2.242,0.7     c-1.82,0-3.264-1.331-3.264-3.558C419.102,238.086,420.602,236.728,422.156,236.728z M423.865,239.795     c0-1.387-0.617-2.157-1.682-2.157c-0.953,0-1.82,0.785-1.961,2.157H423.865z" fill="#25408F" id="n_id_308" />
			<path d="M426.174,236.896h0.953l0.098,0.98h0.043c0.645-0.645,1.344-1.148,2.283-1.148     c1.428,0,2.072,0.924,2.072,2.661v4.314h-1.148v-4.16c0-1.275-0.393-1.821-1.289-1.821c-0.699,0-1.176,0.364-1.863,1.051v4.931     h-1.148V236.896z" fill="#25408F" id="n_id_309" />
		</g>
		<g id="n_id_310">
			<path d="M331.287,41.483h2.34c1.596,0,2.697,0.54,2.697,1.919c0,0.78-0.443,1.475-1.367,1.715v0.048     c1.152,0.18,1.824,0.803,1.824,1.883c0,1.547-1.225,2.303-2.986,2.303h-2.508V41.483z M333.447,44.841     c1.342,0,1.895-0.479,1.895-1.355c0-0.852-0.623-1.211-1.848-1.211h-1.211v2.566H333.447z M333.65,48.56     c1.355,0,2.146-0.492,2.146-1.559c0-0.972-0.768-1.416-2.146-1.416h-1.367v2.975H333.65z" fill="#25408F" id="n_id_311" />
			<path d="M341.227,45.657c0-0.744-0.252-1.463-1.199-1.463c-0.684,0-1.283,0.312-1.738,0.624l-0.396-0.684     c0.541-0.348,1.355-0.755,2.291-0.755c1.428,0,2.027,0.947,2.027,2.398v3.574h-0.816l-0.084-0.696h-0.023     c-0.562,0.456-1.211,0.84-1.93,0.84c-0.984,0-1.717-0.612-1.717-1.655C337.641,46.569,338.744,45.933,341.227,45.657z      M339.633,48.704c0.562,0,1.031-0.276,1.594-0.78v-1.619c-1.953,0.24-2.613,0.72-2.613,1.463     C338.613,48.428,339.057,48.704,339.633,48.704z" fill="#25408F" id="n_id_312" />
			<path d="M343.664,40.812h0.982v7.436c0,0.312,0.133,0.432,0.277,0.432c0.059,0,0.107,0,0.215-0.024l0.133,0.744     c-0.133,0.06-0.301,0.096-0.564,0.096c-0.744,0-1.043-0.468-1.043-1.319V40.812z" fill="#25408F" id="n_id_313" />
			<path d="M348.646,43.378c0.768,0,1.307,0.324,1.703,0.695l-0.492,0.636c-0.348-0.3-0.707-0.516-1.174-0.516     c-1.057,0-1.824,0.912-1.824,2.255c0,1.331,0.732,2.23,1.799,2.23c0.553,0,1.02-0.275,1.367-0.587l0.443,0.647     c-0.527,0.468-1.199,0.756-1.895,0.756c-1.547,0-2.734-1.116-2.734-3.046C345.84,44.494,347.148,43.378,348.646,43.378z" fill="#25408F" id="n_id_314" />
			<path d="M353.52,43.378c1.428,0,2.697,1.115,2.697,3.07c0,1.931-1.27,3.046-2.697,3.046s-2.699-1.116-2.699-3.046     C350.82,44.494,352.092,43.378,353.52,43.378z M353.52,48.679c1.008,0,1.68-0.899,1.68-2.23c0-1.343-0.672-2.255-1.68-2.255     c-0.996,0-1.68,0.912-1.68,2.255C351.84,47.78,352.523,48.679,353.52,48.679z" fill="#25408F" id="n_id_315" />
			<path d="M357.396,43.522h0.814l0.084,0.839h0.037c0.551-0.552,1.15-0.983,1.955-0.983     c1.223,0,1.773,0.792,1.773,2.279v3.694h-0.982v-3.562c0-1.091-0.336-1.559-1.104-1.559c-0.6,0-1.008,0.312-1.596,0.899v4.222     h-0.982V43.522z" fill="#25408F" id="n_id_316" />
			<path d="M363.51,51.042c0.66,0,1.078-0.527,1.318-1.247l0.133-0.432l-2.34-5.841h1.02l1.188,3.226     c0.18,0.504,0.385,1.104,0.564,1.643h0.047c0.168-0.528,0.336-1.127,0.492-1.643l1.043-3.226h0.961l-2.195,6.308     c-0.408,1.151-1.008,2.027-2.184,2.027c-0.264,0-0.49-0.048-0.684-0.12l0.193-0.78C363.186,50.994,363.365,51.042,363.51,51.042z     " fill="#25408F" id="n_id_317" />
		</g>
		<g id="n_id_318">
			<path d="M410.246,36.013c0.375,0.392,0.902,0.656,1.447,0.656c0.688,0,1.096-0.344,1.096-0.855     c0-0.536-0.377-0.704-0.873-0.928l-0.75-0.328c-0.496-0.208-1.064-0.583-1.064-1.351c0-0.8,0.695-1.392,1.646-1.392     c0.625,0,1.176,0.264,1.553,0.648l-0.361,0.432c-0.318-0.304-0.703-0.496-1.191-0.496c-0.582,0-0.975,0.296-0.975,0.768     c0,0.504,0.455,0.695,0.871,0.872l0.744,0.32c0.607,0.264,1.08,0.624,1.08,1.399c0,0.832-0.68,1.496-1.783,1.496     c-0.736,0-1.383-0.304-1.84-0.776L410.246,36.013z" fill="#25408F" id="n_id_319" />
			<path d="M414.379,33.806h-0.576v-0.496l0.609-0.04l0.08-1.087h0.551v1.087h1.047v0.536h-1.047v2.159     c0,0.48,0.152,0.751,0.6,0.751c0.137,0,0.312-0.056,0.439-0.104l0.129,0.496c-0.217,0.072-0.48,0.144-0.721,0.144     c-0.83,0-1.111-0.528-1.111-1.295V33.806z" fill="#25408F" id="n_id_320" />
			<path d="M418.307,33.174c0.951,0,1.799,0.744,1.799,2.047c0,1.288-0.848,2.031-1.799,2.031     c-0.953,0-1.799-0.744-1.799-2.031C416.508,33.918,417.354,33.174,418.307,33.174z M418.307,36.708     c0.672,0,1.119-0.6,1.119-1.487c0-0.896-0.447-1.503-1.119-1.503c-0.664,0-1.119,0.607-1.119,1.503     C417.188,36.109,417.643,36.708,418.307,36.708z" fill="#25408F" id="n_id_321" />
			<path d="M421.027,33.271h0.545l0.055,0.704h0.025c0.264-0.488,0.664-0.8,1.104-0.8     c0.168,0,0.287,0.024,0.416,0.08l-0.129,0.576c-0.127-0.04-0.215-0.064-0.375-0.064c-0.328,0-0.721,0.24-0.984,0.896v2.495     h-0.656V33.271z" fill="#25408F" id="n_id_322" />
			<path d="M425.959,34.694c0-0.496-0.168-0.976-0.799-0.976c-0.457,0-0.855,0.208-1.16,0.416l-0.264-0.456     c0.359-0.232,0.904-0.504,1.527-0.504c0.951,0,1.352,0.632,1.352,1.599v2.383h-0.543l-0.057-0.464H426     c-0.377,0.304-0.809,0.56-1.287,0.56c-0.656,0-1.145-0.408-1.145-1.104C423.568,35.301,424.305,34.877,425.959,34.694z      M424.896,36.725c0.375,0,0.688-0.184,1.062-0.52v-1.079c-1.303,0.16-1.742,0.479-1.742,0.976     C424.217,36.541,424.512,36.725,424.896,36.725z" fill="#25408F" id="n_id_323" />
			<path d="M427.982,37.021v-0.032c-0.193-0.12-0.344-0.328-0.344-0.631c0-0.328,0.223-0.584,0.424-0.72v-0.032     c-0.256-0.208-0.504-0.583-0.504-1.047c0-0.848,0.672-1.383,1.463-1.383c0.215,0,0.408,0.04,0.551,0.096h1.352v0.503h-0.799     c0.184,0.176,0.318,0.472,0.318,0.8c0,0.832-0.631,1.351-1.422,1.351c-0.191,0-0.408-0.048-0.584-0.136     c-0.137,0.12-0.248,0.248-0.248,0.464c0,0.248,0.16,0.423,0.688,0.423h0.752c0.904,0,1.359,0.28,1.359,0.928     c0,0.72-0.76,1.343-1.967,1.343c-0.951,0-1.607-0.376-1.607-1.047C427.414,37.572,427.629,37.26,427.982,37.021z M429.117,38.492     c0.744,0,1.23-0.384,1.23-0.792c0-0.359-0.279-0.479-0.783-0.479h-0.672c-0.15,0-0.336-0.016-0.504-0.064     c-0.279,0.2-0.398,0.432-0.398,0.656C427.99,38.228,428.414,38.492,429.117,38.492z M429.844,34.558     c0-0.568-0.367-0.903-0.822-0.903c-0.457,0-0.824,0.335-0.824,0.903s0.377,0.928,0.824,0.928S429.844,35.125,429.844,34.558z" fill="#25408F" id="n_id_324" />
			<path d="M433.051,33.174c0.992,0,1.553,0.712,1.553,1.823c0,0.136-0.008,0.264-0.025,0.36h-2.621     c0.047,0.839,0.551,1.367,1.295,1.367c0.367,0,0.68-0.12,0.967-0.304l0.232,0.432c-0.336,0.216-0.752,0.4-1.279,0.4     c-1.039,0-1.863-0.76-1.863-2.031C431.309,33.95,432.164,33.174,433.051,33.174z M434.027,34.925     c0-0.792-0.352-1.231-0.959-1.231c-0.545,0-1.041,0.448-1.119,1.231H434.027z" fill="#25408F" id="n_id_325" />
		</g>
		<g id="n_id_326">
			<path d="M44.724,225.695h1.175l1.523,4.222l0.576,1.607h0.048l0.552-1.607l1.511-4.222h1.175v7.868h-0.947v-4.33     c0-0.696,0.072-1.631,0.132-2.327h-0.048l-0.636,1.751l-1.511,4.114H47.71l-1.523-4.114l-0.624-1.751h-0.048     c0.048,0.695,0.132,1.631,0.132,2.327v4.33h-0.923V225.695z" fill="#25408F" id="n_id_327" />
			<path d="M56.174,229.869c0-0.744-0.252-1.463-1.199-1.463c-0.684,0-1.284,0.312-1.739,0.624l-0.396-0.684     c0.54-0.348,1.355-0.755,2.291-0.755c1.427,0,2.027,0.947,2.027,2.398v3.574h-0.815l-0.084-0.696h-0.024     c-0.564,0.456-1.211,0.84-1.931,0.84c-0.983,0-1.715-0.612-1.715-1.655C52.588,230.78,53.691,230.145,56.174,229.869z      M54.579,232.915c0.563,0,1.031-0.276,1.595-0.78v-1.619c-1.955,0.24-2.615,0.72-2.615,1.463     C53.559,232.639,54.003,232.915,54.579,232.915z" fill="#25408F" id="n_id_328" />
			<path d="M58.51,232.243c0.503,0.408,1.02,0.696,1.715,0.696c0.768,0,1.151-0.408,1.151-0.912     c0-0.6-0.695-0.864-1.331-1.104c-0.828-0.3-1.739-0.695-1.739-1.679c0-0.935,0.744-1.655,2.003-1.655     c0.732,0,1.367,0.3,1.811,0.66l-0.468,0.624c-0.396-0.3-0.815-0.516-1.331-0.516c-0.732,0-1.067,0.396-1.067,0.839     c0,0.552,0.636,0.756,1.295,1.008c0.84,0.312,1.775,0.659,1.775,1.763c0,0.948-0.756,1.739-2.135,1.739     c-0.828,0-1.619-0.348-2.171-0.804L58.51,232.243z" fill="#25408F" id="n_id_329" />
			<path d="M63.669,228.537h-0.863v-0.744l0.911-0.06l0.12-1.631h0.828v1.631h1.571v0.803h-1.571v3.238     c0,0.72,0.228,1.127,0.899,1.127c0.204,0,0.468-0.084,0.66-0.156l0.192,0.744c-0.324,0.108-0.72,0.216-1.08,0.216     c-1.247,0-1.667-0.792-1.667-1.943V228.537z" fill="#25408F" id="n_id_330" />
			<path d="M69.26,227.59c1.487,0,2.327,1.067,2.327,2.734c0,0.204-0.012,0.396-0.036,0.54h-3.934     c0.072,1.26,0.828,2.051,1.943,2.051c0.551,0,1.019-0.18,1.451-0.456l0.348,0.648c-0.504,0.324-1.127,0.6-1.919,0.6     c-1.559,0-2.794-1.14-2.794-3.046C66.646,228.753,67.929,227.59,69.26,227.59z M70.724,230.216c0-1.188-0.528-1.847-1.439-1.847     c-0.816,0-1.56,0.672-1.679,1.847H70.724z" fill="#25408F" id="n_id_331" />
			<path d="M72.717,227.734h0.815l0.084,1.055h0.036c0.396-0.731,0.996-1.199,1.655-1.199     c0.251,0,0.432,0.036,0.624,0.12l-0.192,0.864c-0.192-0.06-0.324-0.096-0.564-0.096c-0.492,0-1.079,0.36-1.475,1.344v3.742     h-0.983V227.734z" fill="#25408F" id="n_id_332" />
			<path d="M49.502,239.695h2.338c1.595,0,2.699,0.54,2.699,1.919c0,0.78-0.444,1.475-1.367,1.715v0.048     c1.151,0.18,1.823,0.803,1.823,1.883c0,1.547-1.223,2.303-2.986,2.303h-2.506V239.695z M51.661,243.053     c1.343,0,1.895-0.48,1.895-1.355c0-0.852-0.624-1.211-1.847-1.211h-1.211v2.567H51.661z M51.864,246.771     c1.355,0,2.147-0.492,2.147-1.559c0-0.972-0.768-1.416-2.147-1.416h-1.367v2.975H51.864z" fill="#25408F" id="n_id_333" />
			<path d="M59.442,243.869c0-0.744-0.252-1.463-1.199-1.463c-0.684,0-1.284,0.312-1.739,0.624l-0.396-0.684     c0.54-0.348,1.355-0.755,2.291-0.755c1.427,0,2.027,0.947,2.027,2.398v3.574H59.61l-0.084-0.696h-0.024     c-0.564,0.456-1.211,0.84-1.931,0.84c-0.983,0-1.715-0.612-1.715-1.655C55.856,244.78,56.959,244.145,59.442,243.869z      M57.847,246.915c0.563,0,1.031-0.276,1.595-0.78v-1.619c-1.955,0.24-2.615,0.72-2.615,1.463     C56.828,246.639,57.271,246.915,57.847,246.915z" fill="#25408F" id="n_id_334" />
			<path d="M62.012,242.537h-0.864v-0.744l0.912-0.06l0.12-1.631h0.828v1.631h1.571v0.803h-1.571v3.238     c0,0.72,0.228,1.127,0.899,1.127c0.204,0,0.468-0.084,0.66-0.156l0.192,0.744c-0.324,0.108-0.72,0.216-1.08,0.216     c-1.247,0-1.667-0.792-1.667-1.943V242.537z" fill="#25408F" id="n_id_335" />
			<path d="M65.576,239.023h0.983v2.327l-0.036,1.199c0.551-0.528,1.139-0.959,1.943-0.959     c1.223,0,1.775,0.792,1.775,2.279v3.694h-0.983V244c0-1.091-0.336-1.559-1.104-1.559c-0.6,0-1.007,0.312-1.595,0.899v4.222     h-0.983V239.023z" fill="#25408F" id="n_id_336" />
		</g>
		<g id="n_id_337">
			<path d="M120.085,225.013h2.338c1.595,0,2.699,0.54,2.699,1.919c0,0.78-0.444,1.475-1.367,1.715v0.048     c1.151,0.18,1.823,0.803,1.823,1.883c0,1.547-1.223,2.303-2.986,2.303h-2.506V225.013z M122.244,228.371     c1.343,0,1.895-0.479,1.895-1.355c0-0.852-0.624-1.211-1.847-1.211h-1.211v2.566H122.244z M122.448,232.089     c1.355,0,2.147-0.492,2.147-1.559c0-0.972-0.768-1.416-2.147-1.416h-1.367v2.975H122.448z" fill="#25408F" id="n_id_338" />
			<path d="M130.026,229.187c0-0.744-0.252-1.463-1.199-1.463c-0.684,0-1.284,0.312-1.739,0.624l-0.396-0.684     c0.54-0.348,1.355-0.755,2.291-0.755c1.427,0,2.027,0.947,2.027,2.398v3.574h-0.815l-0.084-0.696h-0.024     c-0.564,0.456-1.211,0.84-1.931,0.84c-0.983,0-1.715-0.612-1.715-1.655C126.44,230.098,127.543,229.462,130.026,229.187z      M128.431,232.233c0.563,0,1.031-0.276,1.595-0.78v-1.619c-1.955,0.24-2.615,0.72-2.615,1.463     C127.411,231.957,127.855,232.233,128.431,232.233z" fill="#25408F" id="n_id_339" />
			<path d="M132.595,227.855h-0.863v-0.744l0.911-0.06l0.12-1.631h0.828v1.631h1.571v0.803h-1.571v3.238     c0,0.72,0.228,1.127,0.899,1.127c0.204,0,0.468-0.084,0.66-0.156l0.192,0.744c-0.324,0.108-0.72,0.216-1.08,0.216     c-1.247,0-1.667-0.792-1.667-1.943V227.855z" fill="#25408F" id="n_id_340" />
			<path d="M136.16,224.341h0.983v2.327l-0.036,1.199c0.551-0.528,1.139-0.959,1.943-0.959     c1.223,0,1.775,0.792,1.775,2.279v3.694h-0.983v-3.562c0-1.091-0.336-1.559-1.104-1.559c-0.6,0-1.007,0.312-1.595,0.899v4.222     h-0.983V224.341z" fill="#25408F" id="n_id_341" />
			<path d="M125.995,244.434h-0.959v-0.684h1.043l0.216-1.775h-1.02v-0.696h1.104l0.276-2.195h0.635l-0.276,2.195     h1.595l0.288-2.195h0.636l-0.288,2.195h0.972v0.696h-1.043l-0.216,1.775h1.019v0.684h-1.103l-0.3,2.447h-0.636l0.288-2.447     h-1.583l-0.3,2.447h-0.647L125.995,244.434z M128.31,243.75l0.216-1.775h-1.583l-0.216,1.775H128.31z" fill="#25408F" id="n_id_342" />
			<path d="M130.609,246.292c2.303-2.291,3.598-3.67,3.598-4.905c0-0.875-0.479-1.499-1.451-1.499     c-0.636,0-1.187,0.408-1.631,0.923l-0.564-0.563c0.636-0.696,1.319-1.164,2.315-1.164c1.415,0,2.291,0.9,2.291,2.255     c0,1.439-1.307,2.867-3.118,4.761c0.42-0.036,0.888-0.072,1.283-0.072h2.219v0.852h-4.941V246.292z" fill="#25408F" id="n_id_343" />
		</g>
	</g>
</g>
</svg>