doublegarage : [972,1553] : [792,1524,1153,1583] : confidence,dict,original_word,difference : [100,DM,None,0]
entry : [526,1658] : [451,1628,601,1688] : confidence,dict,original_word,difference : [100,DM,None,0]
portico : [533,1979] : [438,1951,628,2007] : confidence,dict,original_word,difference : [100,DM,None,0]
ensuite : [166,1583] : [69,1556,264,1611] : confidence,dict,original_word,difference : [100,DM,None,0]
wir : [310,1616] : [253,1587,368,1646] : confidence,dict,original_word,difference : [100,DM,None,0]
robe : [307,1510] : [274,1486,340,1535] : confidence,dict,original_word,difference : [100,DM,None,0]
laundry : [198,1354] : [94,1326,302,1382] : confidence,dict,original_word,difference : [100,DM,None,0]
family : [658,675] : [576,646,740,705] : confidence,dict,original_word,difference : [100,DM,None,0]
dining : [920,852] : [837,823,1003,882] : confidence,dict,original_word,difference : [100,DM,None,0]
kitchen : [696,1149] : [601,1122,792,1177] : confidence,dict,original_word,difference : [100,DM,None,0]
wc : [146,376] : [101,347,191,406] : confidence,dict,original_word,difference : [100,DM,None,0]
bathroom : [218,491] : [97,462,340,521] : confidence,dict,original_word,difference : [100,DM,None,0]
bedroom 2 : [189,1028] : [59,1000,319,1056] : confidence,dict,original_word,difference : [100,DM,None,0]
bedroom 3 : [252,85] : [122,56,382,115] : confidence,dict,original_word,difference : [100,DM,None,0]
slidingdoor : [661,394] : [576,372,747,417] : confidence,dict,original_word,difference : [100,DM,None,0]
mastersuite : [260,1764] : [104,1736,417,1792] : confidence,dict,original_word,difference : [100,DM,None,0]
broom : [352,1458] : [306,1434,399,1483] : confidence,dict,original_word,difference : [100,DM,None,0]
outdoorroom : [684,71] : [507,42,861,101] : confidence,dict,original_word,difference : [100,DM,None,0]
No Text Detected
