ac : [1332,204] : [1315,195,1349,213] : confidence,dict,original_word,difference : [93,SG,al,1]
dn : [1391,204] : [1378,195,1405,213] : confidence,dict,original_word,difference : [89,SG,in,1]
nook : [347,363] : [295,351,399,375] : confidence,dict,original_word,difference : [90,DM,None,0]
office : [1638,412] : [1576,400,1701,425] : confidence,dict,original_word,difference : [88,DM,None,0]
dn : [841,538] : [826,533,857,544] : confidence,dict,original_word,difference : [74,SG,on,1]
island : [408,643] : [379,638,437,649] : confidence,dict,original_word,difference : [70,DM,None,0]
greatroom : [915,787] : [862,754,968,820] : confidence,dict,original_word,difference : [87,DM,None,0]
diningroom : [251,1352] : [193,1320,310,1385] : confidence,dict,original_word,difference : [92,DM,None,0]
foyer : [620,1331] : [564,1319,676,1343] : confidence,dict,original_word,difference : [88,DM,None,0]
baygarage : [1472,1436] : [1407,1404,1538,1469] : confidence,dict,original_word,difference : [88,DM,None,0]
porch : [357,1699] : [296,1687,418,1711] : confidence,dict,original_word,difference : [78,DM,None,0]
preliminary : [139,2270] : [41,2250,237,2291] : confidence,dict,original_word,difference : [83,DM,None,0]
No Text Detected
