DJ : [224,42] : [206,29,242,55] : 64
o0 : [203,73] : [175,63,232,83] : 65
KITCHEN : [162,152] : [101,142,224,163] : 85
BATH : [808,143] : [771,133,846,153] : 76
ENTRY : [513,174] : [466,164,560,184] : 82
ow: : [190,253] : [170,241,211,265] : 62
m : [104,284] : [92,281,116,287] : 70
ILAUNDRV 'L____ : [897,296] : [863,275,932,318] : 68
DINING : [369,416] : [321,406,417,427] : 82
BEDROOM 2 : [594,559] : [511,549,678,569] : 84
BEDROOM 1 : [890,559] : [808,549,972,569] : 86
LIVING : [191,696] : [145,686,237,706] : 80
DECK : [195,919] : [156,909,234,930] : 83
313, : [962,411] : [932,395,992,427] : 45
O : [896,69] : [877,92,915,47] : 76
313, : [962,411] : [932,395,992,427] : 45
No Text Detected
