25
3
3.76933515442
0
unknown
0
9027
0
5774
22.8473193176
5.97405424815e-148
6.49809409448e-148
8.7752854267e-148
1.67311630937e-147
3.72639970726e-147
4.3066547371e-147
3.71877730949e-147
4.81354418846e-147
6.10268221043e-147
6.45902930593e-147
7.13837550672e-147
7.36037784162e-147
6.47332130174e-147
6.05694782384e-147
6.25798856489e-147
9.64042757301e-147
8.02162084771e-147
7.8081937103e-147
8.51326550354e-147
8.47705911416e-147
7.09549951929e-147
6.50952769112e-147
4.69634982283e-147
6.86206358774e-147
6.41234211962e-147
5.97405424815e-148
6.49809409448e-148
8.7752854267e-148
1.67311630937e-147
3.72639970726e-147
4.3066547371e-147
3.71877730949e-147
4.81354418846e-147
6.10268221043e-147
6.45902930593e-147
7.13837550672e-147
7.36037784162e-147
6.47332130174e-147
6.05694782384e-147
6.25798856489e-147
9.64042757301e-147
8.02162084771e-147
7.8081937103e-147
8.51326550354e-147
8.47705911416e-147
7.09549951929e-147
6.50952769112e-147
4.69634982283e-147
6.86206358774e-147
6.41234211962e-147
5.97405424815e-148
6.49809409448e-148
8.7752854267e-148
1.67311630937e-147
3.72639970726e-147
4.3066547371e-147
3.71877730949e-147
4.81354418846e-147
6.10268221043e-147
6.45902930593e-147
7.13837550672e-147
7.36037784162e-147
6.47332130174e-147
6.05694782384e-147
6.25798856489e-147
9.64042757301e-147
8.02162084771e-147
7.8081937103e-147
8.51326550354e-147
8.47705911416e-147
7.09549951929e-147
6.50952769112e-147
4.69634982283e-147
6.86206358774e-147
6.41234211962e-147
5.97405424815e-148
6.49809409448e-148
8.7752854267e-148
1.67311630937e-147
3.72639970726e-147
4.3066547371e-147
3.71877730949e-147
4.81354418846e-147
6.10268221043e-147
6.45902930593e-147
7.13837550672e-147
7.36037784162e-147
6.47332130174e-147
6.05694782384e-147
6.25798856489e-147
9.64042757301e-147
8.02162084771e-147
7.8081937103e-147
8.51326550354e-147
8.47705911416e-147
7.09549951929e-147
6.50952769112e-147
4.69634982283e-147
6.86206358774e-147
6.41234211962e-147
5.97405424815e-148
6.49809409448e-148
8.7752854267e-148
1.67311630937e-147
3.72639970726e-147
4.3066547371e-147
3.71877730949e-147
4.81354418846e-147
6.10268221043e-147
6.45902930593e-147
7.13837550672e-147
7.36037784162e-147
6.47332130174e-147
6.05694782384e-147
6.25798856489e-147
9.64042757301e-147
8.02162084771e-147
7.8081937103e-147
8.51326550354e-147
8.47705911416e-147
7.09549951929e-147
6.50952769112e-147
4.69634982283e-147
6.86206358774e-147
6.41234211962e-147
5.97405424815e-148
6.49809409448e-148
8.7752854267e-148
1.67311630937e-147
3.72639970726e-147
4.3066547371e-147
3.71877730949e-147
4.81354418846e-147
6.10268221043e-147
6.45902930593e-147
7.13837550672e-147
7.36037784162e-147
6.47332130174e-147
6.05694782384e-147
6.25798856489e-147
9.64042757301e-147
8.02162084771e-147
7.8081937103e-147
8.51326550354e-147
8.47705911416e-147
7.09549951929e-147
6.50952769112e-147
4.69634982283e-147
6.86206358774e-147
6.41234211962e-147
5.97405424815e-148
6.49809409448e-148
8.7752854267e-148
1.67311630937e-147
3.72639970726e-147
4.3066547371e-147
3.71877730949e-147
4.81354418846e-147
6.10268221043e-147
6.45902930593e-147
7.13837550672e-147
7.36037784162e-147
6.47332130174e-147
6.05694782384e-147
6.25798856489e-147
9.64042757301e-147
8.02162084771e-147
7.8081937103e-147
8.51326550354e-147
8.47705911416e-147
7.09549951929e-147
6.50952769112e-147
4.69634982283e-147
6.86206358774e-147
6.41234211962e-147
5.97405424815e-148
6.49809409448e-148
8.7752854267e-148
1.67311630937e-147
3.72639970726e-147
4.3066547371e-147
3.71877730949e-147
4.81354418846e-147
6.10268221043e-147
6.45902930593e-147
7.13837550672e-147
7.36037784162e-147
6.47332130174e-147
6.05694782384e-147
6.25798856489e-147
9.64042757301e-147
8.02162084771e-147
7.8081937103e-147
8.51326550354e-147
8.47705911416e-147
7.09549951929e-147
6.50952769112e-147
4.69634982283e-147
6.86206358774e-147
6.41234211962e-147
5.97405424815e-148
6.49809409448e-148
8.7752854267e-148
1.67311630937e-147
3.72639970726e-147
4.3066547371e-147
3.71877730949e-147
4.81354418846e-147
6.10268221043e-147
6.45902930593e-147
7.13837550672e-147
7.36037784162e-147
6.47332130174e-147
6.05694782384e-147
6.25798856489e-147
9.64042757301e-147
8.02162084771e-147
7.8081937103e-147
8.51326550354e-147
8.47705911416e-147
7.09549951929e-147
6.50952769112e-147
4.69634982283e-147
6.86206358774e-147
6.41234211962e-147
5.97405424815e-148
6.49809409448e-148
8.7752854267e-148
1.67311630937e-147
3.72639970726e-147
4.3066547371e-147
3.71877730949e-147
4.81354418846e-147
6.10268221043e-147
6.45902930593e-147
7.13837550672e-147
7.36037784162e-147
6.47332130174e-147
6.05694782384e-147
6.25798856489e-147
9.64042757301e-147
8.02162084771e-147
7.8081937103e-147
8.51326550354e-147
8.47705911416e-147
7.09549951929e-147
6.50952769112e-147
4.69634982283e-147
6.86206358774e-147
6.41234211962e-147
5.97405424815e-148
6.49809409448e-148
8.7752854267e-148
1.67311630937e-147
3.72639970726e-147
4.3066547371e-147
3.71877730949e-147
4.81354418846e-147
6.10268221043e-147
6.45902930593e-147
7.13837550672e-147
7.36037784162e-147
6.47332130174e-147
6.05694782384e-147
6.25798856489e-147
9.64042757301e-147
8.02162084771e-147
7.8081937103e-147
8.51326550354e-147
8.47705911416e-147
7.09549951929e-147
6.50952769112e-147
4.69634982283e-147
6.86206358774e-147
6.41234211962e-147
5.97405424815e-148
6.49809409448e-148
8.7752854267e-148
1.67311630937e-147
3.72639970726e-147
4.3066547371e-147
3.71877730949e-147
4.81354418846e-147
6.10268221043e-147
6.45902930593e-147
7.13837550672e-147
7.36037784162e-147
6.47332130174e-147
6.05694782384e-147
6.25798856489e-147
9.64042757301e-147
8.02162084771e-147
7.8081937103e-147
8.51326550354e-147
8.47705911416e-147
7.09549951929e-147
6.50952769112e-147
4.69634982283e-147
6.86206358774e-147
6.41234211962e-147
5.97405424815e-148
6.49809409448e-148
8.7752854267e-148
1.67311630937e-147
3.72639970726e-147
4.3066547371e-147
3.71877730949e-147
4.81354418846e-147
6.10268221043e-147
6.45902930593e-147
7.13837550672e-147
7.36037784162e-147
6.47332130174e-147
6.05694782384e-147
6.25798856489e-147
9.64042757301e-147
8.02162084771e-147
7.8081937103e-147
8.51326550354e-147
8.47705911416e-147
7.09549951929e-147
6.50952769112e-147
4.69634982283e-147
6.86206358774e-147
6.41234211962e-147
5.97405424815e-148
6.49809409448e-148
8.7752854267e-148
1.67311630937e-147
3.72639970726e-147
4.3066547371e-147
3.71877730949e-147
4.81354418846e-147
6.10268221043e-147
6.45902930593e-147
7.13837550672e-147
7.36037784162e-147
6.47332130174e-147
6.05694782384e-147
6.25798856489e-147
9.64042757301e-147
8.02162084771e-147
7.8081937103e-147
8.51326550354e-147
8.47705911416e-147
7.09549951929e-147
6.50952769112e-147
4.69634982283e-147
6.86206358774e-147
6.41234211962e-147
5.97405424815e-148
6.49809409448e-148
8.7752854267e-148
1.67311630937e-147
3.72639970726e-147
4.3066547371e-147
3.71877730949e-147
4.81354418846e-147
6.10268221043e-147
6.45902930593e-147
7.13837550672e-147
7.36037784162e-147
6.47332130174e-147
6.05694782384e-147
6.25798856489e-147
9.64042757301e-147
8.02162084771e-147
7.8081937103e-147
8.51326550354e-147
8.47705911416e-147
7.09549951929e-147
6.50952769112e-147
4.69634982283e-147
6.86206358774e-147
6.41234211962e-147
5.97405424815e-148
6.49809409448e-148
8.7752854267e-148
1.67311630937e-147
3.72639970726e-147
4.3066547371e-147
3.71877730949e-147
4.81354418846e-147
6.10268221043e-147
6.45902930593e-147
7.13837550672e-147
7.36037784162e-147
6.47332130174e-147
6.05694782384e-147
6.25798856489e-147
9.64042757301e-147
8.02162084771e-147
7.8081937103e-147
8.51326550354e-147
8.47705911416e-147
7.09549951929e-147
6.50952769112e-147
4.69634982283e-147
6.86206358774e-147
6.41234211962e-147
5.97405424815e-148
6.49809409448e-148
8.7752854267e-148
1.67311630937e-147
3.72639970726e-147
4.3066547371e-147
3.71877730949e-147
4.81354418846e-147
6.10268221043e-147
6.45902930593e-147
7.13837550672e-147
7.36037784162e-147
6.47332130174e-147
6.05694782384e-147
6.25798856489e-147
9.64042757301e-147
8.02162084771e-147
7.8081937103e-147
8.51326550354e-147
8.47705911416e-147
7.09549951929e-147
6.50952769112e-147
4.69634982283e-147
6.86206358774e-147
6.41234211962e-147
5.97405424815e-148
6.49809409448e-148
8.7752854267e-148
1.67311630937e-147
3.72639970726e-147
4.3066547371e-147
3.71877730949e-147
4.81354418846e-147
6.10268221043e-147
6.45902930593e-147
7.13837550672e-147
7.36037784162e-147
6.47332130174e-147
6.05694782384e-147
6.25798856489e-147
9.64042757301e-147
8.02162084771e-147
7.8081937103e-147
8.51326550354e-147
8.47705911416e-147
7.09549951929e-147
6.50952769112e-147
4.69634982283e-147
6.86206358774e-147
6.41234211962e-147
5.97405424815e-148
6.49809409448e-148
8.7752854267e-148
1.67311630937e-147
3.72639970726e-147
4.3066547371e-147
3.71877730949e-147
4.81354418846e-147
6.10268221043e-147
6.45902930593e-147
7.13837550672e-147
7.36037784162e-147
6.47332130174e-147
6.05694782384e-147
6.25798856489e-147
9.64042757301e-147
8.02162084771e-147
7.8081937103e-147
8.51326550354e-147
8.47705911416e-147
7.09549951929e-147
6.50952769112e-147
4.69634982283e-147
6.86206358774e-147
6.41234211962e-147
5.97405424815e-148
6.49809409448e-148
8.7752854267e-148
1.67311630937e-147
3.72639970726e-147
4.3066547371e-147
3.71877730949e-147
4.81354418846e-147
6.10268221043e-147
6.45902930593e-147
7.13837550672e-147
7.36037784162e-147
6.47332130174e-147
6.05694782384e-147
6.25798856489e-147
9.64042757301e-147
8.02162084771e-147
7.8081937103e-147
8.51326550354e-147
8.47705911416e-147
7.09549951929e-147
6.50952769112e-147
4.69634982283e-147
6.86206358774e-147
6.41234211962e-147
5.97405424815e-148
6.49809409448e-148
8.7752854267e-148
1.67311630937e-147
3.72639970726e-147
4.3066547371e-147
3.71877730949e-147
4.81354418846e-147
6.10268221043e-147
6.45902930593e-147
7.13837550672e-147
7.36037784162e-147
6.47332130174e-147
6.05694782384e-147
6.25798856489e-147
9.64042757301e-147
8.02162084771e-147
7.8081937103e-147
8.51326550354e-147
8.47705911416e-147
7.09549951929e-147
6.50952769112e-147
4.69634982283e-147
6.86206358774e-147
6.41234211962e-147
5.97405424815e-148
6.49809409448e-148
8.7752854267e-148
1.67311630937e-147
3.72639970726e-147
4.3066547371e-147
3.71877730949e-147
4.81354418846e-147
6.10268221043e-147
6.45902930593e-147
7.13837550672e-147
7.36037784162e-147
6.47332130174e-147
6.05694782384e-147
6.25798856489e-147
9.64042757301e-147
8.02162084771e-147
7.8081937103e-147
8.51326550354e-147
8.47705911416e-147
7.09549951929e-147
6.50952769112e-147
4.69634982283e-147
6.86206358774e-147
6.41234211962e-147
5.97405424815e-148
6.49809409448e-148
8.7752854267e-148
1.67311630937e-147
3.72639970726e-147
4.3066547371e-147
3.71877730949e-147
4.81354418846e-147
6.10268221043e-147
6.45902930593e-147
7.13837550672e-147
7.36037784162e-147
6.47332130174e-147
6.05694782384e-147
6.25798856489e-147
9.64042757301e-147
8.02162084771e-147
7.8081937103e-147
8.51326550354e-147
8.47705911416e-147
7.09549951929e-147
6.50952769112e-147
4.69634982283e-147
6.86206358774e-147
6.41234211962e-147
5.97405424815e-148
6.49809409448e-148
8.7752854267e-148
1.67311630937e-147
3.72639970726e-147
4.3066547371e-147
3.71877730949e-147
4.81354418846e-147
6.10268221043e-147
6.45902930593e-147
7.13837550672e-147
7.36037784162e-147
6.47332130174e-147
6.05694782384e-147
6.25798856489e-147
9.64042757301e-147
8.02162084771e-147
7.8081937103e-147
8.51326550354e-147
8.47705911416e-147
7.09549951929e-147
6.50952769112e-147
4.69634982283e-147
6.86206358774e-147
6.41234211962e-147
5.97405424815e-148
6.49809409448e-148
8.7752854267e-148
1.67311630937e-147
3.72639970726e-147
4.3066547371e-147
3.71877730949e-147
4.81354418846e-147
6.10268221043e-147
6.45902930593e-147
7.13837550672e-147
7.36037784162e-147
6.47332130174e-147
6.05694782384e-147
6.25798856489e-147
9.64042757301e-147
8.02162084771e-147
7.8081937103e-147
8.51326550354e-147
8.47705911416e-147
7.09549951929e-147
6.50952769112e-147
4.69634982283e-147
6.86206358774e-147
6.41234211962e-147
5.97405424815e-148
6.49809409448e-148
8.7752854267e-148
1.67311630937e-147
3.72639970726e-147
4.3066547371e-147
3.71877730949e-147
4.81354418846e-147
6.10268221043e-147
6.45902930593e-147
7.13837550672e-147
7.36037784162e-147
6.47332130174e-147
6.05694782384e-147
6.25798856489e-147
9.64042757301e-147
8.02162084771e-147
7.8081937103e-147
8.51326550354e-147
8.47705911416e-147
7.09549951929e-147
6.50952769112e-147
4.69634982283e-147
6.86206358774e-147
6.41234211962e-147
5.97405424815e-148
6.49809409448e-148
8.7752854267e-148
1.67311630937e-147
3.72639970726e-147
4.3066547371e-147
3.71877730949e-147
4.81354418846e-147
6.10268221043e-147
6.45902930593e-147
7.13837550672e-147
7.36037784162e-147
6.47332130174e-147
6.05694782384e-147
6.25798856489e-147
9.64042757301e-147
8.02162084771e-147
7.8081937103e-147
8.51326550354e-147
8.47705911416e-147
7.09549951929e-147
6.50952769112e-147
4.69634982283e-147
6.86206358774e-147
6.41234211962e-147
5.97405424815e-148
6.49809409448e-148
8.7752854267e-148
1.67311630937e-147
3.72639970726e-147
4.3066547371e-147
3.71877730949e-147
4.81354418846e-147
6.10268221043e-147
6.45902930593e-147
7.13837550672e-147
7.36037784162e-147
6.47332130174e-147
6.05694782384e-147
6.25798856489e-147
9.64042757301e-147
8.02162084771e-147
7.8081937103e-147
8.51326550354e-147
8.47705911416e-147
7.09549951929e-147
6.50952769112e-147
4.69634982283e-147
6.86206358774e-147
6.41234211962e-147
5.97405424815e-148
6.49809409448e-148
8.7752854267e-148
1.67311630937e-147
3.72639970726e-147
4.3066547371e-147
3.71877730949e-147
4.81354418846e-147
6.10268221043e-147
6.45902930593e-147
7.13837550672e-147
7.36037784162e-147
6.47332130174e-147
6.05694782384e-147
6.25798856489e-147
9.64042757301e-147
8.02162084771e-147
7.8081937103e-147
8.51326550354e-147
8.47705911416e-147
7.09549951929e-147
6.50952769112e-147
4.69634982283e-147
6.86206358774e-147
6.41234211962e-147
5.97405424815e-148
6.49809409448e-148
8.7752854267e-148
1.67311630937e-147
3.72639970726e-147
4.3066547371e-147
3.71877730949e-147
4.81354418846e-147
6.10268221043e-147
6.45902930593e-147
7.13837550672e-147
7.36037784162e-147
6.47332130174e-147
6.05694782384e-147
6.25798856489e-147
9.64042757301e-147
8.02162084771e-147
7.8081937103e-147
8.51326550354e-147
8.47705911416e-147
7.09549951929e-147
6.50952769112e-147
4.69634982283e-147
6.86206358774e-147
6.41234211962e-147
5.97405424815e-148
6.49809409448e-148
8.7752854267e-148
1.67311630937e-147
3.72639970726e-147
4.3066547371e-147
3.71877730949e-147
4.81354418846e-147
6.10268221043e-147
6.45902930593e-147
7.13837550672e-147
7.36037784162e-147
6.47332130174e-147
6.05694782384e-147
6.25798856489e-147
9.64042757301e-147
8.02162084771e-147
7.8081937103e-147
8.51326550354e-147
8.47705911416e-147
7.09549951929e-147
6.50952769112e-147
4.69634982283e-147
6.86206358774e-147
6.41234211962e-147
5.97405424815e-148
6.49809409448e-148
8.7752854267e-148
1.67311630937e-147
3.72639970726e-147
4.3066547371e-147
3.71877730949e-147
4.81354418846e-147
6.10268221043e-147
6.45902930593e-147
7.13837550672e-147
7.36037784162e-147
6.47332130174e-147
6.05694782384e-147
6.25798856489e-147
9.64042757301e-147
8.02162084771e-147
7.8081937103e-147
8.51326550354e-147
8.47705911416e-147
7.09549951929e-147
6.50952769112e-147
4.69634982283e-147
6.86206358774e-147
6.41234211962e-147
5.97405424815e-148
6.49809409448e-148
8.7752854267e-148
1.67311630937e-147
3.72639970726e-147
4.3066547371e-147
3.71877730949e-147
4.81354418846e-147
6.10268221043e-147
6.45902930593e-147
7.13837550672e-147
7.36037784162e-147
6.47332130174e-147
6.05694782384e-147
6.25798856489e-147
9.64042757301e-147
8.02162084771e-147
7.8081937103e-147
8.51326550354e-147
8.47705911416e-147
7.09549951929e-147
6.50952769112e-147
4.69634982283e-147
6.86206358774e-147
6.41234211962e-147
5.97405424815e-148
6.49809409448e-148
8.7752854267e-148
1.67311630937e-147
3.72639970726e-147
4.3066547371e-147
3.71877730949e-147
4.81354418846e-147
6.10268221043e-147
6.45902930593e-147
7.13837550672e-147
7.36037784162e-147
6.47332130174e-147
6.05694782384e-147
6.25798856489e-147
9.64042757301e-147
8.02162084771e-147
7.8081937103e-147
8.51326550354e-147
8.47705911416e-147
7.09549951929e-147
6.50952769112e-147
4.69634982283e-147
6.86206358774e-147
6.41234211962e-147
5.97405424815e-148
6.49809409448e-148
8.7752854267e-148
1.67311630937e-147
3.72639970726e-147
4.3066547371e-147
3.71877730949e-147
4.81354418846e-147
6.10268221043e-147
6.45902930593e-147
7.13837550672e-147
7.36037784162e-147
6.47332130174e-147
6.05694782384e-147
6.25798856489e-147
9.64042757301e-147
8.02162084771e-147
7.8081937103e-147
8.51326550354e-147
8.47705911416e-147
7.09549951929e-147
6.50952769112e-147
4.69634982283e-147
6.86206358774e-147
6.41234211962e-147
5.97405424815e-148
6.49809409448e-148
8.7752854267e-148
1.67311630937e-147
3.72639970726e-147
4.3066547371e-147
3.71877730949e-147
4.81354418846e-147
6.10268221043e-147
6.45902930593e-147
7.13837550672e-147
7.36037784162e-147
6.47332130174e-147
6.05694782384e-147
6.25798856489e-147
9.64042757301e-147
8.02162084771e-147
7.8081937103e-147
8.51326550354e-147
8.47705911416e-147
7.09549951929e-147
6.50952769112e-147
4.69634982283e-147
6.86206358774e-147
6.41234211962e-147
5.97405424815e-148
6.49809409448e-148
8.7752854267e-148
1.67311630937e-147
3.72639970726e-147
4.3066547371e-147
3.71877730949e-147
4.81354418846e-147
6.10268221043e-147
6.45902930593e-147
7.13837550672e-147
7.36037784162e-147
6.47332130174e-147
6.05694782384e-147
6.25798856489e-147
9.64042757301e-147
8.02162084771e-147
7.8081937103e-147
8.51326550354e-147
8.47705911416e-147
7.09549951929e-147
6.50952769112e-147
4.69634982283e-147
6.86206358774e-147
6.41234211962e-147
5.97405424815e-148
6.49809409448e-148
8.7752854267e-148
1.67311630937e-147
3.72639970726e-147
4.3066547371e-147
3.71877730949e-147
4.81354418846e-147
6.10268221043e-147
6.45902930593e-147
7.13837550672e-147
7.36037784162e-147
6.47332130174e-147
6.05694782384e-147
6.25798856489e-147
9.64042757301e-147
8.02162084771e-147
7.8081937103e-147
8.51326550354e-147
8.47705911416e-147
7.09549951929e-147
6.50952769112e-147
4.69634982283e-147
6.86206358774e-147
6.41234211962e-147
5.97405424815e-148
6.49809409448e-148
8.7752854267e-148
1.67311630937e-147
3.72639970726e-147
4.3066547371e-147
3.71877730949e-147
4.81354418846e-147
6.10268221043e-147
6.45902930593e-147
7.13837550672e-147
7.36037784162e-147
6.47332130174e-147
6.05694782384e-147
6.25798856489e-147
9.64042757301e-147
8.02162084771e-147
7.8081937103e-147
8.51326550354e-147
8.47705911416e-147
7.09549951929e-147
6.50952769112e-147
4.69634982283e-147
6.86206358774e-147
6.41234211962e-147
5.97405424815e-148
6.49809409448e-148
8.7752854267e-148
1.67311630937e-147
3.72639970726e-147
4.3066547371e-147
3.71877730949e-147
4.81354418846e-147
6.10268221043e-147
6.45902930593e-147
7.13837550672e-147
7.36037784162e-147
6.47332130174e-147
6.05694782384e-147
6.25798856489e-147
9.64042757301e-147
8.02162084771e-147
7.8081937103e-147
8.51326550354e-147
8.47705911416e-147
7.09549951929e-147
6.50952769112e-147
4.69634982283e-147
6.86206358774e-147
6.41234211962e-147
5.97405424815e-148
6.49809409448e-148
8.7752854267e-148
1.67311630937e-147
3.72639970726e-147
4.3066547371e-147
3.71877730949e-147
4.81354418846e-147
6.10268221043e-147
6.45902930593e-147
7.13837550672e-147
7.36037784162e-147
6.47332130174e-147
6.05694782384e-147
6.25798856489e-147
9.64042757301e-147
8.02162084771e-147
7.8081937103e-147
8.51326550354e-147
8.47705911416e-147
7.09549951929e-147
6.50952769112e-147
4.69634982283e-147
6.86206358774e-147
6.41234211962e-147
5.97405424815e-148
6.49809409448e-148
8.7752854267e-148
1.67311630937e-147
3.72639970726e-147
4.3066547371e-147
3.71877730949e-147
4.81354418846e-147
6.10268221043e-147
6.45902930593e-147
7.13837550672e-147
7.36037784162e-147
6.47332130174e-147
6.05694782384e-147
6.25798856489e-147
9.64042757301e-147
8.02162084771e-147
7.8081937103e-147
8.51326550354e-147
8.47705911416e-147
7.09549951929e-147
6.50952769112e-147
4.69634982283e-147
6.86206358774e-147
6.41234211962e-147
5.97405424815e-148
6.49809409448e-148
8.7752854267e-148
1.67311630937e-147
3.72639970726e-147
4.3066547371e-147
3.71877730949e-147
4.81354418846e-147
6.10268221043e-147
6.45902930593e-147
7.13837550672e-147
7.36037784162e-147
6.47332130174e-147
6.05694782384e-147
6.25798856489e-147
9.64042757301e-147
8.02162084771e-147
7.8081937103e-147
8.51326550354e-147
8.47705911416e-147
7.09549951929e-147
6.50952769112e-147
4.69634982283e-147
6.86206358774e-147
6.41234211962e-147
5.97405424815e-148
6.49809409448e-148
8.7752854267e-148
1.67311630937e-147
3.72639970726e-147
4.3066547371e-147
3.71877730949e-147
4.81354418846e-147
6.10268221043e-147
6.45902930593e-147
7.13837550672e-147
7.36037784162e-147
6.47332130174e-147
6.05694782384e-147
6.25798856489e-147
9.64042757301e-147
8.02162084771e-147
7.8081937103e-147
8.51326550354e-147
8.47705911416e-147
7.09549951929e-147
6.50952769112e-147
4.69634982283e-147
6.86206358774e-147
6.41234211962e-147
5.97405424815e-148
6.49809409448e-148
8.7752854267e-148
1.67311630937e-147
3.72639970726e-147
4.3066547371e-147
3.71877730949e-147
4.81354418846e-147
6.10268221043e-147
6.45902930593e-147
7.13837550672e-147
7.36037784162e-147
6.47332130174e-147
6.05694782384e-147
6.25798856489e-147
9.64042757301e-147
8.02162084771e-147
7.8081937103e-147
8.51326550354e-147
8.47705911416e-147
7.09549951929e-147
6.50952769112e-147
4.69634982283e-147
6.86206358774e-147
6.41234211962e-147
5.97405424815e-148
6.49809409448e-148
8.7752854267e-148
1.67311630937e-147
3.72639970726e-147
4.3066547371e-147
3.71877730949e-147
4.81354418846e-147
6.10268221043e-147
6.45902930593e-147
7.13837550672e-147
7.36037784162e-147
6.47332130174e-147
6.05694782384e-147
6.25798856489e-147
9.64042757301e-147
8.02162084771e-147
7.8081937103e-147
8.51326550354e-147
8.47705911416e-147
7.09549951929e-147
6.50952769112e-147
4.69634982283e-147
6.86206358774e-147
6.41234211962e-147
5.97405424815e-148
6.49809409448e-148
8.7752854267e-148
1.67311630937e-147
3.72639970726e-147
4.3066547371e-147
3.71877730949e-147
4.81354418846e-147
6.10268221043e-147
6.45902930593e-147
7.13837550672e-147
7.36037784162e-147
6.47332130174e-147
6.05694782384e-147
6.25798856489e-147
9.64042757301e-147
8.02162084771e-147
7.8081937103e-147
8.51326550354e-147
8.47705911416e-147
7.09549951929e-147
6.50952769112e-147
4.69634982283e-147
6.86206358774e-147
6.41234211962e-147
5.97405424815e-148
6.49809409448e-148
8.7752854267e-148
1.67311630937e-147
3.72639970726e-147
4.3066547371e-147
3.71877730949e-147
4.81354418846e-147
6.10268221043e-147
6.45902930593e-147
7.13837550672e-147
7.36037784162e-147
6.47332130174e-147
6.05694782384e-147
6.25798856489e-147
9.64042757301e-147
8.02162084771e-147
7.8081937103e-147
8.51326550354e-147
8.47705911416e-147
7.09549951929e-147
6.50952769112e-147
4.69634982283e-147
6.86206358774e-147
6.41234211962e-147
5.97405424815e-148
6.49809409448e-148
8.7752854267e-148
1.67311630937e-147
3.72639970726e-147
4.3066547371e-147
3.71877730949e-147
4.81354418846e-147
6.10268221043e-147
6.45902930593e-147
7.13837550672e-147
7.36037784162e-147
6.47332130174e-147
6.05694782384e-147
6.25798856489e-147
9.64042757301e-147
8.02162084771e-147
7.8081937103e-147
8.51326550354e-147
8.47705911416e-147
7.09549951929e-147
6.50952769112e-147
4.69634982283e-147
6.86206358774e-147
6.41234211962e-147
5.97405424815e-148
6.49809409448e-148
8.7752854267e-148
1.67311630937e-147
3.72639970726e-147
4.3066547371e-147
3.71877730949e-147
4.81354418846e-147
6.10268221043e-147
6.45902930593e-147
7.13837550672e-147
7.36037784162e-147
6.47332130174e-147
6.05694782384e-147
6.25798856489e-147
9.64042757301e-147
8.02162084771e-147
7.8081937103e-147
8.51326550354e-147
8.47705911416e-147
7.09549951929e-147
6.50952769112e-147
4.69634982283e-147
6.86206358774e-147
6.41234211962e-147
5.97405424815e-148
6.49809409448e-148
8.7752854267e-148
1.67311630937e-147
3.72639970726e-147
4.3066547371e-147
3.71877730949e-147
4.81354418846e-147
6.10268221043e-147
6.45902930593e-147
7.13837550672e-147
7.36037784162e-147
6.47332130174e-147
6.05694782384e-147
6.25798856489e-147
9.64042757301e-147
8.02162084771e-147
7.8081937103e-147
8.51326550354e-147
8.47705911416e-147
7.09549951929e-147
6.50952769112e-147
4.69634982283e-147
6.86206358774e-147
6.41234211962e-147
0.665639432481
4.62298424434e-147
4.32094673291e-147
4.36953951866e-147
5.18227768033e-147
5.47859839344e-147
5.35949842836e-147
5.62723514985e-147
6.59337406654e-147
7.32417145223e-147
6.6886540386e-147
7.94634966978e-147
7.03166193801e-147
5.00124573342e-147
1.27961002476e-147
1.92751383477e-147
1.57211953899e-147
1.71408669736e-147
2.14761057023e-147
2.0675753937e-147
1.92941943421e-147
2.12379057721e-147
2.48680727076e-147
2.86030476123e-147
4.13896198628e-147
3.78166209105e-147
4.62298424434e-147
4.32094673291e-147
4.36953951866e-147
5.18227768033e-147
5.47859839344e-147
5.35949842836e-147
5.62723514985e-147
6.59337406654e-147
7.32417145223e-147
6.6886540386e-147
7.94634966978e-147
7.03166193801e-147
5.00124573342e-147
1.27961002476e-147
1.92751383477e-147
1.57211953899e-147
1.71408669736e-147
2.14761057023e-147
2.0675753937e-147
1.92941943421e-147
2.12379057721e-147
2.48680727076e-147
2.86030476123e-147
4.13896198628e-147
3.78166209105e-147
4.62298424434e-147
4.32094673291e-147
4.36953951866e-147
5.18227768033e-147
5.47859839344e-147
5.35949842836e-147
5.62723514985e-147
6.59337406654e-147
7.32417145223e-147
6.6886540386e-147
7.94634966978e-147
7.03166193801e-147
5.00124573342e-147
1.27961002476e-147
1.92751383477e-147
1.57211953899e-147
1.71408669736e-147
2.14761057023e-147
2.0675753937e-147
1.92941943421e-147
2.12379057721e-147
2.48680727076e-147
2.86030476123e-147
4.13896198628e-147
3.78166209105e-147
4.62298424434e-147
4.32094673291e-147
4.36953951866e-147
5.18227768033e-147
5.47859839344e-147
5.35949842836e-147
5.62723514985e-147
6.59337406654e-147
7.32417145223e-147
6.6886540386e-147
7.94634966978e-147
7.03166193801e-147
5.00124573342e-147
1.27961002476e-147
1.92751383477e-147
1.57211953899e-147
1.71408669736e-147
2.14761057023e-147
2.0675753937e-147
1.92941943421e-147
2.12379057721e-147
2.48680727076e-147
2.86030476123e-147
4.13896198628e-147
3.78166209105e-147
4.62298424434e-147
4.32094673291e-147
4.36953951866e-147
5.18227768033e-147
5.47859839344e-147
5.35949842836e-147
5.62723514985e-147
6.59337406654e-147
7.32417145223e-147
6.6886540386e-147
7.94634966978e-147
7.03166193801e-147
5.00124573342e-147
1.27961002476e-147
1.92751383477e-147
1.57211953899e-147
1.71408669736e-147
2.14761057023e-147
2.0675753937e-147
1.92941943421e-147
2.12379057721e-147
2.48680727076e-147
2.86030476123e-147
4.13896198628e-147
3.78166209105e-147
4.62298424434e-147
4.32094673291e-147
4.36953951866e-147
5.18227768033e-147
5.47859839344e-147
5.35949842836e-147
5.62723514985e-147
6.59337406654e-147
7.32417145223e-147
6.6886540386e-147
7.94634966978e-147
7.03166193801e-147
5.00124573342e-147
1.27961002476e-147
1.92751383477e-147
1.57211953899e-147
1.71408669736e-147
2.14761057023e-147
2.0675753937e-147
1.92941943421e-147
2.12379057721e-147
2.48680727076e-147
2.86030476123e-147
4.13896198628e-147
3.78166209105e-147
4.62298424434e-147
4.32094673291e-147
4.36953951866e-147
5.18227768033e-147
5.47859839344e-147
5.35949842836e-147
5.62723514985e-147
6.59337406654e-147
7.32417145223e-147
6.6886540386e-147
7.94634966978e-147
7.03166193801e-147
5.00124573342e-147
1.27961002476e-147
1.92751383477e-147
1.57211953899e-147
1.71408669736e-147
2.14761057023e-147
2.0675753937e-147
1.92941943421e-147
2.12379057721e-147
2.48680727076e-147
2.86030476123e-147
4.13896198628e-147
3.78166209105e-147
4.62298424434e-147
4.32094673291e-147
4.36953951866e-147
5.18227768033e-147
5.47859839344e-147
5.35949842836e-147
5.62723514985e-147
6.59337406654e-147
7.32417145223e-147
6.6886540386e-147
7.94634966978e-147
7.03166193801e-147
5.00124573342e-147
1.27961002476e-147
1.92751383477e-147
1.57211953899e-147
1.71408669736e-147
2.14761057023e-147
2.0675753937e-147
1.92941943421e-147
2.12379057721e-147
2.48680727076e-147
2.86030476123e-147
4.13896198628e-147
3.78166209105e-147
4.62298424434e-147
4.32094673291e-147
4.36953951866e-147
5.18227768033e-147
5.47859839344e-147
5.35949842836e-147
5.62723514985e-147
6.59337406654e-147
7.32417145223e-147
6.6886540386e-147
7.94634966978e-147
7.03166193801e-147
5.00124573342e-147
1.27961002476e-147
1.92751383477e-147
1.57211953899e-147
1.71408669736e-147
2.14761057023e-147
2.0675753937e-147
1.92941943421e-147
2.12379057721e-147
2.48680727076e-147
2.86030476123e-147
4.13896198628e-147
3.78166209105e-147
4.62298424434e-147
4.32094673291e-147
4.36953951866e-147
5.18227768033e-147
5.47859839344e-147
5.35949842836e-147
5.62723514985e-147
6.59337406654e-147
7.32417145223e-147
6.6886540386e-147
7.94634966978e-147
7.03166193801e-147
5.00124573342e-147
1.27961002476e-147
1.92751383477e-147
1.57211953899e-147
1.71408669736e-147
2.14761057023e-147
2.0675753937e-147
1.92941943421e-147
2.12379057721e-147
2.48680727076e-147
2.86030476123e-147
4.13896198628e-147
3.78166209105e-147
4.62298424434e-147
4.32094673291e-147
4.36953951866e-147
5.18227768033e-147
5.47859839344e-147
5.35949842836e-147
5.62723514985e-147
6.59337406654e-147
7.32417145223e-147
6.6886540386e-147
7.94634966978e-147
7.03166193801e-147
5.00124573342e-147
1.27961002476e-147
1.92751383477e-147
1.57211953899e-147
1.71408669736e-147
2.14761057023e-147
2.0675753937e-147
1.92941943421e-147
2.12379057721e-147
2.48680727076e-147
2.86030476123e-147
4.13896198628e-147
3.78166209105e-147
4.62298424434e-147
4.32094673291e-147
4.36953951866e-147
5.18227768033e-147
5.47859839344e-147
5.35949842836e-147
5.62723514985e-147
6.59337406654e-147
7.32417145223e-147
6.6886540386e-147
7.94634966978e-147
7.03166193801e-147
5.00124573342e-147
1.27961002476e-147
1.92751383477e-147
1.57211953899e-147
1.71408669736e-147
2.14761057023e-147
2.0675753937e-147
1.92941943421e-147
2.12379057721e-147
2.48680727076e-147
2.86030476123e-147
4.13896198628e-147
3.78166209105e-147
4.62298424434e-147
4.32094673291e-147
4.36953951866e-147
5.18227768033e-147
5.47859839344e-147
5.35949842836e-147
5.62723514985e-147
6.59337406654e-147
7.32417145223e-147
6.6886540386e-147
7.94634966978e-147
7.03166193801e-147
5.00124573342e-147
1.27961002476e-147
1.92751383477e-147
1.57211953899e-147
1.71408669736e-147
2.14761057023e-147
2.0675753937e-147
1.92941943421e-147
2.12379057721e-147
2.48680727076e-147
2.86030476123e-147
4.13896198628e-147
3.78166209105e-147
4.62298424434e-147
4.32094673291e-147
4.36953951866e-147
5.18227768033e-147
5.47859839344e-147
5.35949842836e-147
5.62723514985e-147
6.59337406654e-147
7.32417145223e-147
6.6886540386e-147
7.94634966978e-147
7.03166193801e-147
5.00124573342e-147
1.27961002476e-147
1.92751383477e-147
1.57211953899e-147
1.71408669736e-147
2.14761057023e-147
2.0675753937e-147
1.92941943421e-147
2.12379057721e-147
2.48680727076e-147
2.86030476123e-147
4.13896198628e-147
3.78166209105e-147
4.62298424434e-147
4.32094673291e-147
4.36953951866e-147
5.18227768033e-147
5.47859839344e-147
5.35949842836e-147
5.62723514985e-147
6.59337406654e-147
7.32417145223e-147
6.6886540386e-147
7.94634966978e-147
7.03166193801e-147
5.00124573342e-147
1.27961002476e-147
1.92751383477e-147
1.57211953899e-147
1.71408669736e-147
2.14761057023e-147
2.0675753937e-147
1.92941943421e-147
2.12379057721e-147
2.48680727076e-147
2.86030476123e-147
4.13896198628e-147
3.78166209105e-147
4.62298424434e-147
4.32094673291e-147
4.36953951866e-147
5.18227768033e-147
5.47859839344e-147
5.35949842836e-147
5.62723514985e-147
6.59337406654e-147
7.32417145223e-147
6.6886540386e-147
7.94634966978e-147
7.03166193801e-147
5.00124573342e-147
1.27961002476e-147
1.92751383477e-147
1.57211953899e-147
1.71408669736e-147
2.14761057023e-147
2.0675753937e-147
1.92941943421e-147
2.12379057721e-147
2.48680727076e-147
2.86030476123e-147
4.13896198628e-147
3.78166209105e-147
4.62298424434e-147
4.32094673291e-147
4.36953951866e-147
5.18227768033e-147
5.47859839344e-147
5.35949842836e-147
5.62723514985e-147
6.59337406654e-147
7.32417145223e-147
6.6886540386e-147
7.94634966978e-147
7.03166193801e-147
5.00124573342e-147
1.27961002476e-147
1.92751383477e-147
1.57211953899e-147
1.71408669736e-147
2.14761057023e-147
2.0675753937e-147
1.92941943421e-147
2.12379057721e-147
2.48680727076e-147
2.86030476123e-147
4.13896198628e-147
3.78166209105e-147
4.62298424434e-147
4.32094673291e-147
4.36953951866e-147
5.18227768033e-147
5.47859839344e-147
5.35949842836e-147
5.62723514985e-147
6.59337406654e-147
7.32417145223e-147
6.6886540386e-147
7.94634966978e-147
7.03166193801e-147
5.00124573342e-147
1.27961002476e-147
1.92751383477e-147
1.57211953899e-147
1.71408669736e-147
2.14761057023e-147
2.0675753937e-147
1.92941943421e-147
2.12379057721e-147
2.48680727076e-147
2.86030476123e-147
4.13896198628e-147
3.78166209105e-147
4.62298424434e-147
4.32094673291e-147
4.36953951866e-147
5.18227768033e-147
5.47859839344e-147
5.35949842836e-147
5.62723514985e-147
6.59337406654e-147
7.32417145223e-147
6.6886540386e-147
7.94634966978e-147
7.03166193801e-147
5.00124573342e-147
1.27961002476e-147
1.92751383477e-147
1.57211953899e-147
1.71408669736e-147
2.14761057023e-147
2.0675753937e-147
1.92941943421e-147
2.12379057721e-147
2.48680727076e-147
2.86030476123e-147
4.13896198628e-147
3.78166209105e-147
4.62298424434e-147
4.32094673291e-147
4.36953951866e-147
5.18227768033e-147
5.47859839344e-147
5.35949842836e-147
5.62723514985e-147
6.59337406654e-147
7.32417145223e-147
6.6886540386e-147
7.94634966978e-147
7.03166193801e-147
5.00124573342e-147
1.27961002476e-147
1.92751383477e-147
1.57211953899e-147
1.71408669736e-147
2.14761057023e-147
2.0675753937e-147
1.92941943421e-147
2.12379057721e-147
2.48680727076e-147
2.86030476123e-147
4.13896198628e-147
3.78166209105e-147
4.62298424434e-147
4.32094673291e-147
4.36953951866e-147
5.18227768033e-147
5.47859839344e-147
5.35949842836e-147
5.62723514985e-147
6.59337406654e-147
7.32417145223e-147
6.6886540386e-147
7.94634966978e-147
7.03166193801e-147
5.00124573342e-147
1.27961002476e-147
1.92751383477e-147
1.57211953899e-147
1.71408669736e-147
2.14761057023e-147
2.0675753937e-147
1.92941943421e-147
2.12379057721e-147
2.48680727076e-147
2.86030476123e-147
4.13896198628e-147
3.78166209105e-147
4.62298424434e-147
4.32094673291e-147
4.36953951866e-147
5.18227768033e-147
5.47859839344e-147
5.35949842836e-147
5.62723514985e-147
6.59337406654e-147
7.32417145223e-147
6.6886540386e-147
7.94634966978e-147
7.03166193801e-147
5.00124573342e-147
1.27961002476e-147
1.92751383477e-147
1.57211953899e-147
1.71408669736e-147
2.14761057023e-147
2.0675753937e-147
1.92941943421e-147
2.12379057721e-147
2.48680727076e-147
2.86030476123e-147
4.13896198628e-147
3.78166209105e-147
4.62298424434e-147
4.32094673291e-147
4.36953951866e-147
5.18227768033e-147
5.47859839344e-147
5.35949842836e-147
5.62723514985e-147
6.59337406654e-147
7.32417145223e-147
6.6886540386e-147
7.94634966978e-147
7.03166193801e-147
5.00124573342e-147
1.27961002476e-147
1.92751383477e-147
1.57211953899e-147
1.71408669736e-147
2.14761057023e-147
2.0675753937e-147
1.92941943421e-147
2.12379057721e-147
2.48680727076e-147
2.86030476123e-147
4.13896198628e-147
3.78166209105e-147
4.62298424434e-147
4.32094673291e-147
4.36953951866e-147
5.18227768033e-147
5.47859839344e-147
5.35949842836e-147
5.62723514985e-147
6.59337406654e-147
7.32417145223e-147
6.6886540386e-147
7.94634966978e-147
7.03166193801e-147
5.00124573342e-147
1.27961002476e-147
1.92751383477e-147
1.57211953899e-147
1.71408669736e-147
2.14761057023e-147
2.0675753937e-147
1.92941943421e-147
2.12379057721e-147
2.48680727076e-147
2.86030476123e-147
4.13896198628e-147
3.78166209105e-147
4.62298424434e-147
4.32094673291e-147
4.36953951866e-147
5.18227768033e-147
5.47859839344e-147
5.35949842836e-147
5.62723514985e-147
6.59337406654e-147
7.32417145223e-147
6.6886540386e-147
7.94634966978e-147
7.03166193801e-147
5.00124573342e-147
1.27961002476e-147
1.92751383477e-147
1.57211953899e-147
1.71408669736e-147
2.14761057023e-147
2.0675753937e-147
1.92941943421e-147
2.12379057721e-147
2.48680727076e-147
2.86030476123e-147
4.13896198628e-147
3.78166209105e-147
4.62298424434e-147
4.32094673291e-147
4.36953951866e-147
5.18227768033e-147
5.47859839344e-147
5.35949842836e-147
5.62723514985e-147
6.59337406654e-147
7.32417145223e-147
6.6886540386e-147
7.94634966978e-147
7.03166193801e-147
5.00124573342e-147
1.27961002476e-147
1.92751383477e-147
1.57211953899e-147
1.71408669736e-147
2.14761057023e-147
2.0675753937e-147
1.92941943421e-147
2.12379057721e-147
2.48680727076e-147
2.86030476123e-147
4.13896198628e-147
3.78166209105e-147
4.62298424434e-147
4.32094673291e-147
4.36953951866e-147
5.18227768033e-147
5.47859839344e-147
5.35949842836e-147
5.62723514985e-147
6.59337406654e-147
7.32417145223e-147
6.6886540386e-147
7.94634966978e-147
7.03166193801e-147
5.00124573342e-147
1.27961002476e-147
1.92751383477e-147
1.57211953899e-147
1.71408669736e-147
2.14761057023e-147
2.0675753937e-147
1.92941943421e-147
2.12379057721e-147
2.48680727076e-147
2.86030476123e-147
4.13896198628e-147
3.78166209105e-147
4.62298424434e-147
4.32094673291e-147
4.36953951866e-147
5.18227768033e-147
5.47859839344e-147
5.35949842836e-147
5.62723514985e-147
6.59337406654e-147
7.32417145223e-147
6.6886540386e-147
7.94634966978e-147
7.03166193801e-147
5.00124573342e-147
1.27961002476e-147
1.92751383477e-147
1.57211953899e-147
1.71408669736e-147
2.14761057023e-147
2.0675753937e-147
1.92941943421e-147
2.12379057721e-147
2.48680727076e-147
2.86030476123e-147
4.13896198628e-147
3.78166209105e-147
4.62298424434e-147
4.32094673291e-147
4.36953951866e-147
5.18227768033e-147
5.47859839344e-147
5.35949842836e-147
5.62723514985e-147
6.59337406654e-147
7.32417145223e-147
6.6886540386e-147
7.94634966978e-147
7.03166193801e-147
5.00124573342e-147
1.27961002476e-147
1.92751383477e-147
1.57211953899e-147
1.71408669736e-147
2.14761057023e-147
2.0675753937e-147
1.92941943421e-147
2.12379057721e-147
2.48680727076e-147
2.86030476123e-147
4.13896198628e-147
3.78166209105e-147
4.62298424434e-147
4.32094673291e-147
4.36953951866e-147
5.18227768033e-147
5.47859839344e-147
5.35949842836e-147
5.62723514985e-147
6.59337406654e-147
7.32417145223e-147
6.6886540386e-147
7.94634966978e-147
7.03166193801e-147
5.00124573342e-147
1.27961002476e-147
1.92751383477e-147
1.57211953899e-147
1.71408669736e-147
2.14761057023e-147
2.0675753937e-147
1.92941943421e-147
2.12379057721e-147
2.48680727076e-147
2.86030476123e-147
4.13896198628e-147
3.78166209105e-147
4.62298424434e-147
4.32094673291e-147
4.36953951866e-147
5.18227768033e-147
5.47859839344e-147
5.35949842836e-147
5.62723514985e-147
6.59337406654e-147
7.32417145223e-147
6.6886540386e-147
7.94634966978e-147
7.03166193801e-147
5.00124573342e-147
1.27961002476e-147
1.92751383477e-147
1.57211953899e-147
1.71408669736e-147
2.14761057023e-147
2.0675753937e-147
1.92941943421e-147
2.12379057721e-147
2.48680727076e-147
2.86030476123e-147
4.13896198628e-147
3.78166209105e-147
4.62298424434e-147
4.32094673291e-147
4.36953951866e-147
5.18227768033e-147
5.47859839344e-147
5.35949842836e-147
5.62723514985e-147
6.59337406654e-147
7.32417145223e-147
6.6886540386e-147
7.94634966978e-147
7.03166193801e-147
5.00124573342e-147
1.27961002476e-147
1.92751383477e-147
1.57211953899e-147
1.71408669736e-147
2.14761057023e-147
2.0675753937e-147
1.92941943421e-147
2.12379057721e-147
2.48680727076e-147
2.86030476123e-147
4.13896198628e-147
3.78166209105e-147
4.62298424434e-147
4.32094673291e-147
4.36953951866e-147
5.18227768033e-147
5.47859839344e-147
5.35949842836e-147
5.62723514985e-147
6.59337406654e-147
7.32417145223e-147
6.6886540386e-147
7.94634966978e-147
7.03166193801e-147
5.00124573342e-147
1.27961002476e-147
1.92751383477e-147
1.57211953899e-147
1.71408669736e-147
2.14761057023e-147
2.0675753937e-147
1.92941943421e-147
2.12379057721e-147
2.48680727076e-147
2.86030476123e-147
4.13896198628e-147
3.78166209105e-147
4.62298424434e-147
4.32094673291e-147
4.36953951866e-147
5.18227768033e-147
5.47859839344e-147
5.35949842836e-147
5.62723514985e-147
6.59337406654e-147
7.32417145223e-147
6.6886540386e-147
7.94634966978e-147
7.03166193801e-147
5.00124573342e-147
1.27961002476e-147
1.92751383477e-147
1.57211953899e-147
1.71408669736e-147
2.14761057023e-147
2.0675753937e-147
1.92941943421e-147
2.12379057721e-147
2.48680727076e-147
2.86030476123e-147
4.13896198628e-147
3.78166209105e-147
4.62298424434e-147
4.32094673291e-147
4.36953951866e-147
5.18227768033e-147
5.47859839344e-147
5.35949842836e-147
5.62723514985e-147
6.59337406654e-147
7.32417145223e-147
6.6886540386e-147
7.94634966978e-147
7.03166193801e-147
5.00124573342e-147
1.27961002476e-147
1.92751383477e-147
1.57211953899e-147
1.71408669736e-147
2.14761057023e-147
2.0675753937e-147
1.92941943421e-147
2.12379057721e-147
2.48680727076e-147
2.86030476123e-147
4.13896198628e-147
3.78166209105e-147
4.62298424434e-147
4.32094673291e-147
4.36953951866e-147
5.18227768033e-147
5.47859839344e-147
5.35949842836e-147
5.62723514985e-147
6.59337406654e-147
7.32417145223e-147
6.6886540386e-147
7.94634966978e-147
7.03166193801e-147
5.00124573342e-147
1.27961002476e-147
1.92751383477e-147
1.57211953899e-147
1.71408669736e-147
2.14761057023e-147
2.0675753937e-147
1.92941943421e-147
2.12379057721e-147
2.48680727076e-147
2.86030476123e-147
4.13896198628e-147
3.78166209105e-147
4.62298424434e-147
4.32094673291e-147
4.36953951866e-147
5.18227768033e-147
5.47859839344e-147
5.35949842836e-147
5.62723514985e-147
6.59337406654e-147
7.32417145223e-147
6.6886540386e-147
7.94634966978e-147
7.03166193801e-147
5.00124573342e-147
1.27961002476e-147
1.92751383477e-147
1.57211953899e-147
1.71408669736e-147
2.14761057023e-147
2.0675753937e-147
1.92941943421e-147
2.12379057721e-147
2.48680727076e-147
2.86030476123e-147
4.13896198628e-147
3.78166209105e-147
4.62298424434e-147
4.32094673291e-147
4.36953951866e-147
5.18227768033e-147
5.47859839344e-147
5.35949842836e-147
5.62723514985e-147
6.59337406654e-147
7.32417145223e-147
6.6886540386e-147
7.94634966978e-147
7.03166193801e-147
5.00124573342e-147
1.27961002476e-147
1.92751383477e-147
1.57211953899e-147
1.71408669736e-147
2.14761057023e-147
2.0675753937e-147
1.92941943421e-147
2.12379057721e-147
2.48680727076e-147
2.86030476123e-147
4.13896198628e-147
3.78166209105e-147
4.62298424434e-147
4.32094673291e-147
4.36953951866e-147
5.18227768033e-147
5.47859839344e-147
5.35949842836e-147
5.62723514985e-147
6.59337406654e-147
7.32417145223e-147
6.6886540386e-147
7.94634966978e-147
7.03166193801e-147
5.00124573342e-147
1.27961002476e-147
1.92751383477e-147
1.57211953899e-147
1.71408669736e-147
2.14761057023e-147
2.0675753937e-147
1.92941943421e-147
2.12379057721e-147
2.48680727076e-147
2.86030476123e-147
4.13896198628e-147
3.78166209105e-147
4.62298424434e-147
4.32094673291e-147
4.36953951866e-147
5.18227768033e-147
5.47859839344e-147
5.35949842836e-147
5.62723514985e-147
6.59337406654e-147
7.32417145223e-147
6.6886540386e-147
7.94634966978e-147
7.03166193801e-147
5.00124573342e-147
1.27961002476e-147
1.92751383477e-147
1.57211953899e-147
1.71408669736e-147
2.14761057023e-147
2.0675753937e-147
1.92941943421e-147
2.12379057721e-147
2.48680727076e-147
2.86030476123e-147
4.13896198628e-147
3.78166209105e-147
4.62298424434e-147
4.32094673291e-147
4.36953951866e-147
5.18227768033e-147
5.47859839344e-147
5.35949842836e-147
5.62723514985e-147
6.59337406654e-147
7.32417145223e-147
6.6886540386e-147
7.94634966978e-147
7.03166193801e-147
5.00124573342e-147
1.27961002476e-147
1.92751383477e-147
1.57211953899e-147
1.71408669736e-147
2.14761057023e-147
2.0675753937e-147
1.92941943421e-147
2.12379057721e-147
2.48680727076e-147
2.86030476123e-147
4.13896198628e-147
3.78166209105e-147
4.62298424434e-147
4.32094673291e-147
4.36953951866e-147
5.18227768033e-147
5.47859839344e-147
5.35949842836e-147
5.62723514985e-147
6.59337406654e-147
7.32417145223e-147
6.6886540386e-147
7.94634966978e-147
7.03166193801e-147
5.00124573342e-147
1.27961002476e-147
1.92751383477e-147
1.57211953899e-147
1.71408669736e-147
2.14761057023e-147
2.0675753937e-147
1.92941943421e-147
2.12379057721e-147
2.48680727076e-147
2.86030476123e-147
4.13896198628e-147
3.78166209105e-147
4.62298424434e-147
4.32094673291e-147
4.36953951866e-147
5.18227768033e-147
5.47859839344e-147
5.35949842836e-147
5.62723514985e-147
6.59337406654e-147
7.32417145223e-147
6.6886540386e-147
7.94634966978e-147
7.03166193801e-147
5.00124573342e-147
1.27961002476e-147
1.92751383477e-147
1.57211953899e-147
1.71408669736e-147
2.14761057023e-147
2.0675753937e-147
1.92941943421e-147
2.12379057721e-147
2.48680727076e-147
2.86030476123e-147
4.13896198628e-147
3.78166209105e-147
4.62298424434e-147
4.32094673291e-147
4.36953951866e-147
5.18227768033e-147
5.47859839344e-147
5.35949842836e-147
5.62723514985e-147
6.59337406654e-147
7.32417145223e-147
6.6886540386e-147
7.94634966978e-147
7.03166193801e-147
5.00124573342e-147
1.27961002476e-147
1.92751383477e-147
1.57211953899e-147
1.71408669736e-147
2.14761057023e-147
2.0675753937e-147
1.92941943421e-147
2.12379057721e-147
2.48680727076e-147
2.86030476123e-147
4.13896198628e-147
3.78166209105e-147
4.62298424434e-147
4.32094673291e-147
4.36953951866e-147
5.18227768033e-147
5.47859839344e-147
5.35949842836e-147
5.62723514985e-147
6.59337406654e-147
7.32417145223e-147
6.6886540386e-147
7.94634966978e-147
7.03166193801e-147
5.00124573342e-147
1.27961002476e-147
1.92751383477e-147
1.57211953899e-147
1.71408669736e-147
2.14761057023e-147
2.0675753937e-147
1.92941943421e-147
2.12379057721e-147
2.48680727076e-147
2.86030476123e-147
4.13896198628e-147
3.78166209105e-147
4.62298424434e-147
4.32094673291e-147
4.36953951866e-147
5.18227768033e-147
5.47859839344e-147
5.35949842836e-147
5.62723514985e-147
6.59337406654e-147
7.32417145223e-147
6.6886540386e-147
7.94634966978e-147
7.03166193801e-147
5.00124573342e-147
1.27961002476e-147
1.92751383477e-147
1.57211953899e-147
1.71408669736e-147
2.14761057023e-147
2.0675753937e-147
1.92941943421e-147
2.12379057721e-147
2.48680727076e-147
2.86030476123e-147
4.13896198628e-147
3.78166209105e-147
4.62298424434e-147
4.32094673291e-147
4.36953951866e-147
5.18227768033e-147
5.47859839344e-147
5.35949842836e-147
5.62723514985e-147
6.59337406654e-147
7.32417145223e-147
6.6886540386e-147
7.94634966978e-147
7.03166193801e-147
5.00124573342e-147
1.27961002476e-147
1.92751383477e-147
1.57211953899e-147
1.71408669736e-147
2.14761057023e-147
2.0675753937e-147
1.92941943421e-147
2.12379057721e-147
2.48680727076e-147
2.86030476123e-147
4.13896198628e-147
3.78166209105e-147
4.62298424434e-147
4.32094673291e-147
4.36953951866e-147
5.18227768033e-147
5.47859839344e-147
5.35949842836e-147
5.62723514985e-147
6.59337406654e-147
7.32417145223e-147
6.6886540386e-147
7.94634966978e-147
7.03166193801e-147
5.00124573342e-147
1.27961002476e-147
1.92751383477e-147
1.57211953899e-147
1.71408669736e-147
2.14761057023e-147
2.0675753937e-147
1.92941943421e-147
2.12379057721e-147
2.48680727076e-147
2.86030476123e-147
4.13896198628e-147
3.78166209105e-147
4.62298424434e-147
4.32094673291e-147
4.36953951866e-147
5.18227768033e-147
5.47859839344e-147
5.35949842836e-147
5.62723514985e-147
6.59337406654e-147
7.32417145223e-147
6.6886540386e-147
7.94634966978e-147
7.03166193801e-147
5.00124573342e-147
1.27961002476e-147
1.92751383477e-147
1.57211953899e-147
1.71408669736e-147
2.14761057023e-147
2.0675753937e-147
1.92941943421e-147
2.12379057721e-147
2.48680727076e-147
2.86030476123e-147
4.13896198628e-147
3.78166209105e-147
4.62298424434e-147
4.32094673291e-147
4.36953951866e-147
5.18227768033e-147
5.47859839344e-147
5.35949842836e-147
5.62723514985e-147
6.59337406654e-147
7.32417145223e-147
6.6886540386e-147
7.94634966978e-147
7.03166193801e-147
5.00124573342e-147
1.27961002476e-147
1.92751383477e-147
1.57211953899e-147
1.71408669736e-147
2.14761057023e-147
2.0675753937e-147
1.92941943421e-147
2.12379057721e-147
2.48680727076e-147
2.86030476123e-147
4.13896198628e-147
3.78166209105e-147
4.62298424434e-147
4.32094673291e-147
4.36953951866e-147
5.18227768033e-147
5.47859839344e-147
5.35949842836e-147
5.62723514985e-147
6.59337406654e-147
7.32417145223e-147
6.6886540386e-147
7.94634966978e-147
7.03166193801e-147
5.00124573342e-147
1.27961002476e-147
1.92751383477e-147
1.57211953899e-147
1.71408669736e-147
2.14761057023e-147
2.0675753937e-147
1.92941943421e-147
2.12379057721e-147
2.48680727076e-147
2.86030476123e-147
4.13896198628e-147
3.78166209105e-147
65
ellipse
6606
7104
3652
3833
249.018071633
0.0
0.0
0.0
0.0
0.0
0.0
0.0
0.0
0.0
0.00114374262102
0.000522678079496
0.000559573002755
0.00043044077135
0.000418142463597
0.000393545848091
0.000356650924833
0.000356650924833
0.000332054309327
0.000332054309327
0.000332054309327
0.000332054309327
0.000387396694215
0.000448888232979
0.000393545848091
0.000682556080283
0.0
0.0
0.0
0.0
0.0
0.0
0.0
0.0
0.0
0.00114374262102
0.000522678079496
0.000559573002755
0.00043044077135
0.000418142463597
0.000393545848091
0.000356650924833
0.000356650924833
0.000332054309327
0.000332054309327
0.000332054309327
0.000332054309327
0.000387396694215
0.000448888232979
0.000393545848091
0.000682556080283
0.0999902993323
0.000405844155844
0.00043044077135
0.000491932310114
0.00043044077135
0.000387396694215
0.000313606847698
0.00025826446281
0.000221369539551
0.000196772924046
0.000184474616293
0.000166027154664
0.000166027154664
0.000104535615899
7.99390003935e-05
8.608815427e-05
9.22373081464e-05
9.83864620228e-05
0.000110684769776
0.000122983077529
0.000153728846911
0.000190623770169
0.000215220385675
0.000245966155057
0.000215220385675
0.000196772924046
0.000405844155844
0.00043044077135
0.000491932310114
0.00043044077135
0.000387396694215
0.000313606847698
0.00025826446281
0.000221369539551
0.000196772924046
0.000184474616293
0.000166027154664
0.000166027154664
0.000104535615899
7.99390003935e-05
8.608815427e-05
9.22373081464e-05
9.83864620228e-05
0.000110684769776
0.000122983077529
0.000153728846911
0.000190623770169
0.000215220385675
0.000245966155057
0.000215220385675
0.000196772924046
64
rectangle
6573
7163
3618
3868
320.390386872
0.0
0.0
0.0
0.0
0.0
0.0
0.0
0.0
0.0
0.000154976288628
0.000135050765804
9.18787996865e-05
8.357649851e-05
7.36137370982e-05
6.97393298825e-05
6.53114359217e-05
6.64184094119e-05
6.19905154511e-05
6.03300552158e-05
6.1437028706e-05
5.86695949805e-05
5.86695949805e-05
8.13625515296e-05
0.000233017919687
0.000166599510275
0.0
0.0
0.0
0.0
0.0
0.0
0.0
0.0
0.0
0.000154976288628
0.000135050765804
9.18787996865e-05
8.357649851e-05
7.36137370982e-05
6.97393298825e-05
6.53114359217e-05
6.64184094119e-05
6.19905154511e-05
6.03300552158e-05
6.1437028706e-05
5.86695949805e-05
5.86695949805e-05
8.13625515296e-05
0.000233017919687
0.000166599510275
0.0424234425403
7.52741973335e-05
7.63811708237e-05
8.41299852551e-05
0.000120106623687
8.96648527061e-05
6.80788696472e-05
5.31347275295e-05
4.53859130982e-05
3.81905854119e-05
3.43161781962e-05
3.3209204706e-05
3.09952577256e-05
2.10324963138e-05
1.54976288628e-05
1.6604602353e-05
1.71580890981e-05
1.88185493334e-05
2.26929565491e-05
2.65673637648e-05
3.37626914511e-05
4.48324263531e-05
5.92230817256e-05
4.20649926276e-05
3.81905854119e-05
3.70836119217e-05
7.52741973335e-05
7.63811708237e-05
8.41299852551e-05
0.000120106623687
8.96648527061e-05
6.80788696472e-05
5.31347275295e-05
4.53859130982e-05
3.81905854119e-05
3.43161781962e-05
3.3209204706e-05
3.09952577256e-05
2.10324963138e-05
1.54976288628e-05
1.6604602353e-05
1.71580890981e-05
1.88185493334e-05
2.26929565491e-05
2.65673637648e-05
3.37626914511e-05
4.48324263531e-05
5.92230817256e-05
4.20649926276e-05
3.81905854119e-05
3.70836119217e-05
1
64
65
1
1
0.477182072944
floor
