balcony : [854,149] : [790,139,919,160] : confidence,dict,original_word,difference : [71,DM,None,0]
cl : [1243,156] : [1179,129,1307,184] : confidence,dict,original_word,difference : [63,SG,fl,1]
dining : [1454,282] : [1406,272,1503,293] : confidence,dict,original_word,difference : [81,DM,None,0]
bedroom : [343,391] : [274,381,413,402] : confidence,dict,original_word,difference : [86,DM,None,0]
dw : [1148,385] : [1132,378,1164,392] : confidence,dict,original_word,difference : [86,DM,None,0]
kitchen : [1035,471] : [977,461,1094,482] : confidence,dict,original_word,difference : [88,DM,None,0]
living : [1343,735] : [1300,725,1387,745] : confidence,dict,original_word,difference : [78,DM,None,0]
wc : [638,928] : [621,918,655,938] : confidence,dict,original_word,difference : [93,SG,wi,1]
wic : [872,976] : [846,966,899,987] : confidence,dict,original_word,difference : [92,DM,None,0]
dn : [641,1020] : [628,1014,655,1026] : confidence,dict,original_word,difference : [91,SG,di,1]
masterbedroom : [1277,1146] : [1215,1114,1340,1179] : confidence,dict,original_word,difference : [72,DM,None,0]
entry : [266,1140] : [224,1130,309,1150] : confidence,dict,original_word,difference : [74,DM,None,0]
ensuite : [826,1164] : [771,1154,881,1175] : confidence,dict,original_word,difference : [90,DM,None,0]
No Text Detected
