bath : [870,479] : [826,464,915,494] : confidence,dict,original_word,difference : [91,DM,None,0]
walkincloset : [856,881] : [797,849,915,913] : confidence,dict,original_word,difference : [89,DM,None,0]
masterbath : [870,1323] : [812,1283,929,1364] : confidence,dict,original_word,difference : [87,DM,None,0]
walkincloset : [852,1632] : [793,1600,912,1665] : confidence,dict,original_word,difference : [91,DM,None,0]
masterbedroom : [1107,2125] : [1022,2084,1192,2166] : confidence,dict,original_word,difference : [84,DM,None,0]
thirdfloor : [1055,2596] : [897,2576,1214,2616] : confidence,dict,original_word,difference : [87,DM,None,0]
No Text Detected
