wh : [659,154] : [642,145,677,163] : confidence,dict,original_word,difference : [97,DM,None,0]
cargarage : [1091,553] : [1030,518,1153,588] : confidence,dict,original_word,difference : [89,DM,None,0]
powder : [758,1213] : [682,1198,834,1228] : confidence,dict,original_word,difference : [79,DM,None,0]
utility : [1422,1320] : [1372,1309,1473,1332] : confidence,dict,original_word,difference : [86,DM,None,0]
workarea : [980,1896] : [877,1882,1084,1910] : confidence,dict,original_word,difference : [89,DM,None,0]
up : [1442,2111] : [1429,2102,1456,2120] : confidence,dict,original_word,difference : [90,DM,None,0]
firstflooroption : [1023,2550] : [907,2499,1140,2601] : confidence,dict,original_word,difference : [89,DM,None,0]
No Text Detected
