n_id_83 ::: 11.985292434692383
n_id_82 ::: 309.3469543457031
n_id_81 ::: 11.93901538848877
n_id_80 ::: 6.882786273956299
n_id_79 ::: 7.0002641677856445
n_id_75 ::: 53.99592971801758
n_id_74 ::: 13.094243049621582
n_id_73 ::: 6.925620079040527
n_id_72 ::: 7.000237941741943
n_id_71 ::: 13.09422492980957
n_id_67 ::: 53.998252868652344
n_id_66 ::: 14.594545364379883
n_id_65 ::: 14.504927635192871
n_id_64 ::: 15.720837593078613
n_id_63 ::: 193.01783752441406
n_id_62 ::: 37.60003662109375
n_id_61 ::: 39.625091552734375
n_id_60 ::: 45.88386154174805
n_id_59 ::: 58.3785400390625
n_id_58 ::: 42.15531539916992
n_id_56 ::: 123.4000244140625
n_id_54 ::: 65.32169342041016
n_id_53 ::: 309.8708801269531
n_id_51 ::: 775.9672241210938
n_id_50 ::: 809.7733154296875
n_id_49 ::: 531.051513671875
n_id_37 ::: 138.009033203125
n_id_31 ::: 132.48536682128906
n_id_30 ::: 388.5457763671875
n_id_27 ::: 133.65615844726562
n_id_26 ::: 132.3966064453125
n_id_25 ::: 355.8821716308594
n_id_24 ::: 131.19891357421875
n_id_23 ::: 246.01004028320312
n_id_22 ::: 67.50494384765625
n_id_21 ::: 132.5135955810547
n_id_20 ::: 720.0812377929688
n_id_19 ::: 375.2242431640625
n_id_18 ::: 38.068328857421875
n_id_17 ::: 2584.38623046875
n_id_16 ::: 54.925655364990234
n_id_4 ::: 346.8661193847656
n_id_3 ::: 233.95751953125
n_id_2 ::: 283.623779296875
n_id_0 ::: 2156.16748046875
