n_id_4997 ::: 29.77286148071289
n_id_4992 ::: 6
n_id_4991 ::: 6
n_id_4986 ::: 7.5
n_id_4985 ::: 12
n_id_4980 ::: 31.5
n_id_4979 ::: 36
n_id_4968 ::: 69.580078125
n_id_4849 ::: 31.235240936279297
n_id_4844 ::: 6
n_id_4843 ::: 6
n_id_4838 ::: 7.5
n_id_4837 ::: 12
n_id_4832 ::: 31.5
n_id_4831 ::: 36
n_id_4820 ::: 69.580078125
n_id_4710 ::: 6
n_id_4709 ::: 6
n_id_4707 ::: 41.25
n_id_4702 ::: 41.25
n_id_4697 ::: 21
n_id_4693 ::: 21
n_id_4689 ::: 48
n_id_4684 ::: 210.580078125
n_id_4576 ::: 6
n_id_4575 ::: 6
n_id_4570 ::: 36
n_id_4559 ::: 168.580078125
n_id_4449 ::: 6
n_id_4448 ::: 6
n_id_4446 ::: 30
n_id_4442 ::: 21
n_id_4438 ::: 40.5
n_id_4437 ::: 48
n_id_4432 ::: 102.580078125
n_id_4328 ::: 6
n_id_4327 ::: 6
n_id_4325 ::: 30
n_id_4320 ::: 30
n_id_4315 ::: 21
n_id_4311 ::: 21
n_id_4307 ::: 48
n_id_4302 ::: 165.580078125
n_id_4189 ::: 31.235240936279297
n_id_4184 ::: 6
n_id_4183 ::: 6
n_id_4178 ::: 7.5
n_id_4177 ::: 12
n_id_4172 ::: 31.5
n_id_4171 ::: 36
n_id_4160 ::: 69.580078125
n_id_4050 ::: 6
n_id_4049 ::: 6
n_id_4047 ::: 57
n_id_4043 ::: 21
n_id_4039 ::: 40.5
n_id_4038 ::: 48
n_id_4033 ::: 156.580078125
n_id_3925 ::: 6
n_id_3924 ::: 6
n_id_3919 ::: 36
n_id_3908 ::: 132.580078125
n_id_3789 ::: 36.80416488647461
n_id_3784 ::: 6
n_id_3783 ::: 6
n_id_3778 ::: 7.5
n_id_3777 ::: 12
n_id_3772 ::: 31.5
n_id_3771 ::: 36
n_id_3760 ::: 78.580078125
n_id_3650 ::: 111
n_id_3649 ::: 111
n_id_3634 ::: 228
n_id_3494 ::: 97.5
n_id_3493 ::: 97.5
n_id_3478 ::: 207
n_id_3312 ::: 16.712839126586914
n_id_3311 ::: 2.25
n_id_3310 ::: 2.25
n_id_3309 ::: 2.25
n_id_3308 ::: 2.25
n_id_3307 ::: 16.712839126586914
n_id_3305 ::: 192
n_id_3279 ::: 4.367301940917969
n_id_3278 ::: 4.367301940917969
n_id_3277 ::: 6.989337921142578
n_id_3276 ::: 6.989326000213623
n_id_3275 ::: 10.177567481994629
n_id_3274 ::: 10.18128490447998
n_id_3273 ::: 1.45563805103302
n_id_3272 ::: 1.4556448459625244
n_id_3271 ::: 1.6966112852096558
n_id_3270 ::: 1.6966112852096558
n_id_3269 ::: 11.87678050994873
n_id_3268 ::: 11.876784324645996
n_id_3267 ::: 8.478322982788086
n_id_3266 ::: 8.487390518188477
n_id_3265 ::: 5.089993953704834
n_id_3264 ::: 5.089996337890625
n_id_3263 ::: 15.265824317932129
n_id_3262 ::: 15.272557258605957
n_id_3261 ::: 1.6968845129013062
n_id_3260 ::: 1.696884036064148
n_id_3259 ::: 11.876781463623047
n_id_3258 ::: 11.8767728805542
n_id_3257 ::: 8.481135368347168
n_id_3256 ::: 8.481151580810547
n_id_3255 ::: 5.088759422302246
n_id_3254 ::: 5.090579032897949
n_id_3253 ::: 15.27015495300293
n_id_3252 ::: 15.270203590393066
n_id_3251 ::: 4.163479804992676
n_id_3250 ::: 4.561507701873779
n_id_3249 ::: 7.273703098297119
n_id_3248 ::: 7.273700714111328
n_id_3247 ::: 10.181292533874512
n_id_3246 ::: 10.177570343017578
n_id_3245 ::: 1.4542105197906494
n_id_3244 ::: 1.4542109966278076
n_id_3242 ::: 58.319969177246094
n_id_3241 ::: 10.800000190734863
n_id_3240 ::: 10.800000190734863
n_id_3239 ::: 10.800000190734863
n_id_3238 ::: 10.800000190734863
n_id_3237 ::: 10.800000190734863
n_id_3236 ::: 10.800000190734863
n_id_3235 ::: 10.800000190734863
n_id_3234 ::: 10.800000190734863
n_id_3233 ::: 10.800000190734863
n_id_3232 ::: 10.800000190734863
n_id_3231 ::: 10.800000190734863
n_id_3230 ::: 10.800000190734863
n_id_3229 ::: 10.800000190734863
n_id_3228 ::: 10.800000190734863
n_id_3227 ::: 10.800000190734863
n_id_3226 ::: 10.800000190734863
n_id_3225 ::: 37.79997253417969
n_id_3224 ::: 37.79997253417969
n_id_3223 ::: 133.919921875
n_id_3221 ::: 79.10011291503906
n_id_3204 ::: 13.580028533935547
n_id_3203 ::: 1.9300003051757812
n_id_3202 ::: 2.120025634765625
n_id_3201 ::: 1.9300003051757812
n_id_3200 ::: 2.120025634765625
n_id_3199 ::: 13.580028533935547
n_id_3197 ::: 7.303116798400879
n_id_3196 ::: 60.556190490722656
n_id_3195 ::: 60.556190490722656
n_id_3193 ::: 102.70352935791016
n_id_3191 ::: 102.93709564208984
n_id_3188 ::: 69.94853973388672
n_id_3187 ::: 4.2299981117248535
n_id_3186 ::: 4.2299981117248535
n_id_3185 ::: 69.94853973388672
n_id_3183 ::: 107.65997314453125
n_id_3182 ::: 28.5
n_id_3181 ::: 3.6899566650390625
n_id_3180 ::: 28.5
n_id_3179 ::: 107.65997314453125
n_id_3153 ::: 68.08999633789062
n_id_3151 ::: 128.34210205078125
n_id_3150 ::: 2.887625217437744
n_id_3149 ::: 2.887625217437744
n_id_3148 ::: 128.34210205078125
n_id_3144 ::: 42
n_id_3142 ::: 42
n_id_3140 ::: 42
n_id_3138 ::: 39
n_id_3136 ::: 42
n_id_3134 ::: 39
n_id_3132 ::: 29.9694766998291
n_id_3130 ::: 59.765071868896484
n_id_3129 ::: 59.763824462890625
n_id_3128 ::: 7.069474220275879
n_id_3127 ::: 7.069474220275879
n_id_3126 ::: 4.712948322296143
n_id_3125 ::: 4.712948322296143
n_id_3124 ::: 7.069472789764404
n_id_3123 ::: 7.069472789764404
n_id_3122 ::: 4.712947368621826
n_id_3121 ::: 4.712947368621826
n_id_3120 ::: 119.52886199951172
n_id_3112 ::: 472.5
n_id_3091 ::: 472.5
n_id_3070 ::: 50.77553939819336
n_id_3066 ::: 88.91998291015625
n_id_3065 ::: 41.810028076171875
n_id_3064 ::: 41.839996337890625
n_id_3063 ::: 88.91998291015625
n_id_3061 ::: 39.805091857910156
n_id_3060 ::: 93.015625
n_id_3059 ::: 93.015625
n_id_3007 ::: 40.5
n_id_3006 ::: 46.5
n_id_2991 ::: 101.48528289794922
n_id_2859 ::: 76.5
n_id_2858 ::: 70.5
n_id_2843 ::: 161.4852752685547
n_id_2711 ::: 31.5
n_id_2710 ::: 37.5
n_id_2695 ::: 83.48528289794922
n_id_2563 ::: 70.5
n_id_2562 ::: 70.5
n_id_2547 ::: 153
n_id_2415 ::: 150
n_id_2414 ::: 150
n_id_2399 ::: 312
n_id_2267 ::: 163.5
n_id_2266 ::: 163.5
n_id_2251 ::: 333
n_id_2119 ::: 99
n_id_2118 ::: 93
n_id_2103 ::: 206.48529052734375
n_id_1971 ::: 156
n_id_1970 ::: 168
n_id_1955 ::: 340.9705810546875
n_id_1823 ::: 93
n_id_1822 ::: 99
n_id_1807 ::: 206.48529052734375
n_id_1675 ::: 223.5
n_id_1674 ::: 229.5
n_id_1659 ::: 467.48529052734375
n_id_1527 ::: 240
n_id_1526 ::: 228
n_id_1511 ::: 484.9705810546875
n_id_1379 ::: 54
n_id_1378 ::: 42
n_id_1363 ::: 112.97056579589844
n_id_1231 ::: 189
n_id_1230 ::: 189
n_id_1215 ::: 394.9705810546875
n_id_1083 ::: 132
n_id_1082 ::: 138
n_id_1067 ::: 278.48529052734375
n_id_935 ::: 148.5
n_id_934 ::: 142.5
n_id_919 ::: 305.48529052734375
n_id_787 ::: 214.5
n_id_786 ::: 208.5
n_id_771 ::: 431.48529052734375
n_id_639 ::: 387
n_id_638 ::: 393
n_id_623 ::: 794.4852905273438
n_id_491 ::: 405
n_id_490 ::: 417
n_id_475 ::: 838.9705810546875
n_id_343 ::: 390
n_id_342 ::: 402
n_id_327 ::: 808.9705810546875
n_id_195 ::: 312
n_id_194 ::: 300
n_id_179 ::: 628.9705810546875
