privacyscreen : [427,3739] : [104,3691,750,3788] : confidence,dict,original_word,difference : [100,DM,None,0]
wd : [3043,3416] : [2969,3368,3118,3465] : confidence,dict,original_word,difference : [100,DM,None,0]
No Text Detected
