masterbath : [493,73] : [467,59,520,88] : confidence,dict,original_word,difference : [74,DM,None,0]
kitchen : [130,149] : [90,142,171,156] : confidence,dict,original_word,difference : [78,DM,None,0]
masterbedroom : [719,166] : [676,150,762,183] : confidence,dict,original_word,difference : [81,DM,None,0]
dining : [299,188] : [268,181,331,195] : confidence,dict,original_word,difference : [85,DM,None,0]
utility : [444,227] : [414,221,474,234] : confidence,dict,original_word,difference : [65,DM,None,0]
den : [474,280] : [460,275,489,285] : confidence,dict,original_word,difference : [64,SG,men,1]
linen : [615,383] : [601,378,630,388] : confidence,dict,original_word,difference : [71,DM,None,0]
bedroom 2 : [738,456] : [682,449,795,463] : confidence,dict,original_word,difference : [84,DM,None,0]
living : [150,466] : [119,459,181,473] : confidence,dict,original_word,difference : [83,DM,None,0]
foyer : [286,585] : [259,579,314,591] : confidence,dict,original_word,difference : [79,DM,None,0]
coveredporch : [126,666] : [93,652,160,680] : confidence,dict,original_word,difference : [83,DM,None,0]
garage : [563,772] : [523,765,603,780] : confidence,dict,original_word,difference : [77,DM,None,0]
firstfloor : [122,790] : [8,777,237,803] : confidence,dict,original_word,difference : [89,DM,None,0]
No Text Detected
