n_id_1276 ::: 40.975799560546875
n_id_1275 ::: 37.40013122558594
n_id_1274 ::: 37.40013122558594
n_id_1273 ::: 24.337997436523438
n_id_1272 ::: 30.183998107910156
n_id_1271 ::: 25.755992889404297
n_id_1270 ::: 38.18578338623047
n_id_1269 ::: 40.975852966308594
n_id_1268 ::: 17.243995666503906
n_id_1267 ::: 30.18399429321289
n_id_1266 ::: 18.88762664794922
n_id_1265 ::: 12.743608474731445
n_id_1264 ::: 7.42401123046875
n_id_1263 ::: 7.5120086669921875
n_id_1262 ::: 7.42401123046875
n_id_1261 ::: 15.057730674743652
n_id_1260 ::: 16.42034339904785
n_id_1259 ::: 15.941976547241211
n_id_1258 ::: 15.05772876739502
n_id_1257 ::: 9.227972030639648
n_id_1256 ::: 7.5120086669921875
n_id_1255 ::: 12.748421669006348
n_id_1254 ::: 15.391716003417969
n_id_1253 ::: 14.877321243286133
n_id_1252 ::: 3.101839542388916
n_id_1251 ::: 14.618717193603516
n_id_1250 ::: 9.303821563720703
n_id_1249 ::: 12.224100112915039
n_id_1248 ::: 6.197544574737549
n_id_1247 ::: 17.983417510986328
n_id_1246 ::: 3.324005126953125
n_id_1245 ::: 3.101839542388916
n_id_1244 ::: 14.618717193603516
n_id_1243 ::: 9.303821563720703
n_id_1242 ::: 22.490835189819336
n_id_1241 ::: 22.00037956237793
n_id_1240 ::: 9.374008178710938
n_id_1239 ::: 16.891300201416016
n_id_1238 ::: 9.374008178710938
n_id_1237 ::: 13.187995910644531
n_id_1236 ::: 18.88772201538086
n_id_1235 ::: 12.743605613708496
n_id_1234 ::: 7.4239959716796875
n_id_1233 ::: 7.512001037597656
n_id_1232 ::: 7.4239959716796875
n_id_1231 ::: 15.057754516601562
n_id_1230 ::: 16.4205379486084
n_id_1229 ::: 15.939983367919922
n_id_1228 ::: 15.057754516601562
n_id_1227 ::: 9.227909088134766
n_id_1226 ::: 7.512001037597656
n_id_1225 ::: 12.748454093933105
n_id_1224 ::: 15.391678810119629
n_id_1223 ::: 14.877300262451172
n_id_1222 ::: 6.197516918182373
n_id_1221 ::: 9.303821563720703
n_id_1220 ::: 9.303821563720703
n_id_1219 ::: 3.324005126953125
n_id_1218 ::: 3.101827383041382
n_id_1217 ::: 15.6124267578125
n_id_1216 ::: 9.303821563720703
n_id_1215 ::: 12.224114418029785
n_id_1214 ::: 6.197516918182373
n_id_1213 ::: 14.618721008300781
n_id_1212 ::: 3.324005126953125
n_id_1211 ::: 3.101827383041382
n_id_1210 ::: 17.791521072387695
n_id_1209 ::: 22.490835189819336
n_id_1208 ::: 22.000385284423828
n_id_1207 ::: 9.374000549316406
n_id_1206 ::: 22.000385284423828
n_id_1205 ::: 9.374000549316406
n_id_1204 ::: 20.60110855102539
n_id_1203 ::: 6.197534561157227
n_id_1202 ::: 16.670141220092773
n_id_1201 ::: 3.324005126953125
n_id_1200 ::: 3.10184383392334
n_id_1199 ::: 9.303781509399414
n_id_1198 ::: 9.303781509399414
n_id_1197 ::: 12.224124908447266
n_id_1196 ::: 6.197534561157227
n_id_1195 ::: 16.670141220092773
n_id_1194 ::: 3.324005126953125
n_id_1193 ::: 3.10184383392334
n_id_1192 ::: 15.920607566833496
n_id_1191 ::: 9.303781509399414
n_id_1190 ::: 17.10463523864746
n_id_1189 ::: 30.354032516479492
n_id_1188 ::: 20.252456665039062
n_id_1187 ::: 20.252275466918945
n_id_1186 ::: 22.18320655822754
n_id_1185 ::: 20.60105323791504
n_id_1184 ::: 21.728012084960938
n_id_1183 ::: 23.09171485900879
n_id_1182 ::: 6.197519302368164
n_id_1181 ::: 17.808208465576172
n_id_1180 ::: 3.324005126953125
n_id_1179 ::: 3.1018362045288086
n_id_1178 ::: 15.612404823303223
n_id_1177 ::: 9.303780555725098
n_id_1176 ::: 12.224130630493164
n_id_1175 ::: 6.197519302368164
n_id_1174 ::: 9.303780555725098
n_id_1173 ::: 3.324005126953125
n_id_1172 ::: 3.1018362045288086
n_id_1171 ::: 15.612568855285645
n_id_1170 ::: 9.303780555725098
n_id_1169 ::: 30.354055404663086
n_id_1168 ::: 20.253131866455078
n_id_1167 ::: 20.253305435180664
n_id_1166 ::: 22.18338966369629
n_id_1165 ::: 20.601064682006836
n_id_1164 ::: 21.72801971435547
n_id_1163 ::: 23.09366798400879
n_id_1162 ::: 22.18338966369629
n_id_1161 ::: 21.72801971435547
n_id_1160 ::: 13.950004577636719
n_id_1159 ::: 20.628957748413086
n_id_1158 ::: 18.463041305541992
n_id_1157 ::: 30.354055404663086
n_id_1156 ::: 6.197534561157227
n_id_1155 ::: 17.983535766601562
n_id_1154 ::: 3.324005126953125
n_id_1153 ::: 3.10184383392334
n_id_1152 ::: 15.590405464172363
n_id_1151 ::: 15.590405464172363
n_id_1150 ::: 12.224124908447266
n_id_1149 ::: 6.197534561157227
n_id_1148 ::: 15.61244010925293
n_id_1147 ::: 3.324005126953125
n_id_1146 ::: 3.10184383392334
n_id_1145 ::: 17.79156494140625
n_id_1144 ::: 15.590405464172363
n_id_1143 ::: 21.72802734375
n_id_1142 ::: 22.49083137512207
n_id_1141 ::: 18.463041305541992
n_id_1140 ::: 22.18336296081543
n_id_1139 ::: 18.463041305541992
n_id_1138 ::: 22.49083137512207
n_id_1137 ::: 17.57398223876953
n_id_1136 ::: 15.599267959594727
n_id_1135 ::: 19.048553466796875
n_id_1134 ::: 17.38835906982422
n_id_1133 ::: 14.783707618713379
n_id_1132 ::: 17.686126708984375
n_id_1131 ::: 18.668014526367188
n_id_1130 ::: 19.048553466796875
n_id_1129 ::: 18.668006896972656
n_id_1128 ::: 14.490200996398926
n_id_1127 ::: 17.388547897338867
n_id_1126 ::: 15.599265098571777
n_id_1125 ::: 10.149604797363281
n_id_1124 ::: 11.774209976196289
n_id_1123 ::: 10.149604797363281
n_id_1122 ::: 5.9280242919921875
n_id_1121 ::: 8.574020385742188
n_id_1120 ::: 10.613490104675293
n_id_1119 ::: 6.1457319259643555
n_id_1118 ::: 7.330016613006592
n_id_1117 ::: 10.149646759033203
n_id_1116 ::: 12.06002426147461
n_id_1115 ::: 12.674924850463867
n_id_1114 ::: 6.451806545257568
n_id_1113 ::: 10.233654022216797
n_id_1112 ::: 10.23353385925293
n_id_1111 ::: 14.926773071289062
n_id_1110 ::: 1.476762294769287
n_id_1109 ::: 7.527438163757324
n_id_1108 ::: 12.867923736572266
n_id_1107 ::: 14.489252090454102
n_id_1106 ::: 22.000377655029297
n_id_1105 ::: 21.727996826171875
n_id_1104 ::: 20.479995727539062
n_id_1103 ::: 18.162490844726562
n_id_1102 ::: 13.950004577636719
n_id_1101 ::: 9.374000549316406
n_id_1100 ::: 20.747831344604492
n_id_1099 ::: 17.573974609375
n_id_1098 ::: 11.977981567382812
n_id_1097 ::: 15.848732948303223
n_id_1096 ::: 19.84202003479004
n_id_1095 ::: 19.048585891723633
n_id_1094 ::: 18.668014526367188
n_id_1093 ::: 12.697368621826172
n_id_1092 ::: 17.388370513916016
n_id_1091 ::: 14.024017333984375
n_id_1090 ::: 12.699365615844727
n_id_1089 ::: 11.978019714355469
n_id_1088 ::: 8.042007446289062
n_id_1087 ::: 11.321990966796875
n_id_1086 ::: 8.0419921875
n_id_1085 ::: 11.978004455566406
n_id_1084 ::: 16.3067684173584
n_id_1083 ::: 17.573986053466797
n_id_1082 ::: 11.977985382080078
n_id_1081 ::: 15.848740577697754
n_id_1080 ::: 19.84206199645996
n_id_1079 ::: 19.04850196838379
n_id_1078 ::: 18.668018341064453
n_id_1077 ::: 11.978015899658203
n_id_1076 ::: 17.724746704101562
n_id_1075 ::: 15.848740577697754
n_id_1074 ::: 26.035385131835938
n_id_1073 ::: 10.149604797363281
n_id_1072 ::: 11.774371147155762
n_id_1071 ::: 10.149604797363281
n_id_1070 ::: 5.9280242919921875
n_id_1069 ::: 8.574020385742188
n_id_1033 ::: 1.5286781787872314
n_id_1032 ::: 1.5832545757293701
n_id_1031 ::: 1.498142957687378
n_id_1030 ::: 1.493584156036377
n_id_1029 ::: 1.7830957174301147
n_id_1028 ::: 1.5464200973510742
n_id_1027 ::: 1.4981156587600708
n_id_1026 ::: 1.5079050064086914
n_id_897 ::: 0.8726644515991211
n_id_896 ::: 1.6261337995529175
n_id_895 ::: 1.6588505506515503
n_id_894 ::: 1.5378947257995605
n_id_893 ::: 1.4871962070465088
n_id_892 ::: 1.5239877700805664
n_id_891 ::: 1.4886834621429443
n_id_890 ::: 1.5779286623001099
n_id_889 ::: 1.5401990413665771
n_id_886 ::: 0.4617267847061157
n_id_873 ::: 1.5516029596328735
n_id_872 ::: 1.5705657005310059
n_id_828 ::: 0.6330578327178955
n_id_827 ::: 1.5156197547912598
n_id_826 ::: 1.5919219255447388
n_id_814 ::: 1.6270818710327148
n_id_813 ::: 1.5401990413665771
n_id_811 ::: 2.48465633392334
n_id_810 ::: 1.5967715978622437
n_id_809 ::: 1.6260461807250977
n_id_802 ::: 1.627082347869873
n_id_801 ::: 1.5770264863967896
n_id_796 ::: 1.551601767539978
n_id_795 ::: 1.523066759109497
n_id_793 ::: 0.8726634979248047
n_id_792 ::: 1.6530089378356934
n_id_791 ::: 1.6092220544815063
n_id_786 ::: 1.5754064321517944
n_id_785 ::: 1.5228896141052246
n_id_784 ::: 1.4692635536193848
n_id_783 ::: 1.5403251647949219
n_id_782 ::: 1.5779285430908203
n_id_781 ::: 1.540196180343628
n_id_638 ::: 1.5501395463943481
n_id_637 ::: 1.5083417892456055
n_id_636 ::: 1.5368504524230957
n_id_635 ::: 1.3813215494155884
n_id_634 ::: 1.4996594190597534
n_id_633 ::: 1.5049470663070679
n_id_632 ::: 1.4858336448669434
n_id_599 ::: 9.849206924438477
n_id_547 ::: 10.504648208618164
n_id_535 ::: 0.4236006736755371
n_id_532 ::: 11.952682495117188
n_id_531 ::: 1.2990102767944336
n_id_530 ::: 0.725006103515625
n_id_514 ::: 15.238839149475098
n_id_410 ::: 11.168876647949219
n_id_356 ::: 12.590174674987793
n_id_338 ::: 12.560409545898438
n_id_337 ::: 11.176448822021484
n_id_331 ::: 4.181525707244873
n_id_330 ::: 7.7427473068237305
n_id_329 ::: 4.197707653045654
n_id_327 ::: 24.38543128967285
n_id_325 ::: 24.35137367248535
n_id_323 ::: 0.6786237359046936
n_id_322 ::: 1.215331792831421
n_id_314 ::: 2.7663416862487793
n_id_308 ::: 60.34516525268555
n_id_303 ::: 9.842499732971191
n_id_300 ::: 9.877622604370117
n_id_298 ::: 0.6477047204971313
n_id_297 ::: 1.2437127828598022
n_id_277 ::: 2.7665767669677734
n_id_276 ::: 60.34537124633789
n_id_275 ::: 21.84954261779785
n_id_274 ::: 25.86734390258789
n_id_273 ::: 20.602108001708984
n_id_245 ::: 1.1362223625183105
n_id_244 ::: 14.376250267028809
n_id_241 ::: 11.646284103393555
n_id_227 ::: 9.214742660522461
n_id_224 ::: 1.135154366493225
n_id_223 ::: 0.6477046608924866
n_id_215 ::: 0.5958080887794495
n_id_214 ::: 1.2437127828598022
n_id_213 ::: 0.6785485744476318
n_id_211 ::: 18.79487419128418
n_id_210 ::: 1.1614363193511963
n_id_202 ::: 20.593631744384766
n_id_200 ::: 25.826828002929688
n_id_199 ::: 21.797273635864258
n_id_195 ::: 9.249686241149902
n_id_190 ::: 0.5939684510231018
n_id_189 ::: 1.1624338626861572
n_id_164 ::: 20.616012573242188
n_id_162 ::: 20.54001235961914
n_id_161 ::: 245.47979736328125
n_id_158 ::: 51.92206954956055
n_id_152 ::: 50.553401947021484
n_id_131 ::: 24.63018798828125
n_id_84 ::: 11.168876647949219
n_id_83 ::: 12.590554237365723
n_id_82 ::: 12.56063461303711
n_id_81 ::: 11.1764497756958
n_id_80 ::: 95.68156433105469
n_id_77 ::: 4.198205471038818
n_id_76 ::: 28.583904266357422
n_id_75 ::: 4.18152379989624
n_id_74 ::: 11.924758911132812
n_id_73 ::: 32.09231948852539
n_id_72 ::: 97.83982849121094
n_id_71 ::: 221.52999877929688
n_id_63 ::: 659.8267211914062
n_id_55 ::: 2.7668392658233643
n_id_54 ::: 63.11281967163086
n_id_53 ::: 140.67884826660156
n_id_43 ::: 38.86572265625
n_id_41 ::: 19.58855628967285
n_id_39 ::: 20.600727081298828
n_id_38 ::: 79.6304931640625
n_id_37 ::: 249.1550750732422
n_id_34 ::: 21.849510192871094
n_id_33 ::: 25.867170333862305
n_id_32 ::: 202.95892333984375
n_id_28 ::: 36.5562744140625
n_id_27 ::: 283.26019287109375
n_id_24 ::: 158.03744506835938
n_id_22 ::: 35.413944244384766
n_id_21 ::: 113.57128143310547
n_id_19 ::: 2.766789674758911
n_id_18 ::: 63.11193084716797
n_id_17 ::: 140.7525634765625
n_id_16 ::: 20.593982696533203
n_id_15 ::: 95.6578598022461
n_id_13 ::: 25.826936721801758
n_id_12 ::: 21.797096252441406
n_id_11 ::: 198.75997924804688
n_id_8 ::: 36.54176712036133
n_id_4 ::: 313.1473388671875
