patio : [426,315] : [358,295,494,336] : confidence,dict,original_word,difference : [83,DM,None,0]
entry : [1905,539] : [1853,525,1957,553] : confidence,dict,original_word,difference : [86,DM,None,0]
up : [1989,656] : [1977,648,2001,665] : confidence,dict,original_word,difference : [81,DM,None,0]
entry : [994,708] : [918,688,1070,728] : confidence,dict,original_word,difference : [85,DM,None,0]
shelves : [1435,771] : [1401,764,1470,779] : confidence,dict,original_word,difference : [82,DM,None,0]
up : [1117,882] : [1098,870,1136,894] : confidence,dict,original_word,difference : [74,DM,None,0]
mbath : [1558,863] : [1486,850,1631,876] : confidence,dict,original_word,difference : [73,SG,ibath,1]
shelf : [1345,900] : [1315,892,1375,908] : confidence,dict,original_word,difference : [82,DM,None,0]
shelves : [300,1053] : [249,1043,351,1063] : confidence,dict,original_word,difference : [89,DM,None,0]
bath 1 : [545,1187] : [467,1168,624,1207] : confidence,dict,original_word,difference : [84,DM,None,0]
trash : [1098,1189] : [1051,1177,1145,1202] : confidence,dict,original_word,difference : [81,DM,None,0]
shelf : [167,1241] : [124,1229,211,1253] : confidence,dict,original_word,difference : [85,DM,None,0]
cargarage : [1712,1318] : [1654,1284,1771,1352] : confidence,dict,original_word,difference : [86,DM,None,0]
ac : [1922,1469] : [1896,1451,1948,1487] : confidence,dict,original_word,difference : [93,SG,at,1]
cargarage : [709,1857] : [622,1808,796,1907] : confidence,dict,original_word,difference : [83,DM,None,0]
firstfloor : [642,2531] : [490,2511,794,2552] : confidence,dict,original_word,difference : [85,DM,None,0]
No Text Detected
