telrm : [1386,178] : [1326,167,1447,189] : confidence,dict,original_word,difference : [84,DM,None,0]
up : [2637,178] : [2623,170,2651,187] : confidence,dict,original_word,difference : [87,DM,None,0]
exhibit : [2063,244] : [2009,233,2117,256] : confidence,dict,original_word,difference : [80,DM,None,0]
unfinishedfuturemultimedia : [951,427] : [825,379,1077,475] : confidence,dict,original_word,difference : [76,DM,None,0]
weststair : [274,576] : [233,552,315,601] : confidence,dict,original_word,difference : [78,DM,None,0]
hall : [986,623] : [939,609,1033,638] : confidence,dict,original_word,difference : [81,DM,None,0]
chairstorage : [2330,754] : [2292,737,2369,772] : confidence,dict,original_word,difference : [76,DM,None,0]
cl : [711,834] : [680,816,742,853] : confidence,dict,original_word,difference : [94,SG,il,1]
exhibits : [1891,951] : [1813,937,1970,965] : confidence,dict,original_word,difference : [79,DM,None,0]
storage : [1456,1026] : [1368,1012,1545,1041] : confidence,dict,original_word,difference : [80,DM,None,0]
exhibits : [2695,1023] : [2611,1008,2779,1038] : confidence,dict,original_word,difference : [80,DM,None,0]
controls : [2310,1205] : [2258,1197,2363,1214] : confidence,dict,original_word,difference : [73,DM,None,0]
office : [2756,1256] : [2692,1242,2820,1270] : confidence,dict,original_word,difference : [78,DM,None,0]
storage : [2547,1545] : [2500,1537,2594,1553] : confidence,dict,original_word,difference : [73,DM,None,0]
storage : [2853,1545] : [2806,1537,2900,1553] : confidence,dict,original_word,difference : [76,DM,None,0]
exhibits : [1267,1818] : [1183,1804,1351,1833] : confidence,dict,original_word,difference : [82,DM,None,0]
conferencerm : [2671,1824] : [2507,1810,2836,1839] : confidence,dict,original_word,difference : [71,DM,None,0]
restrm : [2270,2239] : [2182,2225,2358,2253] : confidence,dict,original_word,difference : [81,DM,None,0]
cl : [1849,560] : [1834,576,1865,545] : confidence,dict,original_word,difference : [84,SG,ol,1]
No Text Detected
