n_id_484 ::: 540.5039672851562
n_id_478 ::: 540.4915161132812
n_id_470 ::: 113.7773208618164
n_id_464 ::: 150.8162384033203
n_id_462 ::: 50.50262451171875
n_id_460 ::: 50.506866455078125
n_id_458 ::: 50.50262451171875
n_id_456 ::: 50.502685546875
n_id_454 ::: 50.50262451171875
n_id_452 ::: 50.50665283203125
n_id_450 ::: 50.502685546875
n_id_448 ::: 50.506866455078125
n_id_435 ::: 1057.4794921875
n_id_396 ::: 864.6337890625
n_id_377 ::: 864.6356201171875
n_id_372 ::: 864.6657104492188
n_id_360 ::: 233.2317657470703
n_id_359 ::: 369.75201416015625
n_id_355 ::: 233.2198944091797
n_id_354 ::: 690.236083984375
n_id_338 ::: 70.70311737060547
n_id_337 ::: 103.04447937011719
n_id_333 ::: 70.5427474975586
n_id_324 ::: 103.04447937011719
n_id_322 ::: 958.500732421875
n_id_297 ::: 261.02532958984375
n_id_291 ::: 50.86722183227539
n_id_290 ::: 148.65867614746094
n_id_279 ::: 191.17965698242188
n_id_276 ::: 1649.9326171875
n_id_250 ::: 10.153599739074707
n_id_249 ::: 239.59474182128906
n_id_247 ::: 276.2707214355469
n_id_244 ::: 76.24268341064453
n_id_240 ::: 12.564976692199707
n_id_235 ::: 12.564339637756348
n_id_230 ::: 76.24281311035156
n_id_227 ::: 76.24303436279297
n_id_223 ::: 28.345380783081055
n_id_222 ::: 28.345382690429688
n_id_221 ::: 28.3431453704834
n_id_220 ::: 28.34314727783203
n_id_219 ::: 7.62338399887085
n_id_218 ::: 107.11444091796875
n_id_217 ::: 60.027809143066406
n_id_216 ::: 59.78861618041992
n_id_215 ::: 74.37625885009766
n_id_214 ::: 62.85931396484375
n_id_213 ::: 175.03009033203125
n_id_212 ::: 24.743385314941406
n_id_211 ::: 15.730695724487305
n_id_210 ::: 24.983381271362305
n_id_209 ::: 24.98358917236328
n_id_208 ::: 15.730695724487305
n_id_207 ::: 24.743383407592773
n_id_206 ::: 9.0442476272583
n_id_205 ::: 15.782736778259277
n_id_204 ::: 15.718769073486328
n_id_203 ::: 18618.720703125
n_id_202 ::: 5.2745256423950195
n_id_201 ::: 5.274086952209473
n_id_200 ::: 26.38959503173828
n_id_199 ::: 30.912899017333984
n_id_198 ::: 35.43327331542969
n_id_197 ::: 6.790408611297607
n_id_196 ::: 6.790408611297607
n_id_195 ::: 6.790405750274658
n_id_194 ::: 6.790408611297607
n_id_193 ::: 30.90978240966797
n_id_192 ::: 123.89096069335938
n_id_191 ::: 417.170654296875
n_id_190 ::: 15.730677604675293
n_id_189 ::: 15.73067569732666
n_id_188 ::: 15.730677604675293
n_id_187 ::: 15.730677604675293
n_id_186 ::: 15.730679512023926
