ensuite : [1528,489] : [1441,458,1615,521] : confidence,dict,original_word,difference : [100,DM,None,0]
bedroom : [576,889] : [472,858,681,920] : confidence,dict,original_word,difference : [100,DM,None,0]
dining : [1172,732] : [1097,701,1247,764] : confidence,dict,original_word,difference : [100,DM,None,0]
ensuite : [514,489] : [427,458,601,521] : confidence,dict,original_word,difference : [100,DM,None,0]
utility : [1092,437] : [1017,406,1167,469] : confidence,dict,original_word,difference : [100,DM,None,0]
lounge : [899,885] : [816,854,983,917] : confidence,dict,original_word,difference : [100,DM,None,0]
bedroom : [1476,889] : [1372,858,1580,920] : confidence,dict,original_word,difference : [100,DM,None,0]
pool : [601,1170] : [549,1139,653,1201] : confidence,dict,original_word,difference : [100,DM,None,0]
terrace : [1288,1201] : [1201,1170,1375,1233] : confidence,dict,original_word,difference : [100,DM,None,0]
kitchen : [1090,559] : [1003,528,1177,590] : confidence,dict,original_word,difference : [100,DM,None,0]
No Text Detected
