bed : [838,426] : [815,414,861,438] : confidence,dict,original_word,difference : [85,DM,None,0]
desk : [1357,378] : [1327,365,1387,391] : confidence,dict,original_word,difference : [81,DM,None,0]
wardrobe : [1223,603] : [1164,587,1283,619] : confidence,dict,original_word,difference : [72,DM,None,0]
bathroom : [848,792] : [788,777,908,808] : confidence,dict,original_word,difference : [69,DM,None,0]
No Text Detected
