XMLID_1316_ ::: 34.090362548828125
XMLID_1313_ ::: 26.284433364868164
XMLID_1311_ ::: 6.5980072021484375
XMLID_1309_ ::: 20.552627563476562
n_id_38 ::: 38.45220184326172
n_id_37 ::: 38.45219039916992
n_id_36 ::: 20.917999267578125
XMLID_1327_ ::: 34.09327697753906
XMLID_1323_ ::: 27.907718658447266
XMLID_1321_ ::: 6.59600830078125
XMLID_1318_ ::: 24.947782516479492
n_id_32 ::: 38.45219039916992
n_id_31 ::: 38.45219039916992
n_id_30 ::: 20.917999267578125
XMLID_1336_ ::: 34.09327697753906
XMLID_1334_ ::: 20.32470703125
XMLID_1332_ ::: 6.59600830078125
XMLID_1329_ ::: 24.94778060913086
n_id_29 ::: 38.45219039916992
n_id_28 ::: 38.45219039916992
n_id_27 ::: 25.722000122070312
XMLID_1345_ ::: 34.089637756347656
XMLID_1342_ ::: 23.755779266357422
XMLID_1340_ ::: 6.597991943359375
XMLID_1338_ ::: 20.551681518554688
n_id_26 ::: 38.4509391784668
n_id_25 ::: 38.45219039916992
n_id_24 ::: 20.91802978515625
XMLID_1354_ ::: 34.09260559082031
XMLID_1351_ ::: 26.279569625854492
XMLID_1349_ ::: 6.59600830078125
XMLID_1347_ ::: 20.54967498779297
n_id_20 ::: 38.452186584472656
n_id_19 ::: 38.45219039916992
n_id_18 ::: 20.91802978515625
XMLID_1363_ ::: 34.091182708740234
XMLID_1360_ ::: 26.24820899963379
XMLID_1358_ ::: 6.595977783203125
XMLID_1356_ ::: 26.313753128051758
n_id_14 ::: 38.45219039916992
n_id_13 ::: 38.45220184326172
n_id_12 ::: 20.91796875
XMLID_1371_ ::: 34.09333801269531
XMLID_1369_ ::: 20.324607849121094
XMLID_1367_ ::: 6.597983360290527
XMLID_1365_ ::: 26.315767288208008
n_id_8 ::: 38.452205657958984
n_id_7 ::: 38.452205657958984
n_id_6 ::: 20.917999267578125
XMLID_1300_ ::: 422.098876953125
XMLID_1301_ ::: 107.64069366455078
XMLID_1302_ ::: 40.65243911743164
XMLID_1303_ ::: 82.71953582763672
XMLID_1304_ ::: 112.39518737792969
XMLID_1305_ ::: 5388.7158203125
XMLID_1386_ ::: 27.01494026184082
XMLID_1383_ ::: 17.492977142333984
XMLID_1380_ ::: 22.393400192260742
XMLID_1378_ ::: 19.85865020751953
XMLID_1375_ ::: 15.132177352905273
XMLID_1373_ ::: 39.15427017211914
XMLID_1396_ ::: 22.79178237915039
XMLID_1394_ ::: 18.608116149902344
XMLID_1391_ ::: 20.599489212036133
XMLID_1388_ ::: 26.66304588317871
XMLID_1405_ ::: 22.38924789428711
XMLID_1402_ ::: 20.59940528869629
XMLID_1398_ ::: 27.707962036132812
XMLID_1426_ ::: 20.59895896911621
XMLID_1423_ ::: 22.139495849609375
XMLID_1420_ ::: 17.49382209777832
XMLID_1418_ ::: 13.148881912231445
XMLID_1415_ ::: 22.389808654785156
XMLID_1413_ ::: 13.146308898925781
XMLID_1410_ ::: 20.660888671875
XMLID_1408_ ::: 39.15467071533203
XMLID_1448_ ::: 29.724998474121094
XMLID_1445_ ::: 17.493968963623047
XMLID_1442_ ::: 17.495132446289062
XMLID_1440_ ::: 13.14670181274414
XMLID_1438_ ::: 22.98688316345215
XMLID_1436_ ::: 17.031721115112305
XMLID_1433_ ::: 20.663597106933594
XMLID_1429_ ::: 27.71207046508789
