n_id_277 ::: 55.164573669433594
n_id_276 ::: 75.88590240478516
n_id_275 ::: 48.918121337890625
n_id_274 ::: 82.802490234375
n_id_273 ::: 64.68606567382812
n_id_269 ::: 8.11629867553711
n_id_268 ::: 106.04985809326172
n_id_267 ::: 8.118392944335938
n_id_263 ::: 544.1480712890625
n_id_257 ::: 1205.553955078125
n_id_245 ::: 1356.583984375
n_id_240 ::: 0
n_id_225 ::: 509.42803955078125
n_id_224 ::: 509.42401123046875
n_id_223 ::: 1007.599853515625
n_id_222 ::: 2437.3759765625
n_id_221 ::: 39.77191162109375
n_id_220 ::: 52.58795166015625
n_id_219 ::: 52.147727966308594
n_id_218 ::: 57.83859634399414
n_id_217 ::: 38.12200927734375
n_id_216 ::: 53.72527313232422
n_id_213 ::: 39.77001953125
n_id_212 ::: 52.5899658203125
n_id_211 ::: 52.143470764160156
n_id_210 ::: 57.83863830566406
n_id_209 ::: 38.12200927734375
n_id_208 ::: 53.72583770751953
n_id_205 ::: 39.77001953125
n_id_204 ::: 52.5880126953125
n_id_203 ::: 52.14783477783203
n_id_202 ::: 57.838623046875
n_id_201 ::: 38.12200927734375
n_id_200 ::: 53.725250244140625
n_id_197 ::: 39.77001953125
n_id_196 ::: 52.59002685546875
n_id_195 ::: 52.14348220825195
n_id_194 ::: 57.838600158691406
n_id_193 ::: 38.12200927734375
n_id_192 ::: 53.72584533691406
n_id_189 ::: 39.77001953125
n_id_188 ::: 52.589996337890625
n_id_187 ::: 52.14350891113281
n_id_186 ::: 57.83857345581055
n_id_185 ::: 38.12200927734375
n_id_184 ::: 53.72590637207031
n_id_181 ::: 39.77201843261719
n_id_180 ::: 52.592010498046875
n_id_179 ::: 52.14228057861328
n_id_178 ::: 57.83792495727539
n_id_177 ::: 38.123985290527344
n_id_176 ::: 53.72746658325195
n_id_173 ::: 58.254615783691406
n_id_172 ::: 56.14528274536133
n_id_171 ::: 56.561336517333984
n_id_170 ::: 62.84602355957031
n_id_169 ::: 39.77198028564453
n_id_168 ::: 55.86741638183594
n_id_167 ::: 61.5770378112793
n_id_166 ::: 61.700477600097656
n_id_165 ::: 52.59199523925781
n_id_164 ::: 39.769996643066406
n_id_163 ::: 52.146636962890625
n_id_162 ::: 55.86741638183594
n_id_161 ::: 95.074462890625
n_id_158 ::: 57.59954833984375
n_id_157 ::: 33.29589080810547
n_id_156 ::: 56.14767074584961
n_id_155 ::: 56.568634033203125
n_id_154 ::: 62.842010498046875
n_id_153 ::: 39.77000427246094
n_id_152 ::: 55.863487243652344
n_id_151 ::: 61.57749557495117
n_id_150 ::: 39.77001953125
n_id_149 ::: 52.1478385925293
n_id_148 ::: 52.58795166015625
n_id_147 ::: 59.849212646484375
n_id_146 ::: 62.27821350097656
n_id_143 ::: 69.64212036132812
n_id_142 ::: 69.0643310546875
n_id_141 ::: 47.906497955322266
n_id_140 ::: 82.80442810058594
n_id_139 ::: 64.68197631835938
n_id_138 ::: 77.29397583007812
n_id_137 ::: 66.084716796875
n_id_136 ::: 48.915985107421875
n_id_135 ::: 38.108001708984375
n_id_134 ::: 73.51836395263672
n_id_131 ::: 71.66357421875
n_id_130 ::: 69.0643310546875
n_id_129 ::: 69.64550018310547
n_id_128 ::: 116.93973541259766
n_id_127 ::: 71.13941192626953
n_id_126 ::: 71.13908386230469
n_id_125 ::: 75.88711547851562
n_id_124 ::: 76.59654998779297
n_id_123 ::: 82.80442810058594
n_id_122 ::: 38.108001708984375
n_id_121 ::: 82.80235290527344
n_id_120 ::: 38.108001708984375
n_id_119 ::: 73.97010803222656
n_id_118 ::: 46.891998291015625
n_id_117 ::: 68.71334838867188
n_id_116 ::: 116.9389419555664
n_id_115 ::: 75.88383483886719
n_id_114 ::: 71.13905334472656
n_id_113 ::: 55.582000732421875
n_id_112 ::: 82.80235290527344
n_id_111 ::: 38.108001708984375
n_id_108 ::: 70.84614562988281
n_id_107 ::: 40.95304870605469
n_id_106 ::: 69.06620025634766
n_id_105 ::: 62.74394607543945
n_id_104 ::: 55.16538619995117
n_id_103 ::: 82.80242919921875
n_id_102 ::: 71.13910675048828
n_id_101 ::: 66.08468627929688
n_id_100 ::: 46.89208984375
n_id_99 ::: 68.71337127685547
n_id_98 ::: 75.73877716064453
n_id_97 ::: 39.30176544189453
n_id_96 ::: 71.13910675048828
n_id_95 ::: 38.1080322265625
n_id_94 ::: 48.9180908203125
n_id_93 ::: 68.7125244140625
n_id_92 ::: 62.44453430175781
n_id_89 ::: 70.84463500976562
n_id_88 ::: 62.85968017578125
n_id_87 ::: 69.06437683105469
n_id_86 ::: 62.74445724487305
n_id_85 ::: 40.952972412109375
n_id_84 ::: 116.93858337402344
n_id_83 ::: 71.1391372680664
n_id_82 ::: 71.1394271850586
n_id_81 ::: 75.88590240478516
n_id_80 ::: 76.59549713134766
n_id_79 ::: 82.802490234375
n_id_78 ::: 38.1080322265625
n_id_77 ::: 64.48456573486328
n_id_76 ::: 38.1080322265625
n_id_75 ::: 46.89215087890625
n_id_72 ::: 40.95302963256836
n_id_71 ::: 40.95302963256836
n_id_70 ::: 69.06439971923828
n_id_69 ::: 62.74437713623047
n_id_68 ::: 40.95302963256836
n_id_67 ::: 116.93970489501953
n_id_66 ::: 71.13941955566406
n_id_65 ::: 71.13909912109375
n_id_64 ::: 75.88577270507812
n_id_63 ::: 73.97012329101562
n_id_62 ::: 64.68603515625
n_id_61 ::: 75.73887634277344
n_id_58 ::: 69.64498138427734
n_id_57 ::: 40.953025817871094
n_id_56 ::: 69.06644439697266
n_id_55 ::: 62.85973358154297
n_id_54 ::: 40.95299530029297
n_id_53 ::: 116.93881225585938
n_id_52 ::: 71.13910675048828
n_id_51 ::: 71.13939666748047
n_id_50 ::: 75.88705444335938
n_id_49 ::: 73.96939086914062
n_id_48 ::: 64.68203735351562
n_id_47 ::: 75.74159240722656
n_id_46 ::: 75.88581085205078
n_id_45 ::: 64.68203735351562
n_id_44 ::: 48.91603088378906
n_id_43 ::: 64.1417236328125
n_id_42 ::: 68.71328735351562
n_id_41 ::: 116.93878173828125
n_id_38 ::: 70.84609985351562
n_id_37 ::: 40.95298767089844
n_id_36 ::: 69.0663070678711
n_id_35 ::: 71.66064453125
n_id_34 ::: 116.93861389160156
n_id_33 ::: 71.13916015625
n_id_32 ::: 71.1394271850586
n_id_31 ::: 75.88589477539062
n_id_30 ::: 76.59542846679688
n_id_29 ::: 82.802490234375
n_id_28 ::: 38.108062744140625
n_id_27 ::: 82.804443359375
n_id_26 ::: 38.108062744140625
n_id_25 ::: 73.96934509277344
n_id_24 ::: 46.892120361328125
n_id_23 ::: 68.7125015258789
n_id_22 ::: 116.93862915039062
n_id_21 ::: 75.88394927978516
n_id_20 ::: 71.13941955566406
n_id_19 ::: 55.584014892578125
