splash : [1823,1396] : [1715,1351,1931,1441] : confidence,dict,original_word,difference : [100,DM,None,0]
splash : [770,2171] : [663,2128,878,2215] : confidence,dict,original_word,difference : [100,DM,None,0]
study : [1875,2026] : [1781,1983,1969,2069] : confidence,dict,original_word,difference : [100,DM,None,0]
sleep : [793,2594] : [705,2549,882,2639] : confidence,dict,original_word,difference : [100,DM,None,0]
dn : [1314,2908] : [1257,2865,1372,2951] : confidence,dict,original_word,difference : [100,DM,None,0]
view : [1009,408] : [931,365,1087,451] : confidence,dict,original_word,difference : [100,DM,None,0]
No Text Detected
