n_id_3277 ::: 161.6500244140625
n_id_3276 ::: 10.343994140625
n_id_3275 ::: 55.8389892578125
n_id_3274 ::: 15.5169677734375
n_id_3272 ::: 70.6610107421875
n_id_3270 ::: 8.82098388671875
n_id_3268 ::: 92.75390625
n_id_3267 ::: 114.626953125
n_id_3265 ::: 135.31802368164062
n_id_3259 ::: 537.1429443359375
n_id_3257 ::: 16.226043701171875
n_id_3255 ::: 39.740936279296875
n_id_3254 ::: 25.6300048828125
n_id_3253 ::: 9.64202880859375
n_id_3240 ::: 9.64202880859375
n_id_3239 ::: 25.6300048828125
n_id_3238 ::: 16.6920166015625
n_id_3234 ::: 16.6920166015625
n_id_3231 ::: 0
n_id_3228 ::: 25.6300048828125
n_id_3226 ::: 25.625
n_id_3222 ::: 80.760009765625
n_id_3200 ::: 25.625
n_id_3198 ::: 25.625
n_id_3194 ::: 238.30101013183594
n_id_3189 ::: 161.6429901123047
n_id_3187 ::: 182.92898559570312
n_id_3179 ::: 23.513992309570312
n_id_3177 ::: 55.84295654296875
n_id_3176 ::: 73.83497619628906
n_id_3175 ::: 161.76910400390625
n_id_3173 ::: 55.84698486328125
n_id_3172 ::: 735.7019653320312
n_id_3171 ::: 10.343994140625
n_id_3168 ::: 10.343994140625
n_id_3167 ::: 10.343994140625
n_id_3166 ::: 10.343994140625
n_id_3165 ::: 10.343994140625
n_id_3164 ::: 10.343994140625
n_id_3163 ::: 10.343994140625
n_id_3160 ::: 10.343994140625
n_id_3158 ::: 55.844970703125
n_id_3156 ::: 58.783966064453125
n_id_3154 ::: 8.816986083984375
n_id_3153 ::: 341.05303955078125
n_id_3144 ::: 186.79898071289062
n_id_3143 ::: 61.8359375
n_id_3140 ::: 61.8359375
n_id_3139 ::: 285.9169921875
n_id_3132 ::: 752.12158203125
n_id_3131 ::: 1514.2130126953125
n_id_3130 ::: 10.343994140625
n_id_3127 ::: 18.33599853515625
n_id_3126 ::: 10.343994140625
n_id_3125 ::: 10.343994140625
n_id_3124 ::: 104.39801025390625
n_id_3121 ::: 10.343994140625
n_id_3116 ::: 104.39801025390625
n_id_3115 ::: 104.39801025390625
n_id_3114 ::: 104.63198852539062
n_id_3112 ::: 10.34600830078125
n_id_3111 ::: 10.34600830078125
n_id_3110 ::: 94.052001953125
n_id_3109 ::: 0
n_id_3108 ::: 104.63198852539062
n_id_3107 ::: 0
n_id_3104 ::: 35.27197265625
n_id_3103 ::: 35.26800537109375
n_id_3102 ::: 10.34600830078125
n_id_3101 ::: 10.34600830078125
n_id_3100 ::: 35.27197265625
n_id_3099 ::: 35.27197265625
n_id_3098 ::: 35.26800537109375
n_id_3097 ::: 35.26800537109375
n_id_3096 ::: 58.781982421875
n_id_3095 ::: 70.54000854492188
n_id_3088 ::: 86.76397705078125
n_id_3087 ::: 91.22802734375
n_id_3078 ::: 86.76397705078125
n_id_3077 ::: 91.22802734375
n_id_3070 ::: 94.052001953125
n_id_3069 ::: 105.80599975585938
n_id_3066 ::: 52.9000244140625
n_id_3065 ::: 54.31597900390625
n_id_3060 ::: 52.9000244140625
n_id_3059 ::: 64.6619873046875
n_id_3058 ::: 229.24017333984375
n_id_3047 ::: 1313.3179931640625
n_id_3045 ::: 11.75799560546875
n_id_3040 ::: 188.10198974609375
n_id_3039 ::: 105.80599975585938
n_id_3034 ::: 177.7559814453125
n_id_3033 ::: 95.46200561523438
n_id_3024 ::: 10.343994140625
n_id_3021 ::: 10.34600830078125
n_id_3020 ::: 10.34600830078125
n_id_3017 ::: 10.34600830078125
n_id_3016 ::: 10.34600830078125
n_id_3013 ::: 10.34600830078125
n_id_3012 ::: 58.780029296875
n_id_3011 ::: 17.6300048828125
n_id_3006 ::: 58.780029296875
n_id_3005 ::: 17.6300048828125
n_id_3004 ::: 29.389007568359375
n_id_3003 ::: 123.43798828125
n_id_3000 ::: 51.489990234375
n_id_2998 ::: 0.22998046875
n_id_2997 ::: 51.489990234375
n_id_2996 ::: 51.489990234375
n_id_2991 ::: 0
n_id_2990 ::: 35.5
n_id_2989 ::: 35.5
n_id_2988 ::: 51.489990234375
n_id_2987 ::: 51.489990234375
n_id_2986 ::: 35.5
n_id_2985 ::: 51.489990234375
n_id_2984 ::: 35.2659912109375
n_id_2981 ::: 26.5699462890625
n_id_2980 ::: 35.27197265625
n_id_2977 ::: 97.10198974609375
n_id_2976 ::: 114.61505126953125
n_id_2975 ::: 23.50994873046875
n_id_2971 ::: 32.331024169921875
n_id_2968 ::: 47.0260009765625
n_id_2967 ::: 47.02996826171875
n_id_2962 ::: 23.510009765625
n_id_2961 ::: 35.27197265625
n_id_2956 ::: 11.75799560546875
n_id_2953 ::: 38.09197998046875
n_id_2952 ::: 14.80999755859375
n_id_2947 ::: 11.76202392578125
n_id_2942 ::: 70.5360107421875
n_id_2939 ::: 114.7440185546875
n_id_2934 ::: 10.34600830078125
n_id_2931 ::: 10.34600830078125
n_id_2926 ::: 114.7440185546875
n_id_2923 ::: 135.20001220703125
n_id_2920 ::: 26.36343765258789
n_id_2915 ::: 17.49496841430664
n_id_2913 ::: 17.39898681640625
n_id_2911 ::: 24.926025390625
n_id_2904 ::: 56.62429428100586
n_id_2902 ::: 8.915762901306152
n_id_2900 ::: 8.746684074401855
n_id_2898 ::: 60.86281204223633
n_id_2896 ::: 64.25308227539062
n_id_2894 ::: 81.16140747070312
n_id_2892 ::: 12.53227424621582
n_id_2890 ::: 9.688821792602539
n_id_2888 ::: 8.91010856628418
n_id_2886 ::: 8.910112380981445
n_id_2884 ::: 8.840998649597168
n_id_2882 ::: 8.915409088134766
n_id_2880 ::: 8.816311836242676
n_id_2879 ::: 6.058595180511475
n_id_2877 ::: 14.788189888000488
n_id_2864 ::: 10.375284194946289
n_id_2861 ::: 53.447898864746094
n_id_2858 ::: 11.673724174499512
n_id_2845 ::: 9.936554908752441
n_id_2842 ::: 15.948713302612305
n_id_2838 ::: 19.115211486816406
n_id_2836 ::: 11.384451866149902
n_id_2834 ::: 3.5793142318725586
n_id_2828 ::: 145.06402587890625
n_id_2826 ::: 18.3389892578125
n_id_2816 ::: 36.44858932495117
n_id_2815 ::: 4.93798828125
n_id_2812 ::: 13.286869049072266
n_id_2810 ::: 22.757450103759766
n_id_2806 ::: 16.116840362548828
n_id_2802 ::: 19.16314125061035
n_id_2800 ::: 16.2630672454834
n_id_2796 ::: 14.251131057739258
n_id_2794 ::: 5.123016357421875
n_id_2792 ::: 8.72517204284668
n_id_2790 ::: 16.18100357055664
n_id_2786 ::: 18.955289840698242
n_id_2784 ::: 16.579492568969727
n_id_2780 ::: 14.134285926818848
n_id_2778 ::: 4.9600396156311035
n_id_2776 ::: 39.85636520385742
n_id_2774 ::: 16.00634002685547
n_id_2770 ::: 18.930809020996094
n_id_2768 ::: 16.45429229736328
n_id_2764 ::: 14.148331642150879
n_id_2762 ::: 5.029452323913574
n_id_2760 ::: 8.888611793518066
n_id_2758 ::: 15.948713302612305
n_id_2754 ::: 19.115211486816406
n_id_2752 ::: 16.44214630126953
n_id_2748 ::: 14.416647911071777
n_id_2746 ::: 5.035017967224121
n_id_2744 ::: 66.30642700195312
n_id_2727 ::: 9.145237922668457
n_id_2726 ::: 94.45265197753906
n_id_2720 ::: 2.189026355743408
n_id_2718 ::: 32.71068572998047
n_id_2714 ::: 31.028045654296875
n_id_2713 ::: 103.57101440429688
n_id_2710 ::: 159.65481567382812
n_id_2706 ::: 7.311540603637695
n_id_2704 ::: 2.257816791534424
n_id_2700 ::: 500.6839599609375
n_id_2682 ::: 199.74395751953125
n_id_2666 ::: 221.7239990234375
n_id_2646 ::: 542.6680908203125
n_id_2638 ::: 96.5150146484375
n_id_2634 ::: 6.11102294921875
n_id_2632 ::: 310.83294677734375
n_id_2631 ::: 5.8800048828125
n_id_2630 ::: 5.8800048828125
n_id_2629 ::: 5.8800048828125
n_id_2626 ::: 5.8800048828125
n_id_2622 ::: 0.6661803126335144
n_id_2618 ::: 0.6703600287437439
n_id_2584 ::: 18.724769592285156
n_id_2581 ::: 3.1011528968811035
n_id_2578 ::: 0.333743691444397
n_id_2577 ::: 0.5268656611442566
n_id_2576 ::: 0.7020263671875
n_id_2575 ::: 0.5258806943893433
n_id_2574 ::: 0.5223382115364075
n_id_2573 ::: 0.5258806943893433
n_id_2572 ::: 0.5276814699172974
n_id_2571 ::: 0.4639892578125
n_id_2570 ::: 0.7020263671875
n_id_2569 ::: 0.5276814699172974
n_id_2568 ::: 0.5250071883201599
n_id_2566 ::: 1.3322248458862305
n_id_2550 ::: 1.2709431648254395
n_id_2549 ::: 1.1752008199691772
n_id_2548 ::: 1.5732735395431519
n_id_2547 ::: 1.2589771747589111
n_id_2546 ::: 1.3761547803878784
n_id_2544 ::: 105.746826171875
n_id_2542 ::: 13.332828521728516
n_id_2540 ::: 0.8497926592826843
n_id_2539 ::: 12.948166847229004
n_id_2537 ::: 0.8448156714439392
n_id_2536 ::: 5.716487884521484
n_id_2533 ::: 0.6874843835830688
n_id_2499 ::: 16.181488037109375
n_id_2497 ::: 8.031445503234863
n_id_2494 ::: 0.5241814255714417
n_id_2493 ::: 0.469970703125
n_id_2492 ::: 0.5223685503005981
n_id_2491 ::: 0.5277633666992188
n_id_2490 ::: 0.4720458984375
n_id_2489 ::: 0.6731903553009033
n_id_2488 ::: 0.5232241153717041
n_id_2487 ::: 0.469970703125
n_id_2486 ::: 0.526845395565033
n_id_2485 ::: 0.5250071883201599
n_id_2484 ::: 0.745677649974823
n_id_2482 ::: 1.2645281553268433
n_id_2466 ::: 1.1799805164337158
n_id_2465 ::: 1.5051758289337158
n_id_2464 ::: 1.3307520151138306
n_id_2463 ::: 1.326515793800354
n_id_2462 ::: 1.5014015436172485
n_id_2460 ::: 105.87870025634766
n_id_2459 ::: 13.766059875488281
n_id_2457 ::: 0.6617966294288635
n_id_2456 ::: 12.75299072265625
n_id_2450 ::: 18.339981079101562
n_id_2430 ::: 1.749342918395996
n_id_2422 ::: 6.7783966064453125
n_id_2419 ::: 0.23602294921875
n_id_2403 ::: 4.657188415527344
n_id_2401 ::: 22.08431625366211
n_id_2384 ::: 7.76202392578125
n_id_2383 ::: 0.5277360677719116
n_id_2382 ::: 0.3818489909172058
n_id_2361 ::: 3.169879913330078
n_id_2354 ::: 4.94000244140625
n_id_2345 ::: 3.4422097206115723
n_id_2343 ::: 36.913970947265625
n_id_2329 ::: 20.102996826171875
n_id_2322 ::: 0.70697021484375
n_id_2308 ::: 8.465972900390625
n_id_2300 ::: 0.5259080529212952
n_id_2278 ::: 0.2350006103515625
n_id_2266 ::: 2.661113739013672
n_id_2215 ::: 8.11199951171875
n_id_2214 ::: 0.5250340104103088
n_id_2213 ::: 0.37651726603507996
n_id_2192 ::: 3.111717700958252
n_id_2185 ::: 5.1719970703125
n_id_2176 ::: 3.4171924591064453
n_id_2174 ::: 37.15857696533203
n_id_2168 ::: 0.4720458984375
n_id_2156 ::: 115.91166687011719
n_id_2148 ::: 95.697998046875
n_id_2145 ::: 95.697998046875
n_id_2139 ::: 27.626245498657227
n_id_2138 ::: 0
n_id_2137 ::: 0
n_id_2127 ::: 58.413490295410156
n_id_2126 ::: 24.338905334472656
n_id_2124 ::: 35.21927261352539
n_id_2123 ::: 37.6199951171875
n_id_2112 ::: 37.149993896484375
n_id_2090 ::: 383.50701904296875
n_id_2074 ::: 24.985151290893555
n_id_2068 ::: 35.02516174316406
n_id_2064 ::: 12.055975914001465
n_id_2061 ::: 38.555999755859375
n_id_2060 ::: 19.96247673034668
n_id_2058 ::: 16.19920539855957
n_id_2051 ::: 94.58177947998047
n_id_2050 ::: 35.99866485595703
n_id_2048 ::: 78.3609619140625
n_id_2046 ::: 6.345001220703125
n_id_2045 ::: 7.875
n_id_2042 ::: 30.8060302734375
n_id_2038 ::: 51.563804626464844
n_id_2034 ::: 8.112991333007812
n_id_2030 ::: 32.21197509765625
n_id_2026 ::: 294.72906494140625
n_id_2025 ::: 7.28802490234375
n_id_2022 ::: 7.28802490234375
n_id_2021 ::: 19.048004150390625
n_id_2020 ::: 46.84124755859375
n_id_2017 ::: 29.50799560546875
n_id_2010 ::: 12.697006225585938
n_id_1992 ::: 67.1878662109375
n_id_1989 ::: 56.54499816894531
n_id_1986 ::: 34.3280029296875
n_id_1978 ::: 0
n_id_1977 ::: 43.967987060546875
n_id_1976 ::: 15.280029296875
n_id_1972 ::: 76.41014862060547
n_id_1967 ::: 76.53604125976562
n_id_1951 ::: 71.9520263671875
n_id_1947 ::: 207.968017578125
n_id_1945 ::: 79.4739990234375
n_id_1943 ::: 131.4896240234375
n_id_1942 ::: 44.204010009765625
n_id_1939 ::: 44.204010009765625
n_id_1934 ::: 42.04103088378906
n_id_1933 ::: 3.291015625
n_id_1929 ::: 186.1060791015625
n_id_1928 ::: 7.28802490234375
n_id_1925 ::: 71.9520263671875
n_id_1924 ::: 4.468017578125
n_id_1919 ::: 71.9520263671875
n_id_1918 ::: 4.468017578125
n_id_1915 ::: 71.9520263671875
n_id_1914 ::: 4.468017578125
n_id_1909 ::: 0
n_id_1904 ::: 71.9520263671875
n_id_1903 ::: 4.468017578125
n_id_1900 ::: 7.28802490234375
n_id_1899 ::: 45.24674987792969
n_id_1895 ::: 24.4530029296875
n_id_1891 ::: 1.5033347606658936
n_id_1888 ::: 6.112060546875
n_id_1886 ::: 5.8800048828125
n_id_1869 ::: 36.91595458984375
n_id_1868 ::: 38.976341247558594
n_id_1864 ::: 21.51800537109375
n_id_1859 ::: 7.2860107421875
n_id_1857 ::: 38.731502532958984
n_id_1848 ::: 126.74505615234375
n_id_1842 ::: 12.34764289855957
n_id_1836 ::: 64.30694580078125
n_id_1827 ::: 35.27197265625
n_id_1822 ::: 15.8690185546875
n_id_1818 ::: 14.688995361328125
n_id_1816 ::: 25.62701416015625
n_id_1814 ::: 496.2330017089844
n_id_1812 ::: 180.10894775390625
n_id_1803 ::: 0.47802734375
n_id_1791 ::: 0.7080078125
n_id_1786 ::: 73.12298583984375
n_id_1784 ::: 90.52001953125
n_id_1782 ::: 47.13409423828125
n_id_1779 ::: 22.572021484375
n_id_1774 ::: 191.15399169921875
n_id_1769 ::: 225.47998046875
n_id_1767 ::: 22.8079833984375
n_id_1763 ::: 5.8800048828125
n_id_1762 ::: 36.91595458984375
n_id_1749 ::: 36.68194580078125
n_id_1665 ::: 5.8800048828125
n_id_1664 ::: 5.8800048828125
n_id_1663 ::: 20.926025390625
n_id_1660 ::: 11.28399658203125
n_id_1643 ::: 24.447998046875
n_id_1633 ::: 5.8800048828125
n_id_1632 ::: 50.670989990234375
n_id_1627 ::: 26.10101318359375
n_id_1624 ::: 49.733001708984375
n_id_1618 ::: 37.7440185546875
n_id_1616 ::: 7.28399658203125
n_id_1613 ::: 27.510009765625
n_id_1608 ::: 15.7540283203125
n_id_1607 ::: 0
n_id_1606 ::: 0
n_id_1605 ::: 15.28997802734375
n_id_1596 ::: 14.10797119140625
n_id_1595 ::: 0
n_id_1594 ::: 39.7440185546875
n_id_1577 ::: 41.1519775390625
n_id_1576 ::: 8.92999267578125
n_id_1575 ::: 8.92999267578125
n_id_1574 ::: 8.70001220703125
n_id_1573 ::: 8.70001220703125
n_id_1560 ::: 0
n_id_1558 ::: 50.08203125
n_id_1557 ::: 9.166015625
n_id_1556 ::: 9.166015625
n_id_1555 ::: 27.97998046875
n_id_1536 ::: 7.2919921875
n_id_1499 ::: 129.0880126953125
n_id_1496 ::: 143.89599609375
n_id_1470 ::: 7.2919921875
n_id_1463 ::: 27.97998046875
n_id_1454 ::: 16.22601318359375
n_id_1453 ::: 20.6920166015625
n_id_1448 ::: 7.28399658203125
n_id_1437 ::: 5.8800048828125
n_id_1436 ::: 129.0880126953125
n_id_1433 ::: 11.7559814453125
n_id_1432 ::: 11.7559814453125
n_id_1430 ::: 123.2120361328125
n_id_1429 ::: 4.2359619140625
n_id_1424 ::: 7.2840576171875
n_id_1421 ::: 11.7559814453125
n_id_1404 ::: 26.097991943359375
n_id_1402 ::: 24.3330078125
n_id_1400 ::: 47.13409423828125
n_id_1398 ::: 22.802978515625
n_id_1397 ::: 32.916015625
n_id_1394 ::: 15.28997802734375
n_id_1391 ::: 17.63397216796875
n_id_1390 ::: 5.8800048828125
n_id_1387 ::: 5.8800048828125
n_id_1386 ::: 10.8179931640625
n_id_1322 ::: 34.0859375
n_id_1319 ::: 11.2840576171875
n_id_1277 ::: 18.8079833984375
n_id_1276 ::: 18.8079833984375
n_id_1275 ::: 7.998046875
n_id_1274 ::: 7.998046875
n_id_1272 ::: 5.1719970703125
n_id_1271 ::: 8.4620361328125
n_id_1270 ::: 8.4620361328125
n_id_1249 ::: 5.8800048828125
n_id_1248 ::: 0.7020263671875
n_id_1231 ::: 7.287994384765625
n_id_1226 ::: 7.287994384765625
n_id_1225 ::: 21.156005859375
n_id_1222 ::: 21.156005859375
n_id_1217 ::: 0.47802734375
n_id_1214 ::: 0.4659423828125
n_id_1212 ::: 11.7559814453125
n_id_1209 ::: 7.2840576171875
n_id_1043 ::: 1.8800048828125
n_id_1042 ::: 5.8800048828125
n_id_1041 ::: 0.7080078125
n_id_1038 ::: 0.7080078125
n_id_1037 ::: 0.7080078125
n_id_1025 ::: 5.8800048828125
n_id_1022 ::: 47.0260009765625
n_id_897 ::: 46.553955078125
n_id_895 ::: 46.553955078125
n_id_893 ::: 0
n_id_892 ::: 54.31597900390625
n_id_889 ::: 54.31597900390625
n_id_871 ::: 7.28802490234375
n_id_868 ::: 45.614013671875
n_id_867 ::: 105.8079833984375
n_id_866 ::: 66.30599975585938
n_id_861 ::: 105.802001953125
n_id_860 ::: 29.389984130859375
n_id_841 ::: 4
n_id_840 ::: 4.93798828125
n_id_829 ::: 7.2919921875
n_id_828 ::: 7.2919921875
n_id_827 ::: 7.287994384765625
n_id_826 ::: 7.287994384765625
n_id_825 ::: 7.75799560546875
n_id_824 ::: 7.75799560546875
n_id_823 ::: 11.290008544921875
n_id_822 ::: 11.290008544921875
n_id_821 ::: 15.51800537109375
n_id_820 ::: 15.51800537109375
n_id_799 ::: 7.2919921875
n_id_798 ::: 7.2919921875
n_id_797 ::: 7.287994384765625
n_id_796 ::: 7.287994384765625
n_id_792 ::: 6.584014892578125
n_id_791 ::: 14.108001708984375
n_id_790 ::: 14.108001708984375
n_id_741 ::: 7.287994384765625
n_id_736 ::: 7.2919921875
n_id_735 ::: 7.2919921875
n_id_734 ::: 0
n_id_731 ::: 7.2919921875
n_id_730 ::: 7.2919921875
n_id_727 ::: 7.287994384765625
n_id_722 ::: 105.802001953125
n_id_719 ::: 0
n_id_718 ::: 107.4539794921875
n_id_717 ::: 107.4539794921875
n_id_716 ::: 12.928009033203125
n_id_715 ::: 12.928009033203125
n_id_714 ::: 92.8759765625
n_id_713 ::: 5.6400146484375
n_id_708 ::: 7.287994384765625
n_id_705 ::: 0.468017578125
n_id_704 ::: 9.8759765625
n_id_703 ::: 0.468017578125
n_id_702 ::: 0.468017578125
n_id_701 ::: 24.4539794921875
n_id_700 ::: 24.4539794921875
n_id_699 ::: 0.468017578125
n_id_698 ::: 0.468017578125
n_id_697 ::: 24.4539794921875
n_id_696 ::: 24.4539794921875
n_id_689 ::: 7.52398681640625
n_id_674 ::: 28.68597412109375
n_id_673 ::: 28.68597412109375
n_id_672 ::: 7.52398681640625
n_id_671 ::: 7.52398681640625
n_id_669 ::: 8.936004638671875
n_id_668 ::: 28.68597412109375
n_id_667 ::: 28.68597412109375
n_id_666 ::: 7.52398681640625
n_id_665 ::: 7.52398681640625
n_id_664 ::: 28.69000244140625
n_id_663 ::: 28.69000244140625
n_id_662 ::: 28.68597412109375
n_id_661 ::: 28.68597412109375
n_id_660 ::: 7.52398681640625
n_id_659 ::: 7.52398681640625
n_id_658 ::: 17.399993896484375
n_id_657 ::: 28.69000244140625
n_id_656 ::: 28.69000244140625
n_id_655 ::: 1.410003662109375
n_id_654 ::: 28.68597412109375
n_id_653 ::: 28.68597412109375
n_id_652 ::: 7.52398681640625
n_id_651 ::: 7.52398681640625
n_id_649 ::: 47.498016357421875
n_id_640 ::: 27.50799560546875
n_id_639 ::: 27.50799560546875
n_id_638 ::: 67.95001220703125
n_id_637 ::: 67.95001220703125
n_id_632 ::: 27.2760009765625
n_id_631 ::: 27.2760009765625
n_id_630 ::: 69.364013671875
n_id_629 ::: 69.364013671875
n_id_628 ::: 0
n_id_615 ::: 98.51800537109375
n_id_605 ::: 212.083984375
n_id_604 ::: 212.083984375
n_id_603 ::: 93.1099853515625
n_id_578 ::: 26.572021484375
n_id_576 ::: 38.795989990234375
n_id_575 ::: 38.795989990234375
n_id_566 ::: 26.33599853515625
n_id_565 ::: 34.3280029296875
n_id_564 ::: 34.3280029296875
n_id_563 ::: 34.3280029296875
n_id_562 ::: 7.5260009765625
n_id_559 ::: 11.05401611328125
n_id_558 ::: 5.8759765625
n_id_551 ::: 43.96197509765625
n_id_550 ::: 43.96197509765625
n_id_534 ::: 57.6080322265625
n_id_533 ::: 57.6080322265625
n_id_532 ::: 8.7020263671875
n_id_531 ::: 8.7020263671875
n_id_514 ::: 27.03802490234375
n_id_498 ::: 85.35400390625
n_id_493 ::: 4.46197509765625
n_id_492 ::: 4.46197509765625
n_id_491 ::: 38.7979736328125
n_id_490 ::: 38.7979736328125
n_id_489 ::: 61.13397216796875
n_id_484 ::: 4.46197509765625
n_id_483 ::: 38.7979736328125
n_id_482 ::: 22.80401611328125
n_id_481 ::: 7.28399658203125
n_id_480 ::: 7.28399658203125
n_id_479 ::: 7.28399658203125
n_id_478 ::: 3.52801513671875
n_id_477 ::: 3.52801513671875
n_id_476 ::: 22.80401611328125
n_id_475 ::: 22.80401611328125
n_id_474 ::: 7.28399658203125
n_id_473 ::: 7.28399658203125
n_id_472 ::: 3.52801513671875
n_id_471 ::: 3.52801513671875
n_id_469 ::: 22.80401611328125
n_id_468 ::: 9.64202880859375
n_id_461 ::: 10.34600830078125
n_id_454 ::: 5.8800048828125
n_id_453 ::: 21.1619873046875
n_id_397 ::: 15.7540283203125
n_id_396 ::: 6.82598876953125
n_id_387 ::: 15.7540283203125
n_id_378 ::: 9.8759765625
n_id_375 ::: 7.28399658203125
n_id_374 ::: 82.2919921875
n_id_371 ::: 4.23602294921875
n_id_368 ::: 43.969970703125
n_id_348 ::: 7.28399658203125
n_id_231 ::: 78.05999755859375
n_id_230 ::: 31.97998046875
n_id_221 ::: 67.01397705078125
n_id_220 ::: 30.0999755859375
n_id_167 ::: 7.2919921875
n_id_166 ::: 7.2919921875
n_id_165 ::: 9.40802001953125
n_id_164 ::: 9.40802001953125
n_id_153 ::: 7.2860107421875
n_id_152 ::: 7.2860107421875
n_id_151 ::: 9.635986328125
n_id_150 ::: 9.635986328125
n_id_133 ::: 7.2919921875
n_id_132 ::: 7.2919921875
n_id_131 ::: 11.052001953125
n_id_130 ::: 11.052001953125
n_id_93 ::: 81.11798095703125
n_id_48 ::: 57.37200927734375
n_id_47 ::: 8.92999267578125
n_id_46 ::: 8.92999267578125
n_id_45 ::: 4.46197509765625
n_id_44 ::: 4.23602294921875
n_id_39 ::: 46.78997802734375
n_id_38 ::: 46.78997802734375
n_id_37 ::: 6.8179931640625
n_id_36 ::: 6.8179931640625
n_id_23 ::: 4.46197509765625
n_id_22 ::: 4.23602294921875
n_id_14 ::: 44.20001220703125
n_id_13 ::: 44.20001220703125
n_id_6 ::: 5.8759765625
n_id_5 ::: 18.572021484375
n_id_4 ::: 18.572021484375
n_id_3 ::: 11.05401611328125
n_id_0 ::: 7.5260009765625
