25
1
0
2
rectangle
41
99
31
104
46.2276973253
0.0
0.0
0.0
0.0
0.0
0.0
0.0
0.0
0.0
0.0
0.0
0.0
0.0
0.0
0.0
0.116279069767
0.093023255814
0.0542635658915
0.0542635658915
0.178294573643
0.131782945736
0.108527131783
0.108527131783
0.077519379845
0.0697674418605
0.241508537254
0.0271317829457
0.031007751938
0.031007751938
0.031007751938
0.046511627907
0.046511627907
0.062015503876
0.0542635658915
0.046511627907
0.0387596899225
0.0387596899225
0.031007751938
0.0271317829457
0.015503875969
0.0193798449612
0.0193798449612
0.0232558139535
0.031007751938
0.0271317829457
0.0232558139535
0.0193798449612
0.015503875969
0.015503875969
0.015503875969
0.0116279069767
0
