path : class-st0;d-M613.112,646.804l-0.16-1.473h-1.023v7.779h1.264v-4.21c0-1.568,0.912-2.641,2.241-2.641   c0.304,0,0.624,0.048,0.929,0.112l0.144-1.041c-0.336-0.08-0.689-0.128-0.977-0.128   C614.409,645.203,613.497,645.811,613.112,646.804z; : BBData-611.4833374023438,645.1666870117188,616.1000061035156,653.0833435058594
path : class-st0;d-M606.409,645.139c-2.32,0-3.97,1.681-3.97,4.082c0,2.401,1.649,4.082,3.97,4.082   c2.305,0,3.953-1.681,3.953-4.082C610.362,646.819,608.714,645.139,606.409,645.139z M606.409,652.278   c-1.568,0-2.657-1.249-2.657-3.058c0-1.793,1.089-3.058,2.657-3.058c1.553,0,2.657,1.265,2.657,3.058   C609.066,651.029,607.962,652.278,606.409,652.278z; : BBData-602.0166625976562,645.0999755859375,609.9499969482422,653.2833099365234
path : class-st0;d-M597.481,645.139c-2.321,0-3.971,1.681-3.971,4.082c0,2.401,1.649,4.082,3.971,4.082   c2.305,0,3.953-1.681,3.953-4.082C601.434,646.819,599.786,645.139,597.481,645.139z M597.481,652.278   c-1.568,0-2.658-1.249-2.658-3.058c0-1.793,1.09-3.058,2.658-3.058c1.553,0,2.656,1.265,2.656,3.058   C600.137,651.029,599.034,652.278,597.481,652.278z; : BBData-593.0833129882812,645.0999755859375,601.0499877929688,653.2833099365234
path : class-st0;d-M590.682,646.563c-0.545-0.912-1.473-1.425-2.578-1.425c-2.049,0-3.521,1.697-3.521,4.082   c0,2.385,1.473,4.082,3.521,4.082c1.153,0,2.113-0.528,2.674-1.489l0.16,1.297h1.024v-11.269h-1.28V646.563z M590.698,649.845   c0,1.425-0.944,2.417-2.289,2.417c-1.473,0-2.514-1.248-2.514-3.041c0-1.776,1.041-3.041,2.514-3.041   c1.345,0,2.289,1.008,2.289,2.417V649.845z; : BBData-584.1666870117188,641.7999877929688,591.5666809082031,653.2833251953125
path : class-st0;d-M577.417,646.804l-0.16-1.473h-1.025v7.779h1.265v-4.21c0-1.568,0.913-2.641,2.241-2.641   c0.305,0,0.624,0.048,0.928,0.112l0.145-1.041c-0.336-0.08-0.688-0.128-0.977-0.128   C578.713,645.203,577.799,645.811,577.417,646.804z; : BBData-575.816650390625,645.1666870117188,580.4333190917969,653.0833435058594
path : class-st0;d-M571.273,645.139c-2.225,0-3.794,1.681-3.794,4.082c0,2.401,1.681,4.082,4.05,4.082   c0.864,0,1.857-0.24,2.882-0.753l-0.4-0.88c-0.833,0.448-1.648,0.656-2.354,0.656c-1.633,0-2.785-1.137-2.896-2.785h6.018   c0.016-0.16,0.016-0.305,0.016-0.464C574.794,646.756,573.354,645.139,571.273,645.139z M568.76,648.725   c0.127-1.568,1.12-2.609,2.513-2.609c1.312,0,2.241,1.072,2.288,2.609H568.76z; : BBData-567.066650390625,645.0999755859375,574.4166564941406,653.2833099365234
polygon : class-st0;points-563.225,651.638 560.76,645.331 559.431,645.331 562.633,653.11 563.817,653.11 567.018,645.331    565.674,645.331  ; : BBData-559.0333251953125,645.2833251953125,566.6499786376953,653.0833129882812
path : class-st0;d-M555.001,645.139c-2.32,0-3.969,1.681-3.969,4.082c0,2.401,1.648,4.082,3.969,4.082   c2.306,0,3.954-1.681,3.954-4.082C558.955,646.819,557.306,645.139,555.001,645.139z M555.001,652.278   c-1.568,0-2.656-1.249-2.656-3.058c0-1.793,1.088-3.058,2.656-3.058c1.553,0,2.658,1.265,2.658,3.058   C557.659,651.029,556.553,652.278,555.001,652.278z; : BBData-550.63330078125,645.0999755859375,558.5999755859375,653.2833099365234
path : class-st0;d-M543.433,651.638l-2.497-6.307h-1.328l3.217,7.715l-0.4,1.009c-0.416,1.089-0.88,1.537-1.664,1.537   c-0.209,0-0.496-0.049-0.785-0.129l-0.176,1.024c0.385,0.097,0.785,0.144,1.088,0.144c1.249,0,2.049-0.736,2.69-2.352l3.617-8.948   h-1.344L543.433,651.638z; : BBData-539.2166748046875,645.2833251953125,546.8333435058594,656.5999908447266
path : class-st0;d-M535.626,645.139c-1.169,0-2.129,0.528-2.674,1.489l-0.16-1.297h-1.023v11.108h1.264v-4.546   c0.561,0.896,1.473,1.409,2.594,1.409c2.032,0,3.505-1.697,3.505-4.082C539.131,646.836,537.658,645.139,535.626,645.139z    M535.321,652.262c-1.36,0-2.305-0.992-2.305-2.417v-1.248c0-1.409,0.944-2.417,2.305-2.417c1.457,0,2.514,1.265,2.514,3.041   C537.835,651.014,536.778,652.262,535.321,652.262z; : BBData-531.4000244140625,645.0999755859375,538.7666931152344,656.4166412353516
path : class-st0;d-M526.249,645.139c-2.32,0-3.97,1.681-3.97,4.082c0,2.401,1.649,4.082,3.97,4.082   c2.305,0,3.953-1.681,3.953-4.082C530.202,646.819,528.553,645.139,526.249,645.139z M526.249,652.278   c-1.568,0-2.657-1.249-2.657-3.058c0-1.793,1.089-3.058,2.657-3.058c1.553,0,2.657,1.265,2.657,3.058   C528.906,651.029,527.802,652.278,526.249,652.278z; : BBData-521.9000244140625,645.0999755859375,529.86669921875,653.2833099365234
path : class-st0;d-M517.897,645.139c-1.233,0-2.273,0.593-2.801,1.617l-0.16-1.425h-1.024v7.779h1.265v-4.386   c0-1.488,1.008-2.513,2.352-2.513c1.2,0,2.049,0.832,2.049,2.017v4.882h1.28v-5.074   C520.858,646.323,519.626,645.139,517.897,645.139z; : BBData-513.5333251953125,645.0999755859375,520.5166473388672,653.0832977294922
path : class-st0;d-M512.379,652.31c-0.448,0-0.704-0.271-0.704-0.704v-3.762c0-1.616-1.217-2.705-2.978-2.705   c-0.992,0-1.985,0.209-3.073,0.625l0.352,0.928c0.896-0.384,1.745-0.576,2.578-0.576c1.136,0,1.904,0.704,1.904,1.697v0.8   c-0.608-0.16-1.201-0.224-1.744-0.224c-2.209,0-3.555,0.944-3.555,2.577c0,1.328,1.169,2.337,2.705,2.337   c1.073,0,2.082-0.48,2.705-1.297c0.097,0.801,0.641,1.297,1.489,1.297c0.288,0,0.576-0.032,0.833-0.08l-0.097-0.961   C512.698,652.278,512.507,652.31,512.379,652.31z M510.458,650.037c0,1.377-0.944,2.337-2.289,2.337   c-1.008,0-1.761-0.641-1.761-1.488c0-1.057,0.913-1.697,2.449-1.697c0.528,0,1.056,0.064,1.601,0.192V650.037z; : BBData-504.79998779296875,645.0999755859375,512.5499877929688,653.2833099365234
path : class-st0;d-M500.778,643.25c0.992,0,2,0.352,2.896,0.993l0.561-0.896c-1.137-0.784-2.4-1.185-3.633-1.185   c-3.138,0-5.299,2.289-5.299,5.57c0,3.281,2.161,5.57,5.299,5.57c1.232,0,2.496-0.4,3.633-1.185l-0.561-0.896   c-0.896,0.641-1.904,0.992-2.896,0.992c-2.449,0-4.113-1.824-4.113-4.482C496.665,645.075,498.329,643.25,500.778,643.25z; : BBData-494.95001220703125,642.11669921875,503.91668701171875,653.2833709716797
path : class-st0;d-M527.672,573.6c8.897,0,16.136-7.237,16.136-16.133v-67.861h-0.25v-0.25h-31.767v0.25h-0.25v67.861   C511.541,566.362,518.777,573.6,527.672,573.6z M512.041,489.855h31.267v67.611c0,8.62-7.015,15.633-15.636,15.633   c-8.619,0-15.631-7.013-15.631-15.633V489.855z; : BBData-511.183349609375,489.41668701171875,543.4500122070312,573.6166839599609
circle : class-st0;cx-436.17;cy-514.367;r-2.059; : BBData-433.79998779296875,512.3499755859375,437.9499816894531,516.4999694824219
path : class-st0;d-M566.161,328.586c1.232,0,2.498-0.4,3.634-1.184l-0.56-0.897c-0.896,0.641-1.905,0.992-2.898,0.992   c-2.448,0-4.113-1.824-4.113-4.482c0-2.657,1.665-4.482,4.113-4.482c0.993,0,2.002,0.352,2.898,0.993l0.56-0.897   c-1.136-0.784-2.401-1.185-3.634-1.185c-3.137,0-5.298,2.289-5.298,5.57C560.863,326.297,563.024,328.586,566.161,328.586z; : BBData-560.4500122070312,317.6166687011719,569.4166870117188,328.8000030517578
path : class-st0;d-M552.848,325.448h5.041l1.185,2.945h1.344l-4.434-10.756h-1.232l-4.434,10.756h1.344L552.848,325.448z    M555.361,319.142l2.145,5.299h-4.29L555.361,319.142z; : BBData-549.933349609375,317.816650390625,560.0666809082031,328.59999084472656
path : class-st0;d-M606.987,340.954h93.544c2.183,0,3.959-1.777,3.959-3.961v-33.544c0-2.184-1.776-3.96-3.959-3.96h-93.544   c-2.183,0-3.959,1.776-3.959,3.96v33.544C603.028,339.177,604.804,340.954,606.987,340.954z M603.528,303.449   c0-1.908,1.552-3.46,3.459-3.46h93.544c1.907,0,3.459,1.552,3.459,3.46v33.544c0,1.908-1.552,3.461-3.459,3.461h-93.544   c-1.907,0-3.459-1.553-3.459-3.461V303.449z; : BBData-602.5999755859375,299.683349609375,704.0333099365234,341.15000915527344
circle : class-st0;cx-699.876;cy-266.448;r-2.059; : BBData-697.3333129882812,264.6000061035156,701.4833221435547,268.75
path : class-st0;d-M644.972,260.69c-2.226,0-3.794,1.681-3.794,4.082c0,2.401,1.681,4.082,4.05,4.082   c0.864,0,1.857-0.24,2.882-0.753l-0.4-0.88c-0.833,0.448-1.648,0.656-2.354,0.656c-1.633,0-2.785-1.137-2.896-2.785h6.017   c0.016-0.16,0.016-0.305,0.016-0.464C648.493,262.308,647.053,260.69,644.972,260.69z M642.46,264.276   c0.127-1.568,1.12-2.609,2.513-2.609c1.312,0,2.241,1.072,2.288,2.609H642.46z; : BBData-640.7166748046875,260.8999938964844,648.0666809082031,269.1000061035156
path : class-st0;d-M639.484,267.813c-0.801,0-1.345-0.544-1.345-1.345v-4.577h2.449v-1.009h-2.449v-2.305h-1.265v2.305h-1.616   v1.009h1.616v4.689c0,1.345,0.944,2.273,2.337,2.273c0.496,0,1.009-0.065,1.553-0.208l-0.176-0.993   C640.188,267.75,639.82,267.813,639.484,267.813z; : BBData-634.7999877929688,258.7833251953125,640.3333129882812,269.09999084472656
rect : x-632.715;y-260.883;class-st0;width-1.265;height-7.779; : BBData-632.2666625976562,261.08331298828125,633.5500030517578,268.8999786376953
path : class-st0;d-M633.354,257.666c-0.512,0-0.863,0.352-0.863,0.848s0.352,0.849,0.863,0.849c0.496,0,0.849-0.353,0.849-0.849   S633.85,257.666,633.354,257.666z; : BBData-632.0499877929688,257.8666687011719,633.7833251953125,259.6000061035156
path : class-st0;d-M629.325,265.269c0,1.489-1.009,2.514-2.354,2.514c-1.185,0-2.049-0.816-2.049-2.001v-4.898h-1.265v5.074   c0,1.713,1.217,2.897,2.945,2.897c1.232,0,2.272-0.593,2.817-1.617l0.16,1.425h1.024v-7.779h-1.28V265.269z; : BBData-623.2166748046875,261.1000061035156,630.2000122070312,269.1000061035156
path : class-st0;d-M617.77,262.868c0-0.721,0.656-1.201,1.665-1.201c0.673,0,1.44,0.177,2.241,0.513l0.288-0.944   c-0.913-0.368-1.809-0.545-2.625-0.545c-1.665,0-2.833,0.913-2.833,2.178c0,2.913,4.465,1.776,4.465,3.745   c0,0.752-0.688,1.265-1.728,1.265c-0.752,0-1.6-0.192-2.496-0.561l-0.305,0.944c1.024,0.4,2.001,0.593,2.898,0.593   c1.712,0,2.881-0.929,2.881-2.241C622.22,263.636,617.77,264.788,617.77,262.868z; : BBData-616,260.8999938964844,621.8166656494141,269.1000061035156
rect : x-611.434;y-264.181;class-st0;width-4.29;height-0.992; : BBData-611,264.3833312988281,615.3166656494141,265.4166717529297
path : class-st0;d-M607.341,260.69c-1.232,0-2.273,0.593-2.801,1.617l-0.16-1.425h-1.024v7.779h1.265v-4.386   c0-1.488,1.008-2.513,2.353-2.513c1.2,0,2.049,0.832,2.049,2.017v4.882h1.28v-5.074C610.302,261.875,609.069,260.69,607.341,260.69   z; : BBData-602.933349609375,260.8999938964844,609.9000091552734,268.8999938964844
polygon : class-st0;points-595.836,263.652 600.878,263.652 600.878,262.66 595.836,262.66 595.836,258.93 601.389,258.93    601.389,257.906 594.523,257.906 594.523,268.662 601.646,268.662 601.646,267.638 595.836,267.638  ; : BBData-594.0999755859375,258.1166687011719,601.2499694824219,268.8999938964844
path : class-st0;d-M486.788,524.34c-1.185,0-2.193,0.577-2.721,1.553v-4.85h-1.265v11.268h1.265v-4.386   c0-1.488,1.008-2.513,2.352-2.513c1.2,0,2.049,0.832,2.049,2.017v4.882h1.28v-5.074C489.749,525.524,488.516,524.34,486.788,524.34   z; : BBData-482.4666748046875,521.0833129882812,489.41668701171875,532.3666534423828
path : class-st0;d-M480.165,531.463c-0.801,0-1.346-0.544-1.346-1.345v-4.577h2.449v-1.009h-2.449v-2.305h-1.264v2.305h-1.617   v1.009h1.617v4.689c0,1.345,0.943,2.273,2.336,2.273c0.497,0,1.009-0.064,1.553-0.208l-0.176-0.993   C480.868,531.399,480.501,531.463,480.165,531.463z; : BBData-475.6000061035156,522.2666625976562,481.1333312988281,532.5666656494141
path : class-st0;d-M475.637,531.511c-0.448,0-0.705-0.271-0.705-0.704v-3.762c0-1.616-1.216-2.705-2.977-2.705   c-0.992,0-1.984,0.209-3.073,0.625l0.353,0.928c0.896-0.384,1.744-0.576,2.576-0.576c1.137,0,1.905,0.704,1.905,1.697v0.8   c-0.608-0.16-1.2-0.224-1.745-0.224c-2.209,0-3.553,0.944-3.553,2.577c0,1.328,1.168,2.337,2.705,2.337   c1.072,0,2.08-0.481,2.705-1.297c0.096,0.801,0.641,1.297,1.488,1.297c0.288,0,0.576-0.032,0.832-0.08l-0.096-0.961   C475.958,531.479,475.765,531.511,475.637,531.511z M473.716,529.238c0,1.377-0.944,2.337-2.289,2.337   c-1.009,0-1.761-0.641-1.761-1.488c0-1.057,0.912-1.697,2.449-1.697c0.528,0,1.057,0.065,1.601,0.192V529.238z; : BBData-468.08331298828125,524.38330078125,475.83331298828125,532.5666351318359
path : class-st0;d-M465.157,526.741c1.009-0.4,1.648-1.297,1.648-2.401c0-1.632-1.312-2.784-3.185-2.784h-4.338v10.756h4.594   c1.936,0,3.313-1.169,3.313-2.913C467.19,528.134,466.423,527.109,465.157,526.741z M460.563,522.548h2.897   c1.216,0,2.065,0.784,2.065,1.904c0,1.121-0.85,1.905-2.065,1.905h-2.897V522.548z M463.701,531.319h-3.138v-4.065h3.138   c1.296,0,2.192,0.832,2.192,2.032S464.997,531.319,463.701,531.319z; : BBData-458.95001220703125,521.5999755859375,466.8833465576172,532.3666381835938
path : class-st0;d-M493.784,439.752c1.105,0,2.033-0.513,2.578-1.409v1.409c0,1.36-1.105,2.305-2.658,2.305   c-0.72,0-1.632-0.208-2.592-0.624l-0.385,0.96c1.104,0.464,2.161,0.689,3.073,0.689c2.226,0,3.842-1.408,3.842-3.377v-7.924h-1.024   l-0.16,1.297c-0.561-0.961-1.521-1.489-2.674-1.489c-2.049,0-3.522,1.697-3.522,4.082   C490.262,438.055,491.735,439.752,493.784,439.752z M494.089,432.629c1.345,0,2.289,1.008,2.289,2.417v1.248   c0,1.425-0.944,2.417-2.289,2.417c-1.473,0-2.514-1.248-2.514-3.041C491.575,433.894,492.616,432.629,494.089,432.629z; : BBData-489.8999938964844,431.683349609375,497.31666564941406,443.20001220703125
path : class-st0;d-M485.881,431.588c-1.233,0-2.273,0.593-2.801,1.617l-0.16-1.425h-1.024v7.779h1.264v-4.386   c0-1.488,1.01-2.513,2.353-2.513c1.201,0,2.049,0.832,2.049,2.017v4.882h1.281v-5.074   C488.842,432.772,487.61,431.588,485.881,431.588z; : BBData-481.54998779296875,431.683349609375,488.5166473388672,439.683349609375
rect : x-478.503;y-431.78;class-st0;width-1.265;height-7.779; : BBData-478.16668701171875,431.8666687011719,479.4666748046875,439.68333435058594
path : class-st0;d-M479.143,428.563c-0.512,0-0.864,0.352-0.864,0.848c0,0.496,0.353,0.849,0.864,0.849   c0.496,0,0.848-0.353,0.848-0.849C479.991,428.915,479.639,428.563,479.143,428.563z; : BBData-477.933349609375,428.6499938964844,479.683349609375,430.3833312988281
path : class-st0;d-M475.113,433.013c-0.544-0.912-1.473-1.425-2.577-1.425c-2.049,0-3.521,1.697-3.521,4.082   c0,2.385,1.473,4.082,3.521,4.082c1.152,0,2.113-0.528,2.674-1.489l0.16,1.297h1.023v-11.269h-1.28V433.013z M475.13,436.294   c0,1.425-0.945,2.417-2.289,2.417c-1.473,0-2.514-1.248-2.514-3.041c0-1.776,1.041-3.041,2.514-3.041   c1.344,0,2.289,1.008,2.289,2.417V436.294z; : BBData-468.66668701171875,428.3833312988281,476.0833435058594,439.8833312988281
path : class-st0;d-M464.633,431.588c-1.232,0-2.272,0.593-2.801,1.617l-0.16-1.425h-1.024v7.779h1.264v-4.386   c0-1.488,1.01-2.513,2.354-2.513c1.201,0,2.049,0.832,2.049,2.017v4.882h1.281v-5.074   C467.594,432.772,466.362,431.588,464.633,431.588z; : BBData-460.316650390625,431.683349609375,467.2833251953125,439.683349609375
path : class-st0;d-M459.114,438.759c-0.448,0-0.705-0.272-0.705-0.704v-3.762c0-1.616-1.216-2.705-2.977-2.705   c-0.992,0-1.984,0.209-3.073,0.625l0.353,0.928c0.896-0.384,1.744-0.576,2.576-0.576c1.137,0,1.905,0.704,1.905,1.697v0.8   c-0.608-0.16-1.2-0.224-1.745-0.224c-2.209,0-3.553,0.944-3.553,2.577c0,1.328,1.168,2.337,2.705,2.337   c1.072,0,2.08-0.48,2.705-1.297c0.096,0.801,0.641,1.297,1.488,1.297c0.288,0,0.576-0.032,0.832-0.08l-0.096-0.961   C459.434,438.727,459.242,438.759,459.114,438.759z M457.193,436.486c0,1.377-0.944,2.337-2.289,2.337   c-1.009,0-1.761-0.641-1.761-1.488c0-1.057,0.912-1.697,2.449-1.697c0.528,0,1.057,0.064,1.601,0.192V436.486z; : BBData-451.566650390625,431.683349609375,459.33331298828125,439.8833465576172
polygon : class-st0;points-445.704,428.804 444.391,428.804 444.391,439.56 450.923,439.56 450.923,438.519 445.704,438.519  ; : BBData-444.066650390625,428.8999938964844,450.63331604003906,439.68333435058594
path : class-st0;d-M314.028,529.553h-2.052l-8.773,12.362v1.484h8.826v4.292h1.998v-4.292h2.779v-1.674h-2.779V529.553z    M312.03,541.726h-6.721l6.721-9.474V541.726z; : BBData-302.98333740234375,529.5833129882812,316.6166687011719,547.7499847412109
path : class-st0;d-M346.186,507.679c0-2.348,1.566-4.021,3.752-4.021c1.916,0,3.238,1.322,3.238,3.185v8.449h2.16v-7.612   c0-2.348,1.565-4.021,3.752-4.021c1.89,0,3.212,1.322,3.212,3.185v8.449h2.159v-8.772c0-2.727-1.971-4.67-4.777-4.67   c-2.078,0-3.779,1.08-4.805,2.861c-0.621-1.755-2.267-2.861-4.318-2.861c-1.971,0-3.59,0.944-4.508,2.618l-0.271-2.294h-1.728   v13.118h2.133V507.679z; : BBData-343.79998779296875,501.8999938964844,364.2333221435547,515.3666687011719
path : class-st0;d-M334.062,515.615c3.888,0,6.667-2.835,6.667-6.884c0-4.049-2.779-6.883-6.667-6.883   c-3.914,0-6.694,2.834-6.694,6.883C327.368,512.78,330.148,515.615,334.062,515.615z M334.062,503.576   c2.618,0,4.482,2.133,4.482,5.155c0,3.051-1.863,5.156-4.482,5.156c-2.645,0-4.481-2.105-4.481-5.156   C329.581,505.709,331.417,503.576,334.062,503.576z; : BBData-327.1333312988281,501.8833312988281,340.51666259765625,515.6833343505859
path : class-st0;d-M318.321,515.615c3.888,0,6.668-2.835,6.668-6.884c0-4.049-2.78-6.883-6.668-6.883   c-3.914,0-6.693,2.834-6.693,6.883C311.628,512.78,314.407,515.615,318.321,515.615z M318.321,503.576   c2.619,0,4.481,2.133,4.481,5.155c0,3.051-1.862,5.156-4.481,5.156c-2.645,0-4.48-2.105-4.48-5.156   C313.84,505.709,315.676,503.576,318.321,503.576z; : BBData-311.3999938964844,501.8833312988281,324.78334045410156,515.6833343505859
path : class-st0;d-M304.687,508.192c0-2.646,1.538-4.454,3.779-4.454c0.513,0,1.053,0.081,1.565,0.189l0.243-1.754   c-0.567-0.136-1.161-0.216-1.648-0.216c-1.889,0-3.428,1.025-4.075,2.699l-0.27-2.483h-1.727v13.118h2.132V508.192z; : BBData-302.33331298828125,502,310.08331298828125,515.3666687011719
path : class-st0;d-M292.078,515.615c1.944,0,3.563-0.891,4.508-2.511l0.271,2.187h1.727v-19.003h-2.158v7.963   c-0.918-1.539-2.484-2.402-4.347-2.402c-3.455,0-5.938,2.861-5.938,6.883C286.139,512.754,288.623,515.615,292.078,515.615z    M292.59,503.603c2.268,0,3.86,1.7,3.86,4.075v2.105c0,2.402-1.593,4.076-3.86,4.076c-2.482,0-4.238-2.106-4.238-5.129   C288.352,505.735,290.108,503.603,292.59,503.603z; : BBData-285.933349609375,496.3500061035156,298.40000915527344,515.6833343505859
path : class-st0;d-M278.741,515.615c1.457,0,3.131-0.405,4.857-1.268l-0.674-1.485c-1.404,0.756-2.781,1.107-3.969,1.107   c-2.753,0-4.696-1.917-4.885-4.697h10.148c0.027-0.27,0.027-0.513,0.027-0.782c0-3.914-2.43-6.641-5.938-6.641   c-3.752,0-6.398,2.834-6.398,6.883C271.911,512.78,274.745,515.615,278.741,515.615z M278.308,503.495   c2.214,0,3.778,1.809,3.86,4.399h-8.098C274.286,505.25,275.96,503.495,278.308,503.495z; : BBData-271.70001220703125,501.8833312988281,284.0666809082031,515.6833343505859
path : class-st0;d-M269.964,510.378c0-2.132-1.296-3.859-3.429-4.48c1.7-0.675,2.78-2.187,2.78-4.049   c0-2.753-2.213-4.696-5.371-4.696h-7.315v18.139h7.747C267.641,515.291,269.964,513.32,269.964,510.378z M258.788,498.825h4.887   c2.051,0,3.482,1.323,3.482,3.212c0,1.89-1.431,3.213-3.482,3.213h-4.887V498.825z M258.788,513.617v-6.855h5.291   c2.187,0,3.697,1.403,3.697,3.428c0,2.024-1.511,3.428-3.697,3.428H258.788z; : BBData-256.433349609375,497.2166748046875,269.7833557128906,515.3666839599609
path : class-st0;d-M311.814,354.968c2.024-0.594,3.32-2.24,3.32-4.318c0-2.834-2.187-4.805-5.345-4.805   c-1.754,0-3.617,0.378-5.588,1.269l0.702,1.619c1.674-0.756,3.158-1.134,4.561-1.134c2.105,0,3.537,1.323,3.537,3.239   c0,1.971-1.755,3.374-4.319,3.374h-1.106v1.62h1.106c2.78,0,4.696,1.457,4.696,3.59c0,2.024-1.647,3.455-3.94,3.455   c-1.512,0-3.212-0.432-4.967-1.241l-0.702,1.619c2.078,0.972,4.157,1.377,6.02,1.377c3.401,0,5.777-2.052,5.777-5.021   C315.567,357.397,314.082,355.589,311.814,354.968z; : BBData-303.54998779296875,346,315.38331604003906,364.8000030517578
path : class-st0;d-M346.118,324.295c0-2.348,1.566-4.021,3.753-4.021c1.917,0,3.239,1.322,3.239,3.185v8.449h2.159v-7.612   c0-2.348,1.566-4.021,3.752-4.021c1.89,0,3.212,1.322,3.212,3.185v8.449h2.16v-8.772c0-2.727-1.971-4.67-4.778-4.67   c-2.079,0-3.778,1.08-4.805,2.861c-0.62-1.755-2.268-2.861-4.319-2.861c-1.971,0-3.59,0.944-4.508,2.618l-0.27-2.294h-1.728v13.118   h2.132V324.295z; : BBData-343.73333740234375,318.6499938964844,364.1666717529297,332.1000061035156
path : class-st0;d-M333.995,318.465c-3.914,0-6.694,2.834-6.694,6.883c0,4.049,2.78,6.884,6.694,6.884   c3.887,0,6.668-2.835,6.668-6.884C340.663,321.299,337.881,318.465,333.995,318.465z M333.995,330.504   c-2.645,0-4.48-2.106-4.48-5.156c0-3.022,1.836-5.155,4.48-5.155c2.618,0,4.48,2.133,4.48,5.155   C338.475,328.398,336.613,330.504,333.995,330.504z; : BBData-327.066650390625,318.6333312988281,340.4499816894531,332.4166717529297
path : class-st0;d-M318.255,318.465c-3.914,0-6.695,2.834-6.695,6.883c0,4.049,2.781,6.884,6.695,6.884   c3.887,0,6.667-2.835,6.667-6.884C324.922,321.299,322.141,318.465,318.255,318.465z M318.255,330.504   c-2.646,0-4.482-2.106-4.482-5.156c0-3.022,1.836-5.155,4.482-5.155c2.617,0,4.48,2.133,4.48,5.155   C322.735,328.398,320.872,330.504,318.255,330.504z; : BBData-311.33331298828125,318.6333312988281,324.7166442871094,332.4166717529297
path : class-st0;d-M304.62,324.809c0-2.646,1.539-4.454,3.779-4.454c0.513,0,1.053,0.081,1.565,0.189l0.243-1.754   c-0.566-0.136-1.16-0.216-1.647-0.216c-1.89,0-3.428,1.025-4.076,2.699l-0.27-2.483h-1.729v13.118h2.133V324.809z; : BBData-302.26666259765625,318.75,310.01666259765625,332.1000061035156
path : class-st0;d-M296.491,320.867c-0.918-1.539-2.482-2.402-4.346-2.402c-3.455,0-5.938,2.861-5.938,6.883   c0,4.022,2.483,6.884,5.938,6.884c1.943,0,3.563-0.891,4.508-2.511l0.27,2.186h1.728v-19.003h-2.16V320.867z M296.518,326.4   c0,2.402-1.593,4.076-3.859,4.076c-2.484,0-4.238-2.105-4.238-5.129c0-2.996,1.754-5.128,4.238-5.128   c2.267,0,3.859,1.7,3.859,4.075V326.4z; : BBData-286,313.08331298828125,298.46665954589844,332.4166564941406
path : class-st0;d-M278.376,318.465c-3.752,0-6.398,2.834-6.398,6.883c0,4.049,2.835,6.884,6.829,6.884   c1.458,0,3.131-0.405,4.859-1.268l-0.676-1.485c-1.402,0.756-2.779,1.108-3.967,1.108c-2.754,0-4.697-1.917-4.887-4.697h10.15   c0.026-0.27,0.026-0.513,0.026-0.782C284.314,321.191,281.885,318.465,278.376,318.465z M274.137,324.511   c0.217-2.645,1.891-4.399,4.238-4.399c2.213,0,3.779,1.809,3.859,4.399H274.137z; : BBData-271.76666259765625,318.6333312988281,284.1333312988281,332.4166717529297
path : class-st0;d-M266.602,322.514c1.701-0.675,2.78-2.187,2.78-4.049c0-2.753-2.214-4.696-5.372-4.696h-7.314v18.139h7.747   c3.267,0,5.587-1.971,5.587-4.913C270.03,324.862,268.735,323.135,266.602,322.514z M258.856,315.441h4.885   c2.052,0,3.482,1.323,3.482,3.212c0,1.89-1.431,3.213-3.482,3.213h-4.885V315.441z M264.146,330.233h-5.29v-6.855h5.29   c2.187,0,3.698,1.403,3.698,3.428C267.844,328.83,266.333,330.233,264.146,330.233z; : BBData-256.5,313.95001220703125,269.8500061035156,332.1000213623047
path : class-st0;d-M638.061,504.558c1.7-1.7,2.592-3.59,2.592-5.479c0-3.131-2.295-5.317-5.588-5.317   c-1.89,0-3.807,0.647-5.723,1.809l0.863,1.619c1.539-0.972,2.943-1.593,4.454-1.593c2.294,0,3.86,1.539,3.86,3.752   c0,1.458-0.756,2.942-2.214,4.4l-7.099,7.099v1.377h11.66v-1.755h-8.719L638.061,504.558z; : BBData-628.7666625976562,493.816650390625,640.4333343505859,512.2999877929688
path : class-st0;d-M671.272,472.211c0-2.348,1.565-4.021,3.752-4.021c1.916,0,3.238,1.322,3.238,3.185v8.449h2.16v-7.612   c0-2.348,1.565-4.021,3.752-4.021c1.89,0,3.212,1.322,3.212,3.185v8.449h2.159v-8.772c0-2.727-1.971-4.67-4.777-4.67   c-2.078,0-3.779,1.08-4.805,2.861c-0.621-1.755-2.268-2.861-4.318-2.861c-1.971,0-3.59,0.944-4.508,2.618l-0.271-2.294h-1.727   v13.118h2.133V472.211z; : BBData-668.6666870117188,466.45001220703125,689.0833435058594,479.91668701171875
path : class-st0;d-M659.148,480.147c3.888,0,6.667-2.835,6.667-6.884c0-4.049-2.779-6.883-6.667-6.883   c-3.914,0-6.694,2.834-6.694,6.883C652.454,477.312,655.234,480.147,659.148,480.147z M659.148,468.108   c2.618,0,4.482,2.133,4.482,5.155c0,3.051-1.863,5.156-4.482,5.156c-2.645,0-4.481-2.105-4.481-5.156   C654.667,470.241,656.503,468.108,659.148,468.108z; : BBData-652,466.45001220703125,665.3666687011719,480.2333526611328
path : class-st0;d-M643.407,480.147c3.888,0,6.668-2.835,6.668-6.884c0-4.049-2.78-6.883-6.668-6.883   c-3.914,0-6.693,2.834-6.693,6.883C636.714,477.312,639.493,480.147,643.407,480.147z M643.407,468.108   c2.619,0,4.482,2.133,4.482,5.155c0,3.051-1.862,5.156-4.482,5.156c-2.645,0-4.48-2.105-4.48-5.156   C638.927,470.241,640.762,468.108,643.407,468.108z; : BBData-636.25,466.45001220703125,649.6499938964844,480.2333526611328
path : class-st0;d-M629.773,472.725c0-2.645,1.538-4.454,3.779-4.454c0.513,0,1.053,0.081,1.565,0.189l0.243-1.754   c-0.567-0.136-1.161-0.216-1.646-0.216c-1.89,0-3.429,1.025-4.076,2.699l-0.271-2.483h-1.727v13.118h2.132V472.725z; : BBData-627.2000122070312,466.566650390625,634.933349609375,479.9166564941406
path : class-st0;d-M617.704,480.147c1.943,0,3.562-0.891,4.508-2.511l0.27,2.186h1.729V460.82h-2.16v7.963   c-0.918-1.539-2.482-2.402-4.346-2.402c-3.455,0-5.938,2.861-5.938,6.883C611.765,477.286,614.249,480.147,617.704,480.147z    M618.218,468.136c2.267,0,3.859,1.7,3.859,4.075v2.105c0,2.402-1.593,4.076-3.859,4.076c-2.484,0-4.238-2.105-4.238-5.129   C613.979,470.268,615.733,468.136,618.218,468.136z; : BBData-611.316650390625,460.8999938964844,623.7999877929688,480.23333740234375
path : class-st0;d-M604.366,480.147c1.458,0,3.131-0.405,4.859-1.269l-0.676-1.485c-1.403,0.756-2.779,1.107-3.967,1.107   c-2.754,0-4.697-1.917-4.887-4.697h10.15c0.026-0.27,0.026-0.513,0.026-0.782c0-3.914-2.429-6.641-5.938-6.641   c-3.752,0-6.398,2.834-6.398,6.883C597.537,477.312,600.372,480.147,604.366,480.147z M603.934,468.027   c2.213,0,3.779,1.809,3.859,4.4h-8.098C599.913,469.782,601.587,468.027,603.934,468.027z; : BBData-597.11669921875,466.45001220703125,609.4666900634766,480.2333526611328
path : class-st0;d-M582.255,461.685v18.139h7.747c3.267,0,5.587-1.971,5.587-4.913c0-2.132-1.295-3.859-3.428-4.48   c1.701-0.675,2.78-2.186,2.78-4.049c0-2.753-2.214-4.696-5.372-4.696H582.255z M593.403,474.722c0,2.024-1.512,3.428-3.698,3.428   h-5.29v-6.855h5.29C591.891,471.294,593.403,472.697,593.403,474.722z M592.782,466.569c0,1.89-1.431,3.213-3.482,3.213h-4.885   v-6.425h4.885C591.351,463.357,592.782,464.681,592.782,466.569z; : BBData-581.8499755859375,461.76666259765625,595.1999664306641,479.9166717529297
polygon : class-st0;points-539.668,137.41 544.364,134.711 544.364,150.69 546.524,150.69 546.524,132.552 544.716,132.552    538.912,135.898  ; : BBData-538.5166625976562,132.86666870117188,546.1666717529297,151.01666259765625
path : class-st0;d-M580.193,110.678c0-2.348,1.565-4.021,3.753-4.021c1.916,0,3.238,1.322,3.238,3.185v8.449h2.16v-7.612   c0-2.348,1.564-4.021,3.752-4.021c1.889,0,3.211,1.322,3.211,3.185v8.449h2.16v-8.772c0-2.727-1.971-4.67-4.777-4.67   c-2.079,0-3.779,1.08-4.805,2.861c-0.621-1.755-2.268-2.861-4.319-2.861c-1.971,0-3.59,0.944-4.508,2.618l-0.271-2.294h-1.727   v13.118h2.132V110.678z; : BBData-577.6500244140625,105.16667175292969,598.0833587646484,118.63333129882812
path : class-st0;d-M568.069,118.614c3.888,0,6.668-2.835,6.668-6.884c0-4.049-2.78-6.883-6.668-6.883   c-3.914,0-6.693,2.834-6.693,6.883C561.376,115.779,564.155,118.614,568.069,118.614z M568.069,106.575   c2.619,0,4.481,2.133,4.481,5.155c0,3.051-1.862,5.156-4.481,5.156c-2.645,0-4.48-2.105-4.48-5.156   C563.589,108.708,565.424,106.575,568.069,106.575z; : BBData-560.9666748046875,105.16667175292969,574.3666839599609,118.94999694824219
path : class-st0;d-M552.329,118.614c3.887,0,6.668-2.835,6.668-6.884c0-4.049-2.781-6.883-6.668-6.883   c-3.914,0-6.694,2.834-6.694,6.883C545.635,115.779,548.415,118.614,552.329,118.614z M552.329,106.575   c2.618,0,4.481,2.133,4.481,5.155c0,3.051-1.862,5.156-4.481,5.156c-2.644,0-4.48-2.105-4.48-5.156   C547.848,108.708,549.684,106.575,552.329,106.575z; : BBData-545.25,105.16667175292969,558.6333312988281,118.94999694824219
path : class-st0;d-M538.694,111.191c0-2.646,1.539-4.454,3.779-4.454c0.514,0,1.053,0.081,1.566,0.188l0.242-1.754   c-0.566-0.136-1.16-0.216-1.646-0.216c-1.889,0-3.428,1.025-4.076,2.699l-0.27-2.483h-1.727v13.118h2.132V111.191z; : BBData-536.1666870117188,105.28334045410156,543.9166870117188,118.63333129882812
path : class-st0;d-M525.815,118.614c1.943,0,3.562-0.891,4.508-2.511l0.27,2.187h1.728V99.287h-2.16v7.963   c-0.918-1.539-2.482-2.402-4.346-2.402c-3.455,0-5.938,2.861-5.938,6.883C519.877,115.753,522.36,118.614,525.815,118.614z    M526.329,106.602c2.267,0,3.859,1.7,3.859,4.075v2.105c0,2.402-1.593,4.076-3.859,4.076c-2.484,0-4.238-2.105-4.238-5.129   C522.091,108.734,523.844,106.602,526.329,106.602z; : BBData-519.5,99.61666870117188,531.9833374023438,118.94999694824219
path : class-st0;d-M512.477,118.614c1.458,0,3.131-0.405,4.859-1.269l-0.676-1.485c-1.403,0.756-2.779,1.107-3.967,1.107   c-2.754,0-4.697-1.917-4.887-4.697h10.15c0.026-0.269,0.026-0.513,0.026-0.782c0-3.914-2.429-6.641-5.939-6.641   c-3.752,0-6.397,2.834-6.397,6.883C505.648,115.779,508.483,118.614,512.477,118.614z M512.046,106.494   c2.213,0,3.779,1.809,3.859,4.4h-8.098C508.024,108.249,509.698,106.494,512.046,106.494z; : BBData-505.2833251953125,105.16667175292969,517.6333160400391,118.94999694824219
path : class-st0;d-M503.7,113.377c0-2.132-1.295-3.859-3.428-4.481c1.701-0.675,2.78-2.186,2.78-4.049   c0-2.753-2.214-4.696-5.372-4.696h-7.314v18.139h7.747C501.38,118.29,503.7,116.319,503.7,113.377z M492.526,101.824h4.885   c2.052,0,3.483,1.323,3.483,3.212c0,1.89-1.431,3.213-3.483,3.213h-4.885V101.824z M492.526,116.616v-6.855h5.29   c2.186,0,3.698,1.403,3.698,3.428c0,2.024-1.512,3.428-3.698,3.428H492.526z; : BBData-490,100.48333740234375,503.3833312988281,118.63333129882812
path : class-st0;d-M729.208,259.382V3.887l-56.479,0V0h-64.157v3.888H510.1V0h-64.157v3.888l-50.067,0v76.696h-2.986v69.322   h2.986v65.981h-53.57v-2.857h-69.321v2.857h-79.775v383.334h59.747v2.601h4.847v51.036h-17.028v-53.63h-0.5v54.13h246.92v-54.13   h-0.5v53.63h-15.936v-51.036h2.347v-2.601h116.602v2.601h69.321v-2.601h70.181V288.502h2.215v-29.12H729.208z M717.994,266.275   h1.196v15.727h-1.196V266.275z M675.602,21.888l35.606,0v205.333h-35.606v-2.824h0.025v-2.519h0.525V174.93h-2.235V128.36h1.71   v-2.377h0.014v-2.52h0.512V74.797h-2.235v-46.57h1.71v-3.02h-0.025V21.888z M673.992,221.377V175.43h1.66v45.947h-0.025H673.992z    M675.127,221.877v2.019h-5.079v-2.019h3.444H675.127z M671.257,127.86h-1.209v-1.877h5.079v1.877h-1.21H671.257z M673.417,128.36   v46.569h-1.66V128.36H673.417z M675.14,123.464v1.876h-5.079v-1.876h3.431H675.14z M673.992,122.964V75.297h1.66v47.666h-0.012   H673.992z M675.127,25.707v2.02h-1.21h-2.66h-1.209v-2.02H675.127z M673.417,28.227v46.57h-1.66v-46.57H673.417z M609.072,0.5   h63.157v3.388h-5.431v6.148h-54.416V3.888h-3.31V0.5z M666.799,13.929v6.272h-54.416v-6.272H666.799z M612.383,13.429v-2.893   h10.409v2.893H612.383z M637.885,12.232v1.196h-14.594v-1.196H637.885z M623.292,11.732v-1.197h14.594v1.197H623.292z    M638.385,13.429v-2.893h4.365v2.893H638.385z M658.883,12.232v1.196h-15.633v-1.196H658.883z M643.251,11.732v-1.197h15.633v1.197   H643.251z M659.383,13.429v-2.893h7.415v2.893H659.383z M446.443,0.5H509.6v3.388h-3.858v6.148h-57.187V3.888h-2.112V0.5z    M505.742,13.929v6.272h-57.187v-6.272H505.742z M448.555,13.429v-2.893h11.607v2.893H448.555z M475.257,12.232v1.196h-14.594   v-1.196H475.257z M460.663,11.732v-1.197h14.594v1.197H460.663z M475.757,13.429v-2.893h4.365v2.893H475.757z M496.255,12.232   v1.196h-15.633v-1.196H496.255z M480.622,11.732v-1.197h15.633v1.197H480.622z M496.755,13.429v-2.893h8.987v2.893H496.755z    M413.591,85.691h0.285V21.887l34.68,0v-1.187h57.187v1.187h106.641v-1.187h54.416v1.187h2.804v3.32h-0.055v3.02h1.709v47.07h2.235   v47.666h-3.931v2.376h-0.014v3.02h1.709v47.069h2.235v45.947h-3.944v3.019h0.055v2.824h-29.936v-0.27v-1.315h-0.25v-0.25h-2.718   v-39.791h-0.25v-0.25c-10.778,0-21.305,4.344-28.881,11.917c-7.505,7.505-11.703,17.468-11.894,28.124h-2.755v0.25h-0.25v1.585   h-70.002v-1.585h-0.25v-0.25h-2.755c-0.191-10.656-4.39-20.619-11.895-28.124c-7.576-7.573-18.103-11.917-28.881-11.917v0.25h-0.25   v39.791h-2.718v0.25h-0.25v1.315v0.27h-61.792v-82.707h-0.285V85.691z M639.166,233.221v0.094h-2.468v-7.429h2.468v1.065v0.27   h-0.265v6H639.166z M636.198,185.851v39.535h-1.482v-39.497C635.209,185.866,635.703,185.854,636.198,185.851z M596.133,227.87   h1.486v3.459h-1.486V227.87z M593.168,227.221v-1.335h2.465v7.429h-2.465v-0.094h0.259v-6H593.168z M529.968,247.024h4.162   c2.152,0.01,4.118,1.278,4.999,3.215c0.584,1.603,0.872,3.277,0.856,4.991c0.095,1.861,0.141,3.757,0.136,5.64   c0.046,1.865,0,3.759-0.136,5.65c0.017,1.7-0.272,3.373-0.848,4.957c-0.889,1.952-2.854,3.222-5.006,3.233h-4.163V247.024z    M529.892,343.308v-0.191h0.25v-2.56h-0.25v-0.25h-1.462v-1.459h-0.25v-0.25h-3.414v0.25h-0.25v1.459h-1.212v-1.459h-0.25v-0.25   h-34.221c0.485-8.479,4.095-16.632,10.08-22.619c6.537-6.537,15.267-10.138,24.579-10.138v-0.018h1.023v1.463h0.25v0.25h3.414   v-0.25h0.25v-1.463h1.462v-0.25h0.25v-2.557h-0.25v-0.25h-6.838v0.25h-0.25v2.342c-9.186,0.174-17.774,3.798-24.244,10.268   c-6.538,6.54-10.288,15.627-10.288,24.932h0.25v0.25h34.282v2.31h0.25v0.25h0.913v71.46h-0.823v0.25h-0.25v2.965h0.25v0.25h1.735   v1.736h0.25v0.25h3.959v-0.25h0.25v-1.736h1.227v0.021c10.809,0,20.94,4.179,28.528,11.767   c6.956,6.959,11.148,16.438,11.702,26.295h-39.723v0.25h-0.25v1.732h-1.484v-1.732h-0.25v-0.25h-3.959v0.25h-0.25v1.732h-1.735   v0.25h-0.25v2.968h0.25v0.25h0.823v2.274H502.56v-0.717h-0.25v-0.25h-2.968v0.25h-0.25v1.735h-1.732v0.25h-0.25v3.959h0.25v0.25   h1.732v1.484h-1.732v0.25h-0.25v39.723c-9.855-0.554-19.336-4.746-26.295-11.702c-7.588-7.588-11.767-17.72-11.767-28.528h-0.021   v-1.226h1.736v-0.25h0.25v-3.959h-0.25v-0.25h-1.736v-1.735h-0.25v-0.25h-2.965v0.25h-0.25v0.716h-35.293l-11.033,11.034   l-1.895-1.895l0.042-0.041l-0.177-0.177l0.177-0.177l-2.097-2.097l-0.177,0.177l-0.177-0.177l-1.227,1.228l-1.228-1.228   l-0.177,0.177l-0.177-0.177l-2.8,2.799l0.177,0.177l-0.177,0.177l1.228,1.228l-0.868,0.867l-0.015-0.015   c-7.643,7.644-17.763,11.853-28.493,11.853c-9.839-0.002-19.507-3.74-26.868-10.318l28.089-28.089l-0.177-0.177l0.177-0.177   l-1.225-1.226l1.049-1.049l1.226,1.225l0.177-0.177l0.177,0.177l2.799-2.8l-0.177-0.177l0.177-0.177l-1.225-1.225l1.227-1.227   l-0.177-0.177l0.177-0.177l-2.098-2.1l-0.177,0.177l-0.09-0.09l2.191-2.191l0.379,0.379l0.177-0.177l0.177,0.177l2.098-2.1   l-0.177-0.177l0.177-0.177l-1.227-1.227l1.225-1.225l-0.177-0.177l0.177-0.177l-2.799-2.8l-0.177,0.177l-0.177-0.177l-1.226,1.225   l-1.049-1.049l1.225-1.226l-0.177-0.177l0.177-0.177l-28.089-28.089c7.361-6.578,17.029-10.316,26.868-10.318   c10.73,0,20.85,4.209,28.493,11.853l0.016-0.016l0.867,0.868l-1.228,1.228l0.177,0.177l-0.177,0.177l2.8,2.799l0.177-0.177   l0.177,0.177l1.227-1.227l1.228,1.227l0.177-0.177l0.177,0.177l2.097-2.097l-0.177-0.177l0.177-0.177l-0.379-0.379l4.215-4.213   v-2.273h3.749v-0.916h48.333v0.916h5.834v-5.834h-4.594V283.73h-1.573v-4.593h-1.166V236.47h4.499v-3.249h6.71v0.344h0.25v0.25   h2.968v-0.25h0.25v-1.735h1.732v-0.25h0.25v-3.959h-0.25v-0.25h-1.732v-1.484h1.732v-0.25h0.25v-39.723   c9.855,0.554,19.336,4.746,26.295,11.702c7.588,7.588,11.767,17.72,11.767,28.528h0.022v1.226h-1.736v0.25h-0.25v3.959h0.25v0.25   h1.736v1.735h0.25v0.25h2.965v-0.25h0.25v-0.344h1.302v69.467h6v-1.681h62.592v43.037h-0.965h-3.727h-57.9v-0.736H529.892z    M523.394,417.791v-2.465h0.573v0.041h6v-0.041h0.855v2.465H523.394z M528.839,418.291v1.486h-3.459v-1.486H528.839z    M529.642,340.807v2.06h-1.174h-4.279h-0.885v-2.06H529.642z M525.016,340.307v-1.209h2.914v1.209H525.016z M522.804,339.098v1.209   h-34.026c0.004-0.403,0.014-0.807,0.031-1.209H522.804z M523.304,305.322v-2.057h6.338v2.057H523.304z M527.93,305.822v1.213   h-2.914v-1.213H527.93z M570.821,456.874c0.022,0.493,0.033,0.987,0.037,1.482h-39.535v-1.482H570.821z M523.968,461.315v0.009   h-0.573v-2.468h7.429v2.468h-0.855v-0.009H523.968z M525.38,458.356v-1.482h3.459v1.482H525.38z M502.06,463.632v1.401v4.962v1.065   h-2.468v-7.429H502.06z M499.092,465.617v3.459h-1.482v-3.459H499.092z M499.092,471.56v39.535   c-0.495-0.004-0.989-0.016-1.482-0.037V471.56H499.092z M459.027,469.076v-3.459h1.486v3.459H459.027z M458.527,463.632v7.429   h-2.465v-7.429H458.527z M446.148,520.977c-1.824,4.562-6.169,7.502-11.079,7.502c-0.018,0-0.038,0-0.058,0l-0.001,0.25v-0.25   h-9.187v-28.225h9.311c5.261,0,9.952,3.531,11.41,8.588l0.24-0.069l-0.239,0.073C447.764,512.801,447.623,517.108,446.148,520.977z    M425.824,540.394h4.104c2.152,0.01,4.118,1.278,4.999,3.215c0.584,1.603,0.872,3.277,0.855,4.991   c0.095,1.861,0.141,3.757,0.136,5.64c0.046,1.865,0,3.759-0.136,5.65c0.017,1.7-0.271,3.373-0.848,4.957   c-0.889,1.952-2.854,3.222-5.006,3.232h-4.105V540.394z M425.324,470.098v111.123h-12.448V479.977l9.88-9.88H425.324z    M405.109,471.275l1.743,1.743l-5.253,5.253l-1.743-1.743L405.109,471.275z M400.906,474.771l-1.051-1.051l2.446-2.445l1.051,1.051   L400.906,474.771z M378.728,435.96l-1.744,1.746l-0.991-0.991l-3.509-3.509l-0.754-0.754l1.746-1.744L378.728,435.96z    M345.52,402.045c0.352-0.348,0.71-0.689,1.074-1.022l27.93,27.93l-1.048,1.049L345.52,402.045z M375.232,431.757l1.049-1.048   l2.445,2.446l-1.048,1.048L375.232,431.757z M374.197,440.622l0.13-0.13l1.744,1.746l-5.252,5.252l-1.746-1.744l0.754-0.754   l0.128-0.128l0.194,0.194l4.242-4.242L374.197,440.622z M375.021,443.995l1.048,1.048l-2.445,2.446l-1.049-1.048L375.021,443.995z    M371.867,449.246l-27.93,27.93c-0.364-0.334-0.723-0.675-1.074-1.022l27.956-27.956L371.867,449.246z M409.288,404.997l0.02-0.02   l0.202,0.202l-1.743,1.743l-5.253-5.253l1.743-1.743l0.808,0.808l-0.019,0.019L409.288,404.997z M406.009,405.873l-1.05,1.05   l-2.446-2.445l1.051-1.051L406.009,405.873z M466.698,392.304h-0.74v0.918h-48.333v-0.918h-0.5v-2.001h42.666v2.335h5.834v-5.834   h-1V284.972h1v-0.741h1.073V392.304z M471.292,392.804v4.834h-4.834v-4.834H471.292z M465.875,393.722v3h-48.167v-3H465.875z    M460.111,279.138h-0.32v4.319l-42.666-24.216V236.47h18.604l-0.071,0.041L460.111,279.138z M459.791,284.032v0.939h0.834v2.498   h-43.5v-27.653L459.791,284.032z M465.125,387.304v4.834h-4.834v-4.834H465.125z M461.125,386.639V284.972h3v101.667H461.125z    M460.625,287.97v12h-43.5v-12H460.625z M460.625,300.47v12.333h-43.5V300.47H460.625z M460.625,313.303v12.333h-43.5v-12.333   H460.625z M460.625,326.136v12.5h-43.5v-12.5H460.625z M460.625,339.136v12.334h-43.5v-12.334H460.625z M460.625,351.97v12.167   h-43.5V351.97H460.625z M460.625,364.637v12h-43.5v-12H460.625z M460.625,377.137v9.667h-0.834v2.999h-42.666v-12.666H460.625z    M465.125,284.472h-0.5v-0.167h-4v0.167h-0.334v-4.834h4.834V284.472z M463.959,279.138h-3.273l-24.476-42.668h27.748V279.138z    M416.625,235.97v156.334h-2.749V233.887v-0.666h54.582v2.749H416.625z M417.125,392.804v4.834h-3.249v-4.834H417.125z    M476.168,233.314v-1.401v-4.962v-1.065h2.468v7.429H476.168z M479.135,231.329v-3.459h1.482v3.459H479.135z M479.135,225.386   v-39.535c0.495,0.004,0.989,0.016,1.482,0.038v39.497H479.135z M519.201,227.87v3.459h-1.486v-3.459H519.201z M522.166,233.221   v0.094h-2.465v-7.429h2.465v1.335h-0.068v6H522.166z M406.818,85.691h6.272v58.822h-6.272V85.691z M403.424,85.691h2.894v9.32   h-2.894V85.691z M406.318,95.511v16.942h-1.196V95.511H406.318z M403.424,95.511h1.197v16.942h-1.197V95.511z M403.424,112.953   h2.894v4.76h-2.894V112.953z M406.318,118.213v15.818h-1.196v-15.818H406.318z M403.424,118.213h1.197v15.818h-1.197V118.213z    M403.424,134.531h2.894v9.982h-2.894V134.531z M393.389,149.405V81.083h2.486v4.608h7.049v58.822h-7.049v4.892H393.389z    M273.484,213.529h68.321v2.357h-5.008v7.178h-59.566v-7.178h-3.747V213.529z M336.798,226.958v6.272h-59.566v-6.272H336.798z    M277.231,226.458v-2.894h11.127v2.894H277.231z M304.676,225.262v1.196h-15.818v-1.196H304.676z M288.858,224.762v-1.197h15.818   v1.197H288.858z M305.176,226.458v-2.894h4.76v2.894H305.176z M327.378,225.262v1.196h-16.941v-1.196H327.378z M310.436,224.762   v-1.197h16.941v1.197H310.436z M327.878,226.458v-2.894h8.92v2.894H327.878z M211.209,233.887h66.022v-0.156h59.566v0.156h71.078   v164.038l-2.458,2.456l-0.984-0.984l-0.177,0.177l-0.177-0.177l-1.948,1.948c-7.67-7.4-17.685-11.477-28.298-11.477   c-10.712,0.002-21.227,4.374-28.849,11.995l0.177,0.177l-0.177,0.177l28.138,28.138l-1.923,1.921l0.177,0.177l-0.177,0.177   l0.931,0.931l0.056,0.056l-2.497,2.498l-9.526-9.527H211.209V233.887z M211.209,581.221V432.586h146.467l11.925,11.925   l-0.128,0.128l-0.931,0.931l0.177,0.177l-0.177,0.177l1.923,1.921l-28.138,28.138l0.177,0.177l-0.177,0.177   c7.622,7.621,18.137,11.993,28.849,11.995c10.612,0,20.628-4.076,28.298-11.477l1.948,1.948l0.177-0.177l0.177,0.177l1.322-1.323   l3.777,3.777v99.965H311.61v-0.101h-55.209v0.101H211.209z M258.181,587.893v-6.273h51.961v6.273H258.181z M310.142,588.393v2.893   h-9.58v-2.893H310.142z M266.172,589.589v-1.196h33.891v1.196H266.172z M300.062,590.089v1.197h-33.891v-1.197H300.062z    M265.672,588.393v2.893h-7.49v-2.893H265.672z M253.456,601.321v-2.101h4.725v-7.435h51.961v7.435h3.47v2.101H253.456z    M260.94,652.857h-2.638v-51.036h2.638V652.857z M297.273,652.857H261.44v-51.036h35.833V652.857z M300.411,652.857h-2.638v-51.036   h2.638V652.857z M335.464,652.857h-34.553v-51.036h13.201v-2.601h21.352V652.857z M338.601,652.857h-2.638v-53.637h2.638V652.857z    M364.462,652.857h-25.36v-53.637h25.36V652.857z M367.599,652.857h-2.638v-53.637h2.638V652.857z M398.782,652.857h-30.683   v-53.637h30.683V652.857z M401.92,652.857h-2.638v-53.637h2.638V652.857z M432.561,652.857H402.42v-53.637h30.142V652.857z    M435.699,652.857h-2.638v-53.637h2.638V652.857z M467.12,652.857h-30.921v-53.637h0.268v2.601h30.653V652.857z M470.258,652.857   h-2.638v-51.036h2.638V652.857z M472.604,601.321h-35.638v-2.101h4.455v-7.435h30.091v7.435h1.092V601.321z M441.422,587.893   v-6.273h30.091v6.273H441.422z M471.512,588.393v2.893h-6.48v-2.893H471.512z M444.543,589.589v-1.196h19.989v1.196H444.543z    M464.532,590.089v1.197h-19.989v-1.197H464.532z M444.043,588.393v2.893h-2.621v-2.893H444.043z M548.008,581.221h-76.495v-0.101   H438.62v0.101h-12.796V568.58h4.106c2.348-0.012,4.49-1.396,5.468-3.543c0.547-1.502,0.829-3.066,0.866-4.64l0.663,0.024   c0.353,0.012,0.693,0.15,0.956,0.39c0.526,0.49,1.11,0.957,1.734,1.393c0.201,0.375,0.523,0.675,0.929,0.831   c3.393,1.334,6.968,2.01,10.624,2.01c0.68,0,1.359-0.049,2.019-0.145c3.465-0.502,6.603-2.26,8.838-4.95   c2.705-3.302,2.705-8.091-0.001-11.391c-2.693-3.239-6.649-5.098-10.855-5.098c-3.653,0-7.227,0.677-10.621,2.011   c-0.398,0.152-0.714,0.442-0.916,0.807c-0.615,0.424-1.203,0.891-1.745,1.392c-0.262,0.241-0.602,0.381-0.957,0.393l-0.666,0.023   c-0.04-1.586-0.322-3.149-0.875-4.666c-0.97-2.132-3.112-3.516-5.461-3.525h-4.105v-10.915h9.186h0.001c0.02,0,0.039,0,0.059,0   c5.116,0,9.643-3.062,11.544-7.816l-0.232-0.093l0.233,0.089c1.516-3.974,1.661-8.398,0.41-12.459   c-1.522-5.268-6.409-8.945-11.89-8.945h-9.311v-29.657h29.738v1.213h0.25v0.25h2.755c0.191,10.656,4.39,20.619,11.895,28.124   c7.576,7.573,18.103,11.917,28.881,11.917v-0.25h0.25V471.56h2.718v-0.25h0.25v-1.212h4.366v13.198v97.801h41.081V581.221z    M436.419,554.235c0.005-1.886-0.041-3.79-0.136-5.646c0-0.002,0-0.003,0-0.003l0.665-0.024c0.475-0.016,0.93-0.202,1.28-0.525   c0.362-0.335,0.752-0.648,1.152-0.951c-0.919,4.752-0.92,9.564-0.004,14.316c-0.405-0.309-0.797-0.625-1.155-0.958   c-0.352-0.321-0.806-0.507-1.277-0.522l-0.662-0.024C436.419,558.014,436.465,556.106,436.419,554.235z M439.922,546.896   c0.091-0.441,0.393-0.8,0.809-0.959c3.337-1.312,6.85-1.977,10.44-1.977c4.057,0,7.873,1.792,10.47,4.916   c2.555,3.114,2.555,7.638,0.001,10.754c-2.154,2.594-5.182,4.289-8.524,4.774c-0.636,0.093-1.291,0.14-1.946,0.14   c-3.594,0-7.106-0.664-10.442-1.976c-0.414-0.16-0.716-0.518-0.807-0.957C438.939,556.729,438.939,551.778,439.922,546.896z    M548.008,580.598h-40.581v-97.301h40.581V580.598z M548.008,482.797h-40.581v-12.698h40.581V482.797z M658.527,601.321h-68.321   v-2.101h5.336v-7.435h58.999v7.435h3.986V601.321z M595.542,587.893v-6.273h58.999v6.273H595.542z M654.541,588.393v2.893h-10.888   v-2.893H654.541z M604.633,589.589v-1.196h38.52v1.196H604.633z M643.153,590.089v1.197h-38.52v-1.197H643.153z M604.133,588.393   v2.893h-8.592v-2.893H604.133z M711.208,581.221h-54.985v-0.101h-62.642v0.101h-39.573V464.099h-24.04v-2.274h1.105v-0.25h0.25   v-2.718h39.791v-0.25h0.25c0-10.778-4.344-21.305-11.917-28.881c-7.505-7.505-17.468-11.703-28.124-11.895v-2.755h-0.25v-0.25   h-1.105v-64.782h57.9h3.727h119.613V581.221z M711.208,344.044H598.747V295.63h112.461V344.044z M711.208,286.744v8.386H598.559   v-0.123h-68.592V275.21h4.164c2.348-0.012,4.49-1.396,5.468-3.543c0.547-1.502,0.829-3.066,0.866-4.64l0.663,0.025   c0.353,0.012,0.693,0.15,0.956,0.39c0.526,0.49,1.11,0.957,1.734,1.393c0.201,0.375,0.523,0.675,0.929,0.831   c3.393,1.334,6.968,2.01,10.624,2.01c0.68,0,1.359-0.049,2.018-0.146c3.465-0.502,6.603-2.26,8.838-4.95   c2.705-3.302,2.705-8.091-0.001-11.391c-2.693-3.239-6.649-5.098-10.855-5.098c-3.653,0-7.228,0.677-10.621,2.011   c-0.398,0.152-0.714,0.442-0.916,0.807c-0.615,0.424-1.203,0.891-1.745,1.392c-0.262,0.241-0.602,0.381-0.957,0.393l-0.666,0.022   c-0.04-1.585-0.322-3.148-0.875-4.665c-0.97-2.132-3.112-3.516-5.461-3.525h-4.163v-13.304h62.7v0.344h0.25v0.25h2.965v-0.25h0.25   v-1.735h1.736v-0.25h0.25v-3.959h-0.25v-0.25h-1.736v-1.226h0.021c0-10.809,4.179-20.941,11.767-28.528   c6.959-6.956,16.44-11.148,26.295-11.702v39.723h0.25v0.25h1.732v1.484h-1.732v0.25h-0.25v3.959h0.25v0.25h1.732v1.735h0.25v0.25   h2.968v-0.25h0.25v-0.344h71.542v18.614h-10.172h-0.001c-0.02,0-0.039,0-0.059,0c-5.116,0-9.643,3.062-11.544,7.816l0.232,0.093   l-0.233-0.089c-1.516,3.974-1.661,8.398-0.41,12.459c1.522,5.268,6.409,8.945,11.89,8.945h9.705v-0.5h-9.705   c-5.261,0-9.952-3.531-11.41-8.588l-0.24,0.069l0.239-0.073c-1.219-3.954-1.077-8.262,0.398-12.131   c1.824-4.562,6.169-7.502,11.079-7.502c0.018,0,0.038,0,0.058,0l0.001-0.25v0.25h10.173v8.359h-0.486v26.05H711.208z    M540.62,260.865c0.005-1.886-0.041-3.79-0.136-5.646c0-0.001,0-0.003,0-0.005l0.665-0.022c0.476-0.016,0.93-0.202,1.28-0.525   c0.362-0.335,0.752-0.648,1.152-0.951c-0.919,4.752-0.92,9.564-0.004,14.316c-0.405-0.309-0.797-0.625-1.155-0.958   c-0.352-0.321-0.806-0.507-1.277-0.522l-0.662-0.025C540.62,264.644,540.666,262.736,540.62,260.865z M544.123,253.526   c0.091-0.441,0.393-0.8,0.808-0.959c3.337-1.312,6.85-1.977,10.441-1.977c4.057,0,7.873,1.792,10.47,4.916   c2.555,3.114,2.555,7.638,0.001,10.754c-2.154,2.594-5.182,4.289-8.524,4.775c-0.636,0.093-1.291,0.14-1.946,0.14   c-3.594,0-7.107-0.664-10.442-1.976c-0.414-0.16-0.716-0.518-0.807-0.957C543.14,263.359,543.14,258.408,544.123,253.526z    M636.198,227.87v3.459h-1.482v-3.459H636.198z M717.494,286.093h-6.272v-24.469h6.272V286.093z M720.887,286.093h-2.894v-3.591   h2.894V286.093z M720.887,282.002h-1.197v-15.727h1.197V282.002z M720.887,265.775h-2.894v-4.151h2.894V265.775z M730.923,288.002   h-1.715v-1.909h-7.82v-24.469h7.82v-1.742h1.715V288.002z; : BBData-193.06666564941406,0.399993896484375,730.9499664306641,653.3333435058594
g :  : BBData-193.06666564941406,0.399993896484375,730.9499664306641,656.6000061035156
style : type-text/css; : BBData-0,0,0,0
svg : version-1.0;id-westaway_x5F_floorplan_x5F_morris_x5F_first;x-0px;y-0px;width-924.632px;height-656.632px;viewBox-0 0 924.632 656.632;style-enable-background:new 0 0 924.632 656.632;; : BBData-0,0,924,657
