diningroom : [131.04,116.352] : [115.2,108.576,146.88,124.128] : [91] : match
coveredpatio : [275.904,116.352] : [261.216,109.728,290.88,123.264] : [87] : match
bath : [508.608,119.52] : [499.968,117.216,517.248,121.824] : [96] : match
walkincloset : [453.024,131.904] : [441.216,127.296,464.832,136.512] : [83] : match
greatroom : [280.8,216.576] : [264.96,209.088,296.928,224.352] : [90] : match
masterbedroom : [660.672,217.728] : [638.784,209.952,682.56,225.504] : [89] : match
bedroom 2 : [474.624,230.4] : [447.264,227.232,502.272,233.568] : [90] : match
kitchen : [134.784,244.8] : [113.184,241.632,156.384,248.256] : [86] : match
closet : [535.68,255.744] : [524.736,253.728,546.912,257.76] : [88] : match
pantry : [151.488,271.008] : [142.272,269.568,160.704,272.736] : [78] : match
storage : [169.344,292.608] : [156.096,290.592,182.592,294.624] : [79] : match
es : [646.56,313.056] : [641.664,310.752,651.744,315.36] : [77] : match
storage : [349.344,323.136] : [336.096,321.408,362.592,325.152] : [84] : match
bonusroom : [480.96,326.304] : [465.984,317.952,496.224,334.944] : [81] : match
bath 3 : [324.0,371.232] : [308.448,368.064,339.84,374.4] : [87] : match
entry : [250.56,397.44] : [238.176,394.848,263.232,400.032] : [90] : match
bedroom 3 : [480.96,422.208] : [453.6,419.04,508.32,425.376] : [87] : match
bedroom 4 : [324.576,450.72] : [297.216,447.552,352.224,453.888] : [90] : match
coveredporch : [297.216,512.352] : [281.088,505.728,313.344,519.264] : [87] : match
ac : [482.4,486.432] : [468.576,485.568,496.512,487.584] : [78] : match
I I : [569.664,190.944] : [565.632,190.08,573.696,192.096] : [75] : none
00: : [78.048,206.208] : [72.0,203.616,84.384,209.088] : [84] : none
mm : [569.088,199.008] : [559.872,197.568,578.592,200.448] : [61] : none
0 O : [77.184,214.272] : [72.0,212.256,82.368,216.576] : [88] : none
_ : [136.512,259.488] : [133.632,257.76,139.68,261.216] : [68] : none
W" : [221.184,290.304] : [216.576,288.288,226.08,292.32] : [75] : none
-- v : [345.024,305.568] : [335.52,305.568,354.816,305.568] : [85] : none
I ' : [344.16,309.312] : [335.52,307.296,352.8,311.616] : [88] : none
:. .! : [692.64,340.704] : [688.32,339.264,697.248,342.144] : [92] : none
egg : [78.336,113.472] : [72.864,108.576,83.808,118.368] : [49] : none
emaster : [503.136,111.744] : [483.84,107.712,522.432,115.776] : [67] : none
dw : [119.232,180.864] : [113.472,176.256,124.992,185.76] : [88] : none
ra : [138.24,177.408] : [133.344,175.68,143.136,179.136] : [31] : none
walkin : [535.392,250.272] : [523.296,248.544,547.776,252.288] : [88] : none
reeiace : [129.312,269.28] : [122.112,262.944,136.512,275.904] : [65] : none
abath : [572.544,264.096] : [558.432,262.656,586.944,265.536] : [68] : none
up : [278.496,294.912] : [273.888,292.608,283.392,297.504] : [76] : none
opento : [675.936,321.408] : [659.808,318.816,692.064,324.0] : [89] : none
below : [679.68,329.184] : [662.112,326.016,697.248,332.64] : [91] : none
coats : [289.152,345.312] : [280.224,343.296,298.368,347.328] : [83] : none
onrail : [675.648,347.04] : [667.296,342.72,684.288,351.36] : [56] : none
opendn : [672.768,353.664] : [659.232,347.904,686.304,359.712] : [85] : none
zcar : [144.864,368.352] : [131.328,365.184,158.688,371.808] : [68] : none
laundrxii : [556.416,384.768] : [542.88,380.736,569.952,389.088] : [61] : none
onini : [556.416,404.064] : [551.232,400.032,561.888,408.384] : [56] : none
upper : [564.192,420.192] : [548.352,418.176,580.32,422.208] : [66] : none
egg : [567.36,447.84] : [555.264,443.232,579.744,452.448] : [48] : none
firstfloor : [209.664,556.992] : [178.848,553.824,240.48,560.16] : [92] : none
secondfloor : [576.864,556.992] : [540.576,553.824,613.44,560.16] : [92] : none
9 a : [410.112,120.96] : [404.64,120.096,415.584,121.824] : [67] : none
Q : [235.008,128.448] : [231.84,125.28,238.464,131.904] : [63] : none
\ : [386.496,141.696] : [383.328,140.256,389.664,143.136] : [80] : none
u : : [302.4,336.672] : [298.08,335.52,306.72,338.112] : [80] : none
U , : [429.696,567.648] : [436.032,562.752,423.648,572.832] : [69] : none
l 1 : [249.984,569.664] : [240.768,567.936,259.488,571.392] : [73] : none
a .-1 : [440.064,574.272] : [436.032,573.12,444.384,575.424] : [62] : none
. 1.10 : [254.016,584.352] : [247.968,582.624,260.064,586.368] : [65] : none
= : [273.024,724.896] : [264.96,722.88,281.376,726.912] : [85] : none
= : [303.84,724.896] : [295.776,722.88,312.192,726.912] : [85] : none
mmmk : [334.944,76.608] : [325.728,73.152,344.16,80.064] : [69] : none
cavets : [329.472,82.944] : [320.256,81.504,338.688,84.384] : [64] : none
cab : [489.024,82.368] : [485.28,81.216,493.056,83.808] : [79] : none
fa : [339.84,119.232] : [336.672,116.64,343.008,122.112] : [61] : none
oa : [427.392,576.864] : [416.448,571.392,438.336,582.336] : [53] : none
na : [345.312,578.88] : [338.688,576.576,351.936,581.184] : [56] : none
hum : [236.16,582.624] : [226.368,579.168,246.24,586.368] : [71] : none
nenm : [290.592,646.848] : [284.544,641.664,296.928,652.032] : [66] : none
