masterbath : [142.005434783,21.024] : [134.516304348,16.992,149.782608696,25.344] : [75] : match
cl : [152.663043478,35.136] : [146.038043478,32.256,159.288043478,38.016] : [70] : match
utility : [127.891304348,65.376] : [119.25,63.648,136.532608696,67.392] : [65] : match
linen : [177.14673913,110.304] : [173.114130435,108.864,181.467391304,111.744] : [55] : match
bedroom 2 : [212.576086957,131.328] : [196.445652174,129.312,228.994565217,133.344] : [84] : match
foyer : [82.3804347826,168.48] : [74.6032608696,166.752,90.4456521739,170.208] : [79] : match
coveredporch : [36.2934782609,191.808] : [26.7880434783,187.776,46.0869565217,195.84] : [81] : match
garage : [163.320652174,224.64] : [150.64673913,220.32,176.282608696,229.248] : [67] : match
clo : [232.739130435,8.352] : [222.369565217,6.336,243.108695652,10.656] : [51] : match
i , : [155.255434783,63.936] : [149.206521739,60.768,161.592391304,67.104] : [64] : none
. 1 : [38.597826087,91.872] : [30.2445652174,87.264,47.2391304348,96.48] : [66] : none
.1 .1111: : [134.22826087,110.592] : [116.945652174,108.864,151.798913043,112.32] : [61] : none
. . : [126.451086957,114.048] : [116.945652174,113.472,135.956521739,114.912] : [93] : none
3" O : [167.641304348,135.072] : [157.559782609,126.432,177.722826087,144.0] : [71] : none
10'5"x11'5" : [212.576086957,136.224] : [198.75,134.496,226.690217391,137.952] : [75] : none
0m, : [233.315217391,183.456] : [230.14673913,181.728,236.483695652,185.184] : [65] : none
vw : [36.8695652174,29.952] : [19.0108695652,26.784,54.7282608696,33.408] : [49] : none
ikitchen : [29.6684782609,43.776] : [10.3695652174,42.624,49.2554347826,44.928] : [60] : none
masteri : [207.10326087,50.112] : [194.717391304,43.2,219.777173913,57.312] : [61] : none
waycellmg : [86.7010869565,59.04] : [72.2989130435,52.128,101.391304348,66.24] : [51] : none
vauked : [78.347826087,63.36] : [70.8586956522,61.92,85.8369565217,65.088] : [75] : none
ri : [38.8858695652,83.808] : [30.8206521739,82.944,47.2391304348,84.672] : [35] : none
Lmen 1 : [140.85326087,79.776] : [132.5,79.2,149.494565217,80.64] : [53] : none
rxg : [13.8260869565,90.144] : [6.625,84.096,21.3152173913,96.192] : [22] : none
mw : [54.7282608696,93.312] : [49.8315217391,91.584,59.625,95.04] : [53] : none
livingiw : [44.3586956522,136.512] : [34.277173913,132.192,54.4402173913,140.832] : [48] : none
vaudeeiing : [42.9184782609,144.0] : [27.652173913,141.696,58.472826087,146.304] : [62] : none
dow : [233.315217391,186.624] : [229.570652174,185.184,237.059782609,188.064] : [55] : none
firstfloor : [35.1413043478,227.52] : [2.30434782609,223.776,68.2663043478,231.264] : [85] : none
- I : [151.222826087,3.456] : [140.277173913,1.728,162.168478261,5.184] : [81] : none
1 | : [254.342391304,36.576] : [246.277173913,31.104,262.695652174,42.336] : [83] : none
a . : [254.342391304,47.52] : [246.277173913,42.624,262.695652174,52.704] : [61] : none
0 : [164.760869565,177.696] : [161.304347826,174.528,168.505434783,181.152] : [70] : none
km : [204.798913043,9.216] : [191.260869565,6.336,218.625,12.096] : [40] : none
si : [254.342391304,30.816] : [246.277173913,25.92,262.695652174,35.712] : [75] : none
di : [90.4456521739,49.824] : [97.6467391304,46.656,83.2445652174,53.28] : [81] : none
No Text Detected
