living : [266.095280301,185.080645161] : [250.955018834,178.859447005,281.339242189,191.405529954] : [84] : match
storage : [65.8497673388,224.170506912] : [44.1763793485,217.949308756,87.6268557501,230.495391705] : [64] : match
storage : [65.5386660758,461.612903226] : [43.8652780855,455.391705069,87.315754487,467.937788018] : [64] : match
bedroom : [293.78329271,521.232718894] : [270.658098826,516.463133641,316.908486594,526.105990783] : [67] : match
0 : [365.232882783,185.288018433] : [361.81076889,181.866359447,368.758697097,188.709677419] : [87] : none
area : [298.242410813,185.080645161] : [286.420562819,181.658986175,310.167959229,188.605990783] : [95] : none
area : [65.8497673388,236.301843318] : [54.0279193441,232.880184332,77.7753157545,239.82718894] : [93] : none
area : [65.5386660758,473.744239631] : [53.7168180811,470.322580645,77.4642144915,477.269585253] : [94] : none
l : [21.4659871482,18.1451612903] : [18.4586749391,15.9677419355,24.5769997784,20.4262672811] : [78] : none
| : [590.159095945,18.1451612903] : [587.151783736,15.9677419355,593.270108575,20.4262672811] : [78] : none
l. : [563.508087747,287.315668203] : [557.182362065,285.34562212,569.937513849,289.389400922] : [73] : none
O : [315.560381121,387.684331797] : [313.486372701,385.714285714,317.634389541,389.758064516] : [84] : none
I_ : [21.4659871482,441.601382488] : [18.4586749391,439.423963134,24.5769997784,443.778801843] : [95] : none
_l : [590.159095945,441.601382488] : [587.151783736,439.423963134,593.270108575,443.778801843] : [94] : none
No Text Detected
