path : id-XMLID_1316_;d-M143.43,96.092v-1.481l0.472-0.054c-0.206-0.164-0.354-0.356-0.445-0.577     c-0.091-0.221-0.136-0.44-0.136-0.659c0-0.2,0.022-0.371,0.068-0.513c0.045-0.142,0.1-0.262,0.164-0.359     c0.063-0.097,0.127-0.172,0.191-0.227s0.113-0.097,0.15-0.127c-0.073-0.066-0.144-0.154-0.213-0.263     c-0.07-0.109-0.132-0.226-0.187-0.35c-0.054-0.124-0.097-0.254-0.127-0.391s-0.045-0.265-0.045-0.386     c0-0.551,0.151-0.971,0.454-1.258s0.715-0.432,1.235-0.432h2.689v1.535h-2.28c-0.23,0-0.412,0.045-0.545,0.136     c-0.133,0.091-0.2,0.24-0.2,0.445c0,0.206,0.067,0.374,0.2,0.504c0.133,0.13,0.315,0.195,0.545,0.195h2.28v1.444h-2.28     c-0.23,0-0.412,0.044-0.545,0.132c-0.133,0.088-0.2,0.238-0.2,0.45c0,0.194,0.067,0.359,0.2,0.495     c0.133,0.136,0.315,0.205,0.545,0.205h2.28v1.535H143.43z; : BBData-352.3833312988281,218.56666564941406,363.1666717529297,236.01666259765625
path : id-XMLID_1313_;d-M146.319,100.471c0.085-0.145,0.146-0.3,0.182-0.463s0.055-0.306,0.055-0.427     c0-0.363-0.085-0.63-0.254-0.799c-0.17-0.17-0.424-0.279-0.763-0.327c0.084,0.139,0.15,0.3,0.195,0.481s0.068,0.363,0.068,0.545     c0,0.303-0.051,0.566-0.154,0.791s-0.242,0.411-0.418,0.559c-0.176,0.148-0.375,0.261-0.6,0.336s-0.46,0.113-0.708,0.113     c-0.285,0-0.556-0.047-0.813-0.141c-0.257-0.094-0.481-0.23-0.672-0.409c-0.19-0.179-0.342-0.397-0.454-0.654     c-0.112-0.257-0.168-0.553-0.168-0.886c0-0.321,0.055-0.619,0.164-0.895c0.109-0.275,0.285-0.516,0.527-0.722     s0.561-0.367,0.954-0.481c0.394-0.115,0.875-0.173,1.444-0.173c0.357,0,0.712,0.049,1.063,0.146     c0.352,0.097,0.668,0.25,0.95,0.459c0.281,0.208,0.508,0.483,0.681,0.822c0.173,0.339,0.259,0.749,0.259,1.227     c0,0.321-0.038,0.604-0.113,0.85s-0.159,0.447-0.25,0.604L146.319,100.471z M144.238,98.417c-0.394,0-0.675,0.071-0.845,0.214     c-0.169,0.142-0.254,0.316-0.254,0.522c0,0.218,0.071,0.39,0.214,0.514c0.142,0.124,0.322,0.186,0.541,0.186     c0.212,0,0.383-0.059,0.513-0.177c0.13-0.118,0.199-0.274,0.205-0.468c0-0.176-0.026-0.322-0.077-0.44     c-0.052-0.118-0.129-0.235-0.232-0.35H144.238z; : BBData-348.66668701171875,238.01666259765625,363.5833435058594,248.75
path : id-XMLID_1311_;d-M146.055,103.787v-1.654h1.645v1.654H146.055z; : BBData-359.1000061035156,250.78334045410156,363.1666717529297,254.93333435058594
path : id-XMLID_1309_;d-M146.392,108.466v-1h-2.744l0.437,0.809l-1.163,0.654l-0.945-1.717v-1.227h4.416v-0.927h1.308v3.407     H146.392z; : BBData-349.066650390625,257.98333740234375,363.2166442871094,267.53334045410156
g : id-XMLID_249_;clip-path-url(#XMLID_1609_); : BBData-348.66668701171875,218.56666564941406,363.5833435058594,267.53334045410156
use : xlink:href-#XMLID_248_;overflow-visible; : BBData-0,0,0,0
clipPath : id-XMLID_1609_; : BBData-0.4166717529296875,0,0.4166717529296875,0
rect : id-XMLID_248_;x-141.812;y-0.259;width-291.375;height-294.482; : BBData-0,0,0,0
defs :  : BBData-0.4166717529296875,0,0.4166717529296875,0
g :  : BBData-348.66668701171875,218.56666564941406,363.5833435058594,267.53334045410156
path : d-M152.265,45.026l0.681-0.681l-7.12-5.758L152.265,45.026z M152.947,44.345l-7.12-5.758l0.681-0.681L152.947,44.345z; : BBData-358.5333251953125,93.06666564941406,376.066650390625,110.60000610351562
path : d-M146.507,158.309l-0.681,0.681l7.12,5.758L146.507,158.309z M145.826,158.99l7.12,5.758l-0.681,0.681L145.826,158.99z; : BBData-358.5333251953125,388.76666259765625,376.066650390625,406.3000030517578
line : id-XMLID_254_;fill-none;stroke-#1D1D1B;stroke-width-0.465;stroke-linecap-round;stroke-linejoin-round;stroke-miterlimit-10;x1-149.403;y1-165.088;x2-149.403;y2-38.247; : BBData-366.75,93.31666564941406,367.9499969482422,406.0500030517578
path : fill-none;stroke-#1D1D1B;stroke-width-0.258;stroke-linecap-round;stroke-linejoin-round;stroke-miterlimit-10;d-   M155.842,41.483h-10.459 M155.842,161.852h-10.459; : BBData-357.01666259765625,101.41667175292969,383.6333312988281,397.99998474121094
path : id-XMLID_1327_;d-M143.43,191.407v-1.48l0.472-0.055c-0.206-0.164-0.354-0.355-0.445-0.577     c-0.091-0.221-0.136-0.44-0.136-0.658c0-0.2,0.022-0.371,0.068-0.514s0.1-0.262,0.164-0.358c0.063-0.098,0.127-0.173,0.191-0.228     s0.113-0.097,0.15-0.127c-0.073-0.066-0.144-0.154-0.213-0.264c-0.07-0.109-0.132-0.226-0.187-0.35     c-0.054-0.124-0.097-0.255-0.127-0.391c-0.03-0.137-0.045-0.266-0.045-0.387c0-0.551,0.151-0.971,0.454-1.258     c0.303-0.288,0.715-0.432,1.235-0.432h2.689v1.535h-2.28c-0.23,0-0.412,0.046-0.545,0.137c-0.133,0.091-0.2,0.239-0.2,0.445     c0,0.205,0.067,0.374,0.2,0.504c0.133,0.13,0.315,0.195,0.545,0.195h2.28v1.444h-2.28c-0.23,0-0.412,0.044-0.545,0.132     c-0.133,0.088-0.2,0.237-0.2,0.45c0,0.193,0.067,0.358,0.2,0.495c0.133,0.136,0.315,0.204,0.545,0.204h2.28v1.535H143.43z; : BBData-352.3833312988281,452.66668701171875,363.1666717529297,470.11668395996094
path : id-XMLID_1323_;d-M144.556,195.805c-0.109,0.176-0.267,0.331-0.472,0.468c-0.206,0.136-0.445,0.204-0.718,0.204     c-0.218,0-0.421-0.048-0.609-0.146c-0.188-0.097-0.353-0.234-0.495-0.413c-0.142-0.179-0.253-0.396-0.332-0.649     c-0.079-0.255-0.118-0.539-0.118-0.854c0-0.314,0.04-0.6,0.118-0.854c0.079-0.255,0.189-0.473,0.332-0.654     c0.143-0.182,0.308-0.322,0.495-0.423c0.188-0.1,0.391-0.149,0.609-0.149c0.272,0,0.512,0.068,0.718,0.204     c0.206,0.137,0.363,0.293,0.472,0.468c0.14-0.284,0.329-0.512,0.568-0.681c0.239-0.17,0.544-0.255,0.913-0.255     c0.206,0,0.417,0.047,0.631,0.141c0.215,0.095,0.409,0.238,0.582,0.432c0.172,0.194,0.315,0.438,0.427,0.731     c0.112,0.294,0.168,0.641,0.168,1.04c0,0.395-0.052,0.736-0.155,1.027c-0.103,0.29-0.237,0.532-0.404,0.727     c-0.167,0.193-0.357,0.338-0.572,0.432c-0.215,0.094-0.435,0.141-0.659,0.141c-0.369,0-0.677-0.088-0.922-0.264     C144.888,196.301,144.696,196.077,144.556,195.805z M144.193,194.414c-0.061-0.188-0.15-0.348-0.268-0.481     c-0.118-0.133-0.265-0.199-0.44-0.199c-0.188,0-0.338,0.063-0.45,0.19c-0.112,0.127-0.168,0.291-0.168,0.49     c0,0.2,0.056,0.364,0.168,0.491c0.112,0.127,0.262,0.19,0.45,0.19c0.175,0,0.322-0.066,0.44-0.2     C144.043,194.763,144.132,194.603,144.193,194.414z M145.183,194.414c0.03,0.098,0.067,0.194,0.109,0.291     c0.042,0.097,0.096,0.184,0.159,0.259c0.063,0.076,0.139,0.138,0.227,0.187s0.189,0.072,0.304,0.072     c0.109,0,0.206-0.022,0.291-0.067c0.085-0.046,0.154-0.106,0.209-0.182c0.054-0.076,0.095-0.162,0.123-0.26     c0.027-0.097,0.041-0.196,0.041-0.3c0-0.103-0.014-0.202-0.041-0.3c-0.027-0.097-0.068-0.183-0.123-0.259     c-0.055-0.075-0.124-0.136-0.209-0.182c-0.085-0.045-0.182-0.068-0.291-0.068c-0.115,0-0.216,0.024-0.304,0.073     s-0.164,0.112-0.227,0.19c-0.063,0.079-0.117,0.165-0.159,0.259C145.25,194.223,145.213,194.317,145.183,194.414z; : BBData-348.66668701171875,471.70001220703125,363.5333557128906,483.2166748046875
path : id-XMLID_1321_;d-M146.055,199.103v-1.653h1.645v1.653H146.055z; : BBData-359.1000061035156,484.8666687011719,363.1666717529297,489.03334045410156
path : id-XMLID_1318_;d-M147.845,202.146c0,0.375-0.073,0.705-0.218,0.99c-0.146,0.284-0.351,0.522-0.618,0.713     c-0.267,0.191-0.584,0.335-0.954,0.432c-0.369,0.097-0.778,0.146-1.227,0.146s-0.857-0.049-1.227-0.146     c-0.369-0.097-0.687-0.24-0.954-0.432c-0.267-0.19-0.473-0.429-0.618-0.713c-0.145-0.285-0.218-0.615-0.218-0.99     c0-0.4,0.073-0.743,0.218-1.031c0.146-0.288,0.352-0.522,0.618-0.704s0.584-0.316,0.954-0.404     c0.37-0.088,0.778-0.132,1.227-0.132s0.857,0.044,1.227,0.132c0.37,0.088,0.688,0.223,0.954,0.404s0.472,0.416,0.618,0.704     S147.845,201.746,147.845,202.146z M146.446,202.146c0-0.146-0.042-0.264-0.127-0.354s-0.2-0.164-0.345-0.218     c-0.146-0.055-0.316-0.093-0.514-0.114c-0.196-0.021-0.407-0.031-0.631-0.031c-0.224,0-0.435,0.011-0.631,0.031     c-0.197,0.021-0.368,0.06-0.513,0.114c-0.146,0.054-0.26,0.127-0.345,0.218s-0.127,0.209-0.127,0.354s0.042,0.265,0.127,0.358     s0.2,0.167,0.345,0.219c0.146,0.051,0.316,0.088,0.513,0.108c0.197,0.021,0.408,0.032,0.631,0.032     c0.224,0,0.435-0.011,0.631-0.032c0.197-0.021,0.368-0.058,0.514-0.108c0.145-0.052,0.26-0.125,0.345-0.219     S146.446,202.292,146.446,202.146z; : BBData-348.66668701171875,490.8500061035156,363.5333557128906,502.0833282470703
g : id-XMLID_258_;clip-path-url(#XMLID_1608_); : BBData-348.66668701171875,452.66668701171875,363.5333557128906,502.0833435058594
use : xlink:href-#XMLID_257_;overflow-visible; : BBData-0,0,0,0
clipPath : id-XMLID_1608_; : BBData-0.4166717529296875,0,0.4166717529296875,0
rect : id-XMLID_257_;x-141.812;y-0.259;width-291.375;height-294.482; : BBData-0,0,0,0
defs :  : BBData-0.4166717529296875,0,0.4166717529296875,0
g :  : BBData-348.66668701171875,452.66668701171875,363.5333557128906,502.0833435058594
path : d-M152.265,171.868l0.681-0.681l-7.12-5.758L152.265,171.868z M152.947,171.187l-7.12-5.758l0.681-0.681L152.947,171.187z; : BBData-358.5333251953125,404.566650390625,376.066650390625,422.1499786376953
path : d-M146.507,214.967l-0.681,0.681l7.12,5.758L146.507,214.967z M145.826,215.648l7.12,5.758l-0.681,0.681L145.826,215.648z; : BBData-358.5333251953125,527.933349609375,376.066650390625,545.4666748046875
line : id-XMLID_263_;fill-none;stroke-#1D1D1B;stroke-width-0.465;stroke-linecap-round;stroke-linejoin-round;stroke-miterlimit-10;x1-149.403;y1-221.747;x2-149.403;y2-165.088; : BBData-366.75,404.8500061035156,367.9499969482422,545.1833343505859
path : fill-none;stroke-#1D1D1B;stroke-width-0.258;stroke-linecap-round;stroke-linejoin-round;stroke-miterlimit-10;d-   M155.842,168.291h-10.459 M155.842,218.51h-10.459; : BBData-357.01666259765625,412.83331298828125,383.6333312988281,537.1166534423828
path : id-XMLID_1336_;d-M169.188,245.375v-1.48l0.472-0.055c-0.206-0.164-0.354-0.355-0.445-0.577    c-0.091-0.221-0.136-0.44-0.136-0.658c0-0.2,0.022-0.371,0.068-0.514s0.1-0.262,0.164-0.358c0.063-0.098,0.127-0.173,0.191-0.228    s0.113-0.097,0.15-0.127c-0.073-0.066-0.144-0.154-0.213-0.264c-0.07-0.109-0.132-0.226-0.187-0.35    c-0.054-0.124-0.097-0.255-0.127-0.391c-0.03-0.137-0.045-0.266-0.045-0.387c0-0.551,0.151-0.971,0.454-1.258    c0.303-0.288,0.715-0.432,1.235-0.432h2.689v1.535h-2.28c-0.23,0-0.412,0.046-0.545,0.137c-0.133,0.091-0.2,0.239-0.2,0.445    c0,0.205,0.067,0.374,0.2,0.504c0.133,0.13,0.315,0.195,0.545,0.195h2.28v1.444h-2.28c-0.23,0-0.412,0.044-0.545,0.132    c-0.133,0.088-0.2,0.237-0.2,0.45c0,0.193,0.067,0.358,0.2,0.495c0.133,0.136,0.315,0.204,0.545,0.204h2.28v1.535H169.188z; : BBData-415.6333312988281,585.2000122070312,426.4499969482422,602.6500091552734
path : id-XMLID_1334_;d-M173.458,250.026c-0.351-0.108-0.736-0.245-1.154-0.408c-0.418-0.164-0.828-0.338-1.231-0.522    s-0.783-0.368-1.14-0.55s-0.651-0.346-0.881-0.491v2.444h-1.317v-4.007h1.227c0.424,0.249,0.83,0.468,1.217,0.659    c0.388,0.19,0.765,0.363,1.131,0.518c0.366,0.154,0.727,0.294,1.081,0.418c0.354,0.124,0.71,0.244,1.067,0.359V250.026z; : BBData-412.3500061035156,605.3333129882812,426.4499969482422,615.2166442871094
path : id-XMLID_1332_;d-M171.813,253.07v-1.653h1.645v1.653H171.813z; : BBData-422.33331298828125,617.4500122070312,426.4499816894531,621.5666809082031
path : id-XMLID_1329_;d-M173.603,256.114c0,0.375-0.073,0.705-0.218,0.99c-0.146,0.284-0.351,0.522-0.618,0.713    c-0.267,0.191-0.584,0.335-0.954,0.432c-0.369,0.097-0.778,0.146-1.227,0.146s-0.857-0.049-1.227-0.146    c-0.369-0.097-0.687-0.24-0.954-0.432c-0.267-0.19-0.473-0.429-0.618-0.713c-0.145-0.285-0.218-0.615-0.218-0.99    c0-0.4,0.073-0.743,0.218-1.031c0.146-0.288,0.352-0.522,0.618-0.704s0.584-0.316,0.954-0.404c0.37-0.088,0.778-0.132,1.227-0.132    s0.857,0.044,1.227,0.132c0.37,0.088,0.688,0.223,0.954,0.404s0.472,0.416,0.618,0.704S173.603,255.714,173.603,256.114z     M172.204,256.114c0-0.146-0.042-0.264-0.127-0.354s-0.2-0.164-0.345-0.218c-0.146-0.055-0.316-0.093-0.514-0.114    c-0.196-0.021-0.407-0.031-0.631-0.031c-0.224,0-0.435,0.011-0.631,0.031c-0.197,0.021-0.368,0.06-0.513,0.114    c-0.146,0.054-0.26,0.127-0.345,0.218s-0.127,0.209-0.127,0.354s0.042,0.265,0.127,0.358s0.2,0.167,0.345,0.219    c0.146,0.051,0.316,0.088,0.513,0.108c0.197,0.021,0.408,0.032,0.631,0.032c0.224,0,0.435-0.011,0.631-0.032    c0.197-0.021,0.368-0.058,0.514-0.108c0.145-0.052,0.26-0.125,0.345-0.219S172.204,256.26,172.204,256.114z; : BBData-411.95001220703125,623.38330078125,426.8166809082031,634.6166381835938
g : id-XMLID_266_; : BBData-411.95001220703125,585.2000122070312,426.8166809082031,634.6166839599609
path : d-M178.022,226.925l0.681-0.681l-7.12-5.758L178.022,226.925z M178.703,226.244l-7.12-5.758l0.681-0.681L178.703,226.244z; : BBData-421.76666259765625,539.7999877929688,439.3500061035156,557.3333129882812
path : d-M172.264,267.741l-0.681,0.681l7.12,5.758L172.264,267.741z M171.583,268.422l7.12,5.758l-0.681,0.681L171.583,268.422z; : BBData-421.76666259765625,657.5333251953125,439.3500061035156,675.066650390625
line : id-XMLID_271_;fill-none;stroke-#1D1D1B;stroke-width-0.465;stroke-linecap-round;stroke-linejoin-round;stroke-miterlimit-10;x1-175.16;y1-274.521;x2-175.16;y2-220.145; : BBData-430,540.0499877929688,431.1999969482422,674.816650390625
path : fill-none;stroke-#1D1D1B;stroke-width-0.258;stroke-linecap-round;stroke-linejoin-round;stroke-miterlimit-10;d-   M186.403,223.348H171.14 M181.599,271.318H171.14; : BBData-420.25,548.0333251953125,458.6999969482422,666.8333129882812
path : id-XMLID_1345_;d-M243.508,284.662h1.481l0.054,0.473c0.164-0.206,0.356-0.354,0.577-0.445    c0.221-0.091,0.44-0.136,0.659-0.136c0.2,0,0.371,0.022,0.513,0.068c0.142,0.045,0.262,0.1,0.359,0.163    c0.097,0.063,0.172,0.127,0.227,0.19c0.055,0.064,0.097,0.114,0.127,0.15c0.066-0.073,0.154-0.144,0.263-0.214    c0.109-0.069,0.226-0.132,0.35-0.186c0.124-0.055,0.254-0.098,0.391-0.128s0.265-0.045,0.386-0.045    c0.551,0,0.971,0.151,1.258,0.454s0.432,0.715,0.432,1.235v2.689h-1.535v-2.28c0-0.23-0.045-0.412-0.136-0.545    c-0.091-0.134-0.24-0.2-0.445-0.2c-0.206,0-0.374,0.066-0.504,0.2c-0.13,0.133-0.195,0.314-0.195,0.545v2.28h-1.444v-2.28    c0-0.23-0.044-0.412-0.132-0.545c-0.088-0.134-0.238-0.2-0.45-0.2c-0.194,0-0.359,0.066-0.495,0.2    c-0.136,0.133-0.205,0.314-0.205,0.545v2.28h-1.535V284.662z; : BBData-598.433349609375,698.8333129882812,615.8833465576172,709.6166534423828
path : id-XMLID_1342_;d-M238.211,286.825l2.444-3.616h1.517v3.498h0.572v1.227h-0.572v0.999h-1.408v-0.999h-2.553V286.825z     M240.765,286.707v-1.708l-1.163,1.708H240.765z; : BBData-585.4166870117188,695.5166625976562,596.6000213623047,709.6166687011719
path : id-XMLID_1340_;d-M235.813,287.288h1.654v1.645h-1.654V287.288z; : BBData-579.5166625976562,705.5333251953125,583.6666717529297,709.6166534423828
path : id-XMLID_1338_;d-M231.134,287.624h1v-2.743l-0.809,0.436l-0.654-1.163l1.717-0.944h1.227v4.415h0.927v1.309h-3.407    V287.624z; : BBData-566.9166870117188,695.5166625976562,576.4666748046875,709.6499938964844
g : id-XMLID_274_; : BBData-566.9166870117188,695.5166625976562,615.8833465576172,709.6499938964844
path : d-M189.299,293.498l0.681,0.681l5.757-7.12L189.299,293.498z M195.738,287.058l-5.757,7.12l6.439-6.439L195.738,287.058z; : BBData-465.2833251953125,704.9666748046875,482.84999084472656,722.5000152587891
path : d-M279.448,293.498l0.681,0.681l5.758-7.12L279.448,293.498z M280.129,294.179l6.439-6.439l-0.681-0.681L280.129,294.179z; : BBData-686.683349609375,704.9666748046875,704.2500152587891,722.5000152587891
line : id-XMLID_279_;fill-none;stroke-#1D1D1B;stroke-width-0.465;stroke-linecap-round;stroke-linejoin-round;stroke-miterlimit-10;x1-286.228;y1-290.636;x2-189.639;y2-290.636; : BBData-465.566650390625,713.2000122070312,703.9666442871094,714.4000091552734
path : clip-path-url(#XMLID_1607_);fill-none;stroke-#1D1D1B;stroke-width-0.258;stroke-linecap-round;stroke-linejoin-round;stroke-miterlimit-10;d-    M192.842,284.197v10.459 M282.991,284.197v10.459; : BBData-473.54998779296875,697.4833374023438,695.8999786376953,724.1333312988281
use : xlink:href-#XMLID_280_;overflow-visible; : BBData-0,0,0,0
clipPath : id-XMLID_1607_; : BBData-0.4166717529296875,0,0.4166717529296875,0
rect : id-XMLID_280_;x-141.812;y-0.259;width-291.375;height-294.482; : BBData-0,0,0,0
defs :  : BBData-0.4166717529296875,0,0.4166717529296875,0
g :  : BBData-473.54998779296875,697.4833374023438,695.8999786376953,724.1333312988281
path : id-XMLID_1354_;d-M355.155,284.662h1.48l0.055,0.473c0.164-0.206,0.355-0.354,0.577-0.445    c0.221-0.091,0.44-0.136,0.658-0.136c0.2,0,0.371,0.022,0.514,0.068c0.143,0.045,0.262,0.1,0.358,0.163    c0.098,0.063,0.173,0.127,0.228,0.19c0.055,0.064,0.097,0.114,0.127,0.15c0.066-0.073,0.154-0.144,0.264-0.214    c0.109-0.069,0.226-0.132,0.35-0.186c0.124-0.055,0.255-0.098,0.391-0.128c0.137-0.03,0.266-0.045,0.387-0.045    c0.551,0,0.971,0.151,1.258,0.454c0.288,0.303,0.432,0.715,0.432,1.235v2.689h-1.535v-2.28c0-0.23-0.046-0.412-0.137-0.545    c-0.091-0.134-0.239-0.2-0.445-0.2c-0.205,0-0.374,0.066-0.504,0.2c-0.13,0.133-0.195,0.314-0.195,0.545v2.28h-1.444v-2.28    c0-0.23-0.044-0.412-0.132-0.545c-0.088-0.134-0.237-0.2-0.45-0.2c-0.193,0-0.358,0.066-0.495,0.2    c-0.136,0.133-0.204,0.314-0.204,0.545v2.28h-1.535V284.662z; : BBData-872.63330078125,698.8333129882812,890.0832977294922,709.6166534423828
path : id-XMLID_1351_;d-M350.776,287.552c0.146,0.085,0.3,0.146,0.463,0.182c0.164,0.036,0.306,0.055,0.428,0.055    c0.363,0,0.63-0.085,0.799-0.255c0.17-0.169,0.278-0.424,0.327-0.763c-0.14,0.085-0.3,0.149-0.481,0.195    c-0.182,0.045-0.363,0.068-0.545,0.068c-0.303,0-0.566-0.052-0.791-0.155c-0.224-0.103-0.41-0.242-0.559-0.417    c-0.148-0.176-0.26-0.376-0.336-0.601c-0.076-0.224-0.113-0.46-0.113-0.708c0-0.285,0.047-0.556,0.141-0.813    c0.094-0.257,0.23-0.481,0.409-0.672c0.179-0.191,0.396-0.343,0.654-0.454c0.257-0.112,0.552-0.169,0.886-0.169    c0.32,0,0.619,0.055,0.895,0.164s0.517,0.285,0.723,0.527c0.205,0.242,0.366,0.56,0.481,0.953    c0.114,0.395,0.172,0.876,0.172,1.445c0,0.357-0.048,0.711-0.145,1.062c-0.098,0.352-0.25,0.668-0.459,0.949    c-0.209,0.282-0.483,0.509-0.822,0.682c-0.34,0.173-0.748,0.259-1.227,0.259c-0.321,0-0.604-0.038-0.85-0.113    c-0.245-0.076-0.446-0.159-0.604-0.25L350.776,287.552z M352.829,285.471c0-0.394-0.071-0.675-0.213-0.845    c-0.143-0.169-0.316-0.254-0.522-0.254c-0.218,0-0.39,0.071-0.514,0.213c-0.124,0.143-0.187,0.323-0.187,0.541    c0,0.212,0.06,0.383,0.178,0.514c0.118,0.13,0.273,0.198,0.468,0.204c0.176,0,0.322-0.025,0.44-0.077s0.234-0.129,0.35-0.231    V285.471z; : BBData-859.9000244140625,695.0999755859375,870.6500244140625,710.0166320800781
path : id-XMLID_1349_;d-M347.46,287.288h1.653v1.645h-1.653V287.288z; : BBData-853.7166748046875,705.5333251953125,857.8333435058594,709.6166534423828
path : id-XMLID_1347_;d-M342.781,287.624h0.999v-2.743l-0.809,0.436l-0.654-1.163l1.717-0.944h1.227v4.415h0.927v1.309h-3.406    V287.624z; : BBData-841.11669921875,695.5166625976562,850.6667022705078,709.6499938964844
g : id-XMLID_283_; : BBData-841.11669921875,695.0999755859375,890.0833587646484,710.0166320800781
path : d-M285.819,293.498l0.681,0.681l5.758-7.12L285.819,293.498z M292.258,287.058l-5.758,7.12l6.439-6.439L292.258,287.058z; : BBData-702.3499755859375,704.9666748046875,719.8999633789062,722.5000152587891
path : d-M406.222,293.498l0.681,0.681l5.758-7.12L406.222,293.498z M406.903,294.179l6.439-6.439l-0.681-0.681L406.903,294.179z; : BBData-998.0499877929688,704.9666748046875,1015.5833129882812,722.5000152587891
line : id-XMLID_288_;fill-none;stroke-#1D1D1B;stroke-width-0.465;stroke-linecap-round;stroke-linejoin-round;stroke-miterlimit-10;x1-413.001;y1-290.636;x2-286.16;y2-290.636; : BBData-702.5999755859375,713.2000122070312,1015.3499755859375,714.4000091552734
path : clip-path-url(#XMLID_1606_);fill-none;stroke-#1D1D1B;stroke-width-0.258;stroke-linecap-round;stroke-linejoin-round;stroke-miterlimit-10;d-    M289.362,284.197v10.459 M409.765,284.197v10.459; : BBData-710.5833129882812,697.4833374023438,1007.2333374023438,724.1333312988281
use : xlink:href-#XMLID_289_;overflow-visible; : BBData-0,0,0,0
clipPath : id-XMLID_1606_; : BBData-0.4166717529296875,0,0.4166717529296875,0
rect : id-XMLID_289_;x-141.812;y-0.259;width-291.375;height-294.482; : BBData-0,0,0,0
defs :  : BBData-0.4166717529296875,0,0.4166717529296875,0
g :  : BBData-710.5833129882812,697.4833374023438,1007.2333374023438,724.1333312988281
path : id-XMLID_1363_;d-M423.108,150.569v-1.48l0.473-0.055c-0.206-0.164-0.354-0.355-0.445-0.577    c-0.091-0.221-0.136-0.44-0.136-0.658c0-0.2,0.022-0.371,0.068-0.514c0.045-0.143,0.1-0.262,0.163-0.359    c0.063-0.097,0.127-0.172,0.19-0.227c0.064-0.055,0.114-0.097,0.15-0.127c-0.073-0.066-0.144-0.154-0.214-0.263    c-0.069-0.109-0.132-0.226-0.186-0.35c-0.055-0.124-0.098-0.254-0.128-0.391S423,145.303,423,145.182    c0-0.551,0.151-0.971,0.454-1.258s0.715-0.432,1.235-0.432h2.689v1.535h-2.28c-0.23,0-0.412,0.045-0.545,0.136    c-0.134,0.091-0.2,0.24-0.2,0.445c0,0.206,0.066,0.374,0.2,0.504c0.133,0.13,0.314,0.195,0.545,0.195h2.28v1.444h-2.28    c-0.23,0-0.412,0.044-0.545,0.132c-0.134,0.088-0.2,0.237-0.2,0.45c0,0.193,0.066,0.358,0.2,0.495    c0.133,0.136,0.314,0.204,0.545,0.204h2.28v1.535H423.108z; : BBData-1039.2666015625,352.3833312988281,1050.0499420166016,369.8333282470703
path : id-XMLID_1360_;d-M423.009,152.178c-0.078,0.146-0.135,0.295-0.168,0.449s-0.05,0.292-0.05,0.413    c0,0.109,0.018,0.223,0.055,0.341c0.036,0.118,0.095,0.23,0.177,0.337c0.082,0.105,0.189,0.201,0.322,0.286    c0.134,0.085,0.297,0.148,0.491,0.19c-0.091-0.133-0.161-0.291-0.209-0.473c-0.049-0.182-0.073-0.351-0.073-0.509    c0-0.297,0.049-0.562,0.146-0.795c0.097-0.232,0.229-0.43,0.396-0.591c0.167-0.16,0.365-0.281,0.595-0.363    c0.23-0.081,0.476-0.122,0.736-0.122c0.284,0,0.556,0.048,0.812,0.146c0.258,0.097,0.482,0.237,0.673,0.422    s0.342,0.409,0.454,0.673c0.112,0.263,0.168,0.562,0.168,0.895c0,0.321-0.053,0.621-0.159,0.899    c-0.105,0.278-0.276,0.52-0.513,0.723s-0.539,0.363-0.909,0.481c-0.369,0.118-0.817,0.177-1.345,0.177    c-0.424,0-0.823-0.059-1.199-0.177c-0.375-0.118-0.705-0.292-0.99-0.522c-0.284-0.23-0.51-0.514-0.677-0.85    c-0.166-0.336-0.25-0.723-0.25-1.158c0-0.321,0.037-0.591,0.109-0.809c0.073-0.218,0.151-0.409,0.236-0.572L423.009,152.178z     M425.017,154.24c0.23-0.007,0.421-0.032,0.572-0.078c0.151-0.045,0.272-0.104,0.363-0.177s0.156-0.154,0.195-0.245    c0.04-0.091,0.06-0.182,0.06-0.272c0-0.219-0.071-0.39-0.214-0.514c-0.142-0.124-0.322-0.187-0.54-0.187    c-0.236,0-0.415,0.071-0.536,0.214s-0.185,0.311-0.191,0.504c0,0.164,0.027,0.307,0.082,0.428S424.932,154.143,425.017,154.24z; : BBData-1035.550048828125,371.6499938964844,1050.4667053222656,382.56666564941406
path : id-XMLID_1358_;d-M425.734,158.265v-1.653h1.645v1.653H425.734z; : BBData-1045.9833984375,384.58331298828125,1050.050064086914,388.6999816894531
path : id-XMLID_1356_;d-M425.662,162.989c0.182-0.212,0.316-0.415,0.404-0.608c0.088-0.194,0.132-0.403,0.132-0.627    c0-0.115-0.016-0.225-0.046-0.327c-0.03-0.104-0.075-0.194-0.136-0.272c-0.061-0.079-0.138-0.143-0.232-0.191    c-0.094-0.048-0.204-0.072-0.331-0.072c-0.085,0-0.17,0.017-0.255,0.05s-0.16,0.083-0.227,0.149    c-0.067,0.067-0.121,0.149-0.164,0.246c-0.042,0.097-0.063,0.209-0.063,0.336c0,0.14,0.014,0.265,0.041,0.377    s0.053,0.189,0.077,0.231l-0.563,0.346l-1.345-1.454v2.117h-1.299v-3.771h1.054l1.199,1.108c0.104-0.399,0.303-0.713,0.6-0.94    c0.297-0.227,0.67-0.341,1.117-0.341c0.304,0,0.573,0.067,0.809,0.2c0.236,0.133,0.436,0.308,0.596,0.522s0.283,0.459,0.368,0.731    c0.084,0.272,0.127,0.548,0.127,0.826c0,0.437-0.065,0.838-0.195,1.204s-0.316,0.686-0.559,0.959L425.662,162.989z; : BBData-1035.949951171875,391.29998779296875,1050.4166259765625,402.2833251953125
g : id-XMLID_292_; : BBData-1035.550048828125,352.3833312988281,1050.4667053222656,402.28334045410156
path : d-M426.22,267.741l-0.681,0.681l7.12,5.758L426.22,267.741z M425.539,268.422l7.12,5.758l-0.681,0.681L425.539,268.422z; : BBData-1045.5,657.5333251953125,1063.0333404541016,675.066650390625
path : d-M431.978,45.026l0.681-0.681l-7.12-5.758L431.978,45.026z M432.66,44.345l-7.12-5.758l0.681-0.681L432.66,44.345z; : BBData-1045.5,93.06666564941406,1063.0333404541016,110.60000610351562
line : id-XMLID_297_;fill-none;stroke-#1D1D1B;stroke-width-0.465;stroke-linecap-round;stroke-linejoin-round;stroke-miterlimit-10;x1-429.082;y1-38.247;x2-429.082;y2-274.521; : BBData-1053.5999755859375,93.31666564941406,1054.7999725341797,674.8166656494141
path : fill-none;stroke-#1D1D1B;stroke-width-0.258;stroke-linecap-round;stroke-linejoin-round;stroke-miterlimit-10;d-   M422.643,271.318h10.459 M422.643,41.483h10.459; : BBData-1037.9166259765625,101.41667175292969,1064.5832824707031,666.8332977294922
path : id-XMLID_1371_;d-M295.056,1.712h1.48l0.055,0.472c0.164-0.206,0.355-0.354,0.577-0.445     c0.221-0.091,0.44-0.136,0.658-0.136c0.2,0,0.371,0.022,0.514,0.068s0.262,0.1,0.358,0.164c0.098,0.063,0.173,0.127,0.228,0.191     s0.097,0.113,0.127,0.15c0.066-0.073,0.154-0.144,0.264-0.213c0.109-0.07,0.226-0.132,0.35-0.187     c0.124-0.054,0.255-0.097,0.391-0.127c0.137-0.03,0.266-0.045,0.387-0.045c0.551,0,0.971,0.151,1.258,0.454     c0.288,0.303,0.432,0.715,0.432,1.235v2.689h-1.535v-2.28c0-0.23-0.046-0.412-0.137-0.545c-0.091-0.133-0.239-0.2-0.445-0.2     c-0.205,0-0.374,0.067-0.504,0.2c-0.13,0.133-0.195,0.315-0.195,0.545v2.28h-1.444v-2.28c0-0.23-0.044-0.412-0.132-0.545     c-0.088-0.133-0.237-0.2-0.45-0.2c-0.193,0-0.358,0.067-0.495,0.2c-0.136,0.133-0.204,0.315-0.204,0.545v2.28h-1.535V1.712z; : BBData-725.0333251953125,3.9166717529296875,742.4833221435547,14.699996948242188
path : id-XMLID_1369_;d-M290.404,5.982c0.108-0.351,0.245-0.736,0.408-1.154c0.164-0.418,0.338-0.828,0.522-1.231     s0.368-0.783,0.55-1.14s0.346-0.651,0.491-0.881h-2.444V0.259h4.007v1.227c-0.249,0.424-0.468,0.83-0.659,1.217     c-0.19,0.388-0.363,0.765-0.518,1.131c-0.154,0.366-0.294,0.727-0.418,1.081c-0.124,0.354-0.244,0.71-0.359,1.067H290.404z; : BBData-712.433349609375,0.600006103515625,722.3500213623047,14.699996948242188
path : id-XMLID_1367_;d-M287.36,4.338h1.654v1.645h-1.654V4.338z; : BBData-706.11669921875,10.633331298828125,710.2333679199219,14.699996948242188
path : id-XMLID_1365_;d-M282.636,4.265c0.212,0.182,0.415,0.317,0.609,0.404c0.194,0.088,0.403,0.132,0.627,0.132     c0.115,0,0.224-0.015,0.327-0.045c0.103-0.03,0.193-0.076,0.272-0.136c0.079-0.061,0.142-0.138,0.191-0.231     c0.048-0.094,0.072-0.205,0.072-0.332c0-0.084-0.017-0.169-0.05-0.254c-0.033-0.084-0.083-0.16-0.15-0.227     c-0.067-0.066-0.148-0.121-0.245-0.164c-0.097-0.042-0.209-0.063-0.336-0.063c-0.139,0-0.265,0.014-0.377,0.041     c-0.112,0.027-0.189,0.053-0.231,0.077l-0.346-0.563l1.454-1.344h-2.117V0.259h3.771v1.054l-1.108,1.199     c0.4,0.103,0.713,0.303,0.94,0.6c0.227,0.297,0.34,0.669,0.34,1.118c0,0.303-0.066,0.572-0.2,0.809s-0.308,0.435-0.522,0.595     c-0.215,0.16-0.458,0.283-0.731,0.368c-0.272,0.085-0.548,0.127-0.827,0.127c-0.436,0-0.837-0.065-1.204-0.195     c-0.367-0.13-0.686-0.316-0.958-0.559L282.636,4.265z; : BBData-692.566650390625,0.600006103515625,703.5166473388672,15.066665649414062
g : id-XMLID_301_;clip-path-url(#XMLID_1605_); : BBData-692.566650390625,0.600006103515625,742.4833221435547,15.066665649414062
use : xlink:href-#XMLID_300_;overflow-visible; : BBData-0,0,0,0
clipPath : id-XMLID_1605_; : BBData-0.4166717529296875,0,0.4166717529296875,0
rect : id-XMLID_300_;x-141.812;y-0.259;width-291.375;height-294.482; : BBData-0,0,0,0
defs :  : BBData-0.4166717529296875,0,0.4166717529296875,0
g :  : BBData-692.566650390625,0.600006103515625,742.4833221435547,15.066665649414062
path : d-M406.222,10.548l0.681,0.681l5.758-7.12L406.222,10.548z M406.903,11.229l5.758-7.12l0.681,0.681L406.903,11.229z; : BBData-998.0499877929688,10.066665649414062,1015.5833129882812,27.600006103515625
path : d-M172.264,4.79l-0.681-0.681l-5.758,7.12L172.264,4.79z M171.583,4.109l-5.758,7.12l-0.681-0.681L171.583,4.109z; : BBData-405.9666748046875,10.066665649414062,423.50001525878906,27.600006103515625
line : id-XMLID_306_;fill-none;stroke-#1D1D1B;stroke-width-0.465;stroke-linecap-round;stroke-linejoin-round;stroke-miterlimit-10;x1-165.484;y1-7.686;x2-413.001;y2-7.686; : BBData-406.25,18.283340454101562,1015.3499755859375,19.5
path : fill-none;stroke-#1D1D1B;stroke-width-0.258;stroke-linecap-round;stroke-linejoin-round;stroke-miterlimit-10;d-   M409.765,14.091V3.632 M168.721,14.091V3.632; : BBData-414.316650390625,8.416671752929688,1007.2333374023438,35.08332824707031
path : id-XMLID_1300_;clip-path-url(#XMLID_1604_);fill-none;stroke-#502880;stroke-width-0.86;stroke-linecap-round;stroke-linejoin-round;stroke-miterlimit-10;d-    M201.53,248.15l0.136-1.294l0.17-1.567l0.102-0.17l0.205-0.137l0.204-0.068h0.102l0.205,0.068l0.511,0.102l0.613,0.102    l0.681,0.205l0.375,0.136l0.545,0.205l0.341,0.102l0.17,0.068l0.545,0.238l0.511,0.205l0.205,0.136l0.205,0.102l0.17,0.17    l0.136,0.137l0.137,0.204l0.136,0.171l0.068,0.238l0.068,0.205l0.034,0.204l0.034,0.238l-0.034,0.205l-0.034,0.307l-0.068,0.17    l-0.068,0.204l-0.136,0.17l-0.137,0.171l-0.136,0.17l-0.17,0.17l-0.205,0.102l-0.205,0.102l-0.511,0.239l-0.545,0.238    l-0.511,0.205l-0.545,0.17l-0.375,0.102l-0.17,0.068l-0.511,0.136l-0.579,0.102l-0.545,0.102l-0.205,0.102h-0.102l-0.136-0.034    l-0.068-0.034l-0.102-0.034l-0.102-0.102l-0.068-0.102l-0.034-0.102l-0.034-0.102l-0.137-1.363L201.53,248.15z M199.826,248.15    l0.068-1.022l0.17-1.022l0.17-0.613l0.341-0.886l0.409-0.852l0.681-1.09l0.58-0.75l0.579-0.613l0.749-0.579l1.431-0.681    l1.09-0.307l1.09-0.205l1.568-0.034l1.362,0.17l1.329,0.238l0.716,0.17l1.294,0.443l1.295,0.477l1.294,0.613l1.294,0.817    l1.261,0.886l1.09,0.988l0.477,0.545l0.375,0.579l0.341,0.648l0.307,1.226l0.034,0.852l-0.034,0.818l-0.102,0.58l-0.205,0.681    l-0.341,0.648l-0.375,0.579l-0.477,0.511l-0.512,0.477l-0.511,0.443l-0.375,0.306l-0.374,0.273l-0.58,0.409l-0.273,0.17    l-0.852,0.545l-1.465,0.682l-1.295,0.511l-1.056,0.375l-0.954,0.204l-0.647,0.137l-0.682,0.136l-0.511,0.068l-0.716,0.102h-0.579    h-0.443l-0.648-0.068h-0.205l-0.511-0.102l-0.681-0.102l-0.613-0.238l-0.648-0.205l-0.579-0.306l-0.818-0.443l-0.716-0.75    l-0.511-0.545l-0.443-0.648l-0.409-0.613l-0.341-0.716l-0.307-0.716l-0.238-0.716l-0.205-0.749l-0.102-0.75L199.826,248.15z     M195.789,252.069c-0.235,0-0.426,0.191-0.426,0.426c0,0.236,0.191,0.426,0.426,0.426s0.426-0.19,0.426-0.426    C196.215,252.259,196.024,252.069,195.789,252.069 M195.721,243.858c-0.236,0-0.426,0.191-0.426,0.426    c0,0.236,0.191,0.426,0.426,0.426c0.235,0,0.426-0.191,0.426-0.426C196.147,244.048,195.956,243.858,195.721,243.858     M192.842,241.541l1.295-0.341l1.294-0.443l1.294-0.613l1.295-0.716l1.26-0.681l1.294-0.579l1.295-0.443l1.294-0.375l1.294-0.306    l1.261-0.205l1.294-0.137h1.295l1.294,0.069l1.294,0.17l1.261,0.204l1.294,0.239l1.295,0.409l1.294,0.511l1.294,0.613l1.261,0.784    l1.294,0.954l1.261,1.056l1.329,1.499l0.545,1.022l0.545,1.465l0.171,0.613l0.102,0.545l0.034,0.375v0.92v0.886l-0.034,0.375    l-0.102,0.545l-0.171,0.613l-0.204,0.784l-0.341,0.818l-0.341,0.613l-0.205,0.273l-0.273,0.341l-0.75,0.886l-0.647,0.579    l-0.818,0.682l-0.92,0.715l-1.193,0.784l-0.545,0.306l-1.294,0.648l-1.294,0.477l-1.295,0.409l-1.294,0.273l-1.261,0.204    l-1.294,0.137l-1.294,0.102l-1.295-0.034l-1.294-0.137l-1.261-0.204l-1.294-0.307l-1.294-0.341l-1.295-0.443l-1.294-0.613    l-1.226-0.648l-1.329-0.749l-1.294-0.579l-1.294-0.477l-1.295-0.341V241.541z M274.933,246.107c-0.78,0-1.413,0.633-1.413,1.414    c0,0.781,0.633,1.414,1.413,1.414c0.781,0,1.414-0.633,1.414-1.414C276.347,246.74,275.714,246.107,274.933,246.107     M280.01,246.379c-0.612,0-1.108,0.496-1.108,1.107s0.496,1.107,1.108,1.107c0.611,0,1.107-0.496,1.107-1.107    S280.621,246.379,280.01,246.379 M272.054,235.886l-0.375,0.034l-0.409,0.034l-0.375,0.034l-0.374,0.068l-0.409,0.102    l-0.375,0.102l-0.374,0.137l-0.375,0.17l-0.341,0.17l-0.375,0.17l-0.341,0.205l-0.341,0.238l-0.341,0.238l-0.341,0.273    l-0.307,0.273l-0.306,0.307l-0.307,0.306l-0.273,0.341l-0.306,0.341l-0.239,0.341l-0.273,0.374l-0.238,0.375l-0.238,0.409    l-0.205,0.409l-0.205,0.409l-0.17,0.443l-0.17,0.443l-0.17,0.443l-0.136,0.443l-0.137,0.477l-0.102,0.477l-0.102,0.443    l-0.102,0.511l-0.034,0.477l-0.068,0.477l-0.034,0.477v0.511v0.477v0.477l0.034,0.511l0.068,0.477l0.034,0.477l0.102,0.477    l0.102,0.477l0.102,0.477l0.137,0.477l0.136,0.443l0.17,0.443l0.17,0.443l0.17,0.443l0.205,0.409l0.205,0.409l0.238,0.375    l0.238,0.409l0.273,0.375l0.239,0.341l0.306,0.341l0.273,0.341l0.307,0.307l0.306,0.306l0.307,0.273l0.341,0.238l0.341,0.273    l0.341,0.205l0.341,0.205l0.375,0.204l0.341,0.17l0.375,0.137l0.374,0.136l0.375,0.137l0.409,0.068l0.374,0.068l0.375,0.068    l0.409,0.034h0.375h0.238l0.239-0.034l0.238-0.068l0.238-0.068l0.239-0.068l0.238-0.137l0.205-0.136l0.238-0.137l0.238-0.17    l0.205-0.204l0.205-0.205l0.238-0.205l0.205-0.273l0.204-0.238l0.17-0.273l0.205-0.306l0.17-0.307l0.205-0.341l0.17-0.341    l0.136-0.341l0.17-0.375l0.137-0.409l0.136-0.375l0.137-0.409l0.136-0.443l0.102-0.409l0.102-0.443l0.102-0.443l0.102-0.477    l0.069-0.443l0.068-0.477l0.068-0.477l0.034-0.477l0.068-0.477v-0.477l0.034-0.511v-0.477v-0.477v-0.511l-0.034-0.477v-0.477    l-0.068-0.511l-0.034-0.477l-0.068-0.477l-0.068-0.443l-0.069-0.477l-0.102-0.443l-0.102-0.443l-0.102-0.443l-0.102-0.443    l-0.136-0.409l-0.137-0.409l-0.136-0.409l-0.137-0.375l-0.17-0.374l-0.17-0.341l-0.17-0.341l-0.17-0.341l-0.17-0.306l-0.205-0.307    l-0.17-0.273l-0.204-0.273l-0.205-0.238l-0.238-0.238l-0.205-0.205l-0.205-0.17l-0.238-0.17l-0.238-0.17l-0.205-0.137    l-0.238-0.102l-0.239-0.102l-0.238-0.068l-0.238-0.034l-0.239-0.034L272.054,235.886z M282.991,259.291h-0.648v-23.372h0.648     M282.991,259.291v-23.372 M282.343,258.44l-0.886,0.273l-1.26,0.306l-1.295,0.341l-1.26,0.273l-1.295,0.307l-1.26,0.238    l-1.261,0.273l-1.192,0.136h-1.158l-1.193-0.17l-1.158-0.273l-1.192-0.443l-1.09-0.613l-1.158-1.09l-1.226-1.431l-1.192-1.908    l-1.226-3.067l-0.443-2.214l-0.102-1.806l0.102-1.805l0.443-2.181l1.226-3.066l1.192-1.908l1.226-1.431l1.158-1.09l1.09-0.579    l1.192-0.443l1.158-0.307l1.193-0.136h1.158l1.192,0.136l1.261,0.239l1.26,0.273l1.295,0.273l1.26,0.306l1.295,0.307l1.26,0.341    l0.886,0.238 M282.991,259.291l-1.294,0.341l-1.261,0.341l-1.294,0.307l-1.295,0.306l-1.294,0.273l-1.294,0.273l-1.261,0.273    l-1.294,0.136h-1.294l-1.295-0.17l-1.294-0.306l-1.261-0.477l-1.294-0.716l-1.294-1.192l-1.295-1.533l-1.294-2.044l-1.261-3.237    l-0.477-2.351l-0.137-1.942l0.137-1.908l0.477-2.351l1.261-3.236l1.294-2.044l1.295-1.499l1.294-1.226l1.294-0.681l1.261-0.511    l1.294-0.307l1.295-0.17h1.294l1.294,0.17l1.261,0.239l1.294,0.272l1.294,0.307l1.295,0.273l1.294,0.341l1.261,0.341l1.294,0.341; : BBData-472.48333740234375,572.2666625976562,696.9333343505859,643.8333282470703
use : xlink:href-#XMLID_309_;overflow-visible; : BBData-0,0,0,0
clipPath : id-XMLID_1604_; : BBData-0.4166717529296875,0,0.4166717529296875,0
rect : id-XMLID_309_;x-141.812;y-0.259;width-291.375;height-294.482; : BBData-0,0,0,0
defs :  : BBData-0.4166717529296875,0,0.4166717529296875,0
g :  : BBData-472.48333740234375,572.2666625976562,696.9333343505859,643.8333282470703
polygon : id-XMLID_322_;fill-#502880;points-366.223,20.53 416.204,20.53 416.204,277.757 351.573,277.723 351.573,271.318    409.765,271.318 409.765,41.483 366.223,41.483  ; : BBData-863.8333129882812,50.383331298828125,1022.6333160400391,682.1833190917969
polygon : id-XMLID_323_;fill-#502880;points-162.282,20.53 285.887,20.53 285.887,41.483 168.721,41.483 168.721,161.852    289.43,161.852 289.43,176.365 282.991,176.365 282.991,168.291 168.721,168.291 168.721,218.51 218.94,218.51 218.94,223.348    192.842,223.348 192.842,271.318 282.991,271.318 282.991,222.053 289.464,222.053 289.43,271.318 294.268,271.318    294.268,277.757 188.039,277.757 188.039,223.348 162.282,223.348  ; : BBData-398.933349609375,50.383331298828125,723.1666870117188,682.1833190917969
path : id-XMLID_1301_;fill-none;stroke-#502880;stroke-width-0.86;stroke-linecap-round;stroke-linejoin-round;stroke-miterlimit-10;d-   M216.828,218.51v-50.219 M172.878,185.258v-1.294 M167.903,191.016v0.068h1.567 M167.903,190.811v0.205 M169.573,190.913v0.068   l-0.034,0.068l-0.068,0.034h-1.567 M169.538,190.777v0.205v0.068 M169.573,190.709v0.205 M170.493,187.915l-0.034-0.034    M169.573,187.915v0.034 M167.903,188.903v0.545v0.545v0.443v0.375 M169.538,189.448v0.545v0.443v0.341 M169.538,188.903v0.545    M167.903,188.358v0.545 M169.538,188.358v0.545 M169.573,188.392v0.239 M169.607,188.631l0.034,0.136 M169.573,188.631v0.273   v0.273 M169.607,189.414v0.273 M169.573,189.176v0.238 M169.573,189.619v0.136v0.102 M169.573,189.925h0.034 M169.573,189.857   v0.034 M169.573,189.96v-0.069v0.034 M169.573,189.96v0.409v0.341 M169.573,189.414v0.205 M169.607,189.925h0.034 M169.607,189.687   l0.034,0.17 M170.458,188.631l-0.034,0.136v0.137 M169.641,188.903v0.136 M169.607,189.176v0.238 M169.641,189.857l0.068,0.068    M170.424,189.925h-0.068 M169.708,189.925h0.648h0.068h0.034 M169.708,189.925h-0.068 M169.607,189.925h0.034h0.068h0.648    M170.458,189.687l-0.034,0.17 M170.458,189.176v0.238 M170.424,189.857v0.068 M170.424,189.039l0.034,0.137 M169.641,189.039   l-0.034,0.137 M170.424,188.903v0.136 M169.641,188.767v0.137 M170.458,189.414v0.273 M170.493,189.857v0.034l-0.034,0.034h-0.034    M170.594,189.925v0.034l0.069,0.034h0.784 M170.493,189.789h0.102 M170.493,188.018v1.84 M170.594,189.789h-0.102    M170.594,189.176v0.272v0.205v0.17v0.102 M170.594,188.631v0.273v0.273 M169.607,188.392v0.239 M169.573,187.949v0.102v0.137   v0.204 M170.458,188.392v0.239 M169.641,187.949l-0.034,0.171v0.272 M170.424,187.949l0.034,0.171v0.272 M170.594,188.018h-0.102    M170.594,188.154v0.205v0.273 M170.493,188.018h0.102 M170.594,187.983v0.17 M170.424,187.881v0.068 M170.493,187.915v0.034v0.069    M170.594,187.881v0.102 M169.607,187.881h0.034 M169.573,187.915v-0.034h0.034h-0.034 M167.903,186.722v0.069 M169.47,186.722   h-1.567H169.47l0.068,0.034 M169.538,186.825v-0.068l0.034,0.068v0.068 M167.903,187.37v0.443v0.545 M169.538,187.37v0.443v0.545    M167.903,186.791v0.204v0.375 M169.538,186.825v0.205v0.341 M169.573,186.893v0.205v0.341v0.409v0.068 M170.458,187.881   L170.458,187.881h-0.034 M169.708,187.881h-0.068h-0.034 M169.641,187.949l0.068-0.068h0.648h0.068h0.034 M170.424,187.881h-0.068   h-0.648h-0.068 M171.447,187.813h-0.784l-0.069,0.034v0.034 M170.663,187.813h0.784v4.429 M171.447,189.993h-0.784 M171.48,187.643   h0.034H171.48l-0.034,0.068v0.102 M171.447,184.031v1.397v1.397l0.034,0.034 M171.515,186.893l-0.034-0.034h0.034 M171.515,186.893   v0.75 M171.447,184.031l0.034-0.068h0.034 M171.48,187.643h0.034h0.136 M171.65,183.963h-0.136h-0.034 M171.65,186.859h-0.136   h-0.034 M171.515,187.643h0.136h0.205 M171.549,183.963h-0.069 M171.685,183.963h-0.102h-0.034h0.034 M171.515,183.963h0.136h0.205    M171.855,186.859h-0.205h-0.136 M171.583,183.963h0.102h0.205 M171.65,187.643h0.205h0.238 M171.65,183.963h0.205h0.238    M171.685,183.963h0.205h0.238 M172.093,186.859h-0.238h-0.205 M171.855,187.643h0.238h0.307 M171.855,183.963h0.238h0.307    M171.889,183.963h0.238h0.307 M171.855,186.859h0.238h0.307 M172.741,187.643H172.4 M172.093,187.643h0.307h0.341h0.307    M172.128,183.963h0.307h0.306H172.4h-0.307 M172.741,186.859H172.4h-0.307 M172.4,183.963h0.341h0.102 M173.048,186.859h-0.307   H172.4 M172.878,185.258h0.136 M172.741,183.963h-0.306 M172.843,183.963h-0.102h0.307 M172.878,183.963h0.136 M172.741,187.643   h0.307h0.306 M172.741,183.963h0.307h0.272 M173.014,183.963L173.014,183.963h-0.136; : BBData-411.25,411.76666259765625,534.4666595458984,538.1833343505859
path : id-XMLID_1302_;fill-none;stroke-#502880;stroke-width-0.86;stroke-linecap-round;stroke-linejoin-round;stroke-miterlimit-10;d-   M173.047,185.258h-0.034h-0.137 M173.014,183.963L173.014,183.963h0.034 M172.741,186.859h0.306h0.307 M173.047,183.963h-0.034    M173.15,183.963h-0.068h-0.034h0.034 M173.082,185.258h-0.034h-0.034 M173.082,185.258h0.068 M173.184,185.258h-0.034h-0.068   h-0.034 M173.082,183.963h0.068h0.034 M173.218,183.963h0.137 M173.218,185.258h-0.034h-0.034 M173.15,183.963h0.034h0.034    M174.036,187.711v5.315 M174.002,187.643h-0.069 M173.968,187.643h0.034l0.034,0.068 M173.933,187.643h-0.102 M173.627,187.643   h0.204h0.102h0.069 M173.627,187.643h-0.273 M173.047,187.643h0.307h0.273h0.204 M173.968,183.963h-0.137 M173.627,183.963h0.204   h0.137h0.034 M173.627,186.859h0.204h0.137 M173.354,186.859h0.273 M173.831,186.859h-0.204h-0.273h-0.307 M173.388,183.997v0.613    M173.286,185.258h-0.069h-0.034 M173.32,185.258h0.034l0.034-0.034v-0.034v-0.579 M173.286,185.258h0.034 M173.354,185.258h-0.034   h-0.034h-0.069 M173.933,183.963H173.9 M173.763,183.963h0.137h0.034h0.069 M173.388,183.963h0.239 M173.354,183.963   L173.354,183.963h0.034v0.034 M173.32,183.963h0.034h-0.137 M173.218,183.963h-0.034 M173.286,183.963h-0.069H173.286z    M173.32,183.963h-0.034H173.32h0.034 M173.388,183.963h0.239h0.204 M173.593,183.963h0.17h0.137 M173.32,183.963h-0.273    M173.593,183.963h-0.273H173.593h0.17 M173.968,183.963h0.034v0.069 M174.002,186.859l-0.034,0.034 M173.968,186.859h0.034   H173.968h-0.137 M173.968,186.893v0.75 M174.002,184.032v1.397v1.397v0.034 M172.877,202.224v1.261 M177.409,193.026h0.477H177.409   h-0.477H177.409z M178.363,193.026h-0.477H178.363z M178.737,193.026h0.306h0.17h-0.17H178.737h-0.375H178.737z M179.691,192.992   l-0.034,0.034 M179.657,192.992l-0.034,0.034 M180.611,193.23l0.034,0.068l0.068,0.034l0.034,0.068 M181.531,193.741v0.034    M181.429,193.741v0.034 M181.497,193.775v-0.034V193.775z M181.701,193.741v0.034 M180.782,193.503v0.068l0.034,0.069v0.068    M180.986,193.537v0.102v0.068 M180.952,193.537v0.102v0.068 M181.19,193.537v0.102l0.034,0.068 M181.122,193.298l0.034,0.102   l0.034,0.069 M180.952,193.4v0.069 M180.85,193.298l0.034,0.102l0.034,0.069 M180.918,193.298l0.034,0.102 M181.054,193.23   l0.069,0.068 M180.815,193.23l0.034,0.068 M180.85,193.23l0.068,0.068 M180.952,193.469l0.034,0.068 M180.918,193.469l0.034,0.068    M181.19,193.469v0.068 M181.463,193.605l0.034,0.068 M181.429,193.605v0.068 M181.701,193.605v0.102 M181.531,193.605v0.102    M181.463,193.503v0.102 M181.429,193.503v0.102 M181.463,193.503l0.034,0.102v0.068 M181.668,193.503l0.034,0.102    M181.497,193.503l0.034,0.102 M181.395,193.332l0.034,0.068 M181.361,193.332l0.034,0.102 M181.361,193.23l0.034,0.102    M181.326,193.264l0.034,0.068 M181.361,193.23l0.034,0.102l0.034,0.068 M181.633,193.332l0.034,0.102 M181.395,193.264   l0.068,0.068l0.034,0.102 M181.565,193.264l0.068,0.068 M181.429,193.4l0.034,0.102 M181.395,193.435l0.034,0.068 M181.497,193.435   v0.068 M181.429,193.4l0.034,0.102 M181.668,193.435v0.068 M180.815,193.707v0.034 M181.225,193.707v0.034 M180.952,193.707v0.034    M180.986,193.707v0.034 M181.497,193.673v0.068 M181.429,193.673v0.068 M181.701,193.707v0.034 M181.531,193.707v0.034    M181.497,193.673v0.068 M180.747,193.4l0.034,0.102 M179.93,192.889l-0.102,0.034l-0.068,0.034 M179.964,192.855l-0.068,0.034   h-0.102l-0.068,0.068 M180.066,192.855h0.068h0.068 M180.066,192.855l-0.069,0.034 M180.169,192.821h-0.034 M180.237,192.821   h-0.102h-0.102 M179.998,192.889h-0.068 M180.032,192.821l-0.068,0.034 M180.305,193.06h0.068l0.068,0.034l0.069,0.034l0.034,0.034    M180.645,193.06l0.068,0.034 M180.713,193.026l0.034,0.068 M180.577,192.992l0.068,0.068 M180.645,192.992l0.068,0.034    M180.372,192.889l0.068,0.034 M180.407,192.889h0.068 M180.27,192.889h0.102 M180.475,192.821h-0.102h-0.102l0.069,0.034   l0.068,0.034 M180.475,192.787h-0.068l-0.102,0.034 M180.44,192.821h-0.034 M180.611,192.889h0.102 M180.679,192.855h0.068    M180.543,192.855l0.069,0.034 M180.509,192.821l0.102-0.034l0.068,0.034 M180.509,192.855l0.068-0.034l0.102,0.034    M180.577,192.787h0.034h0.068 M180.44,192.924l0.069,0.034 M180.475,192.889l0.102,0.068 M180.475,192.821l0.068,0.034    M180.509,192.821h-0.069 M180.577,192.787h-0.102 M180.509,192.957l0.068,0.034 M180.577,192.957l0.068,0.034 M180.169,193.026   l0.136,0.034 M180.202,192.855l0.068,0.034 M180.237,192.821h0.034h-0.102h0.102 M180.918,193.026l0.034,0.068l0.068,0.068    M181.088,192.992l0.068,0.068l0.034,0.068l0.068,0.069 M180.85,192.992l0.068,0.034 M181.225,193.094l-0.034-0.068l0.068,0.068    M181.122,192.957l0.068,0.069l-0.102-0.069 M181.19,192.957l0.068,0.069 M180.918,192.889l0.068,0.068 M180.85,192.855   l0.102,0.034 M180.85,192.889h0.068 M180.782,192.821l0.068,0.034 M180.782,192.787h0.068 M180.782,192.821l0.102,0.034    M180.85,192.787l0.102,0.034 M180.883,192.855l0.069,0.034 M180.782,192.787h0.068h0.102 M181.02,192.787h0.068h0.102    M181.02,192.855l0.068,0.069 M181.02,192.787l0.102,0.034 M181.19,192.787l0.068,0.034 M181.122,192.821l0.068,0.034l0.068,0.069    M181.02,192.787h-0.137 M180.952,192.889l0.068,0.034 M180.952,192.787h0.068 M180.952,192.821l0.068,0.034 M180.952,192.889   l0.102,0.034 M180.883,192.787h0.137 M181.02,192.924l0.068,0.034 M180.986,192.957l0.102,0.034 M180.782,192.957l0.068,0.034    M181.054,192.924l0.069,0.034 M181.088,192.924l0.102,0.034 M181.633,193.026l0.068,0.068 M181.293,193.094l0.068,0.068    M181.429,193.026l0.034,0.068l0.068,0.068 M181.701,193.094l0.068,0.068 M181.361,192.821l0.068,0.068l0.068,0.034    M181.361,192.957l0.068,0.069 M181.497,192.924l0.069,0.034l0.068,0.069 M181.225,193.094l0.068,0.068 M181.258,193.094   l0.068,0.068 M181.258,193.026l0.034,0.068 M181.258,192.821h0.102 M181.258,192.924l0.102,0.034 M180.747,193.094l0.068,0.068    M180.713,193.094l0.034,0.068 M180.713,192.889l0.069,0.068 M180.747,192.855l0.102,0.034 M180.713,192.821h0.069h-0.102    M180.782,192.787h-0.17H180.782h-0.102 M180.543,193.162l0.069,0.068 M180.815,193.162l0.034,0.068 M180.747,193.162l0.068,0.068    M181.02,193.162l0.034,0.068 M181.293,193.162l0.068,0.068 M181.258,193.196l0.068,0.068 M181.326,193.162l0.034,0.068    M181.361,193.162l0.034,0.102; : BBData-423.1166687011719,450.2833251953125,448.3500061035156,501.2666473388672
path : id-XMLID_1303_;fill-none;stroke-#502880;stroke-width-0.86;stroke-linecap-round;stroke-linejoin-round;stroke-miterlimit-10;d-   M181.531,193.162l0.034,0.102 M181.94,193.707v0.034v0.034 M181.906,193.502l0.034,0.102v0.102 M181.803,193.264l0.069,0.068v0.102   l0.034,0.068 M181.77,193.162l0.034,0.102 M185.381,192.855l0.068,0.443v0.409 M180.168,193.026h-0.954H180.168z M179.76,192.958   l-0.069,0.034 M179.725,192.958l-0.068,0.034 M177.102,191.663l-0.17,0.375l-0.137,0.409 M178.362,190.028l-0.306,0.273   l-0.307,0.306l-0.238,0.341l-0.238,0.341l-0.17,0.374 M179.76,189.278l-0.375,0.137l-0.341,0.17l-0.375,0.205l-0.307,0.238    M185.006,191.663l0.17,0.409l0.137,0.374 M184.052,190.334l0.273,0.273l0.273,0.341l0.204,0.341 M183.745,190.062l0.307,0.272    M184.801,191.288l0.205,0.374 M181.122,189.107h-0.17l-0.375,0.034l-0.409,0.034 M181.122,189.107l0.409,0.034l0.374,0.034   l0.409,0.102l0.374,0.137 M182.689,189.414l0.341,0.17l0.034,0.034l0.341,0.204 M183.405,189.823l0.341,0.239 M180.168,189.176   l-0.409,0.102 M176.795,192.446l-0.102,0.409 M185.313,192.446l0.068,0.409 M180.168,193.026h-7.155H180.168z M173.013,194.457   h7.155 M176.932,194.457h0.477 M180.168,194.457h-7.155 M177.886,194.457h-0.477h-0.477 M180.816,193.741v-0.034 M180.986,193.741   v-0.034 M180.952,193.741v-0.034 M181.224,193.741v-0.034 M180.646,194.184l0.068-0.068l0.034-0.069l0.034-0.068v-0.068   l0.034-0.068v-0.102 M181.122,194.15l0.034-0.068l0.034-0.068 M180.952,194.014l0.034-0.102v-0.068v-0.102 M180.952,193.912v-0.068   v-0.102 M180.952,194.082v-0.068 M180.849,194.15l0.034-0.068l0.034-0.068l0.034-0.102 M181.19,194.014v-0.102v-0.068l0.034-0.102    M180.917,194.15l0.034-0.068 M180.611,194.252l0.034-0.068 M181.054,194.252l0.068-0.102 M180.816,194.252l0.034-0.102    M180.849,194.252l0.068-0.102 M180.304,194.423h0.069l0.068-0.034l0.068-0.034l0.034-0.068l0.068-0.034 M180.952,194.388   l0.068-0.068 M180.816,194.32l0.034-0.068 M180.747,194.32l0.069-0.068 M180.747,194.388l0.069-0.068 M180.714,194.355l0.034-0.034    M181.02,194.32l0.034-0.068 M180.917,194.423l0.034-0.034 M180.646,194.423l0.068-0.068 M180.714,194.423l0.034-0.034    M181.156,194.423l0.034-0.068l0.069-0.068 M181.94,193.775v-0.034 M181.497,193.775v-0.034 M181.429,193.775v-0.034    M181.702,193.775v-0.034v-0.034 M181.531,193.741v-0.034 M181.429,193.741v-0.068 M181.497,193.673v0.068V193.673z    M181.94,193.741v-0.034 M181.531,193.775v-0.034 M181.497,193.775v-0.034 M181.906,193.945l0.034-0.068 M181.463,193.877   l0.034-0.102 M181.429,193.877v-0.102 M181.702,193.877v-0.102 M181.531,193.877v-0.102 M181.463,193.98v-0.102 M181.429,193.98   v-0.102 M181.463,193.98l0.034-0.102v-0.102 M181.667,193.945l0.034-0.068 M181.497,193.945l0.034-0.068 M181.94,193.877v-0.102    M181.633,194.423l0.069-0.068 M181.429,194.048l0.034-0.068 M181.395,194.048l0.034-0.068 M181.497,194.048v-0.102    M181.395,194.15l0.034-0.102 M181.36,194.15l0.034-0.102 M181.36,194.218l0.034-0.068 M181.327,194.218l0.034-0.068    M181.292,194.32l0.068-0.102 M181.259,194.287l0.068-0.069 M181.224,194.388l0.068-0.068 M181.259,194.388l0.068-0.068    M181.259,194.457l0.034-0.069 M181.327,194.32l0.034-0.102 M181.292,194.388l0.068-0.102 M181.36,194.218l0.034-0.068    M181.36,194.287l0.034-0.069 M181.395,194.15l0.034-0.102l0.034-0.068 M181.633,194.15l0.034-0.102 M181.463,194.15l0.034-0.102    M181.429,194.457l0.034-0.069 M181.395,194.218l0.068-0.068 M181.463,194.388l0.069-0.102l0.034-0.069l0.068-0.068    M181.702,194.355l0.068-0.068l0.034-0.069 M181.667,194.048v-0.102 M181.803,194.218l0.069-0.068v-0.102l0.034-0.102    M185.449,194.15v-0.443 M177.886,194.457h-0.477 M178.362,194.457h-0.477H178.362h0.375h0.307 M179.214,194.457h-0.17h-0.307   h-0.375 M179.214,194.457h0.954 M180.304,194.423l-0.136,0.034h-0.954h-0.17 M180.884,194.695h0.136h0.069h0.102 M181.088,194.49   l0.068-0.068 M179.691,194.457h-0.034 M180.577,194.457l0.069-0.034 M180.986,194.525l0.102-0.034l-0.069,0.068 M180.849,194.49   l0.068-0.068 M180.646,194.49l0.068-0.068 M180.509,194.525l0.068-0.068 M179.657,194.49l-0.034-0.034 M179.76,194.525   l-0.069-0.068 M180.952,194.593l0.068-0.034 M180.917,194.558l0.069-0.034 M180.781,194.525l0.068-0.034 M180.577,194.525   l0.069-0.034 M180.441,194.558l0.068-0.034 M179.725,194.525l-0.068-0.034 M179.828,194.558l-0.068-0.034 M180.849,194.627   l0.102-0.034 M180.849,194.593l0.068-0.034 M180.714,194.558l0.068-0.034 M180.475,194.558l0.102-0.034 M180.373,194.593   l0.068-0.034 M179.93,194.593l-0.102-0.034 M179.793,194.558l-0.068-0.034 M180.781,194.661l0.068-0.034 M180.747,194.627   l0.102-0.034 M180.611,194.593l0.102-0.034 M180.407,194.593l0.068-0.034 M180.271,194.593h0.102 M179.998,194.593h-0.068    M180.066,194.593l0.068,0.034l0.069-0.034h0.068 M180.066,194.593h-0.068 M179.896,194.593l-0.102-0.034 M180.679,194.661h0.102    M180.679,194.627h0.068 M180.543,194.627l0.068-0.034 M180.339,194.627l0.068-0.034 M179.964,194.627l-0.068-0.034    M180.509,194.661h0.102h0.068 M180.509,194.627h0.068h0.102 M180.475,194.627h0.069 M180.271,194.627h0.068 M180.032,194.627   h-0.069 M180.168,194.627h0.102h0.102 M180.032,194.627h0.102h0.102h0.034h-0.102h-0.034 M180.475,194.627h-0.102 M180.475,194.695   l-0.068-0.034l-0.102-0.034 M180.509,194.661h-0.068l-0.034-0.034 M180.714,194.661h0.068 M180.781,194.695l0.068-0.034    M180.781,194.661l0.102-0.034 M180.849,194.661l0.102-0.034 M180.884,194.627l0.068-0.034 M180.952,194.695l0.068-0.034    M180.952,194.627l0.068-0.034 M180.952,194.593l0.102-0.034 M181.02,194.593l0.069-0.034 M181.054,194.558l0.068-0.068    M181.02,194.661l0.102-0.034 M181.19,194.695l0.069-0.034l0.102-0.034 M181.19,194.457l0.034-0.069 M181.088,194.49l0.102-0.034   l0.069-0.069 M181.088,194.558l0.102-0.068 M181.122,194.49l0.068-0.034 M181.19,194.49l0.069-0.034 M181.122,194.627l0.068-0.034   l0.069-0.034 M181.36,194.627l0.069-0.034l0.068-0.034 M181.259,194.558l0.102-0.068l0.069-0.034 M181.497,194.558l0.068-0.068   l0.068-0.068 M180.884,194.695h0.136 M180.611,194.695h0.17h0.068h0.102 M180.679,194.695h0.102 M180.611,194.695h-0.034h-0.102    M180.679,194.695h-0.068h0.17 M177.102,195.751l-0.17-0.375l-0.137-0.409l-0.102-0.409v-0.102 M185.006,195.751l0.17-0.375   l0.137-0.409l0.068-0.409l0.068-0.409 M181.531,198.307h-0.409h-0.17h-0.375l-0.409-0.068l-0.409-0.102L179.385,198l-0.341-0.17   l-0.375-0.204l-0.307-0.239l-0.306-0.273l-0.307-0.306l-0.238-0.307l-0.238-0.374l-0.17-0.375 M181.906,198.239l0.409-0.102   l0.374-0.137 M184.052,197.114l0.273-0.306l0.273-0.341l0.204-0.341 M184.801,196.126l0.205-0.375 M182.689,198l0.341-0.17h0.034   l0.341-0.204l0.341-0.239 M183.745,197.386l0.307-0.273 M181.531,198.307l0.374-0.068 M185.449,193.707v0.443V193.707z    M170.935,194.9l0.034-0.034 M171.003,194.865h0.102; : BBData-418.70001220703125,462.8999938964844,457.40000915527344,488.53334045410156
path : id-XMLID_1304_;fill-none;stroke-#502880;stroke-width-0.86;stroke-linecap-round;stroke-linejoin-round;stroke-miterlimit-10;d-   M170.935,194.798l0.034,0.068h0.034h-0.034 M170.935,194.798v-0.477 M168.55,191.833l-0.034-0.034h-0.613 M167.903,194.695v-0.477   v-0.477 M168.517,194.218v-0.477 M167.903,192.072v-0.205v-0.068 M167.903,191.799h0.613v0.068 M167.903,192.787v-0.409v-0.306    M168.517,192.378v-0.306v-0.205 M167.903,193.741v-0.512v-0.443 M168.517,193.741v-0.512v-0.443v-0.409 M168.517,194.695v-0.477    M171.685,193.162h-3.135v-0.375v-0.374v-0.307v-0.205v-0.068 M168.55,194.218v0.443v-0.341 M168.55,194.218v-0.477 M168.55,193.57   v0.171v-0.512v-0.443 M168.55,193.57v-0.136v-0.102v-0.102v-0.068 M168.55,194.15v-0.136v-0.137v-0.136 M168.55,194.286v0.034   h3.135 M168.55,194.286v-0.034v-0.102 M170.935,193.162v-0.716 M170.97,192.446h0.102 M170.935,192.242v0.204h0.034h-0.034    M171.072,192.242h-0.102h-0.034h0.034 M171.31,194.866h-0.205h-0.102 M171.276,192.446h-0.204h-0.102 M171.072,192.242h-0.102    M170.935,192.242h2.317h-1.465 M171.787,192.446h1.465H171.787z M171.515,192.446h0.272H171.515z M171.276,192.446h0.239H171.276   h-0.204 M171.753,194.355l-0.17-0.137l-0.102-0.136l-0.068-0.17l-0.034-0.17l0.034-0.205l0.068-0.17l0.102-0.137 M171.583,193.23   l0.17-0.102l0.17-0.069 M171.685,193.162h-3.135 M171.685,194.32h-3.135 M172.162,194.456h0.17h0.307 M171.923,194.423l-0.17-0.068    M172.162,193.026h-0.068H172.162h0.17 M171.923,193.06l0.17-0.034 M172.639,193.026h-0.307h-0.17 M172.162,194.456h0.17    M171.923,194.423l0.17,0.034h0.068h-0.068 M172.639,194.456h0.375H172.639h-0.307 M172.639,193.026h0.375H172.639h-0.307    M173.252,194.798v-0.341 M173.252,193.026v-0.784 M185.449,194.15v-0.443 M172.877,194.866h0.205 M172.673,194.866h0.205H172.673z    M172.366,194.866h0.306H172.366z M172.094,194.866h0.273H172.094z M171.787,194.866h0.307H171.787z M171.515,194.866h0.272   H171.515z M171.31,194.866h0.205H171.31h-0.205 M173.184,194.866h-0.102h-0.205 M173.184,194.866h0.034 M173.252,194.798   l-0.034,0.068h-0.034h-0.102 M171.787,196.944h0.102 M171.31,196.944h0.205h0.272h-0.272 M170.935,196.91v-2.011 M167.903,195.581   v0.068h0.613 M168.55,195.615v-0.068 M167.903,195.581v-0.17v-0.307v-0.409 M168.517,195.411v-0.307v-0.409 M168.517,195.581v-0.17    M168.55,195.547v-0.17v-0.307v-0.409 M168.517,195.649v-0.068 M167.903,195.649h0.613l0.034-0.034 M167.903,196.467v-0.102h1.567    M167.903,196.671v-0.204 M169.573,196.535v-0.068l-0.034-0.069l-0.068-0.034h-1.567 M169.538,196.705v-0.238v-0.069    M169.573,196.74v-0.205 M171.31,196.944h0.205 M171.106,196.944h0.205H171.106h-0.102 M170.97,196.944h0.034H170.97l-0.034-0.034    M170.492,199.567l-0.034,0.034 M169.573,199.567v-0.034 M167.903,198.545V198v-0.511v-0.477v-0.341 M169.538,198v-0.511v-0.443   v-0.341 M169.538,198.545V198 M167.903,199.124v-0.579 M169.538,199.124v-0.579 M169.573,199.056v-0.238 M169.606,198.852   l0.034-0.17 M169.573,198.818v-0.273v-0.238 M169.606,198.034v-0.238 M169.573,198.307v-0.239 M169.573,197.864v-0.17v-0.102    M169.573,197.523h0.034 M169.573,197.591v-0.034 M169.573,197.523v0.034V197.523v-0.443v-0.341 M169.573,198.068v-0.204    M169.606,197.523h0.034 M169.606,197.796l0.034-0.171 M170.459,198.852l-0.034-0.17v-0.137 M169.641,198.545v-0.102    M169.606,198.272v-0.238 M169.641,197.625l0.068-0.102 M170.424,197.523h-0.068 M169.709,197.523h0.648h0.068h0.034    M169.709,197.523h-0.068 M169.606,197.523h0.034h0.068h0.648 M170.424,197.557v-0.034 M170.459,197.796l-0.034-0.171    M170.459,198.272v-0.238 M170.424,197.625v-0.068 M170.424,198.443l0.034-0.17 M169.641,198.443l-0.034-0.17 M170.424,198.545   v-0.102 M169.641,198.682v-0.137 M170.459,198.034v-0.238 M170.492,197.591v-0.034l-0.034-0.034h-0.034 M170.595,197.523v-0.034   l0.068-0.034h0.784 M170.492,197.659h0.102 M170.492,199.465v-1.874 M170.595,197.659h-0.102 M170.595,198.272v-0.238v-0.238   v-0.171v-0.102 M170.595,198.852v-0.307v-0.273 M169.606,199.09v-0.238 M169.573,199.533v-0.102v-0.17v-0.205 M170.459,199.09   v-0.238 M169.641,199.499l-0.034-0.17v-0.238 M170.424,199.499l0.034-0.17v-0.238 M170.595,199.465h-0.102 M170.595,199.328v-0.238   v-0.238 M170.492,199.465h0.102 M170.595,199.499v-0.17 M170.424,199.567v-0.068 M170.492,199.567v-0.034v-0.068 M170.595,199.601   v-0.102 M169.606,199.601h0.034 M169.573,199.567v0.034h0.034h-0.034 M167.903,200.76v-0.102 M169.47,200.76h-1.567H169.47   l0.068-0.034 M169.538,200.657v0.068l0.034-0.068v-0.068 M167.903,200.112v-0.477v-0.512 M169.538,200.078v-0.443v-0.512    M167.903,200.657v-0.205v-0.341 M169.538,200.657v-0.238v-0.341 M169.573,200.589v-0.205v-0.341v-0.443v-0.034 M170.459,199.601   L170.459,199.601h-0.034 M169.709,199.601h-0.068h-0.034 M170.424,199.601h0.034 M169.641,199.499l0.068,0.102h0.648h0.068v-0.034    M170.424,199.601h-0.068h-0.648h-0.068 M171.446,199.669h-0.784l-0.068-0.034v-0.034 M171.003,196.944h0.102 M170.97,196.944   h0.034H170.97z M171.31,196.944h-0.205h-0.102h0.102 M171.515,196.944h0.272h0.102 M171.515,196.944h-0.205 M171.106,196.944h0.205   h0.205h0.272 M170.663,199.669h0.784v-2.726 M171.446,197.454h-0.784 M171.446,199.738v-0.069 M171.48,199.806h0.034    M171.515,199.839l-0.034-0.034l-0.034-0.068 M171.446,203.417v-1.363v-1.397l0.034-0.068 M171.515,200.589h-0.034H171.515v-0.75    M171.446,203.417l0.034,0.068h0.034 M171.48,199.806h0.034h0.136 M171.651,203.485h-0.136h-0.034 M171.651,200.589h-0.136h-0.034    M171.515,199.806h0.136h0.205 M171.548,203.519l-0.068-0.034 M171.685,203.519h-0.102h-0.034h0.034 M171.515,203.485h0.136h0.205    M171.855,200.589h-0.205h-0.136 M171.583,203.519h0.102h0.204 M171.787,196.944h0.102H171.787z M173.252,196.91v-2.011   l-0.034-0.034 M172.673,196.944h-0.306h-0.068h0.068h-0.068h0.068H172.673z M171.889,197.148v-0.238 M171.923,197.114v-0.034   l0.034-0.069h0.034l0.034-0.034h0.068 M172.264,197.114v-0.034l-0.034-0.069h-0.034l-0.068-0.034h-0.034 M171.889,197.148   l0.034-0.034 M171.651,199.806h0.205h0.238 M171.651,203.485h0.205h0.238 M171.685,203.519h0.204h0.239 M172.094,200.589h-0.238   h-0.205 M171.889,197.183v-0.034 M172.298,197.148v-0.238 M172.264,197.148v-0.034 M172.128,197.318h-0.034h-0.068h-0.034   l-0.034-0.034l-0.034-0.034 M171.923,197.183l-0.034-0.034 M171.923,197.251v-0.068h-0.034 M172.264,197.183l0.034-0.034    M172.128,197.318h0.068 M171.855,199.806h0.238h0.307 M171.855,203.485h0.238h0.307 M171.889,203.519h0.239h0.306    M171.855,200.589h0.238h0.307 M172.264,197.148v0.034v0.068l-0.034,0.034l-0.034,0.034 M172.877,196.944h-0.205h-0.306    M172.877,196.944h0.205 M172.366,196.944h0.306h0.205h-0.205 M172.741,199.806h-0.341 M172.094,199.806h0.307h0.341h0.306    M172.094,203.485h0.307h0.341; : BBData-411.25,469.51666259765625,457.3999938964844,501.3500061035156
path : id-XMLID_1305_;clip-path-url(#XMLID_1603_);fill-none;stroke-#502880;stroke-width-0.86;stroke-linecap-round;stroke-linejoin-round;stroke-miterlimit-10;d-    M172.128,203.519h0.307h0.306 M172.741,200.589H172.4h-0.306 M172.4,203.485h0.341h0.102 M173.048,200.589h-0.307H172.4     M172.877,202.224h0.136 M172.434,203.519h0.306h0.307 M172.843,203.485h-0.102 M172.877,203.519h0.136 M173.184,196.943h-0.102    h-0.205h-0.205 M173.082,196.943h-0.205H173.082h0.102 M173.218,196.943h-0.034H173.218l0.034-0.034 M173.082,196.943h0.102h0.034    h-0.034H173.082z M172.741,199.806h0.307h0.306 M172.741,203.519h0.307h0.273 M173.013,203.519L173.013,203.519h-0.136     M173.048,202.224h-0.034h-0.136 M173.013,203.519L173.013,203.519h0.034 M172.741,200.589h0.307h0.306 M173.048,203.519h-0.034     M173.15,203.519h-0.068h-0.034h0.034 M173.082,202.224h-0.034h-0.034 M173.082,202.224h0.068 M173.184,202.224h-0.034h-0.068    h-0.034 M173.082,203.519h0.068h0.034 M173.218,203.519h0.136 M173.218,202.224h-0.034h-0.034 M173.15,203.519h0.034h0.034     M174.036,199.738v-5.281 M174.002,199.806h-0.068 M173.967,199.839l0.034-0.034l0.034-0.068 M173.934,199.806h-0.102     M173.627,199.806h0.205h0.102h0.068 M173.627,199.806h-0.273 M173.048,199.806h0.306h0.273h0.205 M173.967,203.485h-0.136     M173.627,203.485h0.205h0.136h0.034 M173.627,200.589h0.205h0.136 M173.354,200.589h0.273 M173.831,200.589h-0.205h-0.273h-0.306     M173.388,203.451v-0.58 M173.286,202.224h-0.068h-0.034 M173.32,202.224h0.034h0.034v0.034v0.613 M173.286,202.224h0.034     M173.354,202.224h-0.034h-0.034h-0.068 M173.934,203.519h-0.034 M173.763,203.519h0.136h0.034l0.068-0.034 M173.388,203.485    h0.238 M173.354,203.519L173.354,203.519l0.034-0.034v-0.034 M173.32,203.519h0.034h-0.136 M173.218,203.519h-0.034     M173.286,203.519h-0.068H173.286z M173.32,203.519h-0.034H173.32h0.034 M173.388,203.485h0.238h0.205 M173.593,203.519h0.17    h0.136 M173.32,203.519h-0.273 M173.593,203.519h-0.273H173.593h0.17 M173.967,203.485h0.034v-0.068 M174.002,200.589    l-0.034-0.034 M173.967,200.589h0.034H173.967z M173.831,200.589h0.136v-0.75 M174.002,203.417v-1.363v-1.397v-0.068     M207.202,208.017c-1.063,0-1.925,0.861-1.925,1.925c0,1.063,0.862,1.925,1.925,1.925c1.063,0,1.925-0.862,1.925-1.925    C209.127,208.878,208.266,208.017,207.202,208.017 M210.405,215.921c0.854,0,1.673-0.339,2.277-0.943    c0.603-0.604,0.943-1.423,0.943-2.277 M213.625,174.713c0-0.854-0.339-1.673-0.943-2.277s-1.424-0.943-2.277-0.943     M174.358,171.493c-1.778,0.001-3.218,1.442-3.218,3.22 M171.14,212.701c0,1.778,1.441,3.22,3.219,3.22 M171.14,174.73v37.988     M210.388,171.528h-36.046 M213.625,212.718V174.73 M174.342,215.955h36.046 M241.324,178.376v2.555 M289.464,178.035h0.681    v-3.782h-0.681V178.035z M289.464,220.384h0.681v3.747h-0.681V220.384z M282.991,178.035h-0.716v-3.782h0.716V178.035z     M289.43,176.366h-6.439v2.01h6.439 M289.43,178.376v-2.01h-4.293 M282.991,180.931h-41.667v-2.555h41.667V180.931z     M289.43,218.987h-1.022v1.056h1.022V218.987z M282.991,220.384h-0.716v3.747h0.716V220.384z M289.43,179.432h-1.022v-1.056h1.022    V179.432z M289.43,220.043h-6.439v2.01h6.439V220.043z M241.376,180.909c1.415,21.968,19.631,39.071,41.644,39.1 M282.991,222.053    v-2.01 M289.43,220.043v2.01 M296.278,217.011h2.555 M295.937,278.438h-3.747v-0.681h3.747V278.438z M349.87,278.438h3.782v-0.681    h-3.782V278.438z M295.937,271.318v-0.681l-3.747-0.034v0.716H295.937z M294.268,277.757v-6.439 M294.268,275.611v-4.293h2.01    v6.439 M296.278,277.757h-2.01 M296.278,271.318h2.555V217.01h-2.555V271.318z M348.507,276.701h1.022v1.022h-1.022V276.701z     M349.87,271.318v-0.681l3.782-0.034v0.716H349.87z M297.334,276.735h-1.056v1.022h1.056V276.735z M351.573,277.757h-2.044v-6.439    h2.044v6.405 M349.567,271.313c0.984-28.995-21.714-53.304-50.709-54.304 M351.573,271.318h-2.044 M349.529,277.723h2.044     M371.47,80.084v64.392h0.784 M364.434,123.701c0.635,0.189,1.321,0.092,1.877-0.268c0.556-0.359,0.927-0.944,1.016-1.601     M342.851,121.445v0.477l21.567,1.805 M365.712,96.335l-22.622,1.465l-0.034,0.477 M367.468,97.922    c-0.229-0.82-0.899-1.442-1.734-1.61 M367.314,121.854l0.136-23.917 M345.816,106.488h0.477l-0.068,6.985l-0.477-0.034     M342.238,98.244l3.646,0.034l-0.205,23.202l-3.645-0.034L342.238,98.244z M348.609,123.149l14.718,0.136l-0.034,3.067    l-14.684-0.137V123.149z M348.882,93.508l14.956,0.137l-0.273,3.1l-14.718-0.137L348.882,93.508z M373.514,195.99h-1.26     M373.514,170.369h-1.26 M373.514,195.99v-25.62 M372.254,170.369v25.62 M373.514,144.476h-1.26 M373.514,170.097h-1.26     M373.514,144.476v25.62 M372.254,170.097v-25.62 M374.945,194.763v-49.026 M373.651,194.763h36.114 M373.651,145.737h36.114     M374.945,170.097v4.6 M373.651,144.476h36.114 M373.651,195.99h36.114 M373.651,195.99v-51.513 M408.504,194.763v-49.026     M409.765,195.99v-51.513 M409.765,80.084V41.483 M372.628,41.483h-1.158 M371.47,80.084V41.483 M372.765,41.483h37     M401.315,41.483h8.449 M173.252,117.272c0,1.063,0.861,1.925,1.925,1.925 M175.177,85.399c-1.063,0-1.925,0.862-1.925,1.925     M173.218,117.289V87.341 M188.039,119.197H175.16 M188.039,85.399H175.16 M172.264,160.898h15.774 M172.281,82.026    c-1.063,0-1.926,0.861-1.926,1.925 M170.356,158.939c0,1.063,0.862,1.925,1.926,1.925 M188.039,82.026h-15.774 M170.322,83.968    v74.988 M173.252,155.566c0,1.063,0.861,1.925,1.925,1.925 M175.177,123.694c-1.063,0-1.925,0.861-1.925,1.925 M173.218,155.583    v-29.947 M188.039,157.525H175.16 M188.039,123.727H175.16 M188.039,100.39l9.641-19.317 M188.039,161.852V81.073 M169.982,81.379    v80.473 M292.974,81.379v80.473 M169.982,160.591v1.261 M168.721,84.615v77.237h125.547V84.615 M294.268,161.852H168.721V81.379    h125.547V161.852z M363.634,25.709v5.145 M366.223,20.53v20.953h43.541 M288.476,25.709v5.145 M285.887,20.53v20.953     M366.223,25.709h-80.337 M366.223,30.854h-80.337 M366.223,20.53h-80.337 M366.223,41.483h-80.337 M363.634,28.264h-75.158     M366.223,20.53h49.981 M289.43,161.852v14.514 M282.991,168.291v8.074 M289.43,176.366h-6.439 M289.43,222.053h-6.439     M289.43,271.318h4.838v6.439 M351.573,277.757v-6.439h58.192 M351.573,277.757h64.631 M409.765,41.483v229.835 M416.204,20.53    v257.227 M282.991,222.053v49.265 M289.43,222.053v49.265 M218.94,218.51v4.838h-26.098 M162.282,218.51v-50.219 M218.94,218.51    h-50.219v-50.219 M162.282,223.348h25.757 M168.721,161.852V41.483 M162.282,223.348V20.53 M192.842,223.348v47.97     M188.039,277.757v-54.409 M282.991,271.318h-90.149 M188.039,277.757h106.23 M273.179,271.318h-1.601 M282.991,168.291h-114.27     M289.43,161.852H168.721 M162.282,20.53h123.605 M168.721,41.483h117.166; : BBData-397.45001220703125,48.899993896484375,1024.1000366210938,685.3333435058594
use : xlink:href-#XMLID_1092_;overflow-visible; : BBData-0,0,0,0
clipPath : id-XMLID_1603_; : BBData-0.4166717529296875,0,0.4166717529296875,0
rect : id-XMLID_1092_;x-141.812;y-0.259;width-291.375;height-294.482; : BBData-0,0,0,0
defs :  : BBData-0.4166717529296875,0,0.4166717529296875,0
g :  : BBData-397.45001220703125,48.899993896484375,1024.1000366210938,685.3333435058594
path : id-XMLID_1386_;fill-#C30050;d-M334.562,49.057l1.306-0.207l0.921,2.067l0.308-2.262l1.025-0.162l0.999,2.055    l0.237-2.251l1.307-0.207l-0.694,3.879l-1.142,0.181l-0.934-1.793l-0.333,1.994l-1.143,0.181L334.562,49.057z; : BBData-822.0499877929688,118.08332824707031,837.0833129882812,129.03334045410156
path : id-XMLID_1383_;fill-#C30050;d-M330.965,51.512c-0.043-0.271-0.035-0.534,0.023-0.79    c0.059-0.255,0.159-0.484,0.304-0.689c0.144-0.205,0.328-0.376,0.552-0.517c0.224-0.139,0.481-0.232,0.773-0.279    c0.292-0.046,0.566-0.037,0.822,0.026c0.256,0.064,0.484,0.17,0.685,0.321s0.368,0.337,0.502,0.562    c0.135,0.225,0.224,0.473,0.267,0.744c0.044,0.276,0.036,0.541-0.023,0.793c-0.059,0.253-0.16,0.481-0.304,0.686    s-0.329,0.376-0.552,0.517c-0.225,0.14-0.482,0.232-0.774,0.278c-0.292,0.046-0.565,0.038-0.821-0.026    c-0.257-0.064-0.484-0.17-0.685-0.321c-0.201-0.15-0.367-0.336-0.502-0.559C331.098,52.037,331.009,51.788,330.965,51.512z     M333.056,52.006c0.22-0.035,0.383-0.137,0.488-0.31c0.106-0.172,0.142-0.375,0.104-0.61s-0.133-0.417-0.288-0.548    c-0.153-0.13-0.341-0.179-0.56-0.145c-0.219,0.035-0.382,0.139-0.488,0.311c-0.106,0.172-0.141,0.376-0.104,0.61    s0.133,0.417,0.287,0.548C332.65,51.993,332.837,52.041,333.056,52.006z; : BBData-813.11669921875,120.78334045410156,823.0500335693359,130.6999969482422
path : id-XMLID_1380_;fill-#C30050;d-M329.46,53.25c-0.11,0.183-0.251,0.329-0.421,0.436c-0.17,0.107-0.342,0.173-0.514,0.2    c-0.198,0.031-0.384,0.031-0.558-0.003c-0.174-0.034-0.335-0.095-0.482-0.183c-0.225-0.136-0.411-0.332-0.559-0.59    c-0.147-0.257-0.247-0.55-0.3-0.878c-0.043-0.276-0.037-0.542,0.019-0.794c0.057-0.252,0.158-0.479,0.306-0.681    c0.146-0.203,0.334-0.374,0.561-0.51c0.228-0.138,0.489-0.23,0.787-0.277c0.119-0.019,0.23-0.027,0.332-0.024    c0.102,0.002,0.189,0.009,0.26,0.019l-0.245-1.549l1.322-0.209l0.827,5.219l-1.205,0.191L329.46,53.25z M329.063,51.058    c-0.143-0.024-0.29-0.026-0.44-0.002c-0.235,0.037-0.415,0.141-0.541,0.31c-0.125,0.171-0.164,0.405-0.117,0.702    c0.035,0.219,0.116,0.387,0.244,0.501c0.128,0.117,0.302,0.158,0.521,0.123c0.192-0.031,0.328-0.111,0.407-0.241    c0.078-0.13,0.101-0.3,0.067-0.508L329.063,51.058z; : BBData-802.433349609375,118.36666870117188,812.8500213623047,132.46665954589844
path : id-XMLID_1378_;fill-#C30050;d-M322.161,51.021l1.275-0.202l0.107,0.376c0.059-0.101,0.131-0.189,0.215-0.268    c0.084-0.077,0.172-0.141,0.266-0.194c0.093-0.052,0.185-0.093,0.273-0.123s0.167-0.051,0.234-0.062    c0.193-0.03,0.376-0.031,0.549-0.001c0.173,0.028,0.329,0.092,0.468,0.189c0.139,0.1,0.257,0.236,0.354,0.411    c0.098,0.174,0.166,0.388,0.206,0.644l0.367,2.316l-1.322,0.209l-0.317-2.003c-0.029-0.184-0.09-0.323-0.184-0.42    c-0.093-0.098-0.223-0.133-0.389-0.106c-0.12,0.019-0.217,0.053-0.289,0.102c-0.072,0.05-0.127,0.108-0.164,0.178    s-0.059,0.145-0.064,0.224c-0.007,0.078-0.004,0.157,0.009,0.235l0.312,1.964l-1.322,0.209L322.161,51.021z; : BBData-791.5833129882812,124.05000305175781,802.2499847412109,134.35000610351562
path : id-XMLID_1375_;fill-#C30050;d-M319.906,49.798l1.433-0.227l0.165,1.041l-1.433,0.227L319.906,49.798z M320.206,51.331    l1.321-0.209l0.582,3.678l-1.321,0.209L320.206,51.331z; : BBData-786.066650390625,121.71665954589844,791.5166473388672,135.13333129882812
path : id-XMLID_1373_;fill-#C30050;d-M312.498,50.972l1.463-0.231l1.227,3.39l0.287-3.501l1.26-0.2l1.363,3.24l0.111-3.602    l1.416-0.225l-0.473,5.425l-1.447,0.229l-1.344-3.172l-0.299,3.432l-1.471,0.233L312.498,50.972z; : BBData-767.8499755859375,122.38333129882812,785.4333038330078,137.53334045410156
g : id-XMLID_1282_; : BBData-767.8499755859375,118.08332824707031,837.0832977294922,137.53334045410156
path : id-XMLID_1396_;fill-#C30050;d-M394.614,104.804l1.322-0.209l0.406,2.565l0.753-1.169l1.471-0.233l-1.037,1.552    l1.823,2.093l-1.518,0.24l-1.037-1.279l-0.215,0.315l0.18,1.134l-1.322,0.209L394.614,104.804z; : BBData-969.5166625976562,256.83331298828125,981.25,270.24998474121094
path : id-XMLID_1394_;fill-#C30050;d-M391.891,109.333c0.071,0.042,0.154,0.079,0.25,0.109s0.193,0.053,0.296,0.069    c0.102,0.016,0.202,0.025,0.301,0.028c0.1,0.002,0.187-0.001,0.259-0.013c0.136-0.021,0.249-0.055,0.341-0.102    c0.091-0.047,0.128-0.128,0.11-0.242c-0.014-0.083-0.08-0.14-0.2-0.173c-0.12-0.031-0.331-0.069-0.632-0.112    c-0.169-0.021-0.326-0.054-0.472-0.097c-0.146-0.044-0.275-0.102-0.389-0.175s-0.206-0.166-0.28-0.277s-0.123-0.246-0.148-0.402    c-0.024-0.156-0.01-0.31,0.044-0.459c0.054-0.15,0.142-0.289,0.263-0.414c0.122-0.126,0.275-0.236,0.461-0.327    c0.187-0.091,0.397-0.155,0.633-0.192c0.302-0.048,0.58-0.055,0.834-0.021c0.255,0.035,0.499,0.106,0.735,0.213l-0.315,0.893    c-0.154-0.062-0.313-0.111-0.477-0.148c-0.164-0.039-0.329-0.045-0.496-0.019c-0.271,0.043-0.396,0.138-0.372,0.283    c0.01,0.062,0.042,0.11,0.099,0.142c0.056,0.031,0.127,0.054,0.215,0.07c0.089,0.015,0.189,0.029,0.303,0.04    c0.115,0.011,0.237,0.029,0.369,0.05c0.198,0.034,0.363,0.08,0.495,0.139c0.133,0.059,0.241,0.13,0.326,0.211    c0.086,0.084,0.15,0.18,0.194,0.287c0.043,0.108,0.076,0.224,0.096,0.35c0.035,0.224,0.014,0.42-0.063,0.587    c-0.078,0.168-0.19,0.311-0.337,0.43c-0.146,0.12-0.318,0.215-0.512,0.286c-0.195,0.072-0.389,0.123-0.582,0.153    c-0.318,0.051-0.639,0.057-0.963,0.02c-0.324-0.037-0.596-0.123-0.815-0.259L391.891,109.333z; : BBData-961.4166870117188,261.5,969.9833526611328,271.5500030517578
path : id-XMLID_1391_;fill-#C30050;d-M391.197,110.421c-0.058,0.046-0.131,0.1-0.22,0.159c-0.09,0.06-0.196,0.119-0.321,0.18    c-0.124,0.059-0.265,0.116-0.422,0.17c-0.157,0.055-0.326,0.097-0.51,0.126c-0.678,0.107-1.224,0.019-1.638-0.267    c-0.414-0.284-0.67-0.734-0.767-1.349c-0.039-0.245-0.038-0.492,0.003-0.742c0.04-0.25,0.125-0.479,0.255-0.69    c0.13-0.21,0.307-0.393,0.531-0.545c0.225-0.154,0.498-0.255,0.822-0.306c0.25-0.04,0.492-0.034,0.729,0.017    c0.234,0.051,0.448,0.15,0.641,0.299c0.192,0.15,0.355,0.348,0.491,0.597c0.136,0.248,0.231,0.549,0.287,0.904l0.04,0.25    l-2.488,0.394c0.016,0.062,0.043,0.125,0.083,0.188c0.039,0.063,0.099,0.12,0.179,0.168s0.181,0.082,0.305,0.1    c0.123,0.019,0.271,0.013,0.442-0.014c0.225-0.036,0.425-0.096,0.601-0.183s0.311-0.169,0.406-0.249L391.197,110.421z     M389.821,108.626c-0.01-0.062-0.033-0.126-0.07-0.19c-0.036-0.063-0.087-0.119-0.15-0.167c-0.063-0.05-0.139-0.087-0.227-0.113    c-0.087-0.026-0.188-0.03-0.303-0.012c-0.109,0.017-0.203,0.052-0.28,0.104s-0.137,0.111-0.18,0.178    c-0.043,0.065-0.073,0.133-0.088,0.205c-0.016,0.073-0.019,0.14-0.008,0.203L389.821,108.626z; : BBData-951.5166625976562,263.066650390625,961.1833343505859,273.0333251953125
path : id-XMLID_1388_;fill-#C30050;d-M381.768,106.838l2.003-0.317c0.401-0.063,0.781-0.071,1.14-0.02    c0.358,0.05,0.679,0.163,0.964,0.337c0.283,0.174,0.522,0.417,0.717,0.727c0.193,0.313,0.326,0.695,0.397,1.148    c0.069,0.434,0.057,0.822-0.035,1.165c-0.094,0.344-0.248,0.643-0.463,0.9c-0.217,0.255-0.488,0.465-0.815,0.625    c-0.327,0.162-0.689,0.273-1.086,0.336l-1.995,0.316L381.768,106.838z M384.349,110.528c0.454-0.072,0.784-0.256,0.991-0.554    c0.207-0.298,0.277-0.653,0.212-1.064c-0.032-0.209-0.092-0.393-0.176-0.554s-0.194-0.292-0.331-0.397    c-0.137-0.104-0.3-0.176-0.487-0.216c-0.188-0.039-0.405-0.04-0.649-0.001l-0.564,0.089l0.441,2.786L384.349,110.528z; : BBData-938,261.3833312988281,951.0333404541016,275.23333740234375
g : id-XMLID_1283_; : BBData-938,256.83331298828125,981.25,275.2333221435547
path : id-XMLID_1405_;fill-#C30050;d-M246.255,123.553c-0.11,0.183-0.25,0.328-0.42,0.435    c-0.17,0.107-0.341,0.174-0.514,0.202c-0.198,0.031-0.384,0.03-0.558-0.004c-0.174-0.033-0.334-0.095-0.482-0.184    c-0.225-0.136-0.411-0.333-0.558-0.589c-0.148-0.258-0.248-0.55-0.3-0.879c-0.044-0.275-0.037-0.541,0.019-0.793    c0.057-0.252,0.158-0.479,0.305-0.681c0.147-0.204,0.334-0.373,0.561-0.51c0.227-0.137,0.489-0.229,0.786-0.276    c0.12-0.019,0.231-0.028,0.333-0.025c0.102,0.003,0.188,0.008,0.26,0.019l-0.246-1.549l1.322-0.209l0.827,5.218l-1.205,0.191    L246.255,123.553z M245.86,121.361c-0.143-0.024-0.29-0.026-0.441-0.002c-0.235,0.038-0.415,0.141-0.541,0.31    c-0.125,0.17-0.165,0.403-0.118,0.701c0.035,0.219,0.116,0.387,0.244,0.502c0.127,0.116,0.302,0.156,0.521,0.122    c0.193-0.031,0.329-0.11,0.407-0.24c0.079-0.13,0.101-0.3,0.068-0.508L245.86,121.361z; : BBData-598.0999755859375,291.01666259765625,608.5166320800781,305.1166687011719
path : id-XMLID_1402_;fill-#C30050;d-M243.277,124.137c-0.057,0.046-0.13,0.1-0.22,0.159c-0.089,0.06-0.197,0.119-0.32,0.179    c-0.125,0.06-0.265,0.117-0.422,0.171c-0.158,0.055-0.327,0.097-0.51,0.126c-0.678,0.107-1.224,0.019-1.638-0.267    c-0.414-0.284-0.67-0.734-0.767-1.35c-0.039-0.244-0.038-0.492,0.003-0.741c0.041-0.25,0.125-0.48,0.255-0.69    c0.13-0.21,0.307-0.393,0.531-0.545c0.224-0.154,0.499-0.255,0.821-0.306c0.25-0.04,0.494-0.034,0.729,0.017    c0.235,0.051,0.449,0.15,0.641,0.299c0.192,0.15,0.355,0.348,0.492,0.597c0.135,0.248,0.231,0.549,0.287,0.905l0.04,0.25    l-2.488,0.394c0.016,0.062,0.042,0.125,0.082,0.187c0.04,0.064,0.099,0.121,0.179,0.169c0.08,0.048,0.181,0.082,0.304,0.1    c0.123,0.018,0.271,0.013,0.443-0.014c0.225-0.036,0.424-0.096,0.601-0.183c0.175-0.087,0.311-0.169,0.405-0.249L243.277,124.137z     M241.901,122.342c-0.01-0.063-0.033-0.126-0.07-0.19c-0.037-0.063-0.087-0.119-0.15-0.167c-0.064-0.05-0.14-0.087-0.227-0.113    c-0.087-0.026-0.188-0.03-0.303-0.012c-0.109,0.017-0.203,0.052-0.28,0.104c-0.078,0.053-0.137,0.111-0.181,0.178    c-0.042,0.065-0.072,0.134-0.088,0.206c-0.015,0.072-0.018,0.139-0.008,0.203L241.901,122.342z; : BBData-588.2333374023438,296.7166748046875,597.9166717529297,306.7166748046875
path : id-XMLID_1398_;fill-#C30050;d-M234.301,120.482l2.12-0.336c0.365-0.058,0.674-0.066,0.927-0.024    c0.253,0.043,0.46,0.118,0.621,0.222c0.162,0.106,0.282,0.237,0.363,0.392s0.134,0.314,0.159,0.474    c0.024,0.151,0.021,0.291-0.01,0.418c-0.03,0.128-0.076,0.244-0.137,0.346c-0.062,0.104-0.131,0.193-0.21,0.27    c-0.079,0.078-0.155,0.135-0.229,0.173c0.104,0.015,0.221,0.045,0.351,0.089c0.13,0.043,0.255,0.11,0.376,0.198    c0.12,0.087,0.229,0.199,0.325,0.333c0.096,0.134,0.159,0.298,0.19,0.492c0.083,0.522-0.038,0.931-0.363,1.226    c-0.325,0.296-0.836,0.498-1.535,0.609l-2.121,0.336L234.301,120.482z M236.589,122.269c0.161-0.025,0.3-0.088,0.415-0.19    c0.115-0.101,0.157-0.252,0.125-0.449c-0.017-0.11-0.05-0.199-0.099-0.269c-0.049-0.07-0.106-0.121-0.173-0.154    c-0.066-0.033-0.139-0.051-0.218-0.058c-0.079-0.007-0.154-0.003-0.227,0.008l-0.602,0.095l0.176,1.111L236.589,122.269z     M237.029,124.389c0.078-0.012,0.163-0.033,0.255-0.061c0.092-0.028,0.173-0.068,0.246-0.123c0.071-0.054,0.126-0.128,0.165-0.218    c0.039-0.092,0.047-0.208,0.025-0.349c-0.021-0.131-0.063-0.232-0.128-0.304c-0.064-0.073-0.14-0.124-0.224-0.154    c-0.085-0.028-0.175-0.044-0.272-0.045c-0.096,0-0.184,0.005-0.262,0.018l-0.704,0.111l0.196,1.236L237.029,124.389z; : BBData-575.8333129882812,294.8666687011719,587.9666442871094,308.71665954589844
g : id-XMLID_1284_; : BBData-575.8333129882812,291.01666259765625,608.5166473388672,308.71665954589844
path : id-XMLID_1426_;fill-#C30050;d-M368.968,172.511c-0.058,0.047-0.13,0.1-0.22,0.16c-0.09,0.06-0.196,0.119-0.32,0.179    s-0.266,0.116-0.422,0.171c-0.157,0.055-0.327,0.096-0.51,0.125c-0.678,0.107-1.225,0.02-1.638-0.267    c-0.414-0.284-0.671-0.734-0.768-1.35c-0.039-0.245-0.038-0.492,0.003-0.741c0.04-0.25,0.125-0.48,0.256-0.69    c0.129-0.211,0.307-0.393,0.531-0.547c0.224-0.152,0.498-0.254,0.821-0.305c0.25-0.04,0.493-0.034,0.729,0.017    s0.449,0.15,0.641,0.299c0.192,0.149,0.355,0.349,0.491,0.597s0.231,0.549,0.288,0.904l0.04,0.249l-2.488,0.395    c0.015,0.062,0.042,0.125,0.082,0.188c0.039,0.063,0.099,0.119,0.179,0.168c0.079,0.049,0.181,0.082,0.305,0.101    c0.123,0.018,0.271,0.013,0.442-0.015c0.225-0.035,0.425-0.097,0.601-0.183c0.176-0.087,0.312-0.17,0.405-0.249L368.968,172.511z     M367.593,170.716c-0.011-0.062-0.034-0.125-0.07-0.189c-0.037-0.063-0.088-0.119-0.151-0.168s-0.139-0.086-0.227-0.112    c-0.087-0.026-0.188-0.03-0.302-0.013c-0.11,0.018-0.203,0.053-0.28,0.104c-0.078,0.053-0.138,0.111-0.181,0.177    c-0.043,0.066-0.073,0.135-0.088,0.206c-0.015,0.073-0.019,0.14-0.008,0.202L367.593,170.716z; : BBData-896.9500122070312,415.5333251953125,906.6333465576172,425.5333251953125
path : id-XMLID_1423_;fill-#C30050;d-M360.406,168.791l1.322-0.209l0.292,1.838c0.056-0.089,0.122-0.164,0.2-0.225    c0.079-0.061,0.159-0.111,0.24-0.153c0.082-0.043,0.16-0.074,0.233-0.098c0.074-0.022,0.138-0.037,0.189-0.046    c0.256-0.04,0.491-0.026,0.708,0.044s0.406,0.18,0.566,0.328c0.159,0.147,0.292,0.326,0.396,0.534    c0.105,0.208,0.177,0.432,0.215,0.672c0.104,0.651-0.004,1.187-0.323,1.603c-0.319,0.418-0.844,0.683-1.573,0.799    c-0.313,0.05-0.619,0.065-0.915,0.049c-0.297-0.018-0.548-0.048-0.752-0.09L360.406,168.791z M362.392,172.767    c0.128,0.034,0.286,0.035,0.475,0.005c0.213-0.033,0.377-0.134,0.489-0.302c0.112-0.167,0.144-0.41,0.093-0.729    c-0.013-0.083-0.037-0.169-0.073-0.257c-0.035-0.088-0.082-0.165-0.141-0.23c-0.058-0.066-0.128-0.116-0.208-0.15    c-0.08-0.036-0.171-0.045-0.269-0.029c-0.22,0.034-0.367,0.127-0.441,0.277c-0.076,0.15-0.097,0.328-0.064,0.531L362.392,172.767z    ; : BBData-885.5333251953125,413.98333740234375,896.5499877929688,427.21665954589844
path : id-XMLID_1420_;fill-#C30050;d-M356.561,172.864c-0.043-0.271-0.035-0.534,0.023-0.79    c0.059-0.255,0.16-0.484,0.304-0.689c0.145-0.204,0.328-0.376,0.552-0.516s0.482-0.232,0.774-0.279    c0.292-0.046,0.565-0.037,0.821,0.026s0.484,0.171,0.686,0.32c0.199,0.15,0.367,0.337,0.501,0.562    c0.135,0.226,0.224,0.474,0.267,0.744c0.044,0.277,0.036,0.542-0.022,0.795c-0.059,0.252-0.16,0.48-0.304,0.686    c-0.145,0.204-0.329,0.376-0.553,0.516s-0.481,0.232-0.773,0.279c-0.292,0.046-0.566,0.037-0.822-0.026    c-0.257-0.063-0.484-0.171-0.685-0.32c-0.2-0.15-0.367-0.336-0.501-0.558C356.693,173.391,356.604,173.142,356.561,172.864z     M358.652,173.359c0.219-0.035,0.382-0.138,0.488-0.311c0.105-0.172,0.141-0.375,0.104-0.609s-0.133-0.417-0.287-0.547    c-0.154-0.131-0.341-0.18-0.561-0.145c-0.219,0.034-0.381,0.138-0.488,0.311c-0.105,0.172-0.141,0.374-0.104,0.608    s0.133,0.418,0.287,0.548C358.246,173.346,358.433,173.394,358.652,173.359z; : BBData-876,418.816650390625,885.8666687011719,428.7333221435547
path : id-XMLID_1418_;fill-#C30050;d-M353.531,171.46l1.275-0.202l0.12,0.454c0.081-0.162,0.19-0.308,0.329-0.433    c0.137-0.126,0.315-0.206,0.534-0.241c0.104-0.017,0.195-0.025,0.272-0.027c0.078-0.002,0.146,0.003,0.207,0.016l0.007,1.154    c-0.13-0.013-0.261-0.008-0.392,0.013c-0.573,0.091-0.81,0.452-0.71,1.084l0.262,1.65l-1.322,0.209L353.531,171.46z; : BBData-868.61669921875,419.95001220703125,875.4333648681641,430.16668701171875
path : id-XMLID_1415_;fill-#C30050;d-M352.161,175.062c-0.11,0.183-0.25,0.328-0.421,0.435    c-0.17,0.107-0.341,0.175-0.513,0.202c-0.198,0.031-0.385,0.029-0.559-0.004c-0.173-0.033-0.334-0.095-0.481-0.184    c-0.225-0.136-0.411-0.333-0.559-0.59c-0.148-0.258-0.248-0.55-0.3-0.879c-0.044-0.275-0.037-0.541,0.019-0.793    c0.057-0.252,0.157-0.479,0.305-0.681c0.146-0.204,0.334-0.374,0.562-0.511c0.227-0.138,0.488-0.229,0.786-0.276    c0.119-0.02,0.23-0.028,0.333-0.025c0.102,0.002,0.188,0.009,0.259,0.02l-0.245-1.549l1.323-0.21l0.826,5.218l-1.205,0.191    L352.161,175.062z M351.766,172.87c-0.143-0.025-0.29-0.026-0.441-0.003c-0.235,0.038-0.415,0.142-0.54,0.311    c-0.126,0.17-0.165,0.403-0.118,0.7c0.035,0.22,0.116,0.387,0.244,0.503s0.302,0.156,0.521,0.122    c0.193-0.031,0.329-0.11,0.407-0.241c0.078-0.129,0.101-0.299,0.067-0.507L351.766,172.87z; : BBData-858.2333374023438,417.5333251953125,868.6000061035156,431.59999084472656
path : id-XMLID_1413_;fill-#C30050;d-M346.295,172.606l1.275-0.202l0.12,0.453c0.081-0.162,0.189-0.307,0.328-0.432    c0.138-0.126,0.315-0.207,0.535-0.241c0.104-0.017,0.195-0.026,0.272-0.027c0.077-0.002,0.146,0.003,0.207,0.016l0.006,1.154    c-0.131-0.013-0.26-0.008-0.391,0.013c-0.574,0.091-0.811,0.451-0.71,1.083l0.261,1.65l-1.322,0.21L346.295,172.606z; : BBData-850.86669921875,422.7833251953125,857.6667022705078,432.9499816894531
path : id-XMLID_1410_;fill-#C30050;d-M344.929,176.238c-0.139,0.204-0.287,0.354-0.446,0.448    c-0.158,0.095-0.362,0.161-0.613,0.201c-0.12,0.019-0.251,0.022-0.392,0.01s-0.275-0.052-0.403-0.116    c-0.128-0.066-0.239-0.163-0.336-0.295c-0.096-0.134-0.161-0.309-0.195-0.527c-0.035-0.22-0.019-0.421,0.049-0.605    c0.066-0.185,0.172-0.346,0.316-0.483c0.144-0.138,0.318-0.251,0.523-0.343c0.204-0.092,0.424-0.155,0.658-0.192    c0.12-0.02,0.216-0.031,0.287-0.038c0.071-0.006,0.152-0.011,0.242-0.015l-0.011-0.07c-0.015-0.094-0.047-0.168-0.096-0.222    c-0.049-0.053-0.105-0.092-0.171-0.117c-0.064-0.024-0.134-0.036-0.206-0.039c-0.072-0.001-0.144,0.003-0.21,0.014    c-0.235,0.037-0.437,0.1-0.605,0.188c-0.167,0.088-0.299,0.18-0.396,0.275l-0.621-0.68c0.137-0.149,0.337-0.3,0.603-0.449    c0.265-0.147,0.617-0.258,1.055-0.327c0.256-0.04,0.493-0.044,0.712-0.013c0.219,0.033,0.414,0.104,0.587,0.213    s0.315,0.255,0.431,0.438c0.113,0.182,0.192,0.404,0.233,0.664l0.352,2.223l-1.244,0.196L344.929,176.238z M344.732,174.994    c-0.093-0.006-0.214,0.003-0.365,0.026c-0.219,0.035-0.374,0.104-0.464,0.206c-0.091,0.103-0.127,0.214-0.107,0.333    c0.043,0.271,0.21,0.385,0.502,0.338c0.068-0.011,0.134-0.03,0.199-0.06c0.064-0.029,0.12-0.07,0.165-0.123    c0.045-0.052,0.078-0.116,0.102-0.195c0.021-0.078,0.024-0.173,0.007-0.282L344.732,174.994z; : BBData-841.0833129882812,424.3833312988281,850.8833160400391,434.5
path : id-XMLID_1408_;fill-#C30050;d-M334.879,172.835l1.463-0.232l1.227,3.391l0.287-3.502l1.26-0.199l1.363,3.24    l0.111-3.603l1.416-0.224l-0.473,5.423l-1.447,0.229l-1.344-3.172l-0.299,3.433l-1.472,0.232L334.879,172.835z; : BBData-822.816650390625,421.683349609375,840.3999786376953,436.8333435058594
g : id-XMLID_1285_; : BBData-822.816650390625,413.98333740234375,906.6333160400391,436.8333282470703
path : id-XMLID_1448_;fill-#C30050;d-M254.214,223.985l1.275-0.202l0.112,0.398c0.112-0.199,0.258-0.354,0.436-0.462    s0.36-0.178,0.548-0.207c0.172-0.027,0.323-0.03,0.451-0.012c0.129,0.021,0.239,0.05,0.332,0.092s0.167,0.087,0.222,0.134    c0.056,0.048,0.099,0.085,0.13,0.111c0.047-0.072,0.113-0.145,0.198-0.219c0.084-0.075,0.176-0.146,0.275-0.209    c0.1-0.062,0.206-0.118,0.319-0.163c0.114-0.044,0.222-0.075,0.327-0.092c0.475-0.075,0.857-0.001,1.146,0.22    c0.289,0.222,0.469,0.557,0.54,1.005l0.367,2.316l-1.322,0.21l-0.311-1.964c-0.031-0.198-0.096-0.35-0.192-0.451    c-0.096-0.103-0.233-0.14-0.411-0.111c-0.177,0.028-0.312,0.108-0.407,0.24c-0.094,0.133-0.125,0.299-0.093,0.497l0.311,1.964    l-1.244,0.196l-0.311-1.964c-0.031-0.198-0.095-0.349-0.188-0.451c-0.094-0.103-0.232-0.14-0.415-0.11    c-0.167,0.026-0.3,0.106-0.399,0.239s-0.132,0.299-0.101,0.497l0.311,1.964l-1.322,0.21L254.214,223.985z; : BBData-624.7166748046875,547.8333129882812,641.183349609375,559.1499786376953
path : id-XMLID_1445_;fill-#C30050;d-M250.124,226.517c-0.043-0.271-0.035-0.534,0.024-0.789    c0.058-0.256,0.159-0.485,0.303-0.69c0.145-0.205,0.329-0.376,0.552-0.517c0.224-0.139,0.482-0.232,0.773-0.278    c0.292-0.047,0.566-0.037,0.823,0.025c0.256,0.064,0.484,0.171,0.685,0.321c0.2,0.15,0.367,0.337,0.502,0.562    c0.134,0.225,0.223,0.473,0.266,0.743c0.044,0.277,0.036,0.542-0.022,0.794c-0.059,0.252-0.16,0.481-0.304,0.687    c-0.144,0.204-0.329,0.375-0.552,0.516c-0.224,0.14-0.482,0.232-0.774,0.279c-0.292,0.046-0.566,0.037-0.822-0.026    c-0.256-0.064-0.484-0.171-0.685-0.319c-0.2-0.151-0.367-0.338-0.501-0.56C250.257,227.043,250.168,226.794,250.124,226.517z     M252.216,227.012c0.219-0.035,0.382-0.138,0.488-0.31c0.106-0.172,0.141-0.376,0.104-0.61s-0.133-0.416-0.288-0.547    s-0.341-0.18-0.56-0.145c-0.219,0.034-0.381,0.139-0.489,0.311c-0.105,0.172-0.141,0.375-0.104,0.609s0.133,0.417,0.287,0.548    C251.81,226.999,251.997,227.046,252.216,227.012z; : BBData-614.5499877929688,550.566650390625,624.4833221435547,560.4999847412109
path : id-XMLID_1442_;fill-#C30050;d-M245.892,227.188c-0.043-0.271-0.035-0.534,0.024-0.79    c0.058-0.255,0.159-0.484,0.303-0.689c0.145-0.205,0.329-0.376,0.553-0.517c0.223-0.139,0.481-0.232,0.773-0.279    c0.292-0.046,0.566-0.036,0.823,0.026c0.256,0.064,0.484,0.171,0.685,0.321c0.2,0.15,0.367,0.337,0.502,0.562    c0.134,0.226,0.223,0.474,0.266,0.744c0.044,0.277,0.036,0.542-0.022,0.793c-0.059,0.253-0.16,0.482-0.304,0.687    c-0.144,0.205-0.329,0.376-0.552,0.517c-0.224,0.14-0.482,0.232-0.774,0.278c-0.292,0.047-0.566,0.038-0.821-0.025    c-0.256-0.064-0.485-0.171-0.685-0.32c-0.2-0.15-0.367-0.338-0.501-0.56C246.024,227.714,245.936,227.465,245.892,227.188z     M247.983,227.682c0.22-0.034,0.382-0.138,0.488-0.31c0.106-0.172,0.141-0.376,0.104-0.61s-0.133-0.416-0.288-0.547    s-0.34-0.179-0.56-0.145c-0.219,0.035-0.381,0.139-0.488,0.311s-0.141,0.375-0.104,0.609s0.133,0.417,0.287,0.548    S247.765,227.717,247.983,227.682z; : BBData-604.1666870117188,552.25,614.0833435058594,562.1666717529297
path : id-XMLID_1440_;fill-#C30050;d-M242.863,225.783l1.275-0.202l0.12,0.453c0.082-0.162,0.19-0.308,0.329-0.433    c0.137-0.125,0.315-0.206,0.534-0.24c0.105-0.017,0.195-0.026,0.272-0.028c0.078-0.001,0.147,0.004,0.208,0.017l0.006,1.153    c-0.13-0.012-0.261-0.007-0.391,0.014c-0.574,0.091-0.811,0.451-0.71,1.083l0.262,1.65l-1.322,0.21L242.863,225.783z; : BBData-596.8333129882812,553.3499755859375,603.6499786376953,563.5666351318359
path : id-XMLID_1438_;fill-#C30050;d-M238.261,224.932l1.323-0.21l0.297,1.877c0.059-0.099,0.131-0.185,0.215-0.259    c0.084-0.071,0.174-0.13,0.268-0.178c0.094-0.047,0.187-0.083,0.276-0.107c0.089-0.025,0.167-0.043,0.235-0.055    c0.193-0.03,0.377-0.03,0.553-0.002c0.175,0.027,0.335,0.09,0.479,0.188c0.143,0.097,0.265,0.232,0.365,0.406    s0.169,0.389,0.21,0.644l0.366,2.313l-1.322,0.21l-0.312-1.969c-0.031-0.197-0.099-0.346-0.203-0.444s-0.239-0.135-0.406-0.108    c-0.12,0.02-0.216,0.054-0.289,0.102c-0.072,0.05-0.127,0.108-0.164,0.179s-0.059,0.145-0.065,0.224    c-0.007,0.078-0.003,0.156,0.009,0.234l0.312,1.964l-1.323,0.21L238.261,224.932z; : BBData-585.5333251953125,551.88330078125,596.8499908447266,565.2833099365234
path : id-XMLID_1436_;fill-#C30050;d-M235.654,227.967l-0.54,0.086l-0.161-1.017l0.54-0.086l-0.163-1.025l1.322-0.209    l0.163,1.025l0.907-0.145l0.161,1.017l-0.907,0.145l0.206,1.299c0.048,0.302,0.215,0.43,0.502,0.385    c0.083-0.014,0.163-0.044,0.237-0.094c0.076-0.048,0.143-0.103,0.204-0.159l0.645,0.73c-0.146,0.157-0.316,0.288-0.507,0.393    c-0.192,0.106-0.396,0.176-0.609,0.21c-0.298,0.047-0.553,0.045-0.767-0.007c-0.214-0.052-0.393-0.144-0.536-0.272    c-0.144-0.13-0.257-0.295-0.339-0.495c-0.083-0.201-0.143-0.425-0.182-0.669L235.654,227.967z; : BBData-577.433349609375,554.2999877929688,586.8666839599609,566.2999877929688
path : id-XMLID_1433_;fill-#C30050;d-M233.893,230.619c-0.139,0.204-0.288,0.354-0.446,0.448    c-0.159,0.095-0.364,0.161-0.614,0.201c-0.12,0.02-0.251,0.021-0.392,0.01c-0.141-0.013-0.275-0.051-0.403-0.116    s-0.24-0.163-0.336-0.296c-0.095-0.132-0.161-0.307-0.195-0.526c-0.035-0.219-0.019-0.421,0.048-0.604    c0.067-0.185,0.173-0.346,0.317-0.483c0.143-0.139,0.318-0.252,0.522-0.344c0.205-0.091,0.425-0.155,0.659-0.192    c0.12-0.019,0.216-0.031,0.287-0.037c0.071-0.007,0.152-0.011,0.242-0.016l-0.011-0.07c-0.015-0.094-0.047-0.168-0.096-0.221    c-0.049-0.054-0.106-0.094-0.171-0.117c-0.065-0.024-0.134-0.037-0.207-0.04c-0.072-0.001-0.143,0.003-0.21,0.014    c-0.235,0.037-0.436,0.101-0.604,0.188c-0.167,0.088-0.3,0.18-0.397,0.275l-0.621-0.68c0.137-0.15,0.337-0.299,0.603-0.448    c0.265-0.148,0.617-0.258,1.055-0.327c0.256-0.041,0.493-0.044,0.712-0.013c0.219,0.032,0.415,0.104,0.587,0.212    c0.172,0.11,0.315,0.255,0.43,0.438c0.114,0.182,0.192,0.404,0.234,0.664l0.352,2.223l-1.244,0.197L233.893,230.619z     M233.696,229.375c-0.092-0.006-0.214,0.003-0.365,0.027c-0.219,0.034-0.374,0.103-0.465,0.205    c-0.09,0.103-0.126,0.213-0.107,0.334c0.043,0.27,0.21,0.384,0.502,0.338c0.068-0.012,0.134-0.031,0.2-0.061    c0.064-0.028,0.12-0.069,0.165-0.123c0.045-0.052,0.079-0.116,0.102-0.195c0.022-0.079,0.025-0.173,0.007-0.282L233.696,229.375z; : BBData-568.3499755859375,557.933349609375,578.1833038330078,568.0666809082031
path : id-XMLID_1429_;fill-#C30050;d-M226.322,226.822l2.121-0.336c0.365-0.058,0.674-0.064,0.927-0.022    c0.252,0.043,0.459,0.117,0.62,0.222c0.162,0.105,0.282,0.235,0.363,0.392c0.081,0.155,0.134,0.313,0.159,0.475    c0.023,0.15,0.021,0.29-0.01,0.418c-0.031,0.127-0.077,0.243-0.138,0.347c-0.061,0.104-0.131,0.192-0.209,0.27    c-0.079,0.076-0.155,0.135-0.229,0.172c0.104,0.016,0.221,0.045,0.351,0.089c0.13,0.045,0.255,0.11,0.376,0.198    c0.121,0.088,0.229,0.198,0.325,0.333c0.096,0.136,0.16,0.299,0.19,0.493c0.083,0.521-0.038,0.93-0.363,1.225    c-0.325,0.296-0.836,0.499-1.536,0.609l-2.12,0.336L226.322,226.822z M228.61,228.61c0.162-0.026,0.3-0.09,0.415-0.191    c0.115-0.101,0.157-0.251,0.125-0.448c-0.018-0.11-0.05-0.2-0.099-0.27c-0.049-0.069-0.106-0.12-0.173-0.154    c-0.066-0.031-0.139-0.051-0.218-0.057c-0.078-0.006-0.154-0.003-0.227,0.009l-0.602,0.095l0.176,1.111L228.61,228.61z     M229.05,230.729c0.078-0.012,0.163-0.031,0.254-0.06c0.092-0.028,0.174-0.069,0.246-0.123c0.071-0.055,0.127-0.128,0.166-0.219    c0.039-0.093,0.047-0.208,0.025-0.35c-0.021-0.13-0.063-0.232-0.128-0.304c-0.064-0.073-0.14-0.124-0.225-0.153    s-0.175-0.044-0.271-0.045s-0.184,0.005-0.262,0.017l-0.704,0.111l0.196,1.236L229.05,230.729z; : BBData-556.2333374023438,556.0499877929688,568.3999938964844,569.8999786376953
g : id-XMLID_1286_; : BBData-556.2333374023438,547.8333129882812,641.1833343505859,569.8999786376953
g : id-XMLID_247_; : BBData-348.66668701171875,0.600006103515625,1064.5833129882812,724.1333312988281
svg : version-1.1;id-Layer_1;x-0px;y-0px;viewBox-0 0 575 295;enable-background-new 0 0 575 295; : BBData-0,0,1413,724.5
