kitchen : [108.892022562,210.58696435] : [82.3892022562,205.977673749,135.682917002,215.196254951] : [55] : match
wc : [525.447219984,205.977673749] : [515.364625302,197.911415196,535.529814666,214.332012964] : [62] : match
bed 3 : [469.2727639,224.990997479] : [451.988315874,220.381706878,486.557211926,229.600288081] : [90] : match
bath : [562.896857373,225.279078142] : [547.052780016,220.669787541,579.029008864,229.888368743] : [88] : match
bed 4 : [645.574133763,224.126755492] : [628.289685737,219.805545553,662.858581789,228.736046093] : [86] : match
meals : [139.139806608,288.080662586] : [116.38195004,282.319049334,161.897663175,293.842275837] : [74] : match
wic : [522.566478646,377.961829312] : [510.755439162,369.031328772,534.377518131,387.180410515] : [51] : match
wc : [235.932715552,484.839755131] : [224.409750201,475.621173929,247.743755036,494.058336334] : [66] : match
ens : [305.934730056,487.432481095] : [292.683319903,481.958948506,319.18614021,492.906013684] : [78] : match
ens : [660.265914585,488.296723082] : [647.014504432,483.687432481,673.517324738,493.194094346] : [78] : match
family : [483.100322321,498.955707598] : [460.918614021,494.346416997,505.28203062,503.564998199] : [94] : match
retreat : [483.100322321,515.376305366] : [455.733279613,511.055095427,510.755439162,519.985595967] : [83] : match
entry : [203.668412571,526.899531869] : [183.791297341,519.409434642,223.833601934,534.677709759] : [66] : match
porch : [193.009669621,604.681310767] : [171.692183723,600.072020166,214.32715552,609.578682031] : [87] : match
cl : [430.382755842,445.372704357] : [426.637792103,442.779978394,434.415793715,447.96543032] : [68] : match
3500x3250 : [468.696615633,237.666546633] : [441.905721193,233.633417357,495.487510073,241.699675909] : [89] : none
3500x3250 : [644.997985496,236.802304645] : [618.207091056,233.057256032,671.788879936,240.835433921] : [89] : none
, , : [100.537872683,360.388908894] : [91.6075745367,360.388908894,109.756244964,360.676989557] : [65] : none
. . : [131.073730862,386.60424919] : [126.464544722,386.316168527,135.682917002,386.892329852] : [74] : none
. . : [191.857373086,386.60424919] : [187.248186946,386.316168527,196.466559226,386.892329852] : [74] : none
. . : [210.582191781,386.60424919] : [204.532634972,386.316168527,216.919822724,386.892329852] : [74] : none
3960x5400 : [619.071313457,374.504861361] : [592.568493151,370.471732085,645.574133763,378.537990637] : [65] : none
I I : [79.7965350524,404.753330933] : [71.1543110395,398.991717681,88.4387590653,410.514944184] : [72] : none
I I : [274.246575342,499.531868923] : [265.316277196,499.243788261,283.176873489,500.108030248] : [66] : none
I I : [295.852135375,499.531868923] : [291.531023368,499.243788261,300.461321515,500.108030248] : [66] : none
I I : [322.066881547,499.531868923] : [317.745769541,499.243788261,326.676067687,500.108030248] : [66] : none
6430x4350 : [482.524174053,531.220741808] : [456.021353747,527.187612532,509.315068493,535.253871084] : [88] : none
_. : [184.079371475,562.045372704] : [179.758259468,559.740727404,188.400483481,564.350018005] : [90] : none
._ : [214.039081386,561.757292042] : [209.71796938,559.164566079,218.360193392,564.350018005] : [83] : none
wipi : [192.433521354,211.163125675] : [178.605962933,203.961109111,206.261079774,218.36514224] : [60] : none
eggxjfog : [277.703464948,235.07382067] : [251.200644641,224.414836154,304.206285254,246.020885848] : [48] : none
ix : [131.64987913,295.28267915] : [100.24979855,282.319049334,163.338033844,308.534389629] : [84] : none
ewir : [446.802981467,284.623694634] : [434.127719581,279.438242708,459.766317486,290.097227224] : [81] : none
iwmi : [661.706285254,284.623694634] : [644.421837228,279.438242708,679.278807413,289.809146561] : [54] : none
lj : [582.773972603,298.739647101] : [574.995970991,297.011163126,590.840048348,300.756211739] : [52] : none
familyx : [278.279613215,347.137198416] : [254.081385979,336.4782139,302.477840451,357.796182931] : [82] : none
bedmm : [472.153505238,363.557796183] : [448.819500403,353.18689233,495.775584206,374.216780699] : [74] : none
kidsactivity : [619.647461724,361.541231545] : [576.724415794,356.931940943,662.858581789,366.438602809] : [86] : none
lidry : [92.1837228042,380.266474613] : [74.3231265109,373.928700036,110.044319098,386.892329852] : [57] : none
db : [158.44077357,402.736766295] : [148.646253022,394.670507742,168.235294118,410.803024847] : [63] : none
garageoooxio : [95.0644641418,505.293482175] : [69.1377921031,494.634497659,121.279210314,515.952466691] : [88] : none
guestix : [282.888799355,570.399711919] : [259.554794521,559.452646741,306.510878324,581.346777098] : [88] : none
masterix : [623.968573731,567.806985956] : [598.329975826,557.14800144,649.607171636,578.465970472] : [72] : none
A : [447.0910556,251.494418437] : [443.058017728,249.189773136,451.124093473,254.0871444] : [61] : none
=' : [492.894842869,340.223262514] : [476.474617244,336.4782139,509.315068493,344.25639179] : [75] : none
D' ' : [543.019742143,337.054375225] : [528.039887188,336.4782139,558.287671233,337.63053655] : [69] : none
__I : [510.179290894,577.025567159] : [505.28203062,575.009002521,515.364625302,579.042131797] : [74] : none
