linen : [305.355329949,218.597733711] : [294.408629442,214.277620397,316.302030457,223.20585458] : [46] : match
es : [309.388324873,355.689329556] : [305.067258883,353.097261568,313.997461929,358.281397545] : [70] : match
/ : [304.779187817,438.059490085] : [285.766497462,433.451369216,323.791878173,442.955618508] : [56] : match
cl : [393.217005076,154.084041549] : [388.895939086,150.051935788,397.826142132,158.116147309] : [65] : match
ac : [132.224619289,252.582625118] : [115.516497462,246.246458924,149.220812183,258.918791313] : [69] : match
ac : [396.673857868,359.433427762] : [387.16751269,357.417374882,406.180203046,361.449480642] : [44] : match
es : [145.475888325,367.785646837] : [130.496192893,363.177525968,160.455583756,372.68177526] : [76] : match
- 544%: : [247.453045685,305.864022663] : [227.864213198,294.343720491,267.329949239,317.672332389] : [73] : none
i 64/11 : [227.864213198,413.290840415] : [209.427664975,404.074598678,246.588832487,422.507082153] : [61] : none
i . : [127.039340102,421.355051936] : [119.837563452,420.491029273,134.241116751,422.507082153] : [61] : none
J : [367.866751269,414.154863078] : [362.681472081,410.410764873,373.340101523,418.186968839] : [64] : none
rwe : [260.416243655,46.657223796] : [249.469543147,42.0491029273,271.651015228,51.2653446648] : [48] : none
ferbedroom : [202.513959391,80.3541076487] : [174.859137056,75.74598678,230.456852792,84.9622285175] : [59] : none
fer : [326.384517766,89.8583569405] : [319.758883249,85.8262511804,333.010152284,94.178470255] : [60] : none
hemtinfi : [305.355329949,165.892351275] : [285.766497462,159.268177526,325.232233503,172.804532578] : [42] : none
room : [340.211928934,165.60434372] : [329.841370558,163.300283286,350.870558376,167.908404155] : [71] : none
drefymjroom : [135.969543147,225.509915014] : [122.430203046,216.581680831,149.796954315,234.438149197] : [52] : none
chi : [324.079949239,248.550519358] : [309.100253807,243.942398489,339.05964467,253.158640227] : [70] : none
/eoiraue : [127.615482234,305.576015109] : [112.347715736,300.96789424,142.883248731,310.184135977] : [61] : none
room : [157.574873096,308.168083097] : [147.204314721,305.864022663,167.945431472,310.472143532] : [71] : none
cafe : [343.668781726,351.081208687] : [331.85786802,344.457034939,355.767766497,357.993389991] : [41] : none
walkc/ajef : [136.833756345,482.412653447] : [121.277918782,472.620396601,152.389593909,492.204910293] : [60] : none
in : [152.101522843,478.092540132] : [147.780456853,474.636449481,156.710659898,481.548630784] : [58] : none
" : [173.706852792,150.051935788] : [170.826142132,149.47592068,176.875634518,150.915958451] : [85] : none
N : [161.895939086,223.781869688] : [158.72715736,221.1898017,165.352791878,226.373937677] : [66] : none
___ : [274.819796954,219.749763928] : [263.008883249,219.461756374,286.63071066,220.325779037] : [64] : none
______ : [274.531725888,231.846081209] : [263.008883249,231.558073654,286.342639594,232.422096317] : [85] : none
E : [491.161167513,249.414542021] : [470.996192893,247.110481586,511.614213198,252.006610009] : [64] : none
__ : [295.27284264,266.694995279] : [291.815989848,266.11898017,299.017766497,267.271010387] : [75] : none
\ ____ : [337.907360406,263.814919736] : [323.215736041,259.782813975,352.598984772,268.13503305] : [69] : none
w : [177.45177665,329.768649669] : [174.282994924,327.464589235,180.620558376,332.072710104] : [71] : none
___. : [558.281725888,330.920679887] : [549.351522843,330.344664778,567.5,331.496694995] : [91] : none
nafi : [397.25,351.081208687] : [387.743654822,345.321057602,406.756345178,357.129367328] : [47] : none
No Text Detected
