bedroom : [352.8,55.584] : [313.056,47.808,392.544,63.648] : [82] : match
bathroom : [488.736,55.584] : [444.672,47.808,533.088,63.648] : [84] : match
kitchen : [347.04,208.224] : [316.512,201.6,377.568,215.136] : [86] : match
utility : [504.576,212.832] : [478.368,204.48,531.072,221.472] : [80] : match
diningroom : [217.728,241.344] : [165.024,235.296,270.432,247.68] : [85] : match
bedroom : [566.496,454.176] : [531.936,447.552,601.056,460.8] : [87] : match
livingroom : [330.336,473.472] : [280.224,467.424,380.448,479.52] : [85] : match
patio : [538.272,581.184] : [518.976,575.136,557.856,587.232] : [88] : match
balcony : [596.16,582.048] : [565.632,573.696,626.688,590.4] : [85] : match
0 O : [341.28,152.64] : [327.744,147.168,355.104,158.112] : [85] : none
O O : [342.432,167.328] : [328.896,161.856,355.968,173.088] : [85] : none
:r : [591.84,303.264] : [585.216,298.368,598.464,308.16] : [65] : none
augusta : [401.184,26.496] : [337.536,10.656,464.832,42.336] : [75] : none
one : [288.288,56.16] : [269.856,49.248,306.72,63.36] : [85] : none
one : [419.904,56.16] : [401.76,49.248,438.336,63.36] : [91] : none
sq : [386.208,77.76] : [355.104,68.832,417.6,86.976] : [87] : none
ft : [436.032,76.032] : [425.088,69.12,446.976,82.944] : [84] : none
id : [476.352,158.112] : [462.816,145.44,490.176,171.072] : [81] : none
iw : [524.736,158.4] : [510.336,145.44,539.136,171.36] : [79] : none
atm : [306.432,248.256] : [295.2,243.648,317.664,252.864] : [42] : none
112g : [327.168,590.688] : [315.072,584.928,339.552,596.736] : [63] : none
I:I : [398.592,652.32] : [385.92,647.136,411.552,657.792] : [85] : none
No Text Detected
