kitchen : [46.657223796,44.0899898888] : [29.0887629839,41.2082912032,64.5136921624,47.2598584429] : [86] : match
bath : [232.710103872,41.2082912032] : [222.053824363,38.3265925177,243.654390935,44.3781597573] : [76] : match
entry : [147.747875354,50.429726997] : [134.211520302,47.5480283114,161.284230406,53.3114256825] : [81] : match
wc : [54.7214353163,71.1779575329] : [48.9612842304,65.9908998989,60.7695939566,76.6531850354] : [59] : match
dining : [106.274787535,120.166835187] : [92.4504249292,117.285136502,120.099150142,123.336703741] : [83] : match
bedroom 2 : [171.076487252,161.37512639] : [147.171860246,158.493427705,195.269121813,164.256825076] : [83] : match
bedroom 1 : [256.326723324,161.086956522] : [232.710103872,158.205257836,279.943342776,164.256825076] : [84] : match
living : [55.0094428706,200.854398382] : [41.761095373,197.972699697,68.2577903683,203.736097068] : [79] : match
deck : [56.1614730878,265.11627907] : [44.9291784703,262.234580384,67.6817752597,268.286147624] : [86] : match
"a : [29.9527856468,82.1284125379] : [26.4966949953,81.2639029323,33.4088762984,82.9929221436] : [69] : none
- L : [244.230406043,89.0444893832] : [237.894239849,86.4509605662,250.566572238,91.9261880688] : [87] : none
rilaundrv : [259.782813975,76.6531850354] : [248.550519358,70.6016177958,271.015108593,82.9929221436] : [72] : none
0:- : [268.999055713,52.7350859454] : [262.08687441,50.429726997,276.19924457,55.3286147624] : [87] : none
No Text Detected
