25
2
0
2
ellipse
60
211
67
184
76.5310394546
0.0
0.0
0.0
0.0
0.0
0.0
0.0
0.0
0.0
0.0
0.0
0.0
0.0
0.0
0.0
0.0
0.0
0.059379217274
0.14979757085
0.179487179487
0.117408906883
0.110661268556
0.124156545209
0.130904183536
0.12685560054
0.0188333744004
0.0512820512821
0.0458839406208
0.0445344129555
0.0377867746289
0.0364372469636
0.0404858299595
0.0391363022942
0.0391363022942
0.0418353576248
0.0377867746289
0.0377867746289
0.0418353576248
0.0202429149798
0.0202429149798
0.0188933873144
0.0175438596491
0.0215924426451
0.0188933873144
0.0188933873144
0.0188933873144
0.0175438596491
0.0202429149798
0.0202429149798
0.0242914979757
0.0229419703104
3
unknown
229
381
67
184
77.3175271203
0.0
0.0
0.0
0.0
0.0
0.0
0.0
0.0
0.0
0.0
0.0
0.0
0.0
0.0
0.0
0.0
0.0
0.0879566982409
0.155615696888
0.173207036536
0.112313937754
0.120433017591
0.125845737483
0.143437077131
0.0798376184032
0.0186835568123
0.0514208389716
0.0460081190798
0.0473612990528
0.0378890392422
0.0351826792963
0.0392422192152
0.0405953991881
0.0392422192152
0.0405953991881
0.0392422192152
0.0378890392422
0.0405953991881
0.020297699594
0.020297699594
0.0189445196211
0.0175913396482
0.021650879567
0.0175913396482
0.0189445196211
0.020297699594
0.0162381596752
0.0189445196211
0.0230040595399
0.0230040595399
0.0230040595399
0
