________'l : [3413,386] : [2546,357,4280,416] : 79
L_ : [2810,682] : [2752,659,2868,705] : 94
Livingarea : [2705,1785] : [2420,1725,2991,1846] : 80
o : [3522,1787] : [3489,1754,3556,1820] : 89
Sforage : [635,2162] : [426,2102,845,2223] : 64
area : [635,2279] : [521,2246,750,2313] : 77
O : [3316,3957] : [3191,3866,3442,4049] : 78
Sforage : [632,4452] : [423,4392,842,4513] : 64
area : [632,4569] : [518,4536,747,4603] : 78
Bedroom : [2833,5027] : [2610,4981,3056,5074] : 68
L___________ : [1021,5870] : [154,5841,1888,5900] : 93
___________J : [3413,5870] : [2546,5841,4280,5900] : 87
No Text Detected
