19'2"x 20'3" : [931,705] :[802,674,1059,740] :100
14'6"x 13'4" : [385,1767] :[257,1736,517,1802] :100
bedroom10'7"x 13'0" : [2760,681] :[2625,615,2899,747] :100
11'7"x 11'4" : [2264,1285] :[2135,1253,2392,1319] :100
10'1"x 10'4" : [3139,1306] :[3010,1274,3267,1340] :100
www : [1278,2083] :[1208,2045,1347,2122] :100
