<?xml version="1.0" encoding="utf-8"?>
<!-- Generator: Adobe Illustrator 19.1.0, SVG Export Plug-In . SVG Version: 6.00 Build 0)  -->
<svg version="1.0" id="westaway_x5F_floorplan_x5F_morris_x5F_ground"
	 xmlns="http://www.w3.org/2000/svg" xmlns:xlink="http://www.w3.org/1999/xlink" x="0px" y="0px" width="924.632px"
	 height="696.043px" viewBox="0 0 924.632 696.043" style="enable-background:new 0 0 924.632 696.043;" xml:space="preserve">
<style type="text/css">
	.st0{fill:#1D1D1B;}
</style>
<g>
	<polygon class="st0" points="508.465,558.852 505.664,549.729 504.415,549.729 501.63,558.852 498.829,549.729 497.5,549.729 
		500.942,560.484 502.254,560.484 505.04,551.36 507.841,560.484 509.153,560.484 512.595,549.729 511.25,549.729 	"/>
	<path class="st0" d="M518.703,550.624c0.993,0,2.001,0.353,2.897,0.993l0.56-0.896c-1.136-0.784-2.401-1.185-3.633-1.185
		c-3.137,0-5.298,2.289-5.298,5.57c0,3.281,2.161,5.57,5.298,5.57c1.232,0,2.497-0.4,3.633-1.185l-0.56-0.896
		c-0.896,0.641-1.905,0.992-2.897,0.992c-2.449,0-4.113-1.824-4.113-4.482S516.254,550.624,518.703,550.624z"/>
	<circle class="st0" cx="545.522" cy="553.797" r="2.059"/>
	<path class="st0" d="M663.81,372.129h18.584c1.482,0,2.688-1.204,2.688-2.685v-9.741c0-1.479-1.206-2.681-2.688-2.681H663.81
		c-1.476,0-2.676,1.202-2.676,2.681v9.741C661.134,370.925,662.334,372.129,663.81,372.129z M661.634,359.703
		c0-1.202,0.976-2.181,2.176-2.181h18.584c1.206,0,2.188,0.978,2.188,2.181v9.741c0,1.204-0.982,2.185-2.188,2.185H663.81
		c-1.2,0-2.176-0.98-2.176-2.185V359.703z"/>
	<path class="st0" d="M665.274,355.082h15.658c1.481,0,2.686-1.204,2.686-2.684v-2.434c0-1.481-1.205-2.688-2.686-2.688h-15.658
		c-1.483,0-2.689,1.206-2.689,2.688v2.434C662.585,353.878,663.791,355.082,665.274,355.082z M663.085,349.965
		c0-1.206,0.982-2.188,2.189-2.188h15.658c1.205,0,2.186,0.982,2.186,2.188v2.434c0,1.204-0.981,2.184-2.186,2.184h-15.658
		c-1.207,0-2.189-0.98-2.189-2.184V349.965z"/>
	<path class="st0" d="M662.593,374.561h21.018c2.153,0,3.904-1.749,3.904-3.899v-52.133c0-2.154-1.752-3.907-3.904-3.907h-21.018
		c-2.148,0-3.897,1.753-3.897,3.907v52.133C658.696,372.812,660.444,374.561,662.593,374.561z M659.196,318.529
		c0-1.879,1.523-3.407,3.397-3.407h21.018c1.877,0,3.404,1.528,3.404,3.407v52.133c0,1.874-1.527,3.399-3.404,3.399h-21.018
		c-1.873,0-3.397-1.525-3.397-3.399V318.529z"/>
	<path class="st0" d="M417.455,100.741h-18.584c-1.482,0-2.688,1.204-2.688,2.685v9.741c0,1.478,1.206,2.681,2.688,2.681h18.584
		c1.476,0,2.676-1.203,2.676-2.681v-9.741C420.13,101.945,418.93,100.741,417.455,100.741z M419.63,113.167
		c0,1.203-0.976,2.181-2.176,2.181h-18.584c-1.206,0-2.188-0.978-2.188-2.181v-9.741c0-1.204,0.982-2.185,2.188-2.185h18.584
		c1.2,0,2.176,0.98,2.176,2.185V113.167z"/>
	<path class="st0" d="M415.99,117.788h-15.658c-1.481,0-2.686,1.204-2.686,2.683v2.434c0,1.482,1.205,2.688,2.686,2.688h15.658
		c1.483,0,2.689-1.205,2.689-2.688v-2.434C418.679,118.992,417.473,117.788,415.99,117.788z M418.179,122.905
		c0,1.206-0.982,2.188-2.189,2.188h-15.658c-1.205,0-2.186-0.981-2.186-2.188v-2.434c0-1.204,0.98-2.183,2.186-2.183h15.658
		c1.207,0,2.189,0.979,2.189,2.183V122.905z"/>
	<path class="st0" d="M418.671,98.309h-21.018c-2.153,0-3.904,1.749-3.904,3.899v52.133c0,2.154,1.751,3.907,3.904,3.907h21.018
		c2.148,0,3.896-1.753,3.896-3.907v-52.133C422.568,100.058,420.82,98.309,418.671,98.309z M422.068,154.341
		c0,1.879-1.523,3.407-3.396,3.407h-21.018c-1.877,0-3.404-1.528-3.404-3.407v-52.133c0-1.875,1.527-3.399,3.404-3.399h21.018
		c1.873,0,3.396,1.525,3.396,3.399V154.341z"/>
	<path class="st0" d="M609.408,433.565h-25.241v25.368h25.241V433.565z M608.908,458.434h-24.241v-24.368h24.241V458.434z"/>
	<path class="st0" d="M602.783,456.282c2.539,0,4.604-2.066,4.604-4.605c0-2.538-2.065-4.604-4.604-4.604
		c-2.539,0-4.605,2.065-4.605,4.604C598.178,454.216,600.244,456.282,602.783,456.282z M602.783,447.573
		c2.263,0,4.104,1.841,4.104,4.104c0,2.264-1.841,4.105-4.104,4.105c-2.264,0-4.105-1.842-4.105-4.105
		C598.678,449.414,600.52,447.573,602.783,447.573z"/>
	<path class="st0" d="M591.008,445.807c2.957,0,5.362-2.405,5.362-5.362c0-2.956-2.405-5.361-5.362-5.361
		c-2.957,0-5.362,2.405-5.362,5.361C585.645,443.401,588.051,445.807,591.008,445.807z M591.008,435.583
		c2.681,0,4.862,2.181,4.862,4.861c0,2.681-2.181,4.862-4.862,4.862c-2.681,0-4.862-2.182-4.862-4.862
		C586.145,437.764,588.327,435.583,591.008,435.583z"/>
	<path class="st0" d="M602.873,443.786c2.399,0,4.352-1.952,4.352-4.352c0-2.399-1.952-4.352-4.352-4.352
		c-2.4,0-4.352,1.952-4.352,4.352C598.521,441.834,600.473,443.786,602.873,443.786z M602.873,435.583
		c2.123,0,3.852,1.728,3.852,3.852c0,2.124-1.728,3.852-3.852,3.852c-2.124,0-3.852-1.728-3.852-3.852
		C599.021,437.31,600.749,435.583,602.873,435.583z"/>
	<path class="st0" d="M590.998,447.579c-2.4,0-4.352,1.952-4.352,4.351c0,2.399,1.952,4.352,4.352,4.352
		c2.399,0,4.352-1.952,4.352-4.352C595.349,449.531,593.397,447.579,590.998,447.579z M590.998,455.782
		c-2.124,0-3.852-1.728-3.852-3.852c0-2.124,1.728-3.851,3.852-3.851c2.123,0,3.852,1.727,3.852,3.851
		C594.849,454.055,593.121,455.782,590.998,455.782z"/>
	<polygon class="st0" points="544.703,346.996 546.862,344.837 554.339,353.15 557.012,353.15 548.374,343.487 556.634,335.012 
		553.988,335.012 544.703,344.594 544.703,335.012 542.543,335.012 542.543,353.15 544.703,353.15 	"/>
	<rect x="559.203" y="340.032" class="st0" width="2.132" height="13.118"/>
	<path class="st0" d="M560.282,334.606c-0.864,0-1.458,0.594-1.458,1.431c0,0.837,0.594,1.431,1.458,1.431
		c0.837,0,1.431-0.594,1.431-1.431C561.713,335.2,561.119,334.606,560.282,334.606z"/>
	<path class="st0" d="M570.622,351.72c-1.35,0-2.268-0.918-2.268-2.268v-7.72h4.13v-1.7h-4.13v-3.888h-2.132v3.888h-2.727v1.7h2.727
		v7.909c0,2.268,1.592,3.833,3.941,3.833c0.836,0,1.701-0.108,2.618-0.352l-0.297-1.673
		C571.81,351.611,571.188,351.72,570.622,351.72z"/>
	<path class="st0" d="M581.017,341.489c1.215,0,2.349,0.405,3.482,1.188l0.891-1.484c-1.485-0.999-3.05-1.484-4.643-1.484
		c-3.86,0-6.613,2.861-6.613,6.883c0,4.049,2.753,6.884,6.613,6.884c1.593,0,3.158-0.486,4.643-1.485l-0.891-1.484
		c-1.133,0.783-2.267,1.215-3.482,1.215c-2.753,0-4.67-2.105-4.67-5.129C576.347,343.568,578.263,341.489,581.017,341.489z"/>
	<path class="st0" d="M589.549,342.326v-8.179h-2.132v19.003h2.132v-7.396c0-2.51,1.701-4.237,3.968-4.237
		c2.024,0,3.455,1.403,3.455,3.401v8.233h2.159v-8.557c0-2.889-2.078-4.886-4.994-4.886
		C592.14,339.708,590.44,340.68,589.549,342.326z"/>
	<path class="st0" d="M608.097,353.475c1.458,0,3.131-0.405,4.858-1.269l-0.675-1.485c-1.403,0.756-2.78,1.107-3.968,1.107
		c-2.753,0-4.697-1.917-4.886-4.697h10.149c0.027-0.27,0.027-0.513,0.027-0.782c0-3.914-2.429-6.641-5.938-6.641
		c-3.752,0-6.398,2.834-6.398,6.883S604.102,353.475,608.097,353.475z M607.665,341.354c2.213,0,3.779,1.809,3.86,4.399h-8.098
		C603.643,343.109,605.317,341.354,607.665,341.354z"/>
	<path class="st0" d="M618.168,345.754c0-2.51,1.701-4.237,3.968-4.237c2.024,0,3.455,1.403,3.455,3.401v8.233h2.159v-8.557
		c0-2.889-2.078-4.886-4.994-4.886c-2.078,0-3.833,0.999-4.724,2.727l-0.27-2.402h-1.727v13.118h2.132V345.754z"/>
	<path class="st0" d="M447.702,122.011v-6.643h-1.329v6.594c0,1.938-1.408,3.282-3.345,3.282c-1.921,0-3.345-1.345-3.345-3.282
		v-6.594h-1.312v6.643c0,2.545,1.969,4.306,4.658,4.306C445.717,126.316,447.702,124.556,447.702,122.011z"/>
	<path class="st0" d="M450.883,124.043c0,1.345,0.944,2.273,2.337,2.273c0.497,0,1.008-0.064,1.553-0.208l-0.176-0.993
		c-0.4,0.097-0.768,0.16-1.104,0.16c-0.8,0-1.345-0.544-1.345-1.345v-4.577h2.449v-1.009h-2.449v-2.305h-1.265v2.305h-1.617v1.009
		h1.617V124.043z"/>
	<rect x="456.53" y="118.345" class="st0" width="1.264" height="7.779"/>
	<path class="st0" d="M457.17,116.824c0.496,0,0.848-0.353,0.848-0.849c0-0.496-0.352-0.848-0.848-0.848
		c-0.512,0-0.864,0.352-0.864,0.848C456.306,116.472,456.658,116.824,457.17,116.824z"/>
	<path class="st0" d="M461.938,126.316c0.352,0,0.769-0.048,1.201-0.145l-0.16-1.008c-0.272,0.063-0.544,0.111-0.768,0.111
		c-0.577,0-0.945-0.368-0.945-0.944v-9.476h-1.264v9.588C460.002,125.596,460.738,126.316,461.938,126.316z"/>
	<rect x="463.842" y="118.345" class="st0" width="1.264" height="7.779"/>
	<path class="st0" d="M464.482,116.824c0.496,0,0.848-0.353,0.848-0.849c0-0.496-0.352-0.848-0.848-0.848
		c-0.512,0-0.864,0.352-0.864,0.848C463.618,116.472,463.97,116.824,464.482,116.824z"/>
	<path class="st0" d="M468.322,124.043c0,1.345,0.944,2.273,2.337,2.273c0.496,0,1.009-0.064,1.553-0.208l-0.176-0.993
		c-0.4,0.097-0.768,0.16-1.104,0.16c-0.801,0-1.345-0.544-1.345-1.345v-4.577h2.449v-1.009h-2.449v-2.305h-1.265v2.305h-1.617v1.009
		h1.617V124.043z"/>
	<path class="st0" d="M476.29,127.068c-0.416,1.089-0.88,1.537-1.665,1.537c-0.208,0-0.496-0.049-0.784-0.129l-0.176,1.024
		c0.384,0.097,0.785,0.145,1.088,0.145c1.249,0,2.049-0.736,2.69-2.353l3.617-8.948h-1.344l-2.417,6.307l-2.497-6.307h-1.329
		l3.217,7.715L476.29,127.068z"/>
	<path class="st0" d="M407.355,244.626c0-1.088,1.024-1.809,2.561-1.809c0.913,0,1.937,0.224,3.025,0.672l0.32-1.024
		c-1.217-0.48-2.369-0.72-3.441-0.72c-2.225,0-3.762,1.185-3.762,2.881c0,3.97,6.274,2.369,6.274,5.314
		c0,1.12-1.024,1.873-2.609,1.873c-0.977,0-2.193-0.32-3.41-0.801l-0.32,1.024c1.376,0.56,2.689,0.849,3.826,0.849
		c2.273,0,3.825-1.201,3.825-2.945C413.646,245.875,407.355,247.507,407.355,244.626z"/>
	<path class="st0" d="M418.46,251.845c-0.8,0-1.345-0.544-1.345-1.345v-4.577h2.449v-1.009h-2.449v-2.305h-1.265v2.305h-1.617v1.009
		h1.617v4.689c0,1.345,0.944,2.273,2.337,2.273c0.497,0,1.008-0.064,1.553-0.208l-0.176-0.993
		C419.165,251.781,418.796,251.845,418.46,251.845z"/>
	<path class="st0" d="M424.428,244.722c-2.321,0-3.97,1.681-3.97,4.082c0,2.401,1.649,4.082,3.97,4.082
		c2.305,0,3.954-1.681,3.954-4.082C428.381,246.402,426.733,244.722,424.428,244.722z M424.428,251.861
		c-1.568,0-2.657-1.249-2.657-3.058c0-1.793,1.089-3.058,2.657-3.058c1.553,0,2.657,1.265,2.657,3.058
		C427.085,250.612,425.98,251.861,424.428,251.861z"/>
	<path class="st0" d="M430.811,246.387l-0.16-1.473h-1.024v7.779h1.264v-4.21c0-1.568,0.913-2.641,2.241-2.641
		c0.304,0,0.624,0.048,0.928,0.112l0.144-1.041c-0.336-0.08-0.688-0.128-0.976-0.128
		C432.108,244.786,431.195,245.395,430.811,246.387z"/>
	<path class="st0" d="M438.62,244.722c-2.225,0-3.794,1.681-3.794,4.082c0,2.401,1.681,4.082,4.05,4.082
		c0.864,0,1.857-0.24,2.881-0.753l-0.4-0.88c-0.833,0.448-1.648,0.656-2.353,0.656c-1.632,0-2.785-1.137-2.897-2.785h6.018
		c0.016-0.16,0.016-0.305,0.016-0.464C442.141,246.339,440.701,244.722,438.62,244.722z M436.107,248.308
		c0.128-1.568,1.121-2.609,2.513-2.609c1.312,0,2.241,1.072,2.289,2.609H436.107z"/>
	<path class="st0" d="M572.184,121.854c0-5.399-3.725-9.069-9.231-9.069h-6.128v18.139h6.128
		C568.458,130.923,572.184,127.198,572.184,121.854z M559.038,129.168v-14.63h3.698c4.238,0,7.18,3.023,7.18,7.315
		s-2.942,7.314-7.18,7.314H559.038z"/>
	<path class="st0" d="M575.805,115.24c0.837,0,1.431-0.594,1.431-1.431c0-0.837-0.594-1.431-1.431-1.431
		c-0.864,0-1.457,0.594-1.457,1.431C574.348,114.646,574.941,115.24,575.805,115.24z"/>
	<rect x="574.726" y="117.805" class="st0" width="2.132" height="13.118"/>
	<path class="st0" d="M582.041,123.526c0-2.51,1.701-4.237,3.968-4.237c2.024,0,3.455,1.403,3.455,3.401v8.232h2.159v-8.557
		c0-2.889-2.078-4.886-4.994-4.886c-2.078,0-3.833,0.999-4.724,2.727l-0.27-2.402h-1.728v13.118h2.132V123.526z"/>
	<path class="st0" d="M595.649,115.24c0.837,0,1.431-0.594,1.431-1.431c0-0.837-0.594-1.431-1.431-1.431
		c-0.864,0-1.458,0.594-1.458,1.431C594.192,114.646,594.786,115.24,595.649,115.24z"/>
	<rect x="594.57" y="117.805" class="st0" width="2.132" height="13.118"/>
	<path class="st0" d="M602.291,123.526c0-2.51,1.701-4.237,3.968-4.237c2.024,0,3.455,1.403,3.455,3.401v8.232h2.159v-8.557
		c0-2.889-2.078-4.886-4.994-4.886c-2.078,0-3.833,0.999-4.724,2.727l-0.27-2.402h-1.728v13.118h2.132V123.526z"/>
	<path class="st0" d="M620.083,131.247c1.863,0,3.428-0.864,4.346-2.376v2.376c0,2.294-1.863,3.887-4.481,3.887
		c-1.215,0-2.753-0.351-4.373-1.053l-0.647,1.619c1.862,0.783,3.644,1.161,5.183,1.161c3.752,0,6.478-2.375,6.478-5.695v-13.361
		h-1.728l-0.27,2.187c-0.945-1.62-2.564-2.511-4.508-2.511c-3.455,0-5.938,2.861-5.938,6.883
		C614.145,128.386,616.628,131.247,620.083,131.247z M620.597,119.235c2.267,0,3.86,1.7,3.86,4.075v2.106
		c0,2.402-1.593,4.076-3.86,4.076c-2.483,0-4.238-2.106-4.238-5.129C616.358,121.367,618.113,119.235,620.597,119.235z"/>
	<path class="st0" d="M563.387,155.923h2.267l1.998-4.967h8.503l1.997,4.967h2.268l-7.477-18.139h-2.078L563.387,155.923z
		 M575.506,149.256h-7.234l3.617-8.935L575.506,149.256z"/>
	<path class="st0" d="M590.573,144.559l0.243-1.754c-0.567-0.136-1.161-0.216-1.647-0.216c-1.889,0-3.428,1.025-4.076,2.699
		l-0.27-2.483h-1.728v13.118h2.132v-7.099c0-2.646,1.539-4.454,3.779-4.454C589.52,144.37,590.06,144.451,590.573,144.559z"/>
	<path class="st0" d="M598.998,156.247c1.457,0,3.131-0.405,4.858-1.268l-0.675-1.485c-1.404,0.756-2.78,1.107-3.968,1.107
		c-2.753,0-4.697-1.917-4.886-4.697h10.149c0.027-0.27,0.027-0.513,0.027-0.782c0-3.914-2.429-6.641-5.939-6.641
		c-3.752,0-6.397,2.834-6.397,6.883C592.168,153.412,595.002,156.247,598.998,156.247z M598.565,144.127
		c2.213,0,3.779,1.809,3.86,4.399h-8.098C594.543,145.882,596.217,144.127,598.565,144.127z"/>
	<path class="st0" d="M608.043,145.099c1.511-0.647,2.942-0.972,4.346-0.972c1.917,0,3.212,1.188,3.212,2.861v1.35
		c-1.025-0.27-2.024-0.378-2.942-0.378c-3.725,0-5.993,1.593-5.993,4.346c0,2.24,1.971,3.941,4.562,3.941
		c1.809,0,3.509-0.811,4.562-2.186c0.162,1.35,1.08,2.186,2.511,2.186c0.486,0,0.972-0.055,1.403-0.136l-0.162-1.619
		c-0.162,0.027-0.486,0.081-0.702,0.081c-0.756,0-1.188-0.459-1.188-1.188v-6.344c0-2.726-2.052-4.562-5.021-4.562
		c-1.674,0-3.347,0.351-5.183,1.053L608.043,145.099z M615.601,150.74c0,2.321-1.592,3.941-3.86,3.941
		c-1.7,0-2.969-1.08-2.969-2.511c0-1.781,1.539-2.861,4.13-2.861c0.891,0,1.782,0.108,2.699,0.324V150.74z"/>
	<path class="st0" d="M595.083,542.255c0-1.835,1.728-3.05,4.319-3.05c1.538,0,3.266,0.378,5.102,1.134l0.54-1.728
		c-2.051-0.811-3.995-1.215-5.803-1.215c-3.753,0-6.344,1.997-6.344,4.858c0,6.694,10.582,3.995,10.582,8.962
		c0,1.89-1.728,3.158-4.4,3.158c-1.646,0-3.698-0.54-5.75-1.35l-0.54,1.727c2.322,0.944,4.535,1.431,6.452,1.431
		c3.833,0,6.451-2.025,6.451-4.967C605.691,544.36,595.083,547.113,595.083,542.255z"/>
	<path class="st0" d="M614.63,554.429c-1.35,0-2.268-0.918-2.268-2.268v-7.72h4.13v-1.7h-4.13v-3.888h-2.132v3.888h-2.727v1.7h2.727
		v7.909c0,2.268,1.592,3.833,3.941,3.833c0.837,0,1.7-0.108,2.618-0.352l-0.297-1.673
		C615.817,554.32,615.196,554.429,614.63,554.429z"/>
	<path class="st0" d="M628.831,550.137c0,2.511-1.701,4.238-3.968,4.238c-1.997,0-3.455-1.377-3.455-3.374v-8.26h-2.132v8.557
		c0,2.888,2.051,4.886,4.967,4.886c2.078,0,3.833-0.999,4.75-2.727l0.27,2.402h1.728v-13.118h-2.159V550.137z"/>
	<path class="st0" d="M643.491,544.819c-0.918-1.539-2.483-2.402-4.346-2.402c-3.455,0-5.938,2.861-5.938,6.883
		c0,4.022,2.483,6.884,5.938,6.884c1.944,0,3.563-0.891,4.508-2.511l0.27,2.187h1.727v-19.003h-2.159V544.819z M643.518,550.352
		c0,2.402-1.593,4.076-3.86,4.076c-2.483,0-4.238-2.106-4.238-5.129c0-2.996,1.755-5.128,4.238-5.128c2.267,0,3.86,1.7,3.86,4.075
		V550.352z"/>
	<path class="st0" d="M654.427,553.376l-4.211-10.635h-2.241l5.426,13.01l-0.675,1.701c-0.702,1.835-1.484,2.591-2.807,2.591
		c-0.351,0-0.837-0.081-1.323-0.216l-0.297,1.728c0.648,0.162,1.323,0.243,1.836,0.243c2.105,0,3.455-1.242,4.535-3.968
		l6.101-15.089h-2.268L654.427,553.376z"/>
	<polygon class="st0" points="436.912,498.985 436.912,480.847 434.671,480.847 434.671,488.809 423.82,488.809 423.82,480.847 
		421.607,480.847 421.607,498.985 423.82,498.985 423.82,490.591 434.671,490.591 434.671,498.985 	"/>
	<path class="st0" d="M445.852,491.022c-3.725,0-5.993,1.593-5.993,4.346c0,2.24,1.971,3.941,4.562,3.941
		c1.809,0,3.509-0.81,4.562-2.186c0.162,1.35,1.08,2.186,2.511,2.186c0.486,0,0.972-0.055,1.403-0.136l-0.162-1.619
		c-0.162,0.027-0.486,0.081-0.702,0.081c-0.756,0-1.188-0.459-1.188-1.188v-6.344c0-2.726-2.052-4.562-5.021-4.562
		c-1.674,0-3.347,0.351-5.183,1.053l0.594,1.565c1.511-0.648,2.942-0.972,4.346-0.972c1.917,0,3.212,1.188,3.212,2.861v1.35
		C447.769,491.131,446.77,491.022,445.852,491.022z M448.794,493.803c0,2.321-1.592,3.941-3.86,3.941c-1.7,0-2.969-1.08-2.969-2.511
		c0-1.781,1.538-2.861,4.13-2.861c0.891,0,1.782,0.108,2.699,0.324V493.803z"/>
	<path class="st0" d="M454.493,479.982v16.169c0,1.943,1.242,3.158,3.266,3.158c0.594,0,1.296-0.081,2.024-0.243l-0.27-1.7
		c-0.459,0.107-0.918,0.189-1.296,0.189c-0.972,0-1.593-0.621-1.593-1.593v-15.979H454.493z"/>
	<path class="st0" d="M461.782,479.982v16.169c0,1.943,1.242,3.158,3.266,3.158c0.594,0,1.296-0.081,2.024-0.243l-0.27-1.7
		c-0.459,0.107-0.918,0.189-1.296,0.189c-0.972,0-1.593-0.621-1.593-1.593v-15.979H461.782z"/>
	<polygon class="st0" points="264.891,421.754 256.091,421.754 256.091,405.37 253.878,405.37 253.878,423.509 264.891,423.509 	"/>
	<path class="st0" d="M268.809,407.826c0.837,0,1.431-0.594,1.431-1.431c0-0.837-0.594-1.431-1.431-1.431
		c-0.864,0-1.457,0.594-1.457,1.431C267.351,407.232,267.945,407.826,268.809,407.826z"/>
	<rect x="267.729" y="410.391" class="st0" width="2.132" height="13.118"/>
	<polygon class="st0" points="279.608,423.509 285.006,410.391 282.739,410.391 278.609,421.025 274.452,410.391 272.211,410.391 
		277.61,423.509 	"/>
	<path class="st0" d="M288.545,407.826c0.837,0,1.431-0.594,1.431-1.431c0-0.837-0.594-1.431-1.431-1.431
		c-0.864,0-1.458,0.594-1.458,1.431C287.088,407.232,287.682,407.826,288.545,407.826z"/>
	<rect x="287.466" y="410.391" class="st0" width="2.132" height="13.118"/>
	<path class="st0" d="M302.34,415.276v8.233h2.159v-8.557c0-2.889-2.078-4.886-4.994-4.886c-2.078,0-3.833,0.999-4.724,2.727
		l-0.27-2.402h-1.728v13.118h2.132v-7.396c0-2.51,1.701-4.237,3.968-4.237C300.91,411.875,302.34,413.278,302.34,415.276z"/>
	<path class="st0" d="M312.979,423.833c1.863,0,3.428-0.864,4.346-2.376v2.376c0,2.294-1.863,3.887-4.481,3.887
		c-1.215,0-2.753-0.351-4.373-1.053l-0.647,1.619c1.862,0.783,3.644,1.161,5.183,1.161c3.752,0,6.478-2.375,6.478-5.695v-13.361
		h-1.728l-0.27,2.186c-0.945-1.62-2.564-2.511-4.508-2.511c-3.455,0-5.939,2.861-5.939,6.883
		C307.04,420.972,309.524,423.833,312.979,423.833z M313.492,411.821c2.267,0,3.86,1.7,3.86,4.075v2.105
		c0,2.402-1.593,4.076-3.86,4.076c-2.483,0-4.238-2.105-4.238-5.129C309.254,413.953,311.009,411.821,313.492,411.821z"/>
	<path class="st0" d="M265.565,435.795c0-3.185-2.429-5.425-5.857-5.425h-6.91v18.139h2.16v-7.207h3.887l4.994,7.207h2.457
		l-5.291-7.531C263.757,440.627,265.565,438.549,265.565,435.795z M254.957,439.547v-7.423h4.427c2.348,0,3.995,1.539,3.995,3.726
		c0,2.213-1.647,3.697-3.995,3.697H254.957z"/>
	<path class="st0" d="M275.314,435.066c-3.914,0-6.694,2.834-6.694,6.883s2.78,6.884,6.694,6.884c3.887,0,6.667-2.835,6.667-6.884
		S279.202,435.066,275.314,435.066z M275.314,447.105c-2.645,0-4.481-2.105-4.481-5.156c0-3.022,1.836-5.155,4.481-5.155
		c2.618,0,4.481,2.133,4.481,5.155C279.795,445,277.933,447.105,275.314,447.105z"/>
	<path class="st0" d="M290.65,435.066c-3.914,0-6.694,2.834-6.694,6.883s2.78,6.884,6.694,6.884c3.887,0,6.668-2.835,6.668-6.884
		S294.538,435.066,290.65,435.066z M290.65,447.105c-2.645,0-4.481-2.105-4.481-5.156c0-3.022,1.836-5.155,4.481-5.155
		c2.618,0,4.481,2.133,4.481,5.155C295.131,445,293.269,447.105,290.65,447.105z"/>
	<path class="st0" d="M316,435.066c-2.079,0-3.779,1.08-4.805,2.861c-0.621-1.755-2.268-2.861-4.319-2.861
		c-1.971,0-3.59,0.944-4.508,2.618l-0.27-2.294h-1.727v13.118h2.132v-7.612c0-2.348,1.566-4.021,3.753-4.021
		c1.916,0,3.239,1.322,3.239,3.184v8.449h2.16v-7.612c0-2.348,1.565-4.021,3.752-4.021c1.89,0,3.212,1.322,3.212,3.184v8.449h2.16
		v-8.772C320.778,437.01,318.808,435.066,316,435.066z"/>
	<path class="st0" d="M706.592,478.159v-93.61h2.816v-80.84h-2.816V193.907h2.816v-80.839h-2.816v-69.77h-63.123v4.672h-3.304V0.25
		h-0.25V0c-13.089,0-25.364,5.065-34.566,14.264c-8.129,8.126-13.023,18.662-14.052,30.044c-1.028-11.382-5.92-21.918-14.048-30.044
		C568.044,5.065,555.768,0,542.679,0v0.25h-0.25v47.721h-3.302v0.25h-0.085v-4.922h-57.509v2.457h-3.444v0.25h-0.25v2.077h-2.073
		v0.25h-0.25v4.64h0.25v0.25h2.073v1.826h-2.073v0.25h-0.25v46.604c-11.579-0.64-22.718-5.561-30.893-13.732
		c-8.901-8.901-13.804-20.787-13.804-33.467h-0.025v-1.481h2.078v-0.25h0.25v-4.64h-0.25v-0.25h-2.078v-2.077h-0.25v-0.25h-2.446
		v-2.457l-54.838,0v140.626v3.04v68.333h-51.511v4.432h-3.304v-47.721h-0.25v-0.25c-13.089,0-25.365,5.065-34.566,14.264
		c-8.129,8.127-13.023,18.663-14.052,30.044c-1.028-11.382-5.92-21.918-14.048-30.044c-9.204-9.198-21.48-14.264-34.57-14.264v0.25
		h-0.25v47.721h-3.031v-4.432h-47.085v383.334h50.435v47.797h129.56v-47.797h57.95v-4.813h3.193v-0.25h0.25v-1.993h1.995v-0.25h0.25
		v-4.475h-0.25v-0.25h-1.995v-1.417h0.024c0-12.223,4.725-23.679,13.305-32.259c7.876-7.873,18.61-12.616,29.767-13.235v44.919h0.25
		v0.25h1.991v1.742h-1.991v0.25h-0.25v4.475h0.25v0.25h1.991v1.993h0.25v0.25h3.353v-0.25h0.25v-1.866v-5.606v-1.487h-0.25v-0.25
		h-3.103v-44.993h-0.25v-0.25c-12.17,0-24.057,4.904-32.611,13.456c-8.48,8.48-13.223,19.742-13.431,31.787h-2.988v-3.727h-17.252
		l0-63.708h0.722v-0.25h0.25v-3.214h-0.25v-0.25h-1.9v-1.897h-0.25v-0.25h-4.288v0.25h-0.25v1.897h-1.649v-1.897h-0.25v-0.25
		h-43.043c0.595-10.688,5.139-20.968,12.682-28.514c8.222-8.222,19.2-12.749,30.912-12.749v-0.023h1.349v1.901h0.25v0.25h4.288
		v-0.25h0.25v-1.901h1.9v-0.25h0.25v-3.211h-0.25v-0.25h-0.722v-59.162h2.761v-4.774h42.448l0.059-0.035
		c0.14-0.083,3.385-2.118,3.02-10.045h2.435v-5.834h-1v-59.113l-0.061-0.04l0.023-0.04l-0.307-0.183h0.345v-41.82h1.49v-1.056h1.659
		v0.718h9.611v1.183h0.25v0.25h3.214v-0.25h0.25v-1.9h1.897v-0.25h0.25v-4.287h-0.25v-0.25h-1.897v-1.649h1.897v-0.25h0.25v-43.044
		c10.687,0.596,20.968,5.14,28.514,12.683c8.221,8.223,12.749,19.2,12.749,30.911h0.023v1.35h-1.901v0.25h-0.25v4.287h0.25v0.25
		h1.901v1.9h0.25v0.25h3.211v-0.25h0.25v-1.984h7.656v142.838h42.884v4.547h-0.572v0.25h-0.25v3.353h0.25v0.25h1.993v1.991h0.25
		v0.25h4.475v-0.25h0.25v-1.991h1.742v1.991h0.25v0.25h44.919c-0.619,11.157-5.362,21.891-13.235,29.767
		c-8.581,8.58-20.037,13.305-32.259,13.305v0.024h-1.417v-1.995h-0.25v-0.25h-4.475v0.25h-0.25v1.995h-1.993v0.25h-0.25v3.351h0.25
		v0.25h0.572v5.908h-17.87v-1.266h-0.25v-0.25h-3.103v-44.993h-0.25v-0.25c-12.17,0-24.057,4.904-32.611,13.456
		c-8.48,8.48-13.223,19.742-13.431,31.787h-3.145v0.25h-0.25v1.266h-17.776v53.646h-0.015v36.773h-5.295v18h34.222v2.351l0.049,0.25
		h36.72v-2.601h34.462v2.601h69.321v-2.601h70.646v-30.913h47.447v-129.56H706.592z M430.794,48.583h1.828v4.14h-1.828V48.583z
		 M457.318,631.075h-1.741v-3.975h1.741V631.075z M457.818,624.858h2.853v1.237v5.606v1.616h-2.853V624.858z M455.577,579.665
		c0.579-0.025,1.16-0.04,1.741-0.044v44.737h-1.741V579.665z M411.981,627.101h1.745v3.975h-1.745V627.101z M408.631,624.858h2.85
		v8.46h-2.85V624.858z M500.915,323.463h-1.651v-3.787h1.651V323.463z M699.373,117.179h7.219v-3.61h2.316v79.839h-2.316v-3.776
		h-7.219V117.179z M699.373,307.618h7.219v-3.409h2.316v79.84h-2.316v-3.351h-7.219V307.618z M706.592,485.841h2.931v2.895h-2.931
		V485.841z M695.979,117.179h2.894v13.836h-2.894V117.179z M698.873,131.515v18.549h-1.197v-18.549H698.873z M695.979,131.515h1.196
		v18.549h-1.196V131.515z M695.979,150.563h2.894v5.642h-2.894V150.563z M698.873,156.705v19.86h-1.197v-19.86H698.873z
		 M695.979,156.705h1.196v19.86h-1.196V156.705z M695.979,177.065h2.894v12.565h-2.894V177.065z M695.979,307.618h2.894v14.037
		h-2.894V307.618z M698.873,322.155v18.549h-1.197v-18.549H698.873z M695.979,322.155h1.196v18.549h-1.196V322.155z
		 M695.979,341.204h2.894v5.642h-2.894V341.204z M698.873,347.346v19.86h-1.197v-19.86H698.873z M695.979,347.346h1.196v19.86
		h-1.196V347.346z M695.979,367.706h2.894v12.992h-2.894V367.706z M688.592,189.631v3.868h-4.164v-80.021h4.167l-0.003,3.701h6.888
		v72.452H688.592z M695.479,307.618v73.08h-5.824v-73.08H695.479z M605.131,304.438l-7.281-6.855v-30.235l7.099-7.971h83.643v48.241
		h0.563l0.002,73.08h-0.565v80.019h-77.669v-32.692h45.855V304.438H605.131z M640.165,48.471h3.056l0,3.965l-0.001,3.31h0l0,1.728
		h-3.054V48.471z M637.786,0.552c0.624-0.027,1.25-0.043,1.878-0.046v47.465h-1.878V0.552z M542.929,0.506
		c0.629,0.003,1.255,0.019,1.88,0.046v47.42l-1.88-0.001V0.506z M542.929,50.851l1.88-0.002v4.243l-1.88,0.001V50.851z
		 M539.376,55.746v-5.949v-1.326h3.052v9.002h-3.052V55.746z M478.338,46.256h2.978v1.686v5.815v1.292h-2.978V46.256z
		 M476.015,52.723v-4.14h1.823v4.14H476.015z M476.015,55.549h1.823v46.423c-0.609-0.003-1.216-0.019-1.823-0.045V55.549z
		 M428.098,46.256h2.196v8.793h-2.196V46.256z M427.022,61.299h1.076v-5.75h2.241c0.213,12.495,5.132,24.178,13.93,32.975
		c8.871,8.868,21.198,13.955,33.819,13.955v-0.25h0.25v-46.68h3.194v5.75h9.085v72.326h-1.414v0.25h-0.25v3.234
		c-12.366,0.212-23.93,5.081-32.638,13.788c-8.779,8.781-13.814,20.983-13.814,33.476h0.25v0.25h46.202v3.193h0.25v0.25h1.414
		v16.112h-63.596V61.299z M489.454,137.064v-2.939h8.698v2.939H489.454z M495.849,137.564v1.804h-4.093v-1.804H495.849z
		 M443.054,182.323h45.9v1.8h-45.945C443.012,183.522,443.027,182.922,443.054,182.323z M498.152,184.623v2.943h-1.667h-5.756
		h-1.276v-2.943H498.152z M491.756,184.123v-1.8h4.093v1.8H491.756z M442.811,225.643v-2.713h1.539h5.373h1.175v2.713H442.811z
		 M448.749,226.143v1.648h-3.787v-1.648H448.749z M391.26,186.965v-3.04V61.298l35.262,0v142.88H391.26V186.965z M391.26,210.179
		h52.897v12.251h-1.596v0.25h-0.25v3.213h0.25v0.25h1.9v1.898h0.25v0.25h4.287v-0.25h0.25v-1.898h1.649v1.898h0.25v0.25h43.044
		c-0.596,10.686-5.14,20.968-12.683,28.513c-8.221,8.222-19.199,12.749-30.911,12.749v0.023h-1.35v-1.9h-0.25v-0.25h-4.287v0.25
		h-0.25v1.9h-1.9v0.25h-0.25v1.423H391.26V210.179z M451.398,227.791v-1.648h42.86c-0.003,0.55-0.017,1.1-0.042,1.648H451.398z
		 M450.898,270.076v2.711h-8.087v-2.711H450.898z M444.961,269.576v-1.65h3.787v1.65H444.961z M318.444,260.229h3.056l0,3.964
		l-0.001,3.311h0l0,1.728h-3.054V260.229z M316.066,212.311c0.624-0.026,1.25-0.043,1.878-0.046v47.465h-1.878V212.311z
		 M221.208,212.265c0.629,0.003,1.255,0.019,1.88,0.046v47.42l-1.88-0.001V212.265z M221.208,262.609l1.88-0.002v4.242l-1.88,0.002
		V262.609z M217.678,260.229h3.031v9.003h-3.031V260.229z M350.088,685.929h-128.56v-47.297h7.84v39.185h0.25v0.207h113.537v-0.207
		h0.25v-39.185h6.683V685.929z M229.868,641.913v-3.281h2.893v3.281H229.868z M232.762,642.413v31.718h-1.196v-31.718H232.762z
		 M231.066,642.413v31.718h-1.198v-31.718H231.066z M232.762,674.631v2.894h-2.893v-2.894H232.762z M325.988,661.028v-23.82h2.63
		v1.424h10.894v35.499h-106.25v-35.499h12.664v-1.063h1.682v23.46H325.988z M339.512,674.631v2.894h-23.604v-2.894H339.512z
		 M315.408,674.631v2.894h-3.82v-2.894H315.408z M289.148,675.827v-1.196h21.896v1.196H289.148z M311.044,676.327v1.197h-21.896
		v-1.197H311.044z M288.648,674.631v2.894h-3.82v-2.894H288.648z M260.588,675.827v-1.196h23.74v1.196H260.588z M284.328,676.327
		v1.197h-23.74v-1.197H284.328z M260.088,674.631v2.894h-3.82v-2.894H260.088z M255.768,674.631v1.196h-22.506v-1.196H255.768z
		 M255.768,676.327v1.197h-22.506v-1.197H255.768z M340.012,641.913v-3.281h2.894v3.281H340.012z M342.905,642.413v31.718h-1.198
		v-31.718H342.905z M341.207,642.413v31.718h-1.196v-31.718H341.207z M342.905,674.631v2.894h-2.894v-2.894H342.905z
		 M385.819,551.562h3.788v1.647h-3.788V551.562z M383.67,553.71h8.087v2.714h-1.539h-5.374h-1.175V553.71z M383.17,551.562v1.647
		h-42.859c0.003-0.55,0.017-1.1,0.041-1.647H383.17z M383.42,506.315h-0.25v3.004c-11.543,0.202-22.336,4.748-30.465,12.876
		c-8.198,8.202-12.9,19.598-12.9,31.265h0.25v0.25h43.116v2.964h0.25v0.25h1.425h0.441l0,63.708h-56.668v16.076h-3.13v23.82h-77.38
		v-23.46h-2.182v-16.437h-57.333V273.298h29.085v-3.565h3.281v-0.25h0.25v-2.131l2.13-0.002v-0.25h0.25v-4.742h-0.25v-0.25
		l-2.13,0.002v-1.88l2.13,0.001v-0.25h0.25v-47.647c11.963,0.631,23.097,5.559,31.586,14.043c9.1,9.1,14.112,21.25,14.112,34.214
		h0.024l0.003,8.893h0.03h0.47h0.03v-8.893h0.021c0-12.964,5.013-25.114,14.116-34.214c8.488-8.484,19.621-13.412,31.584-14.043
		v47.646h0.25v0.25h2.128v1.88h-2.128v0.25h-0.25v4.742h0.25v0.25h2.128v2.131h0.25v0.25h3.554v3.565h63.537l0,232.768h-1.865
		V506.315z M317.944,262.609v4.242h-1.878v-4.242H317.944z M389.606,511.428h-3.788v-1.651h3.788V511.428z M391.757,506.565v2.711
		h-8.087v-2.711H391.757z M393.546,365.047h-0.121v0.5h0.121v12.5h-0.121v0.5h0.121v12.334h-0.121v0.5h0.121v12.167h-0.121v0.5
		h0.121v12h-0.121v0.5h0.121v12.666h-0.121v0.5h0.121v11.915h-0.121v0.5h0.121v4.274h-2.261l0-108.256l2.26,1.351V365.047z
		 M436.349,441.629h-42.303v-11.915h42.128v2.335h2.899C439.404,439.115,436.756,441.333,436.349,441.629z M407.161,352.714
		l-4.316,7.353l0.355,0.334l11.422-7.688h6.375l-1.331,2.231l17.002,10.102h-42.622v-12.333H407.161z M394.046,352.214v-12.549
		l15.411,9.138l-2.003,3.411H394.046z M415.365,352.214l9.906-6.667l-3.976,6.667H415.365z M437.008,365.547v12.5h-42.962v-12.5
		H437.008z M437.008,378.547v12.334h-42.962v-12.334H437.008z M437.008,391.381v12.167h-42.962v-12.167H437.008z M437.008,404.048
		v12h-42.962v-12H437.008z M437.008,416.548v9.667h-0.834v2.999h-42.128v-12.666H437.008z M441.508,426.715v4.834h-4.834v-4.834
		H441.508z M440.073,366.488l-2.845-1.864v-39.605h3.28v41.728L440.073,366.488z M440.508,367.371v58.679h-3v-60.504l2.307,1.371
		L440.508,367.371z M444.157,323.463h-1.659v-3.835h1.659V323.463z M456.982,325.613h-2.714v-1.539v-5.373v-1.175h2.714V325.613z
		 M459.129,319.676v3.787h-1.647v-3.787H459.129z M459.129,317.026h-1.647v-42.86c0.55,0.004,1.099,0.018,1.647,0.042V317.026z
		 M504.126,325.613h-2.711v-8.087h2.711V325.613z M504.626,317.879v-0.603h-0.25v-0.25h-3.004
		c-0.202-11.543-4.748-22.336-12.876-30.465c-8.202-8.199-19.598-12.901-31.265-12.901v0.25h-0.25v43.116h-2.964v0.25h-0.25v1.404
		h-3.611v-45.383h-6v45.83h-1.659v-0.709h-6.6v6.6h0.83v39.482l-16.376-9.729l1.227-2.058h0.075v-0.126l4.618-7.744l-0.354-0.335
		l-22.086,14.865l6.309-10.747l-18.854-11.18v-64.502h-0.026v-1.196h51.051v1.288h0.25v0.25h8.587v-0.25h0.25v-3.004
		c11.544-0.202,22.337-4.748,30.465-12.876c8.199-8.202,12.901-19.598,12.901-31.265h-0.25v-0.25h-43.116v-2.963h-0.25v-0.25h-0.991
		v-12.251h46.461v-22.112h1.785v-0.25h0.25v-3.443h-0.25v-0.25h-2.053v-2.05h-0.25v-0.25h-4.593v0.25h-0.25v2.05h-1.802v-2.05h-0.25
		v-0.25h-46.126c0.634-11.458,5.504-22.482,13.592-30.572c8.811-8.81,20.574-13.662,33.123-13.662v-0.025h1.463v2.054h0.25v0.25
		h4.593v-0.25h0.25v-2.054h2.053v-0.25h0.25v-3.439h-0.25v-0.25h-1.785V61.299h42.424v-3.576h0.085v0.25h3.552v-0.25h0.25v-2.13
		l2.13-0.001v-0.25h0.25v-4.743h-0.25v-0.25l-2.13,0.002v-1.88l2.13,0.001v-0.25h0.25V0.574
		c11.963,0.631,23.097,5.559,31.586,14.043c9.1,9.099,14.112,21.25,14.112,34.214h0.023l0.004,8.892h0.03h0.47h0.03v-8.892h0.021
		c0-12.964,5.013-25.115,14.116-34.214c8.488-8.485,19.621-13.412,31.584-14.043v47.647h0.25v0.25h2.128v1.88h-2.128v0.25h-0.25
		v4.742h0.25v0.25h2.128v2.13h0.25v0.25h3.554v3.326h45.174l-0.047,51.679h-4.667v81.021h4.664v64.878h-83.868l-7.374,8.281V297.8
		l7.583,7.139h51.345v122.586h-45.355v-0.018h-28.271v0.018h-32.645v-58.501h-31.725v-51.144H504.626z M639.665,50.851v4.242h-1.878
		v-4.242H639.665z M610.422,428.024v32.303h-27.271v-32.303H610.422z M518.283,460.717v-91.193h31.225v58.501h33.145v32.692H518.283
		z M561.062,476.857h-3.975v-1.741h3.975V476.857z M563.305,474.616h-8.46v-2.853h1.616h5.606h1.237V474.616z M563.805,476.857
		v-1.741h44.737c-0.003,0.581-0.018,1.162-0.043,1.741H563.805z M557.088,518.708h3.975v1.745h-3.975V518.708z M554.845,523.804
		v-2.851h8.46v2.851H554.845z M533.945,529.196h2.853v1.237v5.606v1.616h-2.853V529.196z M531.704,484.003
		c0.58-0.025,1.16-0.04,1.741-0.044v44.737h-1.741V484.003z M488.108,531.438h1.745v3.975h-1.745V531.438z M484.757,529.196h2.851
		v8.46h-2.851V529.196z M531.663,640.732h-35.77v-2.101h3.604v-7.435h27.601v7.435h4.564V640.732z M499.498,627.304v-6.273h27.601
		v6.273H499.498z M527.098,627.804v2.893h-2.539v-2.893H527.098z M503.994,629v-1.196h20.065V629H503.994z M524.06,629.5v1.197
		h-20.065V629.5H524.06z M503.494,627.804v2.893h-3.997v-2.893H503.494z M555.167,620.632h-25.165v-0.101h-33.015v0.101h-14.323
		v-13.123h72.502V620.632z M511.942,594.051c2.394,0,4.795-0.235,7.148-0.688c-0.308,0.405-0.625,0.797-0.958,1.155
		c-0.321,0.352-0.507,0.806-0.522,1.277l-0.024,0.662c-1.885-0.137-3.792-0.183-5.663-0.137c-1.874,0.008-3.789,0.041-5.645,0.136
		c-0.001,0-0.003,0-0.005,0l-0.023-0.665c-0.016-0.476-0.202-0.93-0.525-1.28c-0.335-0.362-0.649-0.752-0.951-1.152
		C507.133,593.813,509.542,594.051,511.942,594.051z M504.585,592.817c-0.441-0.091-0.8-0.392-0.958-0.808
		c-1.312-3.337-1.977-6.85-1.977-10.44c0-4.057,1.792-7.873,4.916-10.47c1.511-1.239,3.42-1.922,5.376-1.922
		c1.956,0,3.866,0.683,5.378,1.921c2.594,2.154,4.289,5.182,4.773,8.524c0.093,0.636,0.14,1.291,0.14,1.946
		c0,3.594-0.664,7.107-1.976,10.442c-0.16,0.414-0.518,0.716-0.957,0.807C514.466,593.79,509.417,593.79,504.585,592.817z
		 M506.289,596.956c1.861-0.095,3.759-0.133,5.64-0.136c1.865-0.048,3.759,0,5.651,0.136c1.705,0.004,3.373,0.272,4.957,0.848
		c1.953,0.889,3.221,2.854,3.232,5.006v4.199h-27.686v-4.198c0.009-2.152,1.278-4.118,3.214-4.999
		C502.9,597.227,504.577,596.918,506.289,596.956z M526.269,607.009v-4.2c-0.012-2.348-1.396-4.49-3.544-5.468
		c-1.501-0.546-3.078-0.839-4.639-0.869l0.024-0.66c0.011-0.352,0.151-0.693,0.39-0.956c0.49-0.526,0.958-1.11,1.393-1.734
		c0.375-0.201,0.674-0.523,0.831-0.929c1.333-3.393,2.009-6.968,2.009-10.624c0-0.68-0.049-1.359-0.145-2.018
		c-0.502-3.465-2.26-6.604-4.951-8.838c-1.602-1.312-3.625-2.035-5.696-2.035s-4.093,0.723-5.694,2.036
		c-3.24,2.693-5.098,6.649-5.098,10.855c0,3.653,0.677,7.228,2.011,10.621c0.152,0.398,0.442,0.713,0.806,0.916
		c0.424,0.615,0.891,1.203,1.392,1.745c0.242,0.262,0.381,0.602,0.393,0.957l0.023,0.671c-1.577,0.055-3.149,0.318-4.665,0.87
		c-2.131,0.97-3.515,3.112-3.525,5.461v4.199h-14.918v-23.15h-10.185v-47.646h11.776v1.694h0.25v0.25h3.351v-0.25h0.25v-1.993h1.995
		v-0.25h0.25v-4.475h-0.25v-0.25h-1.995v-1.417h0.024c0-12.222,4.725-23.678,13.305-32.259c7.876-7.873,18.609-12.616,29.767-13.235
		v44.919h0.25v0.25h1.991v1.742h-1.991v0.25h-0.25v4.475h0.25v0.25h1.991v1.993h0.25v0.25h3.353v-0.25h0.25v-1.694h17.87v2.973
		h-8.484h-0.001c-0.02,0-0.039,0-0.059,0c-5.115,0-9.642,3.062-11.543,7.816l0.232,0.093l-0.233-0.089
		c-1.516,3.973-1.661,8.396-0.411,12.455h0c1.519,5.27,6.409,8.949,11.891,8.949h8.609l0,38.6H526.269z M533.445,531.438v3.975
		h-1.741v-3.975H533.445z M535.544,547.185c1.825-4.562,6.169-7.5,11.079-7.5c0.018,0,0.039,0,0.058,0l0.001-0.25v0.25h8.485v28.225
		h-8.609c-5.26,0-9.952-3.531-11.41-8.588l-0.24,0.069l0.239-0.073C533.928,555.363,534.069,551.055,535.544,547.185z
		 M635.446,640.732h-68.321v-2.101h2.785v-7.435h63.231v-0.5h-12.569v-2.893h12.569v-0.5H569.91v-6.273h64.828v17.601h0.708V640.732
		z M569.91,630.697v-2.893h11.143v2.893H569.91z M620.072,629.5v1.197h-38.52V629.5H620.072z M581.553,629v-1.196h38.52V629H581.553
		z M704.678,583.739h-16.086v36.893h-52.45v-0.101H569.5v0.101h-8.333c0-11.752,0-59.89,0-96.328h2.388v-0.25h0.25v-3.145
		c12.044-0.209,23.306-4.952,31.787-13.432c8.552-8.555,13.456-20.44,13.456-32.611h-0.25v-0.25h-44.993v-3.103h-0.25v-0.25h-1.487
		h-0.9c0-0.808,0-2.875,0-4.547h127.425v33.862h15.726v2.68h23.82v77.38h-23.46V583.739z M705.178,583.739v-2.601h23.46v-78.38
		h-23.82v-2.18h1.774v-11.344h35.149v106.25h-35.149v-11.746H705.178z M741.741,487.539v1.196h-31.718v-1.196H741.741z
		 M710.023,487.039v-1.198h31.718v1.198H710.023z M710.023,597.181v-1.195h31.718v1.195H710.023z M741.741,597.681v1.197h-31.718
		v-1.197H741.741z M709.523,595.985v2.893h-2.931v-2.893H709.523z M753.539,607.219h-46.947v-7.841h38.836v-0.25h0.207V485.591
		h-0.207v-0.25h-38.836v-6.682h46.947V607.219z M745.134,489.235v23.604h-2.894v-23.604H745.134z M742.241,488.735v-2.895h2.894
		v2.895H742.241z M745.134,513.339v3.819h-2.894v-3.819H745.134z M745.134,517.702v21.896h-1.197v-21.896H745.134z M743.437,517.702
		v21.896h-1.196v-21.896H743.437z M745.134,540.099v3.82h-2.894v-3.82H745.134z M745.134,544.419v23.74h-1.197v-23.74H745.134z
		 M743.437,544.419v23.74h-1.196v-23.74H743.437z M745.134,568.659v3.819h-2.894v-3.819H745.134z M745.134,572.979v22.507h-1.197
		v-22.507H745.134z M743.437,572.979v22.507h-1.196v-22.507H743.437z M745.134,595.985v2.893h-2.894v-2.893H745.134z"/>
	<path class="st0" d="M478.155,688.541h9.021v-9.02h-9.021V688.541z M478.655,680.021h8.021v8.02h-8.021V680.021z"/>
	<rect x="217.162" y="638.639" class="st0" width="0.5" height="1"/>
	<rect x="217.162" y="641.714" class="st0" width="0.5" height="2.075"/>
	<rect x="217.162" y="679.067" class="st0" width="0.5" height="2.075"/>
	<rect x="217.162" y="674.917" class="st0" width="0.5" height="2.075"/>
	<rect x="217.162" y="683.218" class="st0" width="0.5" height="2.075"/>
	<rect x="217.162" y="650.015" class="st0" width="0.5" height="2.075"/>
	<rect x="217.162" y="645.864" class="st0" width="0.5" height="2.075"/>
	<rect x="217.162" y="654.165" class="st0" width="0.5" height="2.075"/>
	<rect x="217.162" y="666.616" class="st0" width="0.5" height="2.075"/>
	<rect x="217.162" y="670.767" class="st0" width="0.5" height="2.075"/>
	<rect x="217.162" y="658.315" class="st0" width="0.5" height="2.075"/>
	<rect x="217.162" y="662.466" class="st0" width="0.5" height="2.075"/>
	<rect x="217.162" y="687.368" class="st0" width="0.5" height="2.075"/>
	<polygon class="st0" points="217.662,691.518 217.162,691.518 217.162,692.768 218.412,692.768 218.412,692.268 217.662,692.268 	
		"/>
	<rect x="328.35" y="692.268" class="st0" width="1.999" height="0.5"/>
	<rect x="324.353" y="692.268" class="st0" width="1.998" height="0.5"/>
	<rect x="320.354" y="692.268" class="st0" width="1.999" height="0.5"/>
	<rect x="336.346" y="692.268" class="st0" width="1.999" height="0.5"/>
	<rect x="340.343" y="692.268" class="st0" width="1.999" height="0.5"/>
	<rect x="380.321" y="692.268" class="st0" width="1.999" height="0.5"/>
	<rect x="316.357" y="692.268" class="st0" width="1.999" height="0.5"/>
	<rect x="304.364" y="692.268" class="st0" width="1.998" height="0.5"/>
	<rect x="308.361" y="692.268" class="st0" width="1.999" height="0.5"/>
	<rect x="312.359" y="692.268" class="st0" width="1.998" height="0.5"/>
	<rect x="368.328" y="692.268" class="st0" width="1.999" height="0.5"/>
	<rect x="372.326" y="692.268" class="st0" width="1.998" height="0.5"/>
	<rect x="300.366" y="692.268" class="st0" width="1.999" height="0.5"/>
	<rect x="364.33" y="692.268" class="st0" width="1.999" height="0.5"/>
	<rect x="376.323" y="692.268" class="st0" width="1.999" height="0.5"/>
	<rect x="360.332" y="692.268" class="st0" width="1.999" height="0.5"/>
	<rect x="348.339" y="692.268" class="st0" width="1.999" height="0.5"/>
	<rect x="344.341" y="692.268" class="st0" width="1.999" height="0.5"/>
	<rect x="352.337" y="692.268" class="st0" width="1.999" height="0.5"/>
	<rect x="356.334" y="692.268" class="st0" width="1.999" height="0.5"/>
	<rect x="332.348" y="692.268" class="st0" width="1.998" height="0.5"/>
	<rect x="240.399" y="692.268" class="st0" width="1.999" height="0.5"/>
	<rect x="256.391" y="692.268" class="st0" width="1.999" height="0.5"/>
	<rect x="236.402" y="692.268" class="st0" width="1.998" height="0.5"/>
	<rect x="248.395" y="692.268" class="st0" width="1.999" height="0.5"/>
	<rect x="252.393" y="692.268" class="st0" width="1.999" height="0.5"/>
	<rect x="296.368" y="692.268" class="st0" width="1.999" height="0.5"/>
	<rect x="224.408" y="692.268" class="st0" width="1.999" height="0.5"/>
	<rect x="220.411" y="692.268" class="st0" width="1.999" height="0.5"/>
	<rect x="232.404" y="692.268" class="st0" width="1.999" height="0.5"/>
	<rect x="228.406" y="692.268" class="st0" width="1.999" height="0.5"/>
	<rect x="244.397" y="692.268" class="st0" width="1.998" height="0.5"/>
	<rect x="280.377" y="692.268" class="st0" width="1.999" height="0.5"/>
	<rect x="288.373" y="692.268" class="st0" width="1.999" height="0.5"/>
	<rect x="284.375" y="692.268" class="st0" width="1.999" height="0.5"/>
	<rect x="292.371" y="692.268" class="st0" width="1.999" height="0.5"/>
	<rect x="264.386" y="692.268" class="st0" width="1.999" height="0.5"/>
	<rect x="260.388" y="692.268" class="st0" width="1.999" height="0.5"/>
	<rect x="268.384" y="692.268" class="st0" width="1.999" height="0.5"/>
	<rect x="276.379" y="692.268" class="st0" width="1.999" height="0.5"/>
	<rect x="272.381" y="692.268" class="st0" width="1.999" height="0.5"/>
	<rect x="392.314" y="692.268" class="st0" width="1.998" height="0.5"/>
	<rect x="456.278" y="692.268" class="st0" width="1.999" height="0.5"/>
	<rect x="452.281" y="692.268" class="st0" width="1.998" height="0.5"/>
	<rect x="460.276" y="692.268" class="st0" width="1.999" height="0.5"/>
	<rect x="440.287" y="692.268" class="st0" width="1.999" height="0.5"/>
	<rect x="444.285" y="692.268" class="st0" width="1.999" height="0.5"/>
	<rect x="448.283" y="692.268" class="st0" width="1.999" height="0.5"/>
	<rect x="464.274" y="692.268" class="st0" width="1.999" height="0.5"/>
	<rect x="480.265" y="692.268" class="st0" width="1.999" height="0.5"/>
	<rect x="384.319" y="692.268" class="st0" width="1.998" height="0.5"/>
	<rect x="488.26" y="692.268" class="st0" width="1.999" height="0.5"/>
	<rect x="472.27" y="692.268" class="st0" width="1.998" height="0.5"/>
	<rect x="468.271" y="692.268" class="st0" width="1.999" height="0.5"/>
	<rect x="476.267" y="692.268" class="st0" width="1.999" height="0.5"/>
	<rect x="484.263" y="692.268" class="st0" width="1.999" height="0.5"/>
	<rect x="400.31" y="692.268" class="st0" width="1.999" height="0.5"/>
	<rect x="404.308" y="692.268" class="st0" width="1.999" height="0.5"/>
	<rect x="408.305" y="692.268" class="st0" width="1.999" height="0.5"/>
	<rect x="388.316" y="692.268" class="st0" width="1.999" height="0.5"/>
	<rect x="412.303" y="692.268" class="st0" width="1.999" height="0.5"/>
	<rect x="396.312" y="692.268" class="st0" width="1.999" height="0.5"/>
	<rect x="424.296" y="692.268" class="st0" width="1.999" height="0.5"/>
	<rect x="432.292" y="692.268" class="st0" width="1.998" height="0.5"/>
	<rect x="416.301" y="692.268" class="st0" width="1.999" height="0.5"/>
	<rect x="428.294" y="692.268" class="st0" width="1.999" height="0.5"/>
	<rect x="436.29" y="692.268" class="st0" width="1.999" height="0.5"/>
	<rect x="420.298" y="692.268" class="st0" width="1.999" height="0.5"/>
	<polygon class="st0" points="493.008,692.268 492.258,692.268 492.258,692.768 493.508,692.768 493.508,691.518 493.008,691.518 	
		"/>
	<rect x="493.008" y="666.616" class="st0" width="0.5" height="2.075"/>
	<rect x="493.008" y="658.315" class="st0" width="0.5" height="2.075"/>
	<rect x="493.008" y="670.767" class="st0" width="0.5" height="2.075"/>
	<rect x="493.008" y="654.165" class="st0" width="0.5" height="2.075"/>
	<rect x="493.008" y="645.864" class="st0" width="0.5" height="2.075"/>
	<rect x="493.008" y="650.015" class="st0" width="0.5" height="2.075"/>
	<rect x="493.008" y="662.466" class="st0" width="0.5" height="2.075"/>
	<rect x="493.008" y="674.917" class="st0" width="0.5" height="2.075"/>
	<rect x="493.008" y="641.714" class="st0" width="0.5" height="2.075"/>
	<rect x="493.008" y="687.368" class="st0" width="0.5" height="2.075"/>
	<rect x="493.008" y="679.067" class="st0" width="0.5" height="2.075"/>
	<rect x="493.008" y="683.218" class="st0" width="0.5" height="2.075"/>
	<rect x="493.008" y="638.639" class="st0" width="0.5" height="1"/>
	<path class="st0" d="M505.276,682.661c0.993,0,2.001,0.353,2.897,0.993l0.56-0.897c-1.136-0.784-2.401-1.185-3.633-1.185
		c-3.137,0-5.298,2.289-5.298,5.57c0,3.281,2.161,5.57,5.298,5.57c1.232,0,2.497-0.4,3.633-1.185l-0.56-0.897
		c-0.897,0.641-1.905,0.992-2.897,0.992c-2.449,0-4.113-1.824-4.113-4.482C501.163,684.486,502.827,682.661,505.276,682.661z"/>
	<path class="st0" d="M516.877,691.721c-0.448,0-0.705-0.272-0.705-0.704v-3.762c0-1.616-1.216-2.705-2.977-2.705
		c-0.992,0-1.985,0.209-3.073,0.625l0.352,0.928c0.897-0.384,1.745-0.576,2.577-0.576c1.136,0,1.905,0.704,1.905,1.697v0.8
		c-0.608-0.16-1.201-0.224-1.745-0.224c-2.209,0-3.554,0.944-3.554,2.577c0,1.328,1.168,2.337,2.705,2.337
		c1.073,0,2.081-0.48,2.705-1.297c0.096,0.801,0.641,1.297,1.489,1.297c0.288,0,0.576-0.032,0.833-0.08l-0.096-0.961
		C517.197,691.689,517.005,691.721,516.877,691.721z M514.956,689.448c0,1.377-0.944,2.337-2.289,2.337
		c-1.008,0-1.761-0.641-1.761-1.488c0-1.057,0.913-1.697,2.449-1.697c0.528,0,1.056,0.064,1.601,0.192V689.448z"/>
	<path class="st0" d="M522.395,684.55c-1.232,0-2.273,0.593-2.801,1.617l-0.16-1.425h-1.024v7.779h1.264v-4.386
		c0-1.488,1.009-2.513,2.353-2.513c1.201,0,2.049,0.832,2.049,2.017v4.882h1.281v-5.074
		C525.357,685.734,524.124,684.55,522.395,684.55z"/>
	<path class="st0" d="M530.747,684.55c-2.321,0-3.97,1.681-3.97,4.082c0,2.401,1.649,4.082,3.97,4.082
		c2.305,0,3.954-1.681,3.954-4.082C534.701,686.23,533.052,684.55,530.747,684.55z M530.747,691.689
		c-1.568,0-2.657-1.249-2.657-3.058c0-1.793,1.089-3.058,2.657-3.058c1.553,0,2.657,1.265,2.657,3.058
		C533.404,690.44,532.3,691.689,530.747,691.689z"/>
	<path class="st0" d="M540.124,684.55c-1.169,0-2.129,0.528-2.673,1.489l-0.16-1.297h-1.024v11.108h1.264v-4.546
		c0.561,0.896,1.473,1.409,2.593,1.409c2.033,0,3.505-1.697,3.505-4.082C543.629,686.247,542.156,684.55,540.124,684.55z
		 M539.819,691.673c-1.36,0-2.305-0.992-2.305-2.417v-1.248c0-1.409,0.944-2.417,2.305-2.417c1.456,0,2.513,1.265,2.513,3.041
		C542.332,690.425,541.276,691.673,539.819,691.673z"/>
	<path class="st0" d="M547.932,691.049l-2.497-6.307h-1.329l3.217,7.715l-0.4,1.009c-0.416,1.089-0.88,1.537-1.665,1.537
		c-0.208,0-0.496-0.049-0.784-0.129l-0.176,1.024c0.384,0.097,0.785,0.145,1.088,0.145c1.249,0,2.049-0.736,2.69-2.353l3.617-8.948
		h-1.344L547.932,691.049z"/>
	<path class="st0" d="M559.499,684.55c-2.321,0-3.97,1.681-3.97,4.082c0,2.401,1.649,4.082,3.97,4.082
		c2.305,0,3.954-1.681,3.954-4.082C563.453,686.23,561.805,684.55,559.499,684.55z M559.499,691.689
		c-1.568,0-2.657-1.249-2.657-3.058c0-1.793,1.089-3.058,2.657-3.058c1.553,0,2.657,1.265,2.657,3.058
		C562.157,690.44,561.052,691.689,559.499,691.689z"/>
	<polygon class="st0" points="567.723,691.049 565.258,684.742 563.93,684.742 567.131,692.521 568.315,692.521 571.517,684.742 
		570.172,684.742 	"/>
	<path class="st0" d="M575.771,684.55c-2.225,0-3.794,1.681-3.794,4.082c0,2.401,1.681,4.082,4.05,4.082
		c0.864,0,1.857-0.24,2.881-0.753l-0.4-0.88c-0.833,0.448-1.648,0.656-2.353,0.656c-1.632,0-2.785-1.137-2.897-2.785h6.019
		c0.016-0.16,0.016-0.305,0.016-0.464C579.292,686.167,577.852,684.55,575.771,684.55z M573.258,688.136
		c0.128-1.568,1.121-2.609,2.513-2.609c1.312,0,2.241,1.072,2.289,2.609H573.258z"/>
	<path class="st0" d="M581.915,686.215l-0.16-1.473h-1.024v7.779h1.264v-4.21c0-1.568,0.913-2.641,2.241-2.641
		c0.304,0,0.624,0.048,0.928,0.112l0.144-1.041c-0.336-0.08-0.688-0.128-0.977-0.128
		C583.211,684.614,582.298,685.223,581.915,686.215z"/>
	<path class="st0" d="M595.18,685.975c-0.544-0.912-1.473-1.425-2.577-1.425c-2.049,0-3.521,1.697-3.521,4.082
		c0,2.385,1.473,4.082,3.521,4.082c1.153,0,2.113-0.528,2.673-1.489l0.16,1.297h1.024v-11.269h-1.281V685.975z M595.196,689.256
		c0,1.425-0.944,2.417-2.289,2.417c-1.473,0-2.513-1.248-2.513-3.041c0-1.776,1.04-3.041,2.513-3.041
		c1.345,0,2.289,1.008,2.289,2.417V689.256z"/>
	<path class="st0" d="M601.979,684.55c-2.321,0-3.97,1.681-3.97,4.082c0,2.401,1.649,4.082,3.97,4.082
		c2.305,0,3.954-1.681,3.954-4.082C605.933,686.23,604.284,684.55,601.979,684.55z M601.979,691.689
		c-1.568,0-2.657-1.249-2.657-3.058c0-1.793,1.089-3.058,2.657-3.058c1.553,0,2.657,1.265,2.657,3.058
		C604.636,690.44,603.532,691.689,601.979,691.689z"/>
	<path class="st0" d="M610.907,684.55c-2.321,0-3.97,1.681-3.97,4.082c0,2.401,1.649,4.082,3.97,4.082
		c2.305,0,3.954-1.681,3.954-4.082C614.861,686.23,613.212,684.55,610.907,684.55z M610.907,691.689
		c-1.568,0-2.657-1.249-2.657-3.058c0-1.793,1.089-3.058,2.657-3.058c1.553,0,2.657,1.265,2.657,3.058
		C613.564,690.44,612.46,691.689,610.907,691.689z"/>
	<path class="st0" d="M617.611,686.215l-0.16-1.473h-1.024v7.779h1.264v-4.21c0-1.568,0.913-2.641,2.241-2.641
		c0.304,0,0.624,0.048,0.928,0.112l0.144-1.041c-0.336-0.08-0.688-0.128-0.977-0.128
		C618.907,684.614,617.995,685.223,617.611,686.215z"/>
</g>
</svg>
