path:::d::M773.3,1157.3L773.3,1157.3l0-1151.4c0-0.9-0.7-1.5-1.5-1.5h-33.8c-0.9,0-1.5,0.7-1.5,1.5v3.4h-1.5V7.2   c0-0.3-0.3-0.6-0.6-0.6h-52.5c-0.3,0-0.6,0.3-0.6,0.6v2.1h-1.6V5.9c0-0.9-0.7-1.5-1.5-1.5c0,0,0,0,0,0H244.7c0,0,0,0,0,0   c-0.9,0-1.5,0.7-1.5,1.5v3.4h-1.6V7.2c0-0.3-0.3-0.6-0.6-0.6h-97.4c-0.3,0-0.6,0.3-0.6,0.6v2.1h-8.1c-0.9,0-1.5,0.7-1.5,1.5v8.2   h-2.2c-0.3,0-0.6,0.3-0.6,0.6v97.4c0,0.3,0.3,0.6,0.6,0.6h2.2v6.3h-2.2c-0.3,0-0.6,0.3-0.6,0.6V222c0,0.3,0.3,0.6,0.6,0.6h2.2v1.5   h-3.4c-0.9,0-1.5,0.7-1.5,1.5v258.6c0,0.9,0.7,1.5,1.5,1.5h3.4v4h-2.2c-0.3,0-0.6,0.3-0.6,0.6v136.8c0,0.3,0.3,0.6,0.6,0.6h2.2v4.8   h-3.4c-0.9,0-1.5,0.7-1.5,1.5v59.6H98.5c0,0,0,0,0,0H84.8c-0.9,0-1.5,0.7-1.5,1.5l0,189.2h-0.9c-0.3,0-0.6,0.3-0.6,0.6v94.9   c0,0.3,0.3,0.6,0.6,0.6h0.9v8.8h-0.9c0,0,0,0,0,0c-0.3,0-0.6,0.3-0.6,0.6v94.9c0,0.3,0.3,0.6,0.6,0.6h0.9v28.8h-9.7   c-0.3,0-0.6,0.3-0.6,0.6v247.3c0,0.3,0.3,0.6,0.6,0.6h92.4c0.3,0,0.6-0.3,0.6-0.6v-6.9h80v4.4c0,0.3,0.3,0.6,0.6,0.6h2.5   c0.3,0,0.6-0.3,0.6-0.6v-4.4h176.2v4.4c0,0.3,0.3,0.6,0.6,0.6h2.5c0.3,0,0.6-0.3,0.6-0.6v-4.4h176.2v4.4c0,0.3,0.3,0.6,0.6,0.6h2.5   c0.3,0,0.6-0.3,0.6-0.6v-4.4h79.9v6.9c0,0.3,0.3,0.6,0.6,0.6h82.8c0.3,0,0.6-0.3,0.6-0.6v-204.4   C773.9,1157.6,773.6,1157.3,773.3,1157.3z:::id::n_id_2:::class::st0::::n_id_2_line_0,n_id_2_line_1,n_id_2_line_2,n_id_2_line_3,n_id_2_line_4,n_id_2_line_5,n_id_2_line_6,n_id_2_line_7,n_id_2_line_8,n_id_2_line_9,n_id_2_line_10,n_id_2_line_11,n_id_2_line_12,n_id_2_line_13,n_id_2_line_14,n_id_2_line_15,n_id_2_line_16,n_id_2_line_17,n_id_2_line_18,n_id_2_line_19,n_id_2_line_20,n_id_2_line_21,n_id_2_line_22,n_id_2_line_23,n_id_2_line_24,n_id_2_line_25,n_id_2_line_26,n_id_2_line_27,n_id_2_line_28,n_id_2_line_29,n_id_2_line_30,n_id_2_line_31,n_id_2_line_32,n_id_2_line_33,n_id_2_line_34,n_id_2_line_35,n_id_2_line_36,n_id_2_line_37,n_id_2_line_38,n_id_2_line_39,n_id_2_line_40,n_id_2_line_41,n_id_2_line_42,n_id_2_line_43,n_id_2_line_44,n_id_2_line_45,n_id_2_line_46,n_id_2_line_47,n_id_2_line_48,n_id_2_line_49,n_id_2_line_50,n_id_2_line_51,n_id_2_line_52,n_id_2_line_53,n_id_2_line_54,n_id_2_line_55,n_id_2_line_56,n_id_2_line_57,n_id_2_line_58,n_id_2_line_59,n_id_2_line_60,n_id_2_line_61,n_id_2_line_62,n_id_2_line_63,n_id_2_line_64,n_id_2_line_65,n_id_2_line_66,n_id_2_line_0,n_id_2_line_1,n_id_2_line_2,n_id_2_line_3,n_id_2_line_4,n_id_2_line_5,n_id_2_line_6,n_id_2_line_7,n_id_2_line_8,n_id_2_line_9,n_id_2_line_10,n_id_2_line_11,n_id_2_line_12,n_id_2_line_13,n_id_2_line_14,n_id_2_line_15,n_id_2_line_16,n_id_2_line_17,n_id_2_line_18,n_id_2_line_19,n_id_2_line_20,n_id_2_line_21,n_id_2_line_22,n_id_2_line_23,n_id_2_line_24,n_id_2_line_25,n_id_2_line_26,n_id_2_line_27,n_id_2_line_28,n_id_2_line_29,n_id_2_line_30,n_id_2_line_31,n_id_2_line_32,n_id_2_line_33,n_id_2_line_34,n_id_2_line_35,n_id_2_line_36,n_id_2_line_37,n_id_2_line_38

path:::d::M129.7,1099.8H100v-17.2c0-0.9-0.7-1.5-1.5-1.5H84.8c-0.9,0-1.5,0.7-1.5,1.5v32.5c0,0.9,0.7,1.5,1.5,1.5h45   c0.9,0,1.5-0.7,1.5-1.5v-13.7C131.3,1100.5,130.6,1099.8,129.7,1099.8z:::id::n_id_3:::class::st1::::n_id_3_line_0,n_id_3_line_1,n_id_3_line_2,n_id_3_line_3,n_id_3_line_4,n_id_3_line_5,n_id_3_line_0,n_id_3_line_1,n_id_3_line_2,n_id_3_line_3,n_id_3_line_4

path:::d::M234.7,1099.8h-15c-0.9,0-1.5,0.7-1.5,1.5v13.7c0,0.9,0.7,1.5,1.5,1.5h15c0.9,0,1.5-0.7,1.5-1.5v-13.7   C236.2,1100.5,235.5,1099.8,234.7,1099.8z:::id::n_id_4:::class::st1::::n_id_4_line_0,n_id_4_line_1,n_id_4_line_2,n_id_4_line_3,n_id_4_line_0,n_id_4_line_1,n_id_4_line_2,n_id_4_line_3

path:::d::M84.8,994.2h13.7c0.9,0,1.5-0.7,1.5-1.5v-15c0-0.9-0.7-1.5-1.5-1.5H84.8c-0.9,0-1.5,0.7-1.5,1.5v15   C83.2,993.5,83.9,994.2,84.8,994.2z:::id::n_id_5:::class::st1::::n_id_5_line_0,n_id_5_line_1,n_id_5_line_2,n_id_5_line_3,n_id_5_line_0,n_id_5_line_1,n_id_5_line_2,n_id_5_line_3

path:::d::M773.3,5.9c0-0.9-0.7-1.5-1.5-1.5h-33.8c-0.9,0-1.5,0.7-1.5,1.5v3.4h-5.9c-0.9,0-1.5,0.7-1.5,1.5v15.5   c0,0.9,0.7,1.5,1.5,1.5h25.9v195.9h-8.4c-0.9,0-1.5,0.7-1.5,1.5v8.7c0,0.9,0.7,1.5,1.5,1.5h8.4v99.8H594.6v-99.8H678   c0.9,0,1.5-0.7,1.5-1.5v-8.7c0-0.9-0.7-1.5-1.5-1.5h-83.4v-8.4c0-0.9-0.7-1.5-1.5-1.5h-8.7c0,0,0,0,0,0c-0.9,0-1.5,0.7-1.5,1.5   v168.7h-65.1c-0.9,0-1.5,0.7-1.5,1.5v25c0,0.9,0.7,1.5,1.5,1.5h65.1v8.4c0,0.9,0.7,1.5,1.5,1.5h8.7c0.9,0,1.5-0.7,1.5-1.5v-68.4   h153.1v90.9v72.2H594.6v-24.7c0-0.9-0.7-1.5-1.5-1.5h-8.7c-0.9,0-1.5,0.7-1.5,1.5v8.4h-65.1c-0.9,0-1.5,0.7-1.5,1.5v25   c0,0.9,0.7,1.5,1.5,1.5h238.6v617.7H668c-0.9,0-1.5,0.7-1.5,1.5v8.7c0,0.9,0.7,1.5,1.5,1.5h5.9v3.4c0,0.4,0.2,0.8,0.5,1.1   c0.3,0.3,0.7,0.5,1.1,0.5h96.2c0.9,0,1.5-0.7,1.5-1.5c0,0,0,0,0,0V5.9z:::id::n_id_6:::class::st1::::n_id_6_line_0,n_id_6_line_1,n_id_6_line_2,n_id_6_line_3,n_id_6_line_4,n_id_6_line_5,n_id_6_line_6,n_id_6_line_7,n_id_6_line_8,n_id_6_line_9,n_id_6_line_10,n_id_6_line_11,n_id_6_line_12,n_id_6_line_13,n_id_6_line_14,n_id_6_line_15,n_id_6_line_16,n_id_6_line_17,n_id_6_line_18,n_id_6_line_19,n_id_6_line_20,n_id_6_line_21,n_id_6_line_22,n_id_6_line_23,n_id_6_line_24,n_id_6_line_25,n_id_6_line_26,n_id_6_line_27,n_id_6_line_28,n_id_6_line_29,n_id_6_line_30,n_id_6_line_31,n_id_6_line_32,n_id_6_line_33,n_id_6_line_34,n_id_6_line_35,n_id_6_line_36,n_id_6_line_37,n_id_6_line_38,n_id_6_line_39,n_id_6_line_40,n_id_6_line_41,n_id_6_line_0,n_id_6_line_1,n_id_6_line_2,n_id_6_line_3,n_id_6_line_4,n_id_6_line_5,n_id_6_line_6,n_id_6_line_7,n_id_6_line_8,n_id_6_line_9,n_id_6_line_10,n_id_6_line_11,n_id_6_line_12,n_id_6_line_13,n_id_6_line_14,n_id_6_line_15,n_id_6_line_16,n_id_6_line_17,n_id_6_line_18,n_id_6_line_19,n_id_6_line_20,n_id_6_line_21,n_id_6_line_22,n_id_6_line_23,n_id_6_line_24

path:::d::M143.4,625.2h-8.7c-0.9,0-1.5,0.7-1.5,1.5v5.9h-3.4c-0.9,0-1.5,0.7-1.5,1.5v59.6H98.5c0,0,0,0,0,0H84.8   c-0.9,0-1.5,0.7-1.5,1.5l0,192.3c0,0.9,0.7,1.5,1.5,1.5h13.7c0.9,0,1.5-0.7,1.5-1.5l0-177h43.4c0,0,0,0,0,0c0.9,0,1.5-0.7,1.5-1.5   v-82.4c0-0.4-0.2-0.8-0.5-1.1C144.2,625.3,143.9,625.2,143.4,625.2z:::id::n_id_7:::class::st1::::n_id_7_line_0,n_id_7_line_1,n_id_7_line_2,n_id_7_line_3,n_id_7_line_4,n_id_7_line_5,n_id_7_line_6,n_id_7_line_7,n_id_7_line_8,n_id_7_line_9,n_id_7_line_10,n_id_7_line_0,n_id_7_line_1,n_id_7_line_2,n_id_7_line_3,n_id_7_line_4,n_id_7_line_5,n_id_7_line_6,n_id_7_line_7,n_id_7_line_8,n_id_7_line_9

path:::d::M582.8,135.4C582.8,135.4,582.8,135.4,582.8,135.4L582.8,135.4c0,0.9,0.7,1.6,1.5,1.6h8.7   c0.9,0,1.5-0.7,1.5-1.5V27.9h90.9c0.9,0,1.5-0.7,1.5-1.5V10.9c0-0.9-0.7-1.5-1.5-1.5h-5.9V5.9c0-0.9-0.7-1.5-1.5-1.5c0,0,0,0,0,0   H244.7c0,0,0,0,0,0c-0.9,0-1.5,0.7-1.5,1.5v3.4h-5.9c-0.9,0-1.5,0.7-1.5,1.5v8.8c0,0.9,0.7,1.5,1.5,1.5h345.7V135.4z:::id::n_id_8:::class::st1::::n_id_8_line_0,n_id_8_line_1,n_id_8_line_2,n_id_8_line_3,n_id_8_line_4,n_id_8_line_5,n_id_8_line_6,n_id_8_line_7,n_id_8_line_8,n_id_8_line_9,n_id_8_line_10,n_id_8_line_11,n_id_8_line_12,n_id_8_line_13,n_id_8_line_0,n_id_8_line_1,n_id_8_line_2,n_id_8_line_3,n_id_8_line_4,n_id_8_line_5,n_id_8_line_6,n_id_8_line_7,n_id_8_line_8,n_id_8_line_9,n_id_8_line_10

path:::d::M133.2,224.2h-3.4c-0.9,0-1.5,0.7-1.5,1.5v258.6c0,0.9,0.7,1.5,1.5,1.5h3.4v5.9c0,0.9,0.7,1.5,1.5,1.5h8.7   c0.9,0,1.5-0.7,1.5-1.5V218.2c0-0.9-0.7-1.5-1.5-1.5h-8.7c-0.9,0-1.5,0.7-1.5,1.5V224.2z:::id::n_id_9:::class::st1::::n_id_9_line_0,n_id_9_line_1,n_id_9_line_2,n_id_9_line_3,n_id_9_line_4,n_id_9_line_5,n_id_9_line_6,n_id_9_line_7,n_id_9_line_0,n_id_9_line_1,n_id_9_line_2,n_id_9_line_3,n_id_9_line_4,n_id_9_line_5

path:::d::M134.7,129.9h8.7c0.9,0,1.5-0.7,1.5-1.5v-15c0-0.9-0.7-1.5-1.5-1.5h-8.7c-0.9,0-1.5,0.7-1.5,1.5v15   C133.2,129.2,133.9,129.9,134.7,129.9z:::id::n_id_10:::class::st1::::n_id_10_line_0,n_id_10_line_1,n_id_10_line_2,n_id_10_line_3,n_id_10_line_0,n_id_10_line_1,n_id_10_line_2,n_id_10_line_3

path:::d::M578.1,1144.7h-88.4v-43.4c0-0.9-0.7-1.5-1.5-1.5c0,0,0,0,0,0h-13.7h-45h0h0c-0.9,0-1.5,0.7-1.5,1.5v13.7   c0,0.9,0.7,1.5,1.5,1.5h0h0h43.4v43.4c0,0.9,0.7,1.5,1.5,1.5h96.1c0.9,0,1.5-0.7,1.5-1.5v-3.4h5.9c0.9,0,1.5-0.7,1.5-1.5v-8.7   C579.6,1145.4,578.9,1144.7,578.1,1144.7z:::id::n_id_11:::class::st1::::n_id_11_line_0,n_id_11_line_1,n_id_11_line_2,n_id_11_line_3,n_id_11_line_4,n_id_11_line_5,n_id_11_line_6,n_id_11_line_7,n_id_11_line_8,n_id_11_line_9,n_id_11_line_10,n_id_11_line_11,n_id_11_line_12,n_id_11_line_13,n_id_11_line_14,n_id_11_line_0,n_id_11_line_1,n_id_11_line_2,n_id_11_line_3,n_id_11_line_4,n_id_11_line_5,n_id_11_line_6,n_id_11_line_7

path:::d::M147.2,9.4h-12.5c-0.9,0-1.5,0.7-1.5,1.5v12.5c0,0.9,0.7,1.5,1.5,1.5h8.7c0.9,0,1.5-0.7,1.5-1.5v-2.1h2.2   c0.9,0,1.5-0.7,1.5-1.5v-8.8C148.8,10.1,148.1,9.4,147.2,9.4z:::id::n_id_12:::class::st1::::n_id_12_line_0,n_id_12_line_1,n_id_12_line_2,n_id_12_line_3,n_id_12_line_4,n_id_12_line_5,n_id_12_line_0,n_id_12_line_1,n_id_12_line_2,n_id_12_line_3,n_id_12_line_4

path:::d::M651.8,630.2h-65.4c-0.9,0-1.5,0.7-1.5,1.5v47.5c0,0.9,0.7,1.5,1.5,1.5h55.1v192.6c0,0.9,0.7,1.5,1.5,1.5h8.8   c0.9,0,1.5-0.7,1.5-1.5V631.7C653.4,630.9,652.7,630.2,651.8,630.2z:::id::n_id_13:::class::st1::::n_id_13_line_0,n_id_13_line_1,n_id_13_line_2,n_id_13_line_3,n_id_13_line_4,n_id_13_line_5,n_id_13_line_0,n_id_13_line_1,n_id_13_line_2,n_id_13_line_3,n_id_13_line_4

path:::d::M143.4,550.2h-8.7c-0.9,0-1.5,0.7-1.5,1.5v15c0,0.9,0.7,1.5,1.5,1.5h8.7c0.9,0,1.5-0.7,1.5-1.5v-15   C145,550.9,144.3,550.2,143.4,550.2z:::id::n_id_14:::class::st1::::n_id_14_line_0,n_id_14_line_1,n_id_14_line_2,n_id_14_line_3,n_id_14_line_0,n_id_14_line_1,n_id_14_line_2,n_id_14_line_3

path:::d::M339.6,1099.8h-15c-0.9,0-1.5,0.7-1.5,1.5v13.7c0,0.9,0.7,1.5,1.5,1.5h15c0.9,0,1.5-0.7,1.5-1.5v-13.7   C341.1,1100.5,340.4,1099.8,339.6,1099.8z:::id::n_id_15:::class::st1::::n_id_15_line_0,n_id_15_line_1,n_id_15_line_2,n_id_15_line_3,n_id_15_line_0,n_id_15_line_1,n_id_15_line_2,n_id_15_line_3

polyline:::points::82.3,980.1 82.3,885.2 85,885.2  :::class::st2:::id::n_id_17::::n_id_17_line_0,n_id_17_line_1

polyline:::points::82.3,990.1 82.3,1085 85,1085  :::class::st2:::id::n_id_21::::n_id_21_line_0,n_id_21_line_1

polyline:::points::337.1,1117.5 432,1117.5 432,1114.6  :::class::st2:::id::n_id_30::::n_id_30_line_0,n_id_30_line_1

polyline:::points::222.2,1117.5 127.2,1117.5 127.2,1114.4  :::class::st2:::id::n_id_34::::n_id_34_line_0,n_id_34_line_1

polyline:::points::641.8,796 695.8,814 700.7,802.1 702.3,830.4 706.3,817.6 768.4,839.3  :::class::st2:::id::n_id_37::::n_id_37_line_0,n_id_37_line_1,n_id_37_line_2,n_id_37_line_3,n_id_37_line_4

polyline:::points::641.8,758.7 695.8,776.6 700.7,764.8 702.3,793.1 706.3,780.2 768.4,802  :::class::st2:::id::n_id_38::::n_id_38_line_0,n_id_38_line_1,n_id_38_line_2,n_id_38_line_3,n_id_38_line_4

polyline:::points::757.9,920.2 651.8,920.2 651.8,872.9  :::class::st2:::id::n_id_40::::n_id_40_line_0,n_id_40_line_1

polyline:::points::668,1146.3 604.5,1082.7 601.4,1085.8 664.9,1149.4 668,1146.3  :::class::st2:::id::n_id_45::::n_id_45_line_0,n_id_45_line_1,n_id_45_line_2,n_id_45_line_3

path:::d::M604.3,1082.6c-16.9,16.9-26.4,39.8-26.4,63.6:::id::n_id_46:::class::st2::::n_id_46_line_0

polyline:::points::671.8,1154.1 671.8,1168.8 574.4,1168.8 574.4,1155.2  :::class::st2:::id::n_id_47::::n_id_47_line_0,n_id_47_line_1,n_id_47_line_2

polyline:::points::704.9,745.4 704.9,579.9 599.6,579.9  :::class::st2:::id::n_id_56::::n_id_56_line_0,n_id_56_line_1

polyline:::points::659.3,624.2 584.7,624.2 584.7,627.9  :::class::st2:::id::n_id_64::::n_id_64_line_0,n_id_64_line_1

polyline:::points::203.4,79.7 203.4,409.4 143.9,409.4  :::class::st2:::id::n_id_69::::n_id_69_line_0,n_id_69_line_1

rect:::width::101.6:::y::199.6:::x::308.3:::height::209.8:::class::st2:::id::n_id_70::::n_id_70_line_0,n_id_70_line_1,n_id_70_line_2,n_id_70_line_3

polyline:::points::143.4,7.2 240.8,7.2 240.8,13.3  :::class::st2:::id::n_id_72::::n_id_72_line_0,n_id_72_line_1

polyline:::points::130.9,19.7 130.9,117.1 134.5,117.1  :::class::st2:::id::n_id_76::::n_id_76_line_0,n_id_76_line_1

rect:::width::79.9:::y::211:::x::593.1:::height::4.4:::class::st2:::id::n_id_81::::n_id_81_line_0,n_id_81_line_1,n_id_81_line_2,n_id_81_line_3

path:::d::M673,215.3c0-44.2-35.8-80-80-80:::id::n_id_82:::class::st2::::n_id_82_line_0

polyline:::points::757.9,277 653,277 653,233.3  :::class::st2:::id::n_id_83::::n_id_83_line_0,n_id_83_line_1

polyline:::points::747.9,225.4 698.5,175.9 695.4,179 744.8,228.5 747.9,225.4  :::class::st2:::id::n_id_84::::n_id_84_line_0,n_id_84_line_1,n_id_84_line_2,n_id_84_line_3

path:::d::M698.4,175.8c-13.1,13.1-20.5,30.9-20.5,49.5:::id::n_id_85:::class::st2::::n_id_85_line_0

rect:::width::69.9:::y::486.2:::x::593.1:::height::4.3:::class::st2:::id::n_id_86::::n_id_86_line_0,n_id_86_line_1,n_id_86_line_2,n_id_86_line_3

path:::d::M663,490.5c0-38.7-31.3-70-70-70:::id::n_id_87:::class::st2::::n_id_87_line_0

polyline:::points::524.4,217 524.4,273.2 584.6,273.2  :::class::st2:::id::n_id_88::::n_id_88_line_0,n_id_88_line_1

path:::d::M717.3,504.3l3-0.2l3-0.6c29.1-8.6,28.4-56.6-1.5-63.7l-3-0.4h-3c-32.3,3.6-35.1,55.1-4.5,64.1l3,0.6   L717.3,504.3:::id::n_id_90:::class::st2::::n_id_90_line_0,n_id_90_line_1,n_id_90_line_2,n_id_90_line_3,n_id_90_line_4,n_id_90_line_5,n_id_90_line_0,n_id_90_line_1

path:::d::M714.5,497.8l2.7-0.2l2.7-0.5c22.5-7.5,22-44.8-1.3-50.9l-2.7-0.4h-2.7c-25.5,3.1-27.8,43.3-4,51.3l2.6,0.5   L714.5,497.8:::id::n_id_91:::class::st2::::n_id_91_line_0,n_id_91_line_1,n_id_91_line_2,n_id_91_line_3,n_id_91_line_4,n_id_91_line_5,n_id_91_line_0,n_id_91_line_1

polyline:::points::734.2,13.9 734.2,7.2 681.8,7.2 681.8,12.2  :::class::st2:::id::n_id_93::::n_id_93_line_0,n_id_93_line_1,n_id_93_line_2

polyline:::points::136.7,124.6 130.9,124.6 130.9,222 135,222  :::class::st2:::id::n_id_95::::n_id_95_line_0,n_id_95_line_1,n_id_95_line_2

polyline:::points::136.7,490.4 130.9,490.4 130.9,627.3 135,627.3  :::class::st2:::id::n_id_96::::n_id_96_line_0,n_id_96_line_1,n_id_96_line_2

polyline:::points::207.1,275.1 207.1,215.1 204.6,215.1   :::class::st4:::id::n_id_99::::n_id_99_line_0,n_id_99_line_1

polyline:::points::204.6,215.1 147.2,215.1 147.2,275.1 204.6,275.1   :::class::st3:::id::n_id_101::::n_id_101_line_0,n_id_101_line_1,n_id_101_line_2

rect:::width::88.2:::y::19.8:::x::365.6:::height::62.1:::class::st4:::id::n_id_103::::n_id_103_line_0,n_id_103_line_1,n_id_103_line_2,n_id_103_line_3

path:::d::M726.9,416.8c-3.2-1.6-6.1-2.9-9.6-3.2c-3.5-0.3-6.4,0-9.8,0.8:::id::n_id_110:::class::st4::::n_id_110_line_0,n_id_110_line_1

path:::d::M685.1,380.4c-2.8,1.7-4.9,3.4-6.7,6.2c-1.9,3-2.8,5.5-3.3,9:::id::n_id_111:::class::st4::::n_id_111_line_0,n_id_111_line_1

path:::d::M675.1,395.8c0.5,3.3,1.3,6,3.2,8.9c1.9,2.8,4.1,4.6,6.8,6.5:::id::n_id_112:::class::st4::::n_id_112_line_0,n_id_112_line_1

path:::d::M730.7,376.8c-1.6,6.5-2.8,12.8-3.8,19.4:::id::n_id_114:::class::st4::::n_id_114_line_0

path:::d::M707.5,377.2c3.3,0.7,6.4,1.2,9.8,0.7c3.5-0.5,6.5-1.7,9.6-3.3:::id::n_id_115:::class::st4::::n_id_115_line_0,n_id_115_line_1

path:::d::M744.3,380c-1.1-6-6.1-9.1-12-8:::id::n_id_116:::class::st4::::n_id_116_line_0

path:::d::M730.7,376.8c1.5-1.6,4.8-1.5,6.9-0.9c2.7,0.8,4.6,2.2,6.7,4.1v31.4c-1.8,1.8-3.5,3.3-6,4    c-2.6,0.7-4.8,0.5-7.4,0:::id::n_id_117:::class::st4::::n_id_117_line_0,n_id_117_line_0,n_id_117_line_1,n_id_117_line_2,n_id_117_line_3

path:::d::M727.7,375c-0.5-0.1-0.8,0.1-0.8,0.6:::id::n_id_120:::class::st4::::n_id_120_line_0

path:::d::M716.5,380.6c-5.1-2.4-9.9-4.2-15.6-4.2c-5.7,0-10.6,1.7-15.8,4:::id::n_id_121:::class::st4::::n_id_121_line_0,n_id_121_line_1

path:::d::M716.5,411c3.2-2.6,4.8-5.1,5.4-9.2v-12.2c-0.6-4-2.1-6.6-5.4-9:::id::n_id_122:::class::st4::::n_id_122_line_0,n_id_122_line_0,n_id_122_line_1

path:::d::M726.9,416.8c3.3,1.7,6.5,4.1,10.3,2.7c4-1.5,6.3-3.8,7.1-8.1:::id::n_id_123:::class::st4::::n_id_123_line_0,n_id_123_line_1

path:::d::M726.9,396.2c1.1,6.5,2.4,12.8,4,19.2:::id::n_id_125:::class::st4::::n_id_125_line_0

path:::d::M726.9,416c0.1,0.4,0.4,0.6,0.8,0.6:::id::n_id_127:::class::st4::::n_id_127_line_0

path:::d::M685.1,411.2c2.6,1.1,4.9,2.2,7.6,2.8c2.7,0.6,5.4,0.9,8.1,1.2c2.4,0.3,5.3-0.6,7.6-1.2c2.8-0.8,5.3-1.8,8-3:::id::n_id_128:::class::st4::::n_id_128_line_0,n_id_128_line_1,n_id_128_line_2,n_id_128_line_3

path:::d::M687.9,406c4.1,1.8,8.2,3.2,12.8,3.2c4.6,0,8.7-1.5,12.8-3.4:::id::n_id_129:::class::st4::::n_id_129_line_0,n_id_129_line_1

path:::d::M713.5,385.8c-4.2-1.9-8.1-3.3-12.8-3.4c-4.7-0.1-8.6,1.4-12.8,3.2:::id::n_id_130:::class::st4::::n_id_130_line_0,n_id_130_line_1

polyline:::points::715.9,395.8 715.9,401.8 715.9,399   :::class::st4:::id::n_id_131::::n_id_131_line_0,n_id_131_line_1

path:::d::M719.3,400.4c-0.2-0.8-0.6-1.2-1.4-1.4:::id::n_id_132:::class::st4::::n_id_132_line_0

path:::d::M719.3,390.8c-0.2-0.7-0.7-1.1-1.4-1.2:::id::n_id_133:::class::st4::::n_id_133_line_0

path:::d::M715.9,392.4c0-2.8-0.1-4.7-2.4-6.6:::id::n_id_135:::class::st4::::n_id_135_line_0

path:::d::M715.9,392.4c1.3,0,3.4,0.3,3.4-1.6:::id::n_id_137:::class::st4::::n_id_137_line_0

path:::d::M713.5,405.8c1.4-1.2,1.9-2.1,2.4-3.9c0.2-0.7,3.3,0.6,3.4-1.5:::id::n_id_139:::class::st4::::n_id_139_line_0,n_id_139_line_1

path:::d::M681.7,395.8c0.3,2.2,0.6,3.9,1.8,5.8c1.2,1.8,2.8,3.1,4.4,4.4:::id::n_id_140:::class::st4::::n_id_140_line_0,n_id_140_line_1

path:::d::M687.9,385.6c-3.5,2.7-6,5.6-6.2,10.2:::id::n_id_141:::class::st4::::n_id_141_line_0

polyline:::points::518.3,326.9 518.3,373.1 523.3,373.1 523.3,278.2 518.3,278.2 518.3,324.4   :::class::st3:::id::n_id_148::::n_id_148_line_0,n_id_148_line_1,n_id_148_line_2,n_id_148_line_3,n_id_148_line_4

path:::d::M198.1,131.2h-47.5c-2.4,0-2.5,2.5-2.5,2.5v74.9c0,0-0.4,2.5,2.5,2.5h47.5c1.9,0,2.5-2.5,2.5-2.5v-74.9    C200.6,133.7,200.4,131.2,198.1,131.2z:::id::n_id_153:::class::st4::::n_id_153_line_0,n_id_153_line_1,n_id_153_line_2,n_id_153_line_3,n_id_153_line_0,n_id_153_line_1,n_id_153_line_2,n_id_153_line_3

path:::d::M158.2,178.7v25c0,0-0.6,5,5,5h30c0,0,5,0.3,5-5v-25c0,0,0.4-5-5-5h-30C163.2,173.7,158.2,173.1,158.2,178.7z    :::id::n_id_154:::class::st4::::n_id_154_line_0,n_id_154_line_1,n_id_154_line_2,n_id_154_line_3,n_id_154_line_0,n_id_154_line_1,n_id_154_line_2,n_id_154_line_3

path:::d::M158.2,138.7v25c0,0-0.6,5,5,5h30c0,0,5,0.3,5-5v-25c0,0,0.4-5-5-5h-30C163.2,133.7,158.2,133.1,158.2,138.7z    :::id::n_id_156:::class::st4::::n_id_156_line_0,n_id_156_line_1,n_id_156_line_2,n_id_156_line_3,n_id_156_line_0,n_id_156_line_1,n_id_156_line_2,n_id_156_line_3

polygon:::points::724.2,738 723,735.8 705,745 687,735.8 686,738 705,747.8  :::class::st5:::id::n_id_158::::n_id_158_line_0,n_id_158_line_1,n_id_158_line_2,n_id_158_line_3,n_id_158_line_4,n_id_158_line_5

polygon:::points::686,858.1 687.2,860.3 705.2,851.1 723.2,860.3 724.2,858.1 705.2,848.3  :::class::st5:::id::n_id_159::::n_id_159_line_0,n_id_159_line_1,n_id_159_line_2,n_id_159_line_3,n_id_159_line_4,n_id_159_line_5

polyline:::points::584.6,49.7 247.1,49.7 247.1,19.7  :::class::st3:::id::n_id_166::::n_id_166_line_0,n_id_166_line_1

polyline:::points::112.3,1114.4 112.3,1327.3 165.9,1327.3 165.9,1362.3 73.5,1362.3 73.5,1115 88.2,1115  :::class::st2:::id::n_id_169::::n_id_169_line_0,n_id_169_line_1,n_id_169_line_2,n_id_169_line_3,n_id_169_line_4,n_id_169_line_5

polyline:::points::247.1,1354.8 247.1,1359.8 249.6,1359.8 249.6,1354.8  :::class::st2:::id::n_id_172::::n_id_172_line_0,n_id_172_line_1,n_id_172_line_2

polyline:::points::606.9,1354.8 606.9,1359.8 609.3,1359.8 609.3,1354.8  :::class::st2:::id::n_id_180::::n_id_180_line_0,n_id_180_line_1,n_id_180_line_2

polyline:::points::750.4,1157.9 750.4,1327.3 690.5,1327.3 690.5,1362.3 773.3,1362.3 773.3,1157.9  :::class::st2:::id::n_id_181::::n_id_181_line_0,n_id_181_line_1,n_id_181_line_2,n_id_181_line_3,n_id_181_line_4

rect:::width::72.7:::y::34:::x::601.9:::height::83.8:::class::st3:::id::n_id_184::::n_id_184_line_0,n_id_184_line_1,n_id_184_line_2,n_id_184_line_3

rect:::width::72.7:::y::34:::x::678.5:::height::83.8:::class::st3:::id::n_id_185::::n_id_185_line_0,n_id_185_line_1,n_id_185_line_2,n_id_185_line_3

path:::d::M194.4,259.4h-12v-2.5c0-1.8,0.1-3.1,0.4-3.9c0.4-1.2,1.1-2.1,2.1-2.7s2.2-1,3.6-1c1.2,0,2.3,0.3,3.2,0.8    c0.9,0.5,1.6,1.2,2,2s0.7,2,0.7,3.5V259.4z M193.3,258.3v-1.4c0-1.7-0.1-2.8-0.3-3.4c-0.3-0.9-0.8-1.6-1.6-2.1    c-0.8-0.5-1.7-0.8-2.8-0.8c-1.2,0-2.1,0.3-3,0.8c-0.8,0.6-1.4,1.3-1.7,2.3c-0.2,0.7-0.3,2-0.3,3.7v0.8H193.3z:::id::n_id_187:::class::st1::::n_id_187_line_0,n_id_187_line_1,n_id_187_line_2,n_id_187_line_3,n_id_187_line_4,n_id_187_line_5,n_id_187_line_6,n_id_187_line_0,n_id_187_line_1,n_id_187_line_2,n_id_187_line_3,n_id_187_line_4,n_id_187_line_5,n_id_187_line_6,n_id_187_line_7,n_id_187_line_8,n_id_187_line_9,n_id_187_line_10,n_id_187_line_11

path:::d::M182.5,247.7v-1.2l8.6-2.4l-8.6-3.4v-0.2l8.6-3.4l-8.6-2.5v-1.2l12,3.4v0.2l-9,3.5l9,3.6v0.2L182.5,247.7z:::id::n_id_188:::class::st1::::n_id_188_line_0,n_id_188_line_1,n_id_188_line_2,n_id_188_line_3,n_id_188_line_4,n_id_188_line_5,n_id_188_line_6,n_id_188_line_7,n_id_188_line_8,n_id_188_line_9,n_id_188_line_10,n_id_188_line_11,n_id_188_line_12

path:::d::M547,341v-2.4c0-1.3,0.1-2.2,0.2-2.7c0.2-0.7,0.5-1.3,1-1.7c0.5-0.4,1.2-0.7,2-0.7c0.7,0,1.2,0.2,1.7,0.5    c0.5,0.3,0.9,0.7,1.1,1.3c0.3,0.6,0.4,1.4,0.4,2.4l5.6-4.3v1.5l-5.6,4.3v0.7h5.6v1.2H547z M548.2,339.8h4.1l0-2.1    c0-0.8-0.1-1.4-0.2-1.8c-0.2-0.4-0.4-0.7-0.7-0.9c-0.3-0.2-0.7-0.3-1.1-0.3c-0.4,0-0.8,0.1-1.1,0.3c-0.3,0.2-0.6,0.5-0.7,0.9    c-0.1,0.4-0.2,0.9-0.2,1.8V339.8z:::id::n_id_190:::class::st1::::n_id_190_line_0,n_id_190_line_1,n_id_190_line_2,n_id_190_line_3,n_id_190_line_4,n_id_190_line_5,n_id_190_line_6,n_id_190_line_7,n_id_190_line_8,n_id_190_line_9,n_id_190_line_10,n_id_190_line_11,n_id_190_line_12,n_id_190_line_0,n_id_190_line_1,n_id_190_line_2,n_id_190_line_3,n_id_190_line_4,n_id_190_line_5,n_id_190_line_6,n_id_190_line_7,n_id_190_line_8,n_id_190_line_9,n_id_190_line_10,n_id_190_line_11

path:::d::M547,330.9v-6.9h1.2v5.7h3.7v-5.6h1.2v5.6h4.7v-5.6h1.2v6.8H547z:::id::n_id_191:::class::st1::::n_id_191_line_0,n_id_191_line_1,n_id_191_line_2,n_id_191_line_3,n_id_191_line_4,n_id_191_line_5,n_id_191_line_6,n_id_191_line_7,n_id_191_line_8,n_id_191_line_9,n_id_191_line_10,n_id_191_line_11

path:::d::M547,322v-6h1.2v4.8h3.7V316h1.2v4.8h5.9v1.2H547z:::id::n_id_192:::class::st1::::n_id_192_line_0,n_id_192_line_1,n_id_192_line_2,n_id_192_line_3,n_id_192_line_4,n_id_192_line_5,n_id_192_line_6,n_id_192_line_7,n_id_192_line_8,n_id_192_line_9

path:::d::M557.2,314.2c0-0.3,0.1-0.5,0.3-0.7c0.2-0.2,0.4-0.3,0.7-0.3c0.3,0,0.5,0.1,0.7,0.3c0.2,0.2,0.3,0.4,0.3,0.7    c0,0.3-0.1,0.5-0.3,0.7c-0.2,0.2-0.4,0.3-0.7,0.3c-0.3,0-0.5-0.1-0.7-0.3C557.3,314.7,557.2,314.5,557.2,314.2z:::id::n_id_193:::class::st1::::n_id_193_line_0,n_id_193_line_1,n_id_193_line_2,n_id_193_line_3,n_id_193_line_4,n_id_193_line_5,n_id_193_line_6,n_id_193_line_7

path:::d::M633.4,72.3h1.2l2.4,8.6l3.4-8.6h0.2l3.4,8.6l2.5-8.6h1.2l-3.4,12h-0.2l-3.5-9.1l-3.6,9.1h-0.2L633.4,72.3z:::id::n_id_195:::class::st1::::n_id_195_line_0,n_id_195_line_1,n_id_195_line_2,n_id_195_line_3,n_id_195_line_4,n_id_195_line_5,n_id_195_line_6,n_id_195_line_7,n_id_195_line_8,n_id_195_line_9,n_id_195_line_10,n_id_195_line_11,n_id_195_line_12

path:::d::M710.3,84.2v-12h2.5c1.8,0,3.1,0.1,3.9,0.4c1.2,0.4,2.1,1.1,2.7,2.1s1,2.2,1,3.6c0,1.2-0.3,2.3-0.8,3.2    s-1.2,1.6-2,2c-0.8,0.4-2,0.7-3.5,0.7H710.3z M711.4,83.1h1.4c1.7,0,2.8-0.1,3.4-0.3c0.9-0.3,1.6-0.8,2.1-1.6    c0.5-0.8,0.8-1.7,0.8-2.8c0-1.2-0.3-2.1-0.8-3c-0.6-0.8-1.3-1.4-2.3-1.7c-0.7-0.2-2-0.3-3.7-0.3h-0.8V83.1z:::id::n_id_197:::class::st1::::n_id_197_line_0,n_id_197_line_1,n_id_197_line_2,n_id_197_line_3,n_id_197_line_4,n_id_197_line_5,n_id_197_line_6,n_id_197_line_0,n_id_197_line_1,n_id_197_line_2,n_id_197_line_3,n_id_197_line_4,n_id_197_line_5,n_id_197_line_6,n_id_197_line_7,n_id_197_line_8,n_id_197_line_9,n_id_197_line_10,n_id_197_line_11

path:::d::M698.7,932.3h1.2v7.2c0,0.9,0,1.4,0,1.6c0.1,0.5,0.2,0.9,0.4,1.2c0.2,0.3,0.5,0.6,1,0.8s0.9,0.3,1.4,0.3    c0.4,0,0.8-0.1,1.1-0.3c0.4-0.2,0.7-0.4,0.9-0.7c0.2-0.3,0.4-0.7,0.5-1.1c0.1-0.3,0.1-0.9,0.1-1.9v-7.2h1.2v7.2    c0,1.1-0.1,1.9-0.3,2.6c-0.2,0.7-0.6,1.2-1.3,1.7c-0.6,0.5-1.4,0.7-2.3,0.7c-1,0-1.8-0.2-2.5-0.7c-0.7-0.5-1.1-1.1-1.4-1.8    c-0.1-0.5-0.2-1.3-0.2-2.5V932.3z:::id::n_id_199:::class::st1::::n_id_199_line_0,n_id_199_line_1,n_id_199_line_2,n_id_199_line_3,n_id_199_line_4,n_id_199_line_5,n_id_199_line_6,n_id_199_line_0,n_id_199_line_1,n_id_199_line_2,n_id_199_line_3,n_id_199_line_4,n_id_199_line_5,n_id_199_line_6,n_id_199_line_7,n_id_199_line_8,n_id_199_line_9,n_id_199_line_10,n_id_199_line_11,n_id_199_line_12,n_id_199_line_13

path:::d::M709.6,932.3h2.4c1.4,0,2.3,0.1,2.8,0.2c0.7,0.2,1.2,0.5,1.7,1c0.4,0.5,0.7,1.2,0.7,2c0,0.8-0.2,1.5-0.6,2    s-1,0.9-1.7,1c-0.5,0.1-1.6,0.2-3,0.2h-0.9v5.6h-1.2V932.3z M710.8,933.4v4.1l2,0c0.8,0,1.4-0.1,1.8-0.2c0.4-0.1,0.7-0.4,0.9-0.7    c0.2-0.3,0.3-0.7,0.3-1.1c0-0.4-0.1-0.8-0.3-1.1c-0.2-0.3-0.5-0.6-0.9-0.7s-0.9-0.2-1.7-0.2H710.8z:::id::n_id_200:::class::st1::::n_id_200_line_0,n_id_200_line_1,n_id_200_line_2,n_id_200_line_3,n_id_200_line_4,n_id_200_line_5,n_id_200_line_6,n_id_200_line_7,n_id_200_line_8,n_id_200_line_9,n_id_200_line_0,n_id_200_line_1,n_id_200_line_2,n_id_200_line_3,n_id_200_line_4,n_id_200_line_5,n_id_200_line_6,n_id_200_line_7,n_id_200_line_8,n_id_200_line_9,n_id_200_line_10,n_id_200_line_11

path:::d::M259.2,579.1v-21.5h4.5c3.2,0,5.6,0.3,7,0.8c2.1,0.7,3.7,2,4.9,3.8c1.2,1.8,1.8,4,1.8,6.5    c0,2.2-0.5,4.1-1.4,5.7s-2.1,2.8-3.6,3.6s-3.6,1.2-6.3,1.2H259.2z M261.3,577.1h2.5c3,0,5-0.2,6.2-0.6c1.6-0.5,2.9-1.5,3.8-2.8    c0.9-1.4,1.4-3,1.4-5c0-2.1-0.5-3.9-1.5-5.3c-1-1.5-2.4-2.5-4.2-3c-1.3-0.4-3.6-0.6-6.7-0.6h-1.5V577.1z:::id::n_id_202:::class::st1::::n_id_202_line_0,n_id_202_line_1,n_id_202_line_2,n_id_202_line_3,n_id_202_line_4,n_id_202_line_5,n_id_202_line_6,n_id_202_line_0,n_id_202_line_1,n_id_202_line_2,n_id_202_line_3,n_id_202_line_4,n_id_202_line_5,n_id_202_line_6,n_id_202_line_7,n_id_202_line_8,n_id_202_line_9,n_id_202_line_10,n_id_202_line_11

path:::d::M281.2,557.6h2.2v21.5h-2.2V557.6z:::id::n_id_203:::class::st1::::n_id_203_line_0,n_id_203_line_1,n_id_203_line_2,n_id_203_line_3

path:::d::M288.3,579.1v-21.5h0.5l14.3,16.5v-16.5h2.1v21.5h-0.5l-14.2-16.3v16.3H288.3z:::id::n_id_204:::class::st1::::n_id_204_line_0,n_id_204_line_1,n_id_204_line_2,n_id_204_line_3,n_id_204_line_4,n_id_204_line_5,n_id_204_line_6,n_id_204_line_7,n_id_204_line_8,n_id_204_line_9

path:::d::M310.1,557.6h2.2v21.5h-2.2V557.6z:::id::n_id_205:::class::st1::::n_id_205_line_0,n_id_205_line_1,n_id_205_line_2,n_id_205_line_3

path:::d::M317.2,579.1v-21.5h0.5l14.3,16.5v-16.5h2.1v21.5h-0.5l-14.2-16.3v16.3H317.2z:::id::n_id_206:::class::st1::::n_id_206_line_0,n_id_206_line_1,n_id_206_line_2,n_id_206_line_3,n_id_206_line_4,n_id_206_line_5,n_id_206_line_6,n_id_206_line_7,n_id_206_line_8,n_id_206_line_9

path:::d::M360.2,561.2l-1.7,1.6c-1.2-1.2-2.5-2.1-3.9-2.7c-1.4-0.6-2.8-0.9-4.2-0.9c-1.7,0-3.3,0.4-4.8,1.2    c-1.5,0.8-2.7,2-3.5,3.4c-0.8,1.4-1.3,2.9-1.3,4.5c0,1.6,0.4,3.2,1.3,4.6c0.9,1.5,2.1,2.6,3.6,3.4c1.5,0.8,3.2,1.3,5,1.3    c2.2,0,4.1-0.6,5.6-1.9c1.5-1.2,2.4-2.9,2.7-4.9h-6.9v-2.1h9.3c0,3.3-1,6-3,7.9c-2,2-4.6,2.9-7.9,2.9c-4,0-7.1-1.4-9.5-4.1    c-1.8-2.1-2.7-4.5-2.7-7.2c0-2,0.5-3.9,1.5-5.7s2.4-3.1,4.2-4.1c1.8-1,3.8-1.5,6.1-1.5c1.8,0,3.5,0.3,5.2,1    C357.1,558.7,358.6,559.8,360.2,561.2z:::id::n_id_207:::class::st1::::n_id_207_line_0,n_id_207_line_1,n_id_207_line_2,n_id_207_line_3,n_id_207_line_0,n_id_207_line_1,n_id_207_line_2,n_id_207_line_3,n_id_207_line_4,n_id_207_line_5,n_id_207_line_6,n_id_207_line_7,n_id_207_line_8,n_id_207_line_9,n_id_207_line_10,n_id_207_line_11,n_id_207_line_12,n_id_207_line_13,n_id_207_line_14,n_id_207_line_15,n_id_207_line_16,n_id_207_line_17,n_id_207_line_18

path:::d::M293.4,887.7h2.2v19.5h8.3v2.1h-10.4V887.7z:::id::n_id_209:::class::st1::::n_id_209_line_0,n_id_209_line_1,n_id_209_line_2,n_id_209_line_3,n_id_209_line_4,n_id_209_line_5,n_id_209_line_6

path:::d::M306.9,887.7h2.2v21.5h-2.2V887.7z:::id::n_id_210:::class::st1::::n_id_210_line_0,n_id_210_line_1,n_id_210_line_2,n_id_210_line_3

path:::d::M312.4,887.7h2.3l7.1,16.6l7.3-16.6h2.3l-9.4,21.5h-0.5L312.4,887.7z:::id::n_id_211:::class::st1::::n_id_211_line_0,n_id_211_line_1,n_id_211_line_2,n_id_211_line_3,n_id_211_line_4,n_id_211_line_5,n_id_211_line_6

path:::d::M334.7,887.7h2.2v21.5h-2.2V887.7z:::id::n_id_212:::class::st1::::n_id_212_line_0,n_id_212_line_1,n_id_212_line_2,n_id_212_line_3

path:::d::M341.8,909.3v-21.5h0.5l14.3,16.5v-16.5h2.1v21.5h-0.5L344.1,893v16.3H341.8z:::id::n_id_213:::class::st1::::n_id_213_line_0,n_id_213_line_1,n_id_213_line_2,n_id_213_line_3,n_id_213_line_4,n_id_213_line_5,n_id_213_line_6,n_id_213_line_7,n_id_213_line_8,n_id_213_line_9

path:::d::M384.8,891.4l-1.7,1.6c-1.2-1.2-2.5-2.1-3.9-2.7c-1.4-0.6-2.8-0.9-4.2-0.9c-1.7,0-3.3,0.4-4.8,1.2    c-1.5,0.8-2.7,2-3.5,3.4c-0.8,1.4-1.3,2.9-1.3,4.5c0,1.6,0.4,3.2,1.3,4.6c0.9,1.5,2.1,2.6,3.6,3.4c1.5,0.8,3.2,1.3,5,1.3    c2.2,0,4.1-0.6,5.6-1.9c1.5-1.2,2.4-2.9,2.7-4.9h-6.9V899h9.3c0,3.3-1,6-3,7.9c-2,2-4.6,2.9-7.9,2.9c-4,0-7.1-1.4-9.5-4.1    c-1.8-2.1-2.7-4.5-2.7-7.2c0-2,0.5-3.9,1.5-5.7s2.4-3.1,4.2-4.1c1.8-1,3.8-1.5,6.1-1.5c1.8,0,3.5,0.3,5.2,1    C381.7,888.9,383.2,889.9,384.8,891.4z:::id::n_id_214:::class::st1::::n_id_214_line_0,n_id_214_line_1,n_id_214_line_2,n_id_214_line_3,n_id_214_line_0,n_id_214_line_1,n_id_214_line_2,n_id_214_line_3,n_id_214_line_4,n_id_214_line_5,n_id_214_line_6,n_id_214_line_7,n_id_214_line_8,n_id_214_line_9,n_id_214_line_10,n_id_214_line_11,n_id_214_line_12,n_id_214_line_13,n_id_214_line_14,n_id_214_line_15,n_id_214_line_16,n_id_214_line_17,n_id_214_line_18

path:::d::M362.1,1255.9v-21.5h4.5c3.2,0,5.6,0.3,7,0.8c2.1,0.7,3.7,2,4.9,3.8c1.2,1.8,1.8,4,1.8,6.5    c0,2.2-0.5,4.1-1.4,5.7s-2.1,2.8-3.6,3.6s-3.6,1.2-6.3,1.2H362.1z M364.2,1253.8h2.5c3,0,5-0.2,6.2-0.6c1.6-0.5,2.9-1.5,3.8-2.8    c0.9-1.4,1.4-3,1.4-5c0-2.1-0.5-3.9-1.5-5.3c-1-1.5-2.4-2.5-4.2-3c-1.3-0.4-3.6-0.6-6.7-0.6h-1.5V1253.8z:::id::n_id_216:::class::st1::::n_id_216_line_0,n_id_216_line_1,n_id_216_line_2,n_id_216_line_3,n_id_216_line_4,n_id_216_line_5,n_id_216_line_6,n_id_216_line_0,n_id_216_line_1,n_id_216_line_2,n_id_216_line_3,n_id_216_line_4,n_id_216_line_5,n_id_216_line_6,n_id_216_line_7,n_id_216_line_8,n_id_216_line_9,n_id_216_line_10,n_id_216_line_11

path:::d::M384.5,1234.3h12.3v2.1h-10.2v6.7h10.1v2.1h-10.1v8.5h10.1v2.1h-12.3V1234.3z:::id::n_id_217:::class::st1::::n_id_217_line_0,n_id_217_line_1,n_id_217_line_2,n_id_217_line_3,n_id_217_line_4,n_id_217_line_5,n_id_217_line_6,n_id_217_line_7,n_id_217_line_8,n_id_217_line_9,n_id_217_line_10,n_id_217_line_11,n_id_217_line_12

path:::d::M420.6,1238.3l-1.7,1.3c-0.9-1.2-2.1-2.1-3.4-2.8c-1.3-0.6-2.8-0.9-4.3-0.9c-1.7,0-3.3,0.4-4.8,1.2    c-1.5,0.8-2.6,1.9-3.4,3.3c-0.8,1.4-1.2,3-1.2,4.7c0,2.6,0.9,4.8,2.7,6.6c1.8,1.8,4.1,2.6,6.8,2.6c3,0,5.5-1.2,7.6-3.5l1.7,1.3    c-1.1,1.4-2.4,2.4-4,3.2c-1.6,0.7-3.4,1.1-5.4,1.1c-3.8,0-6.7-1.3-8.9-3.8c-1.8-2.1-2.7-4.7-2.7-7.7c0-3.2,1.1-5.8,3.3-8    c2.2-2.2,5-3.2,8.3-3.2c2,0,3.8,0.4,5.4,1.2C418.2,1235.8,419.5,1236.9,420.6,1238.3z:::id::n_id_218:::class::st1::::n_id_218_line_0,n_id_218_line_1,n_id_218_line_0,n_id_218_line_1,n_id_218_line_2,n_id_218_line_3,n_id_218_line_4,n_id_218_line_5,n_id_218_line_6,n_id_218_line_7,n_id_218_line_8,n_id_218_line_9,n_id_218_line_10,n_id_218_line_11,n_id_218_line_12,n_id_218_line_13,n_id_218_line_14,n_id_218_line_15

path:::d::M424.9,1234.3h2.2v8.1l8.6-8.1h2.9l-10.3,9.7l11.1,11.9h-2.9l-9.4-10v10h-2.2V1234.3z:::id::n_id_219:::class::st1::::n_id_219_line_0,n_id_219_line_1,n_id_219_line_2,n_id_219_line_3,n_id_219_line_4,n_id_219_line_5,n_id_219_line_6,n_id_219_line_7,n_id_219_line_8,n_id_219_line_9,n_id_219_line_10

path:::d::M611.8,366.8h4.3c2.5,0,4.1,0.1,5,0.3c1.2,0.3,2.2,0.9,3,1.9c0.8,0.9,1.2,2.1,1.2,3.5c0,1.4-0.4,2.6-1.1,3.5    c-0.8,0.9-1.8,1.6-3.1,1.9c-1,0.2-2.8,0.4-5.5,0.4H614v10h-2.2V366.8z M614,368.9v7.3l3.6,0c1.5,0,2.6-0.1,3.2-0.4    c0.7-0.3,1.2-0.7,1.6-1.3c0.4-0.6,0.6-1.3,0.6-2c0-0.7-0.2-1.4-0.6-2c-0.4-0.6-0.9-1-1.5-1.3c-0.6-0.3-1.7-0.4-3.1-0.4H614z:::id::n_id_221:::class::st1::::n_id_221_line_0,n_id_221_line_1,n_id_221_line_2,n_id_221_line_3,n_id_221_line_4,n_id_221_line_5,n_id_221_line_6,n_id_221_line_7,n_id_221_line_8,n_id_221_line_0,n_id_221_line_1,n_id_221_line_2,n_id_221_line_3,n_id_221_line_4,n_id_221_line_5,n_id_221_line_6,n_id_221_line_7,n_id_221_line_8,n_id_221_line_9,n_id_221_line_10,n_id_221_line_11

path:::d::M629.6,388.3v-21.5h4.5c3.2,0,5.6,0.3,7,0.8c2.1,0.7,3.7,2,4.9,3.8c1.2,1.8,1.8,4,1.8,6.5    c0,2.2-0.5,4.1-1.4,5.7s-2.1,2.8-3.6,3.6s-3.6,1.2-6.3,1.2H629.6z M631.6,386.3h2.5c3,0,5-0.2,6.2-0.6c1.6-0.5,2.9-1.5,3.8-2.8    c0.9-1.4,1.4-3,1.4-5c0-2.1-0.5-3.9-1.5-5.3c-1-1.5-2.4-2.5-4.2-3c-1.3-0.4-3.6-0.6-6.7-0.6h-1.5V386.3z:::id::n_id_222:::class::st1::::n_id_222_line_0,n_id_222_line_1,n_id_222_line_2,n_id_222_line_3,n_id_222_line_4,n_id_222_line_5,n_id_222_line_6,n_id_222_line_0,n_id_222_line_1,n_id_222_line_2,n_id_222_line_3,n_id_222_line_4,n_id_222_line_5,n_id_222_line_6,n_id_222_line_7,n_id_222_line_8,n_id_222_line_9,n_id_222_line_10,n_id_222_line_11

path:::d::M652,366.8h4.3c2.4,0,4,0.1,4.9,0.3c1.3,0.3,2.3,0.9,3.1,1.9c0.8,1,1.2,2.1,1.2,3.6c0,1.2-0.3,2.2-0.8,3.1    c-0.6,0.9-1.3,1.6-2.4,2c-1,0.5-2.4,0.7-4.2,0.7l7.7,10h-2.7l-7.7-10h-1.2v10H652V366.8z M654.1,368.9v7.3l3.7,0    c1.4,0,2.5-0.1,3.2-0.4c0.7-0.3,1.2-0.7,1.6-1.3c0.4-0.6,0.6-1.3,0.6-2c0-0.7-0.2-1.4-0.6-2c-0.4-0.6-0.9-1-1.5-1.3    c-0.6-0.3-1.7-0.4-3.2-0.4H654.1z:::id::n_id_223:::class::st1::::n_id_223_line_0,n_id_223_line_1,n_id_223_line_2,n_id_223_line_3,n_id_223_line_4,n_id_223_line_5,n_id_223_line_6,n_id_223_line_7,n_id_223_line_8,n_id_223_line_9,n_id_223_line_10,n_id_223_line_11,n_id_223_line_0,n_id_223_line_1,n_id_223_line_2,n_id_223_line_3,n_id_223_line_4,n_id_223_line_5,n_id_223_line_6,n_id_223_line_7,n_id_223_line_8,n_id_223_line_9,n_id_223_line_10,n_id_223_line_11

path:::d::M672,385.1c0.5,0,0.9,0.2,1.3,0.5c0.4,0.4,0.5,0.8,0.5,1.3c0,0.5-0.2,0.9-0.5,1.3s-0.8,0.5-1.3,0.5    c-0.5,0-0.9-0.2-1.3-0.5c-0.4-0.4-0.5-0.8-0.5-1.3c0-0.5,0.2-0.9,0.5-1.3C671.1,385.3,671.5,385.1,672,385.1z:::id::n_id_224:::class::st1::::n_id_224_line_0,n_id_224_line_1,n_id_224_line_2,n_id_224_line_3,n_id_224_line_4,n_id_224_line_5,n_id_224_line_6,n_id_224_line_7

path:::d::M678.1,138.7h2.2v19.5h8.3v2.1h-10.4V138.7z:::id::n_id_226:::class::st1::::n_id_226_line_0,n_id_226_line_1,n_id_226_line_2,n_id_226_line_3,n_id_226_line_4,n_id_226_line_5,n_id_226_line_6

path:::d::M700.7,138.7l10,21.5h-2.3l-3.4-7.1h-9.3l-3.4,7.1H690l10.2-21.5H700.7z M700.4,143.2l-3.7,7.8h7.4    L700.4,143.2z:::id::n_id_227:::class::st1::::n_id_227_line_0,n_id_227_line_1,n_id_227_line_2,n_id_227_line_3,n_id_227_line_4,n_id_227_line_5,n_id_227_line_6,n_id_227_line_7,n_id_227_line_8,n_id_227_line_9,n_id_227_line_10

path:::d::M714.2,138.7h2.2v13c0,1.5,0,2.5,0.1,2.9c0.1,0.8,0.4,1.6,0.7,2.1s1,1,1.8,1.4c0.8,0.4,1.6,0.6,2.4,0.6    c0.7,0,1.4-0.2,2-0.5c0.7-0.3,1.2-0.7,1.6-1.3c0.4-0.5,0.8-1.2,1-1.9c0.1-0.5,0.2-1.7,0.2-3.4v-13h2.2v13c0,1.9-0.2,3.5-0.6,4.7    c-0.4,1.2-1.1,2.2-2.3,3.1c-1.1,0.9-2.5,1.3-4.1,1.3c-1.7,0-3.2-0.4-4.5-1.2s-2.1-1.9-2.5-3.3c-0.3-0.8-0.4-2.4-0.4-4.5V138.7z:::id::n_id_228:::class::st1::::n_id_228_line_0,n_id_228_line_1,n_id_228_line_2,n_id_228_line_3,n_id_228_line_4,n_id_228_line_5,n_id_228_line_6,n_id_228_line_0,n_id_228_line_1,n_id_228_line_2,n_id_228_line_3,n_id_228_line_4,n_id_228_line_5,n_id_228_line_6,n_id_228_line_7,n_id_228_line_8,n_id_228_line_9,n_id_228_line_10,n_id_228_line_11,n_id_228_line_12,n_id_228_line_13

path:::d::M735.6,157c0.5,0,0.9,0.2,1.3,0.5c0.4,0.4,0.5,0.8,0.5,1.3c0,0.5-0.2,0.9-0.5,1.3s-0.8,0.5-1.3,0.5    c-0.5,0-0.9-0.2-1.3-0.5c-0.4-0.4-0.5-0.8-0.5-1.3c0-0.5,0.2-0.9,0.5-1.3C734.7,157.1,735.1,157,735.6,157z:::id::n_id_229:::class::st1::::n_id_229_line_0,n_id_229_line_1,n_id_229_line_2,n_id_229_line_3,n_id_229_line_4,n_id_229_line_5,n_id_229_line_6,n_id_229_line_7

path:::d::M277.5,138.3h2.2v8.1l8.6-8.1h2.9l-10.3,9.7l11.1,11.9h-2.9l-9.4-10v10h-2.2V138.3z:::id::n_id_231:::class::st1::::n_id_231_line_0,n_id_231_line_1,n_id_231_line_2,n_id_231_line_3,n_id_231_line_4,n_id_231_line_5,n_id_231_line_6,n_id_231_line_7,n_id_231_line_8,n_id_231_line_9,n_id_231_line_10

path:::d::M294.9,138.3h2.2v21.5h-2.2V138.3z:::id::n_id_232:::class::st1::::n_id_232_line_0,n_id_232_line_1,n_id_232_line_2,n_id_232_line_3

path:::d::M299.8,140.4v-2.1h11.8v2.1h-4.8v19.4h-2.2v-19.4H299.8z:::id::n_id_233:::class::st1::::n_id_233_line_0,n_id_233_line_1,n_id_233_line_2,n_id_233_line_3,n_id_233_line_4,n_id_233_line_5,n_id_233_line_6,n_id_233_line_7

path:::d::M334.8,142.3l-1.7,1.3c-0.9-1.2-2.1-2.1-3.4-2.8c-1.3-0.6-2.8-0.9-4.3-0.9c-1.7,0-3.3,0.4-4.8,1.2    c-1.5,0.8-2.6,1.9-3.4,3.3c-0.8,1.4-1.2,3-1.2,4.7c0,2.6,0.9,4.8,2.7,6.6c1.8,1.8,4.1,2.6,6.8,2.6c3,0,5.5-1.2,7.6-3.5l1.7,1.3    c-1.1,1.4-2.4,2.4-4,3.2c-1.6,0.7-3.4,1.1-5.4,1.1c-3.8,0-6.7-1.3-8.9-3.8c-1.8-2.1-2.7-4.7-2.7-7.7c0-3.2,1.1-5.8,3.3-8    c2.2-2.2,5-3.2,8.3-3.2c2,0,3.8,0.4,5.4,1.2C332.4,139.7,333.7,140.8,334.8,142.3z:::id::n_id_234:::class::st1::::n_id_234_line_0,n_id_234_line_1,n_id_234_line_0,n_id_234_line_1,n_id_234_line_2,n_id_234_line_3,n_id_234_line_4,n_id_234_line_5,n_id_234_line_6,n_id_234_line_7,n_id_234_line_8,n_id_234_line_9,n_id_234_line_10,n_id_234_line_11,n_id_234_line_12,n_id_234_line_13,n_id_234_line_14,n_id_234_line_15

path:::d::M339,138.3h2.2v9h11v-9h2.2v21.5h-2.2v-10.4h-11v10.4H339V138.3z:::id::n_id_235:::class::st1::::n_id_235_line_0,n_id_235_line_1,n_id_235_line_2,n_id_235_line_3,n_id_235_line_4,n_id_235_line_5,n_id_235_line_6,n_id_235_line_7,n_id_235_line_8,n_id_235_line_9,n_id_235_line_10,n_id_235_line_11

path:::d::M359.6,138.3h12.3v2.1h-10.2v6.7h10.1v2.1h-10.1v8.5h10.1v2.1h-12.3V138.3z:::id::n_id_236:::class::st1::::n_id_236_line_0,n_id_236_line_1,n_id_236_line_2,n_id_236_line_3,n_id_236_line_4,n_id_236_line_5,n_id_236_line_6,n_id_236_line_7,n_id_236_line_8,n_id_236_line_9,n_id_236_line_10,n_id_236_line_11,n_id_236_line_12

path:::d::M375.6,159.8v-21.5h0.5l14.3,16.5v-16.5h2.1v21.5h-0.5l-14.2-16.3v16.3H375.6z:::id::n_id_237:::class::st1::::n_id_237_line_0,n_id_237_line_1,n_id_237_line_2,n_id_237_line_3,n_id_237_line_4,n_id_237_line_5,n_id_237_line_6,n_id_237_line_7,n_id_237_line_8,n_id_237_line_9

path:::d::M568.3,584.2v-12h2.5c1.8,0,3.1,0.1,3.9,0.4c1.2,0.4,2.1,1.1,2.7,2.1s1,2.2,1,3.6c0,1.2-0.3,2.3-0.8,3.2    s-1.2,1.6-2,2c-0.8,0.4-2,0.7-3.5,0.7H568.3z M569.4,583.1h1.4c1.7,0,2.8-0.1,3.4-0.3c0.9-0.3,1.6-0.8,2.1-1.6    c0.5-0.8,0.8-1.7,0.8-2.8c0-1.2-0.3-2.1-0.8-3c-0.6-0.8-1.3-1.4-2.3-1.7c-0.7-0.2-2-0.3-3.7-0.3h-0.8V583.1z:::id::n_id_239:::class::st1::::n_id_239_line_0,n_id_239_line_1,n_id_239_line_2,n_id_239_line_3,n_id_239_line_4,n_id_239_line_5,n_id_239_line_6,n_id_239_line_0,n_id_239_line_1,n_id_239_line_2,n_id_239_line_3,n_id_239_line_4,n_id_239_line_5,n_id_239_line_6,n_id_239_line_7,n_id_239_line_8,n_id_239_line_9,n_id_239_line_10,n_id_239_line_11

path:::d::M580.7,584.2v-12h0.3l8,9.2v-9.2h1.2v12h-0.3l-7.9-9.1v9.1H580.7z:::id::n_id_240:::class::st1::::n_id_240_line_0,n_id_240_line_1,n_id_240_line_2,n_id_240_line_3,n_id_240_line_4,n_id_240_line_5,n_id_240_line_6,n_id_240_line_7,n_id_240_line_8,n_id_240_line_9

path:::d::M640.7,289.1h1.2l2.4,8.6l3.4-8.6h0.2l3.4,8.6l2.5-8.6h1.2l-3.4,12h-0.2L648,292l-3.6,9.1h-0.2L640.7,289.1z:::id::n_id_242:::class::st1::::n_id_242_line_0,n_id_242_line_1,n_id_242_line_2,n_id_242_line_3,n_id_242_line_4,n_id_242_line_5,n_id_242_line_6,n_id_242_line_7,n_id_242_line_8,n_id_242_line_9,n_id_242_line_10,n_id_242_line_11,n_id_242_line_12

path:::d::M661,289.1l5.6,12h-1.3l-1.9-3.9h-5.2l-1.9,3.9h-1.3l5.7-12H661z M660.9,291.6l-2,4.3h4.1L660.9,291.6z:::id::n_id_243:::class::st1::::n_id_243_line_0,n_id_243_line_1,n_id_243_line_2,n_id_243_line_3,n_id_243_line_4,n_id_243_line_5,n_id_243_line_6,n_id_243_line_7,n_id_243_line_8,n_id_243_line_9,n_id_243_line_10

path:::d::M668.5,289.1h1.2v10.8h4.6v1.2h-5.8V289.1z:::id::n_id_244:::class::st1::::n_id_244_line_0,n_id_244_line_1,n_id_244_line_2,n_id_244_line_3,n_id_244_line_4,n_id_244_line_5

path:::d::M676.2,289.1h1.2v4.5l4.8-4.5h1.6l-5.7,5.4l6.2,6.6h-1.6l-5.2-5.6v5.6h-1.2V289.1z:::id::n_id_245:::class::st1::::n_id_245_line_0,n_id_245_line_1,n_id_245_line_2,n_id_245_line_3,n_id_245_line_4,n_id_245_line_5,n_id_245_line_6,n_id_245_line_7,n_id_245_line_8,n_id_245_line_9,n_id_245_line_10,n_id_245_line_11

path:::d::M685.1,296h4.5v1h-4.5V296z:::id::n_id_246:::class::st1::::n_id_246_line_0,n_id_246_line_1,n_id_246_line_2,n_id_246_line_3

path:::d::M691.4,289.1h1.2v12h-1.2V289.1z:::id::n_id_247:::class::st1::::n_id_247_line_0,n_id_247_line_1,n_id_247_line_2,n_id_247_line_3

path:::d::M695.3,301v-12h0.3l8,9.2v-9.2h1.2v12h-0.3l-7.9-9.1v9.1H695.3z:::id::n_id_248:::class::st1::::n_id_248_line_0,n_id_248_line_1,n_id_248_line_2,n_id_248_line_3,n_id_248_line_4,n_id_248_line_5,n_id_248_line_6,n_id_248_line_7,n_id_248_line_8,n_id_248_line_9

path:::d::M644.5,309h2.4c1.4,0,2.3,0.1,2.8,0.2c0.7,0.2,1.2,0.5,1.7,1c0.4,0.5,0.7,1.2,0.7,2c0,0.8-0.2,1.5-0.6,2    s-1,0.9-1.7,1c-0.5,0.1-1.6,0.2-3,0.2h-0.9v5.6h-1.2V309z M645.7,310.2v4.1l2,0c0.8,0,1.4-0.1,1.8-0.2c0.4-0.1,0.7-0.4,0.9-0.7    c0.2-0.3,0.3-0.7,0.3-1.1c0-0.4-0.1-0.8-0.3-1.1c-0.2-0.3-0.5-0.6-0.9-0.7s-0.9-0.2-1.7-0.2H645.7z:::id::n_id_249:::class::st1::::n_id_249_line_0,n_id_249_line_1,n_id_249_line_2,n_id_249_line_3,n_id_249_line_4,n_id_249_line_5,n_id_249_line_6,n_id_249_line_7,n_id_249_line_8,n_id_249_line_9,n_id_249_line_0,n_id_249_line_1,n_id_249_line_2,n_id_249_line_3,n_id_249_line_4,n_id_249_line_5,n_id_249_line_6,n_id_249_line_7,n_id_249_line_8,n_id_249_line_9,n_id_249_line_10,n_id_249_line_11

path:::d::M658,309l5.6,12h-1.3l-1.9-3.9h-5.2l-1.9,3.9h-1.3l5.7-12H658z M657.9,311.6l-2,4.3h4.1L657.9,311.6z:::id::n_id_250:::class::st1::::n_id_250_line_0,n_id_250_line_1,n_id_250_line_2,n_id_250_line_3,n_id_250_line_4,n_id_250_line_5,n_id_250_line_6,n_id_250_line_7,n_id_250_line_8,n_id_250_line_9,n_id_250_line_10

path:::d::M665.5,321v-12h0.3l8,9.2V309h1.2v12h-0.3l-7.9-9.1v9.1H665.5z:::id::n_id_251:::class::st1::::n_id_251_line_0,n_id_251_line_1,n_id_251_line_2,n_id_251_line_3,n_id_251_line_4,n_id_251_line_5,n_id_251_line_6,n_id_251_line_7,n_id_251_line_8,n_id_251_line_9

path:::d::M676.6,310.2V309h6.6v1.2h-2.7V321h-1.2v-10.8H676.6z:::id::n_id_252:::class::st1::::n_id_252_line_0,n_id_252_line_1,n_id_252_line_2,n_id_252_line_3,n_id_252_line_4,n_id_252_line_5,n_id_252_line_6,n_id_252_line_7

path:::d::M684.9,309h2.4c1.3,0,2.2,0.1,2.7,0.2c0.7,0.2,1.3,0.5,1.7,1c0.4,0.5,0.7,1.2,0.7,2c0,0.7-0.2,1.2-0.5,1.7    c-0.3,0.5-0.7,0.9-1.3,1.1s-1.4,0.4-2.4,0.4l4.3,5.6h-1.5l-4.3-5.6h-0.7v5.6h-1.2V309z M686.1,310.2v4.1l2.1,0    c0.8,0,1.4-0.1,1.8-0.2c0.4-0.2,0.7-0.4,0.9-0.7c0.2-0.3,0.3-0.7,0.3-1.1c0-0.4-0.1-0.8-0.3-1.1c-0.2-0.3-0.5-0.6-0.9-0.7    c-0.4-0.1-0.9-0.2-1.8-0.2H686.1z:::id::n_id_253:::class::st1::::n_id_253_line_0,n_id_253_line_1,n_id_253_line_2,n_id_253_line_3,n_id_253_line_4,n_id_253_line_5,n_id_253_line_6,n_id_253_line_7,n_id_253_line_8,n_id_253_line_9,n_id_253_line_10,n_id_253_line_11,n_id_253_line_12,n_id_253_line_0,n_id_253_line_1,n_id_253_line_2,n_id_253_line_3,n_id_253_line_4,n_id_253_line_5,n_id_253_line_6,n_id_253_line_7,n_id_253_line_8,n_id_253_line_9,n_id_253_line_10,n_id_253_line_11

path:::d::M693.7,309h1.4l3.1,4.9l3-4.9h1.4l-3.8,6.2v5.7h-1.2v-5.7L693.7,309z:::id::n_id_254:::class::st1::::n_id_254_line_0,n_id_254_line_1,n_id_254_line_2,n_id_254_line_3,n_id_254_line_4,n_id_254_line_5,n_id_254_line_6,n_id_254_line_7,n_id_254_line_8

path:::d::M69.9,1419.6l2.9-1.7c2,3.7,4.4,5.6,7,5.6c1.1,0,2.2-0.3,3.2-0.8s1.8-1.2,2.3-2.1c0.5-0.9,0.8-1.8,0.8-2.8   c0-1.1-0.4-2.2-1.2-3.3c-1.1-1.5-3-3.3-5.8-5.4c-2.8-2.1-4.6-3.7-5.3-4.6c-1.2-1.6-1.8-3.3-1.8-5.2c0-1.5,0.4-2.8,1.1-4   c0.7-1.2,1.7-2.2,3-2.9c1.3-0.7,2.7-1,4.2-1c1.6,0,3.1,0.4,4.5,1.2c1.4,0.8,2.9,2.2,4.4,4.4l-2.8,2.1c-1.3-1.7-2.4-2.8-3.3-3.3   c-0.9-0.5-1.9-0.8-2.9-0.8c-1.4,0-2.5,0.4-3.3,1.2s-1.3,1.8-1.3,3.1c0,0.7,0.2,1.5,0.5,2.1c0.3,0.7,0.9,1.4,1.7,2.3   c0.4,0.4,1.9,1.6,4.4,3.4c2.9,2.2,4.9,4.1,6,5.8s1.6,3.4,1.6,5.1c0,2.5-0.9,4.6-2.8,6.4c-1.9,1.8-4.1,2.7-6.8,2.7   c-2.1,0-3.9-0.5-5.6-1.6C72.8,1424,71.3,1422.2,69.9,1419.6z:::id::n_id_256::::n_id_256_line_0,n_id_256_line_1,n_id_256_line_0,n_id_256_line_1,n_id_256_line_2,n_id_256_line_3,n_id_256_line_4,n_id_256_line_5,n_id_256_line_6,n_id_256_line_7,n_id_256_line_8,n_id_256_line_9,n_id_256_line_10,n_id_256_line_11,n_id_256_line_12,n_id_256_line_13,n_id_256_line_14,n_id_256_line_15,n_id_256_line_16,n_id_256_line_17,n_id_256_line_18,n_id_256_line_19,n_id_256_line_20,n_id_256_line_21,n_id_256_line_22,n_id_256_line_23,n_id_256_line_24,n_id_256_line_25

path:::d::M95.7,1392h19.4v3.3H99v10.6h15.9v3.3H99v13.3h15.9v3.3H95.7V1392z:::id::n_id_257::::n_id_257_line_0,n_id_257_line_1,n_id_257_line_2,n_id_257_line_3,n_id_257_line_4,n_id_257_line_5,n_id_257_line_6,n_id_257_line_7,n_id_257_line_8,n_id_257_line_9,n_id_257_line_10,n_id_257_line_11

path:::d::M151.2,1398.3l-2.7,2c-1.5-1.9-3.2-3.4-5.3-4.4c-2.1-1-4.3-1.5-6.8-1.5c-2.7,0-5.2,0.6-7.5,1.9c-2.3,1.3-4.1,3-5.3,5.2   c-1.3,2.2-1.9,4.6-1.9,7.4c0,4.1,1.4,7.6,4.2,10.3c2.8,2.8,6.4,4.1,10.7,4.1c4.7,0,8.7-1.9,11.9-5.6l2.7,2c-1.7,2.1-3.8,3.8-6.3,5   c-2.5,1.2-5.3,1.8-8.5,1.8c-5.9,0-10.6-2-14-5.9c-2.9-3.3-4.3-7.3-4.3-12.1c0-5,1.7-9.1,5.2-12.5c3.5-3.4,7.8-5.1,13.1-5.1   c3.2,0,6,0.6,8.6,1.9S149.6,1396.1,151.2,1398.3z:::id::n_id_258::::n_id_258_line_0,n_id_258_line_1,n_id_258_line_0,n_id_258_line_1,n_id_258_line_2,n_id_258_line_3,n_id_258_line_4,n_id_258_line_5,n_id_258_line_6,n_id_258_line_7,n_id_258_line_8,n_id_258_line_9,n_id_258_line_10,n_id_258_line_11,n_id_258_line_12,n_id_258_line_13,n_id_258_line_14,n_id_258_line_15

path:::d::M173,1391.2c5.1,0,9.4,1.7,12.9,5.1c3.5,3.4,5.2,7.6,5.2,12.6c0,5-1.7,9.2-5.2,12.6s-7.6,5.2-12.6,5.2   c-5,0-9.3-1.7-12.7-5.2s-5.2-7.6-5.2-12.5c0-3.3,0.8-6.3,2.4-9s3.7-5,6.4-6.5S169.8,1391.2,173,1391.2z M173.1,1394.5   c-2.5,0-4.9,0.7-7.1,2s-4,3.1-5.3,5.3c-1.3,2.2-1.9,4.7-1.9,7.4c0,4,1.4,7.4,4.2,10.2c2.8,2.8,6.1,4.2,10.1,4.2   c2.6,0,5.1-0.6,7.3-1.9s4-3,5.2-5.2c1.3-2.2,1.9-4.7,1.9-7.4c0-2.7-0.6-5.1-1.9-7.3c-1.3-2.2-3-3.9-5.3-5.2   S175.7,1394.5,173.1,1394.5z:::id::n_id_259::::n_id_259_line_0,n_id_259_line_1,n_id_259_line_2,n_id_259_line_3,n_id_259_line_4,n_id_259_line_5,n_id_259_line_6,n_id_259_line_7,n_id_259_line_8,n_id_259_line_9,n_id_259_line_10,n_id_259_line_11,n_id_259_line_12,n_id_259_line_13,n_id_259_line_14,n_id_259_line_15,n_id_259_line_16,n_id_259_line_17,n_id_259_line_18,n_id_259_line_19

path:::d::M196.6,1425.9V1392h0.7l22.5,25.9V1392h3.3v33.8h-0.8l-22.3-25.6v25.6H196.6z:::id::n_id_260::::n_id_260_line_0,n_id_260_line_1,n_id_260_line_2,n_id_260_line_3,n_id_260_line_4,n_id_260_line_5,n_id_260_line_6,n_id_260_line_7,n_id_260_line_8,n_id_260_line_9,n_id_260_line_10

path:::d::M230.3,1425.9V1392h7c5.1,0,8.7,0.4,11,1.2c3.3,1.2,5.8,3.1,7.7,6c1.8,2.8,2.8,6.2,2.8,10.1c0,3.4-0.7,6.4-2.2,9   c-1.5,2.6-3.4,4.5-5.7,5.7c-2.3,1.2-5.6,1.8-9.8,1.8H230.3z M233.5,1422.7h3.9c4.7,0,7.9-0.3,9.7-0.9c2.5-0.8,4.5-2.3,6-4.5   c1.5-2.2,2.2-4.8,2.2-7.9c0-3.3-0.8-6.1-2.4-8.4c-1.6-2.3-3.8-3.9-6.6-4.8c-2.1-0.6-5.6-1-10.5-1h-2.4V1422.7z:::id::n_id_261::::n_id_261_line_0,n_id_261_line_1,n_id_261_line_2,n_id_261_line_3,n_id_261_line_4,n_id_261_line_5,n_id_261_line_6,n_id_261_line_7,n_id_261_line_0,n_id_261_line_1,n_id_261_line_2,n_id_261_line_3,n_id_261_line_4,n_id_261_line_5,n_id_261_line_6,n_id_261_line_7,n_id_261_line_8,n_id_261_line_9,n_id_261_line_10,n_id_261_line_11

path:::d::M276.1,1392h17v3.3h-13.6v10.6H293v3.3h-13.6v16.6h-3.4V1392z:::id::n_id_262::::n_id_262_line_0,n_id_262_line_1,n_id_262_line_2,n_id_262_line_3,n_id_262_line_4,n_id_262_line_5,n_id_262_line_6,n_id_262_line_7,n_id_262_line_8,n_id_262_line_9,n_id_262_line_10

path:::d::M297.7,1392h3.4v30.6h13v3.3h-16.4V1392z:::id::n_id_263::::n_id_263_line_0,n_id_263_line_1,n_id_263_line_2,n_id_263_line_3,n_id_263_line_4,n_id_263_line_5

path:::d::M334.4,1391.2c5.1,0,9.4,1.7,12.9,5.1c3.5,3.4,5.2,7.6,5.2,12.6c0,5-1.7,9.2-5.2,12.6s-7.6,5.2-12.6,5.2   c-5,0-9.3-1.7-12.7-5.2s-5.2-7.6-5.2-12.5c0-3.3,0.8-6.3,2.4-9s3.7-5,6.4-6.5S331.3,1391.2,334.4,1391.2z M334.6,1394.5   c-2.5,0-4.9,0.7-7.1,2s-4,3.1-5.3,5.3c-1.3,2.2-1.9,4.7-1.9,7.4c0,4,1.4,7.4,4.2,10.2c2.8,2.8,6.1,4.2,10.1,4.2   c2.6,0,5.1-0.6,7.3-1.9s4-3,5.2-5.2c1.3-2.2,1.9-4.7,1.9-7.4c0-2.7-0.6-5.1-1.9-7.3c-1.3-2.2-3-3.9-5.3-5.2   S337.1,1394.5,334.6,1394.5z:::id::n_id_264::::n_id_264_line_0,n_id_264_line_1,n_id_264_line_2,n_id_264_line_3,n_id_264_line_4,n_id_264_line_5,n_id_264_line_6,n_id_264_line_7,n_id_264_line_8,n_id_264_line_9,n_id_264_line_10,n_id_264_line_11,n_id_264_line_12,n_id_264_line_13,n_id_264_line_14,n_id_264_line_15,n_id_264_line_16,n_id_264_line_17,n_id_264_line_18,n_id_264_line_19

path:::d::M374.2,1391.2c5.1,0,9.4,1.7,12.9,5.1c3.5,3.4,5.2,7.6,5.2,12.6c0,5-1.7,9.2-5.2,12.6s-7.6,5.2-12.6,5.2   c-5,0-9.3-1.7-12.7-5.2s-5.2-7.6-5.2-12.5c0-3.3,0.8-6.3,2.4-9s3.7-5,6.4-6.5S371,1391.2,374.2,1391.2z M374.4,1394.5   c-2.5,0-4.9,0.7-7.1,2s-4,3.1-5.3,5.3c-1.3,2.2-1.9,4.7-1.9,7.4c0,4,1.4,7.4,4.2,10.2c2.8,2.8,6.1,4.2,10.1,4.2   c2.6,0,5.1-0.6,7.3-1.9s4-3,5.2-5.2c1.3-2.2,1.9-4.7,1.9-7.4c0-2.7-0.6-5.1-1.9-7.3c-1.3-2.2-3-3.9-5.3-5.2   S376.9,1394.5,374.4,1394.5z:::id::n_id_265::::n_id_265_line_0,n_id_265_line_1,n_id_265_line_2,n_id_265_line_3,n_id_265_line_4,n_id_265_line_5,n_id_265_line_6,n_id_265_line_7,n_id_265_line_8,n_id_265_line_9,n_id_265_line_10,n_id_265_line_11,n_id_265_line_12,n_id_265_line_13,n_id_265_line_14,n_id_265_line_15,n_id_265_line_16,n_id_265_line_17,n_id_265_line_18,n_id_265_line_19

path:::d::M398,1392h6.7c3.8,0,6.3,0.2,7.6,0.5c2,0.5,3.6,1.4,4.9,3c1.3,1.5,1.9,3.4,1.9,5.6c0,1.8-0.4,3.5-1.3,4.9s-2.1,2.5-3.7,3.2   s-3.8,1.1-6.7,1.1l12.2,15.7h-4.2l-12.2-15.7h-1.9v15.7H398V1392z M401.4,1395.4v11.5l5.8,0c2.3,0,3.9-0.2,5-0.6   c1.1-0.4,1.9-1.1,2.5-2.1s0.9-2,0.9-3.2c0-1.1-0.3-2.2-0.9-3.1c-0.6-0.9-1.4-1.6-2.4-2c-1-0.4-2.7-0.6-5-0.6H401.4z:::id::n_id_266::::n_id_266_line_0,n_id_266_line_1,n_id_266_line_2,n_id_266_line_3,n_id_266_line_4,n_id_266_line_5,n_id_266_line_6,n_id_266_line_7,n_id_266_line_8,n_id_266_line_9,n_id_266_line_10,n_id_266_line_11,n_id_266_line_0,n_id_266_line_1,n_id_266_line_2,n_id_266_line_3,n_id_266_line_4,n_id_266_line_5,n_id_266_line_6,n_id_266_line_7,n_id_266_line_8,n_id_266_line_9,n_id_266_line_10,n_id_266_line_11

