<svg height="610.727px" id="ladywell_x5F_floorplan_x5F_eggesford_x5F_first" style="enable-background:new 0 0 924.632 610.727;" version="1.0" viewBox="0 0 924.632 610.727" width="924.632px" x="0px" y="0px" xml:space="preserve">
  <style id="n_id_0" type="text/css">
	.st0{fill:#231F20;}
</style>
  <g id="n_id_1">
	<path class="st0" d="M810.886,0h-261.9v225h-67.774v-2.415h-36.77V225h-98.98v-2.415H243.36V225h-86.895v28.315h-42.72v18h42.72   v318.484h-42.72v18h42.72v0h52.308v2.927h102.1V607.8h113.168v2.927h36.77V607.8h78.192v2.611h68.935V607.8h79.925v2.611h68.935   V607.8h54.088V0z M693.133,453.56l-26.79-26.789l1.075-1.076l26.815,26.814C693.872,452.868,693.505,453.217,693.133,453.56z    M667.418,424.989l-5.028-5.029l1.785-1.785l3.906,3.907l0.406,0.406l0,0l0.716,0.716L667.418,424.989z M664.641,425.07   l-2.332-2.332l1.076-1.076l2.332,2.333L664.641,425.07z M664.594,417.886l-0.242-0.242l-0.177,0.177l-0.177-0.177l-2.139,2.139   l0.177,0.177l-0.177,0.177l1.172,1.171l-1.253,1.252l0.177,0.177l-0.177,0.177l2.686,2.686l0.177-0.177l0.177,0.177l1.253-1.252   l0.994,0.994l-1.252,1.253l0.177,0.177l-0.177,0.177l26.95,26.95c-7.481,6.731-17.164,10.722-26.907,11.018   c-10.643,0.308-20.497-3.544-27.827-10.874l-0.015,0.015l-0.826-0.826l1.254-1.254l-0.177-0.177l0.177-0.177l-2.687-2.686   l-0.177,0.177l-0.177-0.177l-1.253,1.254l-1.172-1.171l-0.177,0.177l-0.177-0.177l-2.138,2.138l0.177,0.177l-0.177,0.177   l0.241,0.242l-23.301,23.301v17.262h-70.26v-16.68h-4.912v-0.579h-0.25v-0.25h-3.024v0.25h-0.25v1.656h-1.771v0.25h-0.25v3.799   h0.25v0.25h1.771v1.406h-1.771v0.25h-0.25v38.113c-10.05-0.531-19.718-4.556-26.815-11.234c-7.73-7.28-11.988-16.999-11.988-27.367   h-0.021v-1.168h1.773v-0.25h0.25v-3.799h-0.25v-0.25h-1.773v-1.656h-0.25v-0.25h-3.023v0.25h-0.25v0.579h-0.601v-4.433h0.806v-0.25   h0.25v-3.023h-0.25v-0.25h-1.656v-1.773h-0.25v-0.25h-3.799v0.25h-0.25v1.773h-1.168v-0.021c-10.368,0-20.087-4.257-27.367-11.988   c-6.679-7.098-10.704-16.767-11.234-26.816h38.113v-0.25h0.25v-1.771h1.406v1.771h0.25v0.25h3.799v-0.25h0.25v-1.771h1.656v-0.25   h0.25v-3.025h-0.25v-0.25h-0.806v-7.006h0.806v-0.25h0.25v-3.024h-0.25v-0.25h-1.656v-1.771h-0.25v-0.25h-3.799v0.25h-0.25v1.771   h-1.406v-1.771h-0.25v-0.25H438.84c0.531-10.049,4.556-19.718,11.234-26.816c7.28-7.73,16.999-11.988,27.367-11.988v-0.021h1.168   v1.773h0.25v0.25h3.799v-0.25h0.25v-1.773h1.656v-0.25h0.25v-3.023h-0.25v-0.25h-0.806v-11.332h82.787v0.378v1.354h0.25v0.25h2.99   v40.92h0.25v0.25c11.761,0,23.249-4.463,31.52-12.246c8.194-7.718,12.779-17.965,12.987-28.925h3.031v-0.25h0.25v-0.352h7.365   v-52.14h1.427v1.08h0.25v0.25h3.24v-0.25h0.25v-1.792h1.916v-0.25h0.25v-4.071h-0.25v-0.25h-1.916v-1.542h1.916v-0.25h0.25v-40.853   c10.779,0.565,21.149,4.879,28.76,12.042c8.287,7.804,12.851,18.222,12.851,29.334h0.023v1.269h-1.918v0.25h-0.25v4.071h0.25v0.25   h1.918v1.792h0.25v0.25h3.238v-0.25h0.122v4.494h5.129v40.928h-3.704v6.533h1.008v51.725h-8.797L664.594,417.886z M636.044,456.363   l-5.028-5.029l1.784-1.785l5.028,5.029L636.044,456.363z M635.578,449.467l2.333,2.333l-1.077,1.078l-2.332-2.333L635.578,449.467z    M602.865,599.875h-9.273v-2.895h9.273V599.875z M458.411,600.191h-5.7v-2.894h5.7V600.191z M426.137,597.298h5.508v2.894h-5.508   V597.298z M452.211,598.494h-20.066v-1.196h20.066V598.494z M432.144,598.994h20.066v1.197h-20.066V598.994z M458.411,589.8v0.226   h-32.21v0.5h32.21v6.272h-32.274V589.8h-17.551v-13.317h48.298v0.006h0.5v-0.006h23.871v0.006h0.5v-0.006h49.411V589.8H458.411z    M447.536,575.836v-94.2h36.823v1.032h0.25v0.25h2.814c0.198,10.228,4.479,19.79,12.127,26.993   c7.724,7.267,18.45,11.435,29.43,11.435v-0.25h0.25v-38.178h1.937v93.065h-10.319v-4.116c-0.011-2.347-1.394-4.491-3.543-5.468   c-1.505-0.547-3.075-0.831-4.64-0.867l0.024-0.662c0.012-0.354,0.15-0.694,0.39-0.957c0.491-0.526,0.96-1.111,1.395-1.735   c0.374-0.201,0.672-0.522,0.83-0.928c1.333-3.395,2.009-6.969,2.009-10.625c0-0.679-0.049-1.358-0.146-2.018   c-0.502-3.464-2.26-6.603-4.95-8.839c-1.602-1.312-3.625-2.036-5.695-2.036c-2.071,0-4.094,0.723-5.695,2.037   c-3.239,2.694-5.097,6.651-5.097,10.856c0,3.652,0.677,7.227,2.01,10.623c0.152,0.398,0.443,0.713,0.808,0.916   c0.418,0.608,0.885,1.195,1.392,1.745c0.241,0.263,0.381,0.602,0.393,0.956l0.022,0.667c-1.585,0.04-3.146,0.32-4.666,0.874   c-2.132,0.971-3.516,3.114-3.525,5.462v4.115h-10.406v-7.623l0,0c0.02-4.376-2.592-8.253-6.655-9.878l-0.093,0.232l0.089-0.233   c-3.379-1.289-7.14-1.413-10.592-0.35l0,0c-0.001,0-0.003,0.001-0.004,0.001l0,0l0,0c-4.484,1.296-7.616,5.458-7.616,10.124v7.728   h-48.298v-94.347h38.45v94.2H447.536z M484.859,475.307h2.523v7.111h-2.523V475.307z M489.406,480.512h-1.523v-3.299h1.523V480.512   z M527.208,482.918h1.521v37.922c-0.508-0.003-1.015-0.015-1.521-0.036V482.918z M527.208,477.213h1.521v3.299h-1.521V477.213z    M529.229,475.307h2.524v1.336v1.993h-0.588v3.782h-1.937V475.307z M500.83,564.848c-0.016-0.473-0.202-0.927-0.525-1.278   c-0.339-0.368-0.652-0.756-0.952-1.154c2.358,0.455,4.768,0.692,7.168,0.692c2.394,0,4.796-0.236,7.149-0.69   c-0.309,0.406-0.626,0.798-0.959,1.156c-0.321,0.352-0.507,0.807-0.523,1.278l-0.024,0.662c-1.872-0.136-3.782-0.183-5.662-0.137   c-1.889,0-3.795,0.042-5.645,0.137c-0.002,0-0.004,0-0.005,0L500.83,564.848z M513.879,561.875c-4.834,0.974-9.884,0.973-14.716,0   c-0.441-0.091-0.8-0.393-0.959-0.808c-1.31-3.339-1.976-6.853-1.976-10.442c0-4.056,1.792-7.872,4.915-10.471   c1.512-1.24,3.421-1.922,5.377-1.922c1.955,0,3.865,0.683,5.377,1.921c2.595,2.156,4.29,5.184,4.774,8.525   c0.093,0.637,0.14,1.292,0.14,1.946c0,3.593-0.664,7.105-1.975,10.442C514.676,561.482,514.317,561.784,513.879,561.875z    M500.867,566.014c1.856-0.094,3.756-0.133,5.64-0.136c1.879-0.045,3.773,0.002,5.651,0.137c1.681-0.021,3.369,0.27,4.956,0.847   c1.953,0.89,3.223,2.856,3.232,5.007v4.115h-27.686v-4.114c0.01-2.152,1.278-4.118,3.214-5   C497.482,566.284,499.161,566,500.867,566.014z M474.916,558.946c3.87,1.549,6.358,5.244,6.339,9.413l0.25,0.001h-0.25v7.623   h-23.871v-7.728c0-4.446,2.985-8.412,7.259-9.645l-0.069-0.24l0.074,0.239C467.993,557.58,471.641,557.699,474.916,558.946z    M537.166,498.316h70.26v91.394h-65.633v0.09h-4.627V498.316z M543.785,596.981h10.503v2.895h-10.503V596.981z M570.517,598.178   h-15.729v-1.197h15.729V598.178z M554.788,598.678h15.729v1.197h-15.729V598.678z M571.017,596.981h4.733v2.895h-4.733V596.981z    M593.093,598.178H576.25v-1.197h16.843V598.178z M576.25,598.678h16.843v1.197H576.25V598.678z M602.865,596.481h-59.08v-6.271   h59.08V596.481z M477.203,468.18h7.111v2.523h-7.111V468.18z M479.109,466.156h3.299v1.523h-3.299V466.156z M438.781,426.833   h37.922v1.521h-37.886C438.796,427.848,438.784,427.341,438.781,426.833z M477.203,423.809h1.012h4.764h1.336v2.525h-7.111V423.809   z M438.817,411.257h37.886v1.521h-37.922C438.784,412.271,438.796,411.763,438.817,411.257z M477.203,413.278h7.111v2.524h-1.336   h-4.764h-1.012V413.278z M479.109,411.257h3.299v1.521h-3.299V411.257z M482.408,428.354h-3.299v-1.521h3.299V428.354z    M477.203,368.908h7.111v2.523h-7.111V368.908z M482.408,373.455h-3.299v-1.523h3.299V373.455z M474.019,357.369v-7.111h2.523   v7.111H474.019z M471.995,352.164h1.524v3.3h-1.524V352.164z M476.792,350.007v-0.25h-2.813   c-0.198-10.228-4.479-19.79-12.126-26.993c-7.723-7.267-18.45-11.434-29.43-11.434v0.25h-0.25v38.177h-2.774v0.25h-0.25v1.069   h-2.741v-87.71h15.239v8.23c0,4.665,3.131,8.828,7.616,10.123l0,0l0,0c0.001,0.001,0.003,0.001,0.004,0.002l0,0   c1.553,0.478,3.167,0.715,4.781,0.715c1.976,0,3.951-0.356,5.81-1.065l-0.089-0.233l0.093,0.232   c4.062-1.626,6.675-5.502,6.655-9.878l0,0v-8.125h48.14v87.71h-37.614v-1.069H476.792z M434.193,349.757h-1.521v-37.921   c0.508,0.003,1.015,0.015,1.521,0.036V349.757z M434.193,355.463h-1.521v-3.3h1.521V355.463z M432.172,357.369h-2.524v-1.335   v-4.764v-1.013h2.524V357.369z M387.395,351.076h-2.741v-37.55h2.741V351.076z M384.536,313.026v-25.06h3.359V243h32.511v108.076   h-32.511v-38.05H384.536z M387.395,243v44.466h-2.741V243H387.395z M459.677,280.905c-3.276,1.247-6.923,1.367-10.269,0.337   l-0.074,0.239l0.069-0.24c-4.274-1.233-7.259-5.199-7.259-9.644v-8.23h23.871v8.125h0.25l-0.25,0.001   C466.036,275.661,463.547,279.355,459.677,280.905z M617.574,350.653v-0.25h-3.238v0.25h-0.25v1.792h-1.918v0.25h-0.25v4.071h0.25   v0.25h1.918v1.268h-0.023c0,11.113-4.563,21.531-12.85,29.335c-7.611,7.162-17.981,11.477-28.761,12.042v-40.852h-0.25v-0.25   h-1.916v-1.543h1.916v-0.25h0.25v-4.071h-0.25v-0.25h-1.916v-1.792h-0.25v-0.25h-3.05v-44.087h52.203v46.14h-1.365v-1.803H617.574z    M617.324,358.558h-2.738v-7.655h2.738V358.558z M612.418,352.944h1.668v3.571h-1.668V352.944z M567.046,357.454v-5.103v-1.448   h2.74v7.655h-2.74V357.454z M571.952,356.516h-1.666v-3.571h1.666V356.516z M570.286,359.058h1.666v40.625   c-0.555,0.023-1.11,0.036-1.666,0.039V359.058z M560.986,351.076h-45.83v-91.07h45.83V351.076z M627.116,299.491h2.74v7.655h-2.74   v-1.448v-5.103V299.491z M630.356,258.326c0.556,0.003,1.111,0.016,1.666,0.04v40.626h-1.666V258.326z M632.022,305.104h-1.666   v-3.571h1.666V305.104z M749.346,411.076h-64.771v-2.159h9.104v0.518h0.5v-0.518h55.167V411.076z M695.616,311.89v41.964h-10.033   v-1.036h-2.188V311.89H695.616z M743.471,357.729h-57.888v-3.375h57.888V357.729z M722.036,353.854V311.89h12.85v41.964H722.036z    M721.536,353.854h-12.4V311.89h12.4V353.854z M708.636,353.854h-12.52V311.89h12.52V353.854z M685.083,353.318v0.536v4.375v0.622   h-0.509h-4.375h-0.508v-5.533H685.083z M684.074,359.351v49.066v2.659h-3.375v-51.725H684.074z M693.679,367.302v41.115h-9.104   v-43.602c0-0.127,0.054-0.235,0.169-0.34c0.905-0.821,4.597-0.704,6.215-0.57v3.397H693.679z M697.208,367.302v-0.898h9.607v42.013   h-12.637v-41.115H697.208z M743.471,365.904h-46.188v-3.375h46.188V365.904z M720.069,408.417v-41.456h-0.5v41.456h-12.254v-42.013   h25.034v42.013H720.069z M696.708,366.802h-5.25v-5.25h5.25V366.802z M732.85,408.417v-42.013h10.621v0.898h1.632v41.115H732.85z    M743.971,366.802v-0.398v-4.375v-0.477h5.25v5.25H743.971z M748.231,360.932h-3.375v-1.492h3.375V360.932z M744.356,361.052   h-0.886v0.977h-46.263v-0.977h-6.25v2.351c-1.142-0.092-5.038-0.332-6.384,0.583v-4.636h1.009v-1.122h57.888v1.122h0.886V361.052z    M743.971,358.851v-0.622v-4.375v-0.253h5.25v5.25H743.971z M743.471,353.101v0.753h-8.085V311.89h11.859v41.211H743.471z    M678.267,311.39v-5.074h71.079v5.074H678.267z M677.394,307.146h-2.738v-7.655h2.738V307.146z M672.488,301.533h1.668v3.571   h-1.668V301.533z M745.603,408.417v-41.115h4.118v-6.25h-0.989v-1.701h0.989v-6.25h-1.976V311.89h2.101v-5.574h43.04v104.76h-43.04   v-2.659H745.603z M792.886,300.316H677.894v-1.075h-0.25v-0.25h-3.031c-0.207-10.961-4.793-21.208-12.988-28.925   c-8.269-7.782-19.758-12.246-31.518-12.246v0.25h-0.25v40.921h-2.99v0.25h-0.25v1.075h-59.63v-61.74h-0.001v-97.98h8.932v-0.039   h1.902v27.105h0.25v0.25c7.836,0,15.49-2.974,21-8.159c5.44-5.124,8.493-11.921,8.652-19.196h1.934v0.039h183.231V300.316z    M579.259,138.701h-0.939v-2.205h0.939V138.701z M579.259,167.384c-0.312,0.012-0.626,0.02-0.939,0.022v-26.849h0.939V167.384z    M577.819,140.057h-1.652v-0.649v-3.391v-0.878h1.652V140.057z M606.313,136.496h0.939v2.205h-0.939V136.496z M609.405,135.139   v4.918h-1.652v-4.918H609.405z M609.655,134.596v0.043h-2.152v0.25h-0.25v1.107h-1.189v0.25h-0.25v2.705h0.25v0.25h1.189v0.759   h-0.016c0,7.36-3.022,14.26-8.511,19.429c-5.022,4.726-11.857,7.579-18.968,7.972v-27.054h-0.25v-0.25h-1.189v-0.856h1.189v-0.25   h0.25v-2.705h-0.25v-0.25h-1.189v-1.107h-0.25v-0.25h-2.152v-0.043h-8.932v-8.63h225.9v8.63H609.655z M792.886,31.856h-225.9v-8.01   h225.9V31.856z M792.886,32.356v8.01h-225.9v-8.01H792.886z M792.886,40.866v8.01h-225.9v-8.01H792.886z M792.886,49.375v8.01   h-225.9v-8.01H792.886z M792.886,57.886v8.01h-225.9v-8.01H792.886z M792.886,66.396v8.01h-225.9v-8.01H792.886z M792.886,74.906   v8.01h-225.9v-8.01H792.886z M792.886,83.415v8.01h-225.9v-8.01H792.886z M792.886,91.926v8.01h-225.9v-8.01H792.886z    M792.886,100.436v8.01h-225.9v-8.01H792.886z M792.886,108.946v8.01h-225.9v-8.01H792.886z M792.886,117.455v8.01h-225.9v-8.01   H792.886z M792.886,18v5.346h-225.9V18H792.886z M560.986,243v16.506h-46.33v3.36h-88.25V243h19.63v0.286h33.016V243H560.986z    M447.116,233.12h5.426v2.893h-5.426V233.12z M478.866,236.014h-5.258v-2.893h5.258V236.014z M453.042,234.817h20.066v1.196   h-20.066V234.817z M473.108,234.317h-20.066v-1.197h20.066V234.317z M447.116,236.514h31.75v6.273h-31.75V236.514z    M444.941,223.085h35.77V225h-1.845v7.62h-31.75V225h-2.175V223.085z M343.616,242.786h-97.75v-6.271h97.75V242.786z    M245.866,233.12h4.703v2.895h-4.703V233.12z M343.616,236.015h-5.362v-2.895h5.362V236.015z M311.735,234.817h26.018v1.197   h-26.018V234.817z M337.754,234.317h-26.018v-1.197h26.018V234.317z M311.235,236.015h-3.312v-2.895h3.312V236.015z    M281.401,234.817h26.022v1.197h-26.022V234.817z M307.423,234.317h-26.022v-1.197h26.022V234.317z M280.901,236.015h-3.312v-2.895   h3.312V236.015z M251.069,234.817h26.02v1.197h-26.02V234.817z M277.089,234.317h-26.02v-1.197h26.02V234.317z M243.86,223.085   h101.101V225h-1.345v7.62h-97.75V225h-2.006V223.085z M239.165,243v0.286h108.393V243h36.596v37.086h-3.359v39.38h3.359v31.61   h-1.608v6h46.602v0.542h0.25v0.25h3.024v-0.25h0.25v-1.655h1.771v-0.25h0.25v-3.8h-0.25v-0.25h-1.771v-1.406h1.771v-0.25h0.25   v-38.112c10.05,0.531,19.718,4.555,26.816,11.233c7.73,7.28,11.988,16.999,11.988,27.367h0.022v1.168h-1.774v0.25h-0.25v3.8h0.25   v0.25h1.774v1.655h0.25v0.25h3.023v-0.25h0.25v-0.542h0.717v11.332h-0.806v0.25h-0.25v2.814   c-10.228,0.197-19.79,4.478-26.993,12.126c-7.267,7.724-11.435,18.451-11.435,29.43h0.25v0.25h38.178v2.774h0.25v0.25h0.806v0.473   H174.466V243H239.165z M384.036,280.586v38.38h-2.741v-38.38H384.036z M174.466,422.775h303.293v0.533h-0.806v0.25h-0.25v2.775   h-38.178v0.25h-0.25c0,10.979,4.168,21.706,11.435,29.43c7.203,7.648,16.764,11.929,26.993,12.126v2.814h0.25v0.25h0.806v4.433   h-75.173V589.8h-93.978v0.226h-95.897V589.8h-38.245V422.775z M308.608,600.191h-4.943v-2.895h4.943V600.191z M212.711,597.297   h3.27v2.895h-3.27V597.297z M242.499,598.494H216.48v-1.197h26.019V598.494z M216.48,598.994h26.019v1.197H216.48V598.994z    M242.999,597.297h3.312v2.895h-3.312V597.297z M272.833,598.494h-26.021v-1.197h26.021V598.494z M246.811,598.994h26.021v1.197   h-26.021V598.994z M273.333,597.297h3.312v2.895h-3.312V597.297z M303.165,598.494h-26.02v-1.197h26.02V598.494z M277.145,598.994   h26.02v1.197h-26.02V598.994z M308.608,596.797h-95.897v-6.271h95.897V596.797z M310.374,610.227h-101.1V607.8h3.438v-7.108h95.897   v7.108h1.766V610.227z M460.311,610.227h-35.77V607.8h1.595v-7.108h32.274v7.108h1.9V610.227z M607.438,609.911h-67.935V607.8   h4.281v-7.424h59.08v7.424h4.573V609.911z M756.298,609.911h-67.935V607.8h3.375v-7.424h61.311v7.424h3.249V609.911z    M691.738,590.209h61.311v6.271h-61.311V590.209z M753.049,599.875h-10.597v-2.895h10.597V599.875z M719.376,596.981v1.197h-15.728   v-1.197H719.376z M703.647,598.678h15.728v1.197h-15.728V598.678z M719.876,596.981h4.733v2.895h-4.733V596.981z M741.952,598.178   h-16.843v-1.197h16.843V598.178z M725.109,598.678h16.843v1.197h-16.843V598.678z M691.738,596.981h11.409v2.895h-11.409V596.981z    M757.019,589.8v-0.09h-66.366v0.09h-77.227V477.539l21.543-21.543l0.898,0.898l0.177-0.177l0.177,0.177l1.989-1.99   c7.083,6.816,16.397,10.53,26.432,10.53c0.408,0,0.819-0.006,1.229-0.018c10.601-0.323,21.133-4.961,28.896-12.724l-0.177-0.177   l0.177-0.177l-26.996-26.996l1.962-1.962l-0.177-0.177l0.177-0.177l-0.897-0.898l5.053-5.053h118.997V589.8H757.019z" id="n_id_2"/><path class="st0" d="M480.467,273.452c1.506,0.548,3.079,0.828,4.647,0.867l-0.022,0.668c-0.012,0.354-0.151,0.693-0.393,0.956   c-0.506,0.549-0.974,1.136-1.392,1.745c-0.364,0.202-0.655,0.517-0.807,0.913c-1.334,3.398-2.011,6.973-2.011,10.625   c0,4.205,1.857,8.162,5.099,10.857c1.6,1.312,3.622,2.036,5.693,2.036c2.07,0,4.094-0.723,5.697-2.037   c2.689-2.235,4.446-5.374,4.948-8.838c0.097-0.661,0.146-1.34,0.146-2.018c0-3.655-0.676-7.23-2.008-10.624   c-0.158-0.405-0.457-0.727-0.831-0.928c-0.435-0.624-0.903-1.209-1.393-1.733c-0.241-0.265-0.38-0.605-0.392-0.96l-0.024-0.661   c1.579-0.039,3.142-0.322,4.657-0.874c2.131-0.97,3.515-3.114,3.525-5.462v-4.5h-0.5v4.499c-0.01,2.152-1.279,4.118-3.215,5   c-1.605,0.584-3.29,0.871-4.995,0.855c-1.857,0.135-3.75,0.183-5.637,0.136c-1.891,0.003-3.776-0.043-5.648-0.137   c-1.702,0.005-3.369-0.271-4.958-0.847c-1.954-0.89-3.223-2.856-3.232-5.007v-4.5h-0.5v4.501   C476.933,270.331,478.316,272.474,480.467,273.452z M499.6,278.783c1.31,3.336,1.974,6.849,1.974,10.442   c0,0.655-0.047,1.31-0.14,1.947c-0.484,3.341-2.18,6.369-4.772,8.524c-1.514,1.24-3.424,1.922-5.379,1.922   c-1.956,0-3.865-0.683-5.375-1.921c-3.125-2.599-4.917-6.415-4.917-10.472c0-3.589,0.665-7.103,1.977-10.444   c0.158-0.413,0.517-0.714,0.957-0.805c2.417-0.487,4.894-0.733,7.358-0.733c2.465,0,4.941,0.247,7.358,0.733   C499.079,278.067,499.437,278.369,499.6,278.783z M492.665,274.49c1.429,0,2.855-0.051,4.249-0.153c0.004,0,0.008,0,0.012,0   l0.024,0.661c0.016,0.473,0.201,0.927,0.524,1.281c0.332,0.356,0.648,0.748,0.957,1.153c-4.71-0.907-9.607-0.906-14.317,0.003   c0.3-0.397,0.613-0.786,0.952-1.154c0.323-0.351,0.51-0.805,0.525-1.278l0.022-0.667c1.861,0.094,3.767,0.137,5.643,0.137   C491.726,274.484,492.195,274.49,492.665,274.49z" id="n_id_3"/><circle class="st0" cx="454.079" cy="272.474" id="n_id_4" r="1.747"/><path class="st0" d="M522.722,348.686h29.135c2.931,0,5.315-2.501,5.315-5.574v-75.901c0-3.069-2.385-5.565-5.315-5.565h-29.135   c-2.925,0-5.305,2.496-5.305,5.565v75.901C517.417,346.185,519.797,348.686,522.722,348.686z M517.917,267.211   c0-2.793,2.155-5.065,4.805-5.065h29.135c2.655,0,4.815,2.272,4.815,5.065v75.901c0,2.798-2.16,5.074-4.815,5.074h-29.135   c-2.649,0-4.805-2.276-4.805-5.074V267.211z" id="n_id_5"/><circle class="st0" cx="469.318" cy="567.376" id="n_id_6" r="1.747"/><path class="st0" d="M439.677,485.037h-24.098c-2.442,0-4.43,2.497-4.43,5.565v75.9c0,3.074,1.987,5.574,4.43,5.574h24.098   c2.448,0,4.439-2.5,4.439-5.574v-75.9C444.116,487.533,442.124,485.037,439.677,485.037z M443.616,566.502   c0,2.798-1.767,5.074-3.939,5.074h-24.098c-2.167,0-3.93-2.276-3.93-5.074v-75.9c0-2.793,1.763-5.065,3.93-5.065h24.098   c2.172,0,3.939,2.272,3.939,5.065V566.502z" id="n_id_7"/><path class="st0" d="M306.943,512.06c3.887,0,6.668-2.835,6.668-6.884c0-4.049-2.78-6.883-6.668-6.883   c-3.914,0-6.694,2.834-6.694,6.883C300.249,509.225,303.029,512.06,306.943,512.06z M306.943,500.021   c2.618,0,4.481,2.133,4.481,5.155c0,3.051-1.863,5.156-4.481,5.156c-2.645,0-4.481-2.105-4.481-5.156   C302.462,502.154,304.298,500.021,306.943,500.021z" id="n_id_13"/><path class="st0" d="M319.067,504.124c0-2.348,1.566-4.022,3.753-4.022c1.917,0,3.239,1.322,3.239,3.185v8.449h2.16v-7.612   c0-2.348,1.565-4.022,3.752-4.022c1.89,0,3.212,1.322,3.212,3.185v8.449h2.16v-8.773c0-2.727-1.971-4.67-4.778-4.67   c-2.079,0-3.779,1.08-4.805,2.861c-0.621-1.755-2.268-2.861-4.319-2.861c-1.971,0-3.59,0.944-4.508,2.618l-0.27-2.294h-1.728   v13.118h2.132V504.124z" id="n_id_14"/><path class="st0" d="M670.4,502.342c1.701-0.675,2.78-2.186,2.78-4.049c0-2.753-2.214-4.696-5.372-4.696h-7.314v18.139h7.747   c3.267,0,5.587-1.971,5.587-4.913C673.828,504.691,672.533,502.963,670.4,502.342z M662.654,495.27h4.885   c2.052,0,3.482,1.323,3.482,3.212c0,1.89-1.431,3.213-3.482,3.213h-4.885V495.27z M667.944,510.062h-5.29v-6.855h5.29   c2.187,0,3.698,1.403,3.698,3.428C671.643,508.659,670.131,510.062,667.944,510.062z" id="n_id_16"/><path class="st0" d="M682.578,498.293c-3.752,0-6.396,2.834-6.396,6.883c0,4.049,2.834,6.884,6.829,6.884   c1.458,0,3.131-0.405,4.858-1.268l-0.675-1.485c-1.403,0.756-2.78,1.107-3.968,1.107c-2.754,0-4.697-1.917-4.886-4.697h10.149   c0.027-0.27,0.027-0.513,0.027-0.782C688.518,501.02,686.088,498.293,682.578,498.293z M678.341,504.339   c0.216-2.645,1.89-4.399,4.237-4.399c2.214,0,3.779,1.809,3.86,4.399H678.341z" id="n_id_17"/><path class="st0" d="M700.56,500.696c-0.918-1.539-2.483-2.402-4.347-2.402c-3.455,0-5.938,2.861-5.938,6.883   c0,4.022,2.482,6.884,5.938,6.884c1.944,0,3.564-0.891,4.508-2.511l0.271,2.187h1.728v-19.003h-2.159V500.696z M700.586,506.229   c0,2.402-1.592,4.076-3.859,4.076c-2.483,0-4.238-2.105-4.238-5.129c0-2.996,1.755-5.128,4.238-5.128   c2.268,0,3.859,1.7,3.859,4.075V506.229z" id="n_id_18"/><path class="st0" d="M708.148,504.637c0-2.646,1.538-4.454,3.779-4.454c0.512,0,1.053,0.081,1.564,0.188l0.244-1.754   c-0.567-0.136-1.161-0.216-1.647-0.216c-1.89,0-3.428,1.025-4.075,2.699l-0.27-2.483h-1.728v13.118h2.133V504.637z" id="n_id_19"/><path class="st0" d="M763.143,498.293c-2.078,0-3.778,1.08-4.805,2.861c-0.62-1.755-2.268-2.861-4.318-2.861   c-1.971,0-3.59,0.944-4.508,2.618l-0.27-2.294h-1.729v13.118h2.133v-7.612c0-2.348,1.566-4.022,3.752-4.022   c1.917,0,3.239,1.322,3.239,3.185v8.449h2.159v-7.612c0-2.348,1.566-4.022,3.752-4.022c1.891,0,3.213,1.322,3.213,3.185v8.449   h2.159v-8.773C767.921,500.237,765.95,498.293,763.143,498.293z" id="n_id_22"/><path class="st0" d="M717.69,521.597h-2.052l-8.771,12.362v1.484h8.826v4.292h1.997v-4.292h2.78v-1.674h-2.78V521.597z    M715.693,533.77h-6.721l6.721-9.474V533.77z" id="n_id_23"/><polygon class="st0" id="n_id_31" points="278.878,345.514 283.575,342.814 283.575,358.794 285.734,358.794 285.734,340.655 283.926,340.655    278.123,344.002  "/><polygon class="st0" id="n_id_32" points="552.619,426.36 551.307,426.36 551.307,437.116 557.838,437.116 557.838,436.076 552.619,436.076  "/><path class="st0" d="M566.029,436.315c-0.448,0-0.705-0.271-0.705-0.704v-3.762c0-1.616-1.216-2.705-2.977-2.705   c-0.992,0-1.984,0.209-3.073,0.625l0.353,0.928c0.896-0.384,1.744-0.576,2.576-0.576c1.137,0,1.905,0.704,1.905,1.697v0.8   c-0.608-0.16-1.2-0.224-1.745-0.224c-2.209,0-3.553,0.944-3.553,2.577c0,1.328,1.168,2.337,2.705,2.337   c1.072,0,2.08-0.48,2.705-1.297c0.096,0.801,0.641,1.297,1.488,1.297c0.288,0,0.576-0.032,0.832-0.08l-0.096-0.961   C566.35,436.284,566.157,436.315,566.029,436.315z M564.108,434.043c0,1.377-0.944,2.337-2.289,2.337   c-1.009,0-1.761-0.641-1.761-1.488c0-1.057,0.912-1.697,2.449-1.697c0.528,0,1.057,0.064,1.601,0.192V434.043z" id="n_id_33"/><path class="st0" d="M571.548,429.145c-1.232,0-2.273,0.593-2.801,1.617l-0.16-1.425h-1.024v7.779h1.264v-4.386   c0-1.488,1.01-2.513,2.354-2.513c1.201,0,2.049,0.832,2.049,2.017v4.882h1.281v-5.074   C574.51,430.329,573.277,429.145,571.548,429.145z" id="n_id_34"/><path class="st0" d="M582.028,430.569c-0.544-0.912-1.473-1.425-2.577-1.425c-2.049,0-3.521,1.697-3.521,4.082   c0,2.385,1.473,4.082,3.521,4.082c1.152,0,2.113-0.528,2.674-1.489l0.16,1.297h1.023v-11.269h-1.28V430.569z M582.045,433.85   c0,1.425-0.945,2.417-2.289,2.417c-1.473,0-2.514-1.248-2.514-3.041c0-1.776,1.041-3.041,2.514-3.041   c1.344,0,2.289,1.008,2.289,2.417V433.85z" id="n_id_35"/><path class="st0" d="M603.372,430.634c-0.561-0.961-1.521-1.489-2.673-1.489c-2.049,0-3.521,1.697-3.521,4.082   c0,2.385,1.473,4.082,3.521,4.082c1.104,0,2.032-0.513,2.576-1.409v1.409c0,1.36-1.104,2.305-2.656,2.305   c-0.721,0-1.633-0.208-2.594-0.624l-0.384,0.96c1.104,0.464,2.161,0.689,3.073,0.689c2.225,0,3.842-1.408,3.842-3.377v-7.924   h-1.024L603.372,430.634z M603.292,433.85c0,1.425-0.944,2.417-2.289,2.417c-1.473,0-2.513-1.248-2.513-3.041   c0-1.776,1.04-3.041,2.513-3.041c1.345,0,2.289,1.008,2.289,2.417V433.85z" id="n_id_39"/><polygon class="st0" id="n_id_40" points="562.908,550.42 567.342,539.664 565.949,539.664 562.284,548.788 558.635,539.664 557.242,539.664    561.676,550.42  "/><path class="st0" d="M571.164,550.613c2.305,0,3.953-1.681,3.953-4.082c0-2.401-1.648-4.082-3.953-4.082   c-2.321,0-3.971,1.681-3.971,4.082C567.193,548.932,568.843,550.613,571.164,550.613z M571.164,543.473   c1.553,0,2.656,1.265,2.656,3.058c0,1.809-1.104,3.058-2.656,3.058c-1.568,0-2.658-1.249-2.658-3.058   C568.506,544.738,569.596,543.473,571.164,543.473z" id="n_id_41"/><path class="st0" d="M587.34,332.4l-4.434,10.756h1.344l1.186-2.945h5.041l1.185,2.945h1.344l-4.434-10.756H587.34z    M585.803,339.203l2.146-5.299l2.144,5.299H585.803z" id="n_id_45"/><path class="st0" d="M599.019,333.295c0.993,0,2.002,0.352,2.898,0.993l0.56-0.897c-1.136-0.784-2.401-1.185-3.634-1.185   c-3.137,0-5.298,2.289-5.298,5.57c0,3.281,2.161,5.57,5.298,5.57c1.232,0,2.498-0.4,3.634-1.185l-0.56-0.897   c-0.897,0.641-1.905,0.992-2.898,0.992c-2.448,0-4.113-1.824-4.113-4.481S596.571,333.295,599.019,333.295z" id="n_id_46"/><path class="st0" d="M470.295,308.653c-1.232,0-2.273,0.593-2.801,1.617l-0.16-1.425h-1.024v7.779h1.264v-4.386   c0-1.488,1.009-2.513,2.353-2.513c1.201,0,2.049,0.832,2.049,2.017v4.882h1.28v-5.074   C473.257,309.837,472.024,308.653,470.295,308.653z" id="n_id_48"/><rect class="st0" height="0.992" id="n_id_49" width="4.291" x="474.389" y="312.143"/><path class="st0" d="M480.726,310.831c0-0.721,0.656-1.201,1.665-1.201c0.672,0,1.441,0.177,2.24,0.513l0.289-0.944   c-0.913-0.368-1.809-0.545-2.625-0.545c-1.665,0-2.834,0.913-2.834,2.178c0,2.913,4.466,1.776,4.466,3.745   c0,0.752-0.688,1.265-1.728,1.265c-0.753,0-1.601-0.192-2.497-0.561l-0.305,0.944c1.025,0.4,2.002,0.593,2.898,0.593   c1.712,0,2.881-0.929,2.881-2.241C485.176,311.598,480.726,312.75,480.726,310.831z" id="n_id_50"/><path class="st0" d="M492.199,313.231c0,1.489-1.008,2.514-2.352,2.514c-1.185,0-2.049-0.816-2.049-2.001v-4.898h-1.265v5.074   c0,1.713,1.217,2.897,2.945,2.897c1.232,0,2.273-0.593,2.817-1.617l0.16,1.425h1.024v-7.779h-1.281V313.231z" id="n_id_51"/><rect class="st0" height="7.779" id="n_id_52" width="1.264" x="495.51" y="308.845"/><path class="st0" d="M496.149,305.628c-0.513,0-0.864,0.352-0.864,0.848c0,0.496,0.352,0.849,0.864,0.849   c0.496,0,0.849-0.353,0.849-0.849C496.998,305.98,496.645,305.628,496.149,305.628z" id="n_id_53"/><path class="st0" d="M502.279,315.776c-0.801,0-1.346-0.544-1.346-1.345v-4.577h2.449v-1.009h-2.449v-2.305h-1.264v2.305h-1.617   v1.009h1.617v4.689c0,1.345,0.943,2.273,2.336,2.273c0.496,0,1.01-0.064,1.553-0.208l-0.176-0.993   C502.982,315.712,502.615,315.776,502.279,315.776z" id="n_id_54"/><path class="st0" d="M503.973,312.735c0,2.401,1.681,4.082,4.05,4.082c0.864,0,1.856-0.24,2.882-0.753l-0.4-0.88   c-0.832,0.448-1.648,0.656-2.354,0.656c-1.633,0-2.785-1.137-2.896-2.785h6.018c0.016-0.16,0.016-0.305,0.016-0.464   c0-2.321-1.439-3.939-3.521-3.939C505.541,308.653,503.973,310.333,503.973,312.735z M507.767,309.629   c1.312,0,2.241,1.072,2.288,2.609h-4.801C505.381,310.67,506.374,309.629,507.767,309.629z" id="n_id_55"/><path class="st0" d="M470.533,528.163c0-1.265-0.768-2.289-2.033-2.657c1.008-0.4,1.648-1.297,1.648-2.401   c0-1.632-1.312-2.784-3.185-2.784h-4.338v10.756h4.594C469.157,531.076,470.533,529.907,470.533,528.163z M463.907,521.312h2.897   c1.216,0,2.065,0.784,2.065,1.904c0,1.121-0.849,1.905-2.065,1.905h-2.897V521.312z M463.907,530.084v-4.065h3.137   c1.296,0,2.193,0.832,2.193,2.032s-0.897,2.033-2.193,2.033H463.907z" id="n_id_56"/><path class="st0" d="M475.314,526.354c-2.209,0-3.553,0.944-3.553,2.577c0,1.328,1.168,2.337,2.705,2.337   c1.072,0,2.08-0.48,2.705-1.297c0.096,0.801,0.641,1.297,1.488,1.297c0.288,0,0.576-0.032,0.832-0.08l-0.096-0.961   c-0.096,0.017-0.288,0.048-0.416,0.048c-0.448,0-0.705-0.271-0.705-0.704v-3.762c0-1.616-1.216-2.705-2.977-2.705   c-0.992,0-1.984,0.209-3.073,0.625l0.352,0.928c0.897-0.384,1.744-0.576,2.576-0.576c1.137,0,1.905,0.704,1.905,1.697v0.8   C476.451,526.418,475.859,526.354,475.314,526.354z M477.06,528.003c0,1.377-0.944,2.337-2.289,2.337   c-1.009,0-1.761-0.641-1.761-1.488c0-1.057,0.912-1.697,2.449-1.697c0.528,0,1.057,0.064,1.601,0.192V528.003z" id="n_id_57"/><path class="st0" d="M480.898,528.995c0,1.345,0.943,2.273,2.336,2.273c0.497,0,1.009-0.064,1.553-0.208l-0.176-0.993   c-0.4,0.097-0.767,0.16-1.103,0.16c-0.801,0-1.346-0.544-1.346-1.345v-4.577h2.449v-1.009h-2.449v-2.305h-1.264v2.305h-1.617v1.009   h1.617V528.995z" id="n_id_58"/><path class="st0" d="M487.41,526.69c0-1.488,1.008-2.513,2.353-2.513c1.2,0,2.049,0.832,2.049,2.017v4.882h1.28v-5.074   c0-1.713-1.232-2.898-2.961-2.898c-1.185,0-2.193,0.577-2.721,1.553v-4.85h-1.265v11.268h1.265V526.69z" id="n_id_59"/><path class="st0" d="M676.895,203.466h-1.5v0.5h1.75c0.138,0,0.25-0.112,0.25-0.25v-1.75h-0.5V203.466z" id="n_id_68"/><rect class="st0" height="0.5" id="n_id_69" width="3.532" x="663.267" y="203.466"/><rect class="st0" height="0.5" id="n_id_70" width="3.532" x="639.008" y="203.466"/><rect class="st0" height="0.5" id="n_id_71" width="3.532" x="645.072" y="203.466"/><rect class="st0" height="0.5" id="n_id_72" width="3.532" x="657.202" y="203.466"/><rect class="st0" height="0.5" id="n_id_73" width="3.533" x="651.137" y="203.466"/><rect class="st0" height="0.5" id="n_id_74" width="3.532" x="669.331" y="203.466"/><path class="st0" d="M634.476,203.716c0,0.138,0.112,0.25,0.25,0.25h1.75v-0.5h-1.5v-1.5h-0.5V203.716z" id="n_id_75"/><rect class="st0" height="3.585" id="n_id_76" width="0.5" x="634.476" y="158.78"/><rect class="st0" height="3.585" id="n_id_77" width="0.5" x="634.476" y="189.627"/><rect class="st0" height="3.585" id="n_id_78" width="0.5" x="634.476" y="195.797"/><rect class="st0" height="3.585" id="n_id_79" width="0.5" x="634.476" y="177.288"/><rect class="st0" height="3.585" id="n_id_80" width="0.5" x="634.476" y="171.119"/><rect class="st0" height="3.585" id="n_id_81" width="0.5" x="634.476" y="152.611"/><rect class="st0" height="3.584" id="n_id_82" width="0.5" x="634.476" y="183.458"/><rect class="st0" height="3.584" id="n_id_83" width="0.5" x="634.476" y="164.95"/><polygon class="st0" id="n_id_84" points="634.476,150.026 634.976,150.026 634.976,149.629 635.653,151.4 636.121,151.222 635.09,148.526    636.476,148.526 636.476,148.026 634.898,148.026 634.87,147.953 634.402,148.132 634.476,148.323  "/><rect class="st0" height="0.5" id="n_id_85" width="3.532" x="663.267" y="148.026"/><rect class="st0" height="0.5" id="n_id_86" width="3.533" x="657.201" y="148.026"/><rect class="st0" height="0.5" id="n_id_87" width="3.532" x="645.072" y="148.026"/><rect class="st0" height="0.5" id="n_id_88" width="3.532" x="669.331" y="148.026"/><rect class="st0" height="0.5" id="n_id_89" width="3.532" x="651.137" y="148.026"/><rect class="st0" height="0.5" id="n_id_90" width="3.532" x="639.008" y="148.026"/><path class="st0" d="M676.895,150.026h0.5v-1.75c0-0.138-0.112-0.25-0.25-0.25h-1.75v0.5h1.5V150.026z" id="n_id_91"/><rect class="st0" height="3.585" id="n_id_92" width="0.5" x="676.895" y="152.611"/><rect class="st0" height="3.584" id="n_id_93" width="0.5" x="676.895" y="164.95"/><rect class="st0" height="3.585" id="n_id_94" width="0.5" x="676.895" y="171.119"/><rect class="st0" height="3.585" id="n_id_95" width="0.5" x="676.895" y="195.797"/><rect class="st0" height="3.585" id="n_id_96" width="0.5" x="676.895" y="177.288"/><rect class="st0" height="3.584" id="n_id_97" width="0.5" x="676.895" y="183.458"/><rect class="st0" height="3.585" id="n_id_98" width="0.5" x="676.895" y="189.627"/><rect class="st0" height="3.585" id="n_id_99" width="0.5" x="676.895" y="158.78"/><rect class="st0" height="3.5" id="n_id_100" transform="matrix(-0.9341 0.3569 -0.3569 -0.9341 1312.8389 113.1269)" width="0.501" x="645.731" y="175.946"/><rect class="st0" height="0.501" id="n_id_101" transform="matrix(0.3571 0.934 -0.934 0.3571 594.4707 -485.9449)" width="3.5" x="648.519" y="188.654"/><rect class="st0" height="3.5" id="n_id_102" transform="matrix(0.9342 0.3569 -0.3569 0.9342 98.4911 -231.2694)" width="0.501" x="675.746" y="149.531"/><rect class="st0" height="3.499" id="n_id_103" transform="matrix(0.9341 0.3569 -0.3569 0.9341 109.672 -224.5047)" width="0.501" x="662.882" y="183.155"/><rect class="st0" height="3.499" id="n_id_104" transform="matrix(0.9341 0.357 -0.357 0.9341 115.2974 -221.1643)" width="0.501" x="656.45" y="199.966"/><rect class="st0" height="3.5" id="n_id_105" transform="matrix(-0.9342 0.3569 -0.3569 -0.9342 1331.2825 143.396)" width="0.501" x="652.163" y="192.758"/><rect class="st0" height="0.501" id="n_id_106" transform="matrix(-0.3575 -0.9339 0.9339 -0.3575 701.6417 882.9529)" width="3.5" x="652.807" y="199.861"/><rect class="st0" height="0.501" id="n_id_107" transform="matrix(0.3574 0.934 -0.934 0.3574 574.4562 -490.7258)" width="3.5" x="642.087" y="171.842"/><rect class="st0" height="0.501" id="n_id_108" transform="matrix(0.3574 -0.9339 0.9339 0.3574 260.0209 736.5338)" width="3.5" x="663.526" y="179.05"/><rect class="st0" height="0.501" id="n_id_109" transform="matrix(-0.3574 0.934 -0.934 -0.3574 1075.1501 -358.7357)" width="3.5" x="659.238" y="190.258"/><rect class="st0" height="0.501" id="n_id_110" transform="matrix(-0.3574 0.9339 -0.9339 -0.3574 1068.2078 -387.5423)" width="3.5" x="665.67" y="173.446"/><rect class="st0" height="3.5" id="n_id_111" transform="matrix(0.9341 0.3569 -0.3569 0.9341 104.0952 -227.9077)" width="0.501" x="669.314" y="166.342"/><rect class="st0" height="3.499" id="n_id_112" transform="matrix(0.9342 0.3569 -0.3569 0.9342 100.3498 -230.1354)" width="0.501" x="673.602" y="155.135"/><rect class="st0" height="0.501" id="n_id_113" transform="matrix(-0.3574 -0.9339 0.9339 -0.3574 708.6049 854.1259)" width="3.5" x="646.375" y="183.05"/><rect class="st0" height="0.501" id="n_id_114" transform="matrix(0.3572 0.934 -0.934 0.3572 561.368 -493.9396)" width="3.499" x="637.8" y="160.634"/><rect class="st0" height="0.501" id="n_id_115" transform="matrix(0.3575 0.9339 -0.9339 0.3575 554.582 -495.5172)" width="3.5" x="635.655" y="155.03"/><rect class="st0" height="0.501" id="n_id_116" transform="matrix(0.3574 -0.9339 0.9339 0.3574 279.8779 731.754)" width="3.5" x="669.958" y="162.238"/><rect class="st0" height="3.5" id="n_id_117" transform="matrix(0.9342 -0.3569 0.3569 0.9342 -17.1634 239.9499)" width="0.501" x="641.443" y="164.738"/><rect class="st0" height="0.501" id="n_id_118" transform="matrix(0.3574 -0.9339 0.9339 0.3574 240.2019 741.3405)" width="3.5" x="657.095" y="195.861"/><path class="st0" d="M723.006,203.466h-1.5v0.5h1.75c0.138,0,0.25-0.112,0.25-0.25v-1.75h-0.5V203.466z" id="n_id_119"/><rect class="st0" height="0.5" id="n_id_120" width="3.532" x="709.377" y="203.466"/><rect class="st0" height="0.5" id="n_id_121" width="3.532" x="715.441" y="203.466"/><rect class="st0" height="0.5" id="n_id_122" width="3.532" x="691.183" y="203.466"/><rect class="st0" height="0.5" id="n_id_123" width="3.533" x="697.247" y="203.466"/><rect class="st0" height="0.5" id="n_id_124" width="3.532" x="685.118" y="203.466"/><rect class="st0" height="0.5" id="n_id_125" width="3.532" x="703.312" y="203.466"/><path class="st0" d="M680.586,203.716c0,0.138,0.112,0.25,0.25,0.25h1.75v-0.5h-1.5v-1.5h-0.5V203.716z" id="n_id_126"/><rect class="st0" height="3.585" id="n_id_127" width="0.5" x="680.586" y="171.119"/><rect class="st0" height="3.585" id="n_id_128" width="0.5" x="680.586" y="152.611"/><rect class="st0" height="3.584" id="n_id_129" width="0.5" x="680.586" y="164.95"/><rect class="st0" height="3.585" id="n_id_130" width="0.5" x="680.586" y="158.78"/><rect class="st0" height="3.585" id="n_id_131" width="0.5" x="680.586" y="195.797"/><rect class="st0" height="3.585" id="n_id_132" width="0.5" x="680.586" y="177.288"/><rect class="st0" height="3.584" id="n_id_133" width="0.5" x="680.586" y="183.458"/><rect class="st0" height="3.585" id="n_id_134" width="0.5" x="680.586" y="189.627"/><polygon class="st0" id="n_id_135" points="680.586,150.026 681.086,150.026 681.086,149.629 681.764,151.4 682.231,151.222 681.199,148.526    682.586,148.526 682.586,148.026 681.008,148.026 680.98,147.953 680.513,148.132 680.586,148.323  "/><rect class="st0" height="0.5" id="n_id_136" width="3.532" x="697.247" y="148.026"/><rect class="st0" height="0.5" id="n_id_137" width="3.533" x="703.311" y="148.026"/><rect class="st0" height="0.5" id="n_id_138" width="3.532" x="715.441" y="148.026"/><rect class="st0" height="0.5" id="n_id_139" width="3.532" x="709.377" y="148.026"/><rect class="st0" height="0.5" id="n_id_140" width="3.532" x="691.183" y="148.026"/><rect class="st0" height="0.5" id="n_id_141" width="3.532" x="685.118" y="148.026"/><path class="st0" d="M723.006,150.026h0.5v-1.75c0-0.138-0.112-0.25-0.25-0.25h-1.75v0.5h1.5V150.026z" id="n_id_142"/><rect class="st0" height="3.585" id="n_id_143" width="0.5" x="723.006" y="195.797"/><rect class="st0" height="3.585" id="n_id_144" width="0.5" x="723.006" y="189.627"/><rect class="st0" height="3.584" id="n_id_145" width="0.5" x="723.006" y="164.95"/><rect class="st0" height="3.585" id="n_id_146" width="0.5" x="723.006" y="152.611"/><rect class="st0" height="3.585" id="n_id_147" width="0.5" x="723.006" y="171.119"/><rect class="st0" height="3.585" id="n_id_148" width="0.5" x="723.006" y="158.78"/><rect class="st0" height="3.584" id="n_id_149" width="0.5" x="723.006" y="183.458"/><rect class="st0" height="3.585" id="n_id_150" width="0.5" x="723.006" y="177.288"/><rect class="st0" height="3.5" id="n_id_151" transform="matrix(0.9341 -0.3569 0.3569 0.9341 -14.1211 256.4544)" width="0.501" x="687.553" y="164.738"/><rect class="st0" height="3.499" id="n_id_152" transform="matrix(0.9342 0.3569 -0.3569 0.9342 103.3856 -246.5899)" width="0.501" x="719.712" y="155.135"/><rect class="st0" height="3.5" id="n_id_153" transform="matrix(0.9342 0.3569 -0.3569 0.9342 107.1028 -244.3219)" width="0.501" x="715.424" y="166.342"/><rect class="st0" height="0.501" id="n_id_154" transform="matrix(-0.3574 0.9339 -0.9339 -0.3574 1130.8002 -430.6064)" width="3.5" x="711.78" y="173.446"/><rect class="st0" height="0.501" id="n_id_155" transform="matrix(-0.3574 0.934 -0.934 -0.3574 1137.7404 -401.8005)" width="3.5" x="705.348" y="190.258"/><rect class="st0" height="3.499" id="n_id_156" transform="matrix(0.9342 0.3569 -0.3569 0.9342 112.6786 -240.9198)" width="0.501" x="708.992" y="183.155"/><rect class="st0" height="0.501" id="n_id_157" transform="matrix(0.3574 -0.9339 0.9339 0.3574 269.8157 784.3933)" width="3.5" x="703.205" y="195.861"/><rect class="st0" height="3.5" id="n_id_158" transform="matrix(0.9341 0.3569 -0.3569 0.9341 101.5554 -247.7682)" width="0.501" x="721.856" y="149.531"/><rect class="st0" height="0.501" id="n_id_159" transform="matrix(0.3574 -0.9339 0.9339 0.3574 289.6652 779.609)" width="3.5" x="709.637" y="179.05"/><rect class="st0" height="0.501" id="n_id_160" transform="matrix(0.3574 -0.9339 0.9339 0.3574 309.508 774.8188)" width="3.5" x="716.068" y="162.238"/><rect class="st0" height="0.501" id="n_id_161" transform="matrix(0.3571 0.934 -0.934 0.3571 624.1127 -529.0142)" width="3.5" x="694.629" y="188.654"/><rect class="st0" height="3.5" id="n_id_162" transform="matrix(-0.9342 0.3569 -0.3569 -0.9342 1402.0282 96.72)" width="0.501" x="691.841" y="175.946"/><rect class="st0" height="0.501" id="n_id_163" transform="matrix(0.3574 0.934 -0.934 0.3574 604.0867 -533.7906)" width="3.5" x="688.197" y="171.842"/><rect class="st0" height="3.499" id="n_id_164" transform="matrix(0.9341 0.3571 -0.3571 0.9341 118.3677 -237.6685)" width="0.501" x="702.561" y="199.966"/><rect class="st0" height="0.501" id="n_id_165" transform="matrix(-0.3574 -0.9339 0.9339 -0.3574 771.1973 897.1899)" width="3.5" x="692.485" y="183.05"/><rect class="st0" height="0.501" id="n_id_166" transform="matrix(0.3572 0.934 -0.934 0.3572 591.0075 -537.0078)" width="3.499" x="683.91" y="160.634"/><rect class="st0" height="0.501" id="n_id_167" transform="matrix(-0.3575 -0.9339 0.9339 -0.3575 764.2344 926.0168)" width="3.5" x="698.917" y="199.861"/><rect class="st0" height="0.501" id="n_id_168" transform="matrix(0.3575 0.9339 -0.9339 0.3575 584.2098 -538.581)" width="3.5" x="681.766" y="155.03"/><rect class="st0" height="3.5" id="n_id_169" transform="matrix(-0.9341 0.3569 -0.3569 -0.9341 1420.4626 126.89)" width="0.501" x="698.273" y="192.758"/></g>
</svg>