rect:::width::2.7:::y::366.1:::x::0.5:::height::49.7:::class::Graphic_x0020_Style:::id::n_id_18::::n_id_18_line_0,n_id_18_line_1,n_id_18_line_2,n_id_18_line_3

polyline:::points::278.5,224.5 250.3,224.5 250.3,229.1 278.5,229.1 278.5,224.5 :::class::Graphic_x0020_Style:::id::n_id_19::::n_id_19_line_0,n_id_19_line_1,n_id_19_line_2,n_id_19_line_3

polyline:::points::218.2,224.5 216.3,224.5 216.3,197.1 169.2,197.1 169.2,195.2 164.6,195.2   164.6,197.1 156.8,197.1 156.8,303.6 161.4,303.6 161.4,229.1 163.8,229.1 163.8,224.5 161.4,224.5 161.4,201.8 211.7,201.8   211.7,224.5 209.2,224.5 209.2,229.1 218.2,229.1 218.2,224.5 :::class::Graphic_x0020_Style:::id::n_id_20::::n_id_20_line_0,n_id_20_line_1,n_id_20_line_2,n_id_20_line_3,n_id_20_line_4,n_id_20_line_5,n_id_20_line_6,n_id_20_line_7,n_id_20_line_8,n_id_20_line_9,n_id_20_line_10,n_id_20_line_11,n_id_20_line_12,n_id_20_line_13,n_id_20_line_14,n_id_20_line_15,n_id_20_line_16,n_id_20_line_17,n_id_20_line_18,n_id_20_line_19

path:::d::M250.3,224.4c0-17.1-13.4-31.3-30.5-32.2:::id::n_id_21:::class::Graphic_x0020_Style::::n_id_21_line_0

rect:::width::1.7:::y::192.3:::x::218.2:::height::32.1:::class::Graphic_x0020_Style:::id::n_id_22::::n_id_22_line_0,n_id_22_line_1,n_id_22_line_2,n_id_22_line_3

path:::d::M161.5,303.6c18.1,0,33,14.2,33.9,32.2:::id::n_id_25:::class::st0::::n_id_25_line_0

rect:::width::33.9:::y::335.7:::x::161.4:::height::1.8:::class::st0:::id::n_id_26::::n_id_26_line_0,n_id_26_line_1,n_id_26_line_2,n_id_26_line_3

path:::d::M161.5,303.6c18.1,0,33,14.2,33.9,32.2:::id::n_id_28:::class::Graphic_x0020_Style::::n_id_28_line_0

rect:::width::33.9:::y::335.7:::x::161.4:::height::1.8:::class::Graphic_x0020_Style:::id::n_id_29::::n_id_29_line_0,n_id_29_line_1,n_id_29_line_2,n_id_29_line_3

path:::d::M91.6,362.5c0,18.1,14.2,33,32.2,33.9:::id::n_id_32:::class::st0::::n_id_32_line_0

rect:::width::1.8:::y::362.5:::x::123.7:::height::33.9:::class::st0:::id::n_id_33::::n_id_33_line_0,n_id_33_line_1,n_id_33_line_2,n_id_33_line_3

path:::d::M91.6,362.5c0,18.1,14.2,33,32.2,33.9:::id::n_id_35:::class::Graphic_x0020_Style::::n_id_35_line_0

rect:::width::1.8:::y::362.5:::x::123.7:::height::33.9:::class::Graphic_x0020_Style:::id::n_id_36::::n_id_36_line_0,n_id_36_line_1,n_id_36_line_2,n_id_36_line_3

polyline:::points::207.4,227.8 207.4,226.4 209.2,226.4 209.2,227.8 207.4,227.8 :::class::Graphic_x0020_Style:::id::n_id_37::::n_id_37_line_0,n_id_37_line_1,n_id_37_line_2,n_id_37_line_3

polyline:::points::163.8,227.7 163.8,226.5 165.8,226.5 165.8,227.7 163.8,227.7 :::class::Graphic_x0020_Style:::id::n_id_38::::n_id_38_line_0,n_id_38_line_1,n_id_38_line_2,n_id_38_line_3

polyline:::points::11.9,51 38.4,51 38.4,34.1 116.9,34.1 116.9,10.4 :::class::Graphic_x0020_Style:::id::n_id_39::::n_id_39_line_0,n_id_39_line_1,n_id_39_line_2,n_id_39_line_3

polyline:::points::12.1,79.6 38.4,79.6 38.4,146.3 11.9,146.3 :::class::Graphic_x0020_Style:::id::n_id_40::::n_id_40_line_0,n_id_40_line_1,n_id_40_line_2

polyline:::points::38.4,146.3 105.6,146.3 105.6,105.2 38.4,105.2 38.4,146.3 :::class::Graphic_x0020_Style:::id::n_id_41::::n_id_41_line_0,n_id_41_line_1,n_id_41_line_2,n_id_41_line_3

polyline:::points::11.9,135.9 11.9,129.1 105.6,129.1 105.6,135.9 :::class::Graphic_x0020_Style:::id::n_id_44::::n_id_44_line_0,n_id_44_line_1,n_id_44_line_2

polyline:::points::257.6,142.4 278.4,142.4 278.4,138.3 :::class::Graphic_x0020_Style:::id::n_id_45::::n_id_45_line_0,n_id_45_line_1

polyline:::points::257.8,142.4 257.8,184.7 278.5,184.7 :::class::Graphic_x0020_Style:::id::n_id_48::::n_id_48_line_0,n_id_48_line_1

polyline:::points::278.4,138.3 261.6,138.3 261.6,110.8 :::class::Graphic_x0020_Style:::id::n_id_50::::n_id_50_line_0,n_id_50_line_1

polyline:::points::11.9,351 59.3,351 59.3,357.3 62.2,357.3 :::class::Graphic_x0020_Style:::id::n_id_51::::n_id_51_line_0,n_id_51_line_1,n_id_51_line_2

path:::d::M143.1,16.6c0,18.2,14.3,33.2,32.5,34.1:::id::n_id_57:::class::Graphic_x0020_Style::::n_id_57_line_0

rect:::width::2.1:::y::16.6:::x::175.2:::height::34.1:::class::Graphic_x0020_Style:::id::n_id_58::::n_id_58_line_0,n_id_58_line_1,n_id_58_line_2,n_id_58_line_3

polyline:::points::127.8,360.9 125.5,360.9 125.5,362.5 127.8,362.5 :::class::Graphic_x0020_Style:::id::n_id_59::::n_id_59_line_0,n_id_59_line_1,n_id_59_line_2

polyline:::points::89.2,362.5 91.6,362.5 91.6,360.9 89.2,360.9 :::class::Graphic_x0020_Style:::id::n_id_60::::n_id_60_line_0,n_id_60_line_1,n_id_60_line_2

polyline:::points::62.2,357.3 89.2,357.3 89.2,363 11.9,363 11.9,357.3 59.3,357.3 :::class::Graphic_x0020_Style:::id::n_id_61::::n_id_61_line_0,n_id_61_line_1,n_id_61_line_2,n_id_61_line_3,n_id_61_line_4

polygon:::points::0.5,418.2 119.5,418.2 144.4,393.3 144.4,363 147.3,363 147.3,394.6 120.7,421.1   0.5,421.1 :::class::Graphic_x0020_Style:::id::n_id_62::::n_id_62_line_0,n_id_62_line_1,n_id_62_line_2,n_id_62_line_3,n_id_62_line_4,n_id_62_line_5,n_id_62_line_6,n_id_62_line_7

path:::d::M40.4,374.1v29c0,1.2-1,2.1-2.1,2.1H27.4c-1.2,0-2.1-1-2.1-2.1v-29c0-1.2,1-2.1,2.1-2.1h10.9    C39.5,371.9,40.4,372.9,40.4,374.1z:::id::n_id_65:::class::st1::::n_id_65_line_0,n_id_65_line_1,n_id_65_line_2,n_id_65_line_3,n_id_65_line_0,n_id_65_line_1,n_id_65_line_2,n_id_65_line_3

rect:::width::12.5:::transform::matrix(4.488705e-11 -1 1 4.488705e-11 -340.2297 421.8333):::y::380.6:::x::34.5:::class::st1:::id::n_id_66:::height::0.8::::n_id_66_line_0,n_id_66_line_1,n_id_66_line_2,n_id_66_line_3

path:::d::M40.4,374.1v29c0,1.2-1,2.1-2.1,2.1H27.4c-1.2,0-2.1-1-2.1-2.1v-29c0-1.2,1-2.1,2.1-2.1h10.9    C39.5,371.9,40.4,372.9,40.4,374.1z:::id::n_id_68:::class::Graphic_x0020_Style::::n_id_68_line_0,n_id_68_line_1,n_id_68_line_2,n_id_68_line_3,n_id_68_line_0,n_id_68_line_1,n_id_68_line_2,n_id_68_line_3

rect:::width::12.5:::transform::matrix(4.488705e-11 -1 1 4.488705e-11 -340.2297 421.8333):::y::380.6:::x::34.5:::class::Graphic_x0020_Style:::id::n_id_69:::height::0.8::::n_id_69_line_0,n_id_69_line_1,n_id_69_line_2,n_id_69_line_3

rect:::width::26.5:::y::52.8:::x::13.9:::height::24.9:::class::Graphic_x0020_Style:::id::n_id_71::::n_id_71_line_0,n_id_71_line_1,n_id_71_line_2,n_id_71_line_3

polygon:::points::143.3,11.4 143.3,16.6 121.6,16.6 121.6,43.8 116.9,43.8 116.9,10.4 84.3,10.4   11.9,10.4 11.9,363 0.5,363 0.5,5.2 121.6,5.2 121.6,0.5 126.7,0.5 126.7,11.4 :::class::Graphic_x0020_Style:::id::n_id_72::::n_id_72_line_0,n_id_72_line_1,n_id_72_line_2,n_id_72_line_3,n_id_72_line_4,n_id_72_line_5,n_id_72_line_6,n_id_72_line_7,n_id_72_line_8,n_id_72_line_9,n_id_72_line_10,n_id_72_line_11,n_id_72_line_12,n_id_72_line_13,n_id_72_line_14

polyline:::points::181.2,71.5 187,71.5 187,16.6 190.5,16.6 190.5,11.4 177.3,11.4 177.3,16.6   181.2,16.6 181.2,71.5 169.2,71.5 169.2,74.1 164.6,74.1 164.6,66.9 181.2,66.9 :::class::Graphic_x0020_Style:::id::n_id_73::::n_id_73_line_0,n_id_73_line_1,n_id_73_line_2,n_id_73_line_3,n_id_73_line_4,n_id_73_line_5,n_id_73_line_6,n_id_73_line_7,n_id_73_line_8,n_id_73_line_9,n_id_73_line_10,n_id_73_line_11,n_id_73_line_12

polygon:::points::204.7,71.5 204.7,107.5 210.5,107.5 210.5,65.8 204.7,65.8 187.1,65.8 187.1,71.5 :::class::Graphic_x0020_Style:::id::n_id_74::::n_id_74_line_0,n_id_74_line_1,n_id_74_line_2,n_id_74_line_3,n_id_74_line_4,n_id_74_line_5,n_id_74_line_6

polyline:::points::212.2,110.8 278.5,110.8 278.5,339 249.1,339 245.1,339 245.1,357.3 155.6,357.3   153.5,357.3 127.6,357.3 127.6,363 249.1,363 249.1,356.8 249.1,343.1 278.5,343.1 284.3,343.1 284.3,105 278.5,105 212.2,105   212.2,157.1 164.6,157.1 164.6,148.4 169.2,148.4 169.2,150.2 205.3,150.2 205.3,114.3 169.2,114.3 169.2,116.2 164.6,116.2   164.6,106.2 169.2,106.2 169.2,107.5 212.2,107.5 :::class::Graphic_x0020_Style:::id::n_id_75::::n_id_75_line_0,n_id_75_line_1,n_id_75_line_2,n_id_75_line_3,n_id_75_line_4,n_id_75_line_5,n_id_75_line_6,n_id_75_line_7,n_id_75_line_8,n_id_75_line_9,n_id_75_line_10,n_id_75_line_11,n_id_75_line_12,n_id_75_line_13,n_id_75_line_14,n_id_75_line_15,n_id_75_line_16,n_id_75_line_17,n_id_75_line_18,n_id_75_line_19,n_id_75_line_20,n_id_75_line_21,n_id_75_line_22,n_id_75_line_23,n_id_75_line_24,n_id_75_line_25,n_id_75_line_26,n_id_75_line_27,n_id_75_line_28,n_id_75_line_29,n_id_75_line_30

polygon:::points::164.6,156.9 164.6,163.1 169.2,163.1 169.2,157.1 164.6,157.1 :::class::Graphic_x0020_Style_x0020_4:::id::n_id_76::::n_id_76_line_0,n_id_76_line_1,n_id_76_line_2,n_id_76_line_3,n_id_76_line_4

path:::d::M164.6,74c-17.3,0-31.5,13.6-32.2,30.9:::id::n_id_79:::class::st0::::n_id_79_line_0

rect:::width::32.1:::y::104.4:::x::132.5:::height::1.8:::class::st0:::id::n_id_80::::n_id_80_line_0,n_id_80_line_1,n_id_80_line_2,n_id_80_line_3

path:::d::M164.6,74c-17.3,0-31.5,13.6-32.2,30.9:::id::n_id_82:::class::Graphic_x0020_Style::::n_id_82_line_0

rect:::width::32.1:::y::104.4:::x::132.5:::height::1.8:::class::Graphic_x0020_Style:::id::n_id_83::::n_id_83_line_0,n_id_83_line_1,n_id_83_line_2,n_id_83_line_3

path:::d::M164.6,148.6c-17.3,0-31.5-13.6-32.2-30.9:::id::n_id_86:::class::st0::::n_id_86_line_0

rect:::width::32.1:::y::116.4:::x::132.5:::height::1.8:::class::st0:::id::n_id_87::::n_id_87_line_0,n_id_87_line_1,n_id_87_line_2,n_id_87_line_3

path:::d::M164.6,148.6c-17.3,0-31.5-13.6-32.2-30.9:::id::n_id_89:::class::Graphic_x0020_Style::::n_id_89_line_0

rect:::width::32.1:::y::116.4:::x::132.5:::height::1.8:::class::Graphic_x0020_Style:::id::n_id_90::::n_id_90_line_0,n_id_90_line_1,n_id_90_line_2,n_id_90_line_3

path:::d::M169.7,163.1c17.3,0,31.5,13.6,32.2,30.9:::id::n_id_93:::class::st0::::n_id_93_line_0

rect:::width::32.1:::y::193.5:::x::169.6:::height::1.8:::class::st0:::id::n_id_94::::n_id_94_line_0,n_id_94_line_1,n_id_94_line_2,n_id_94_line_3

path:::d::M169.7,163.1c17.3,0,31.5,13.6,32.2,30.9:::id::n_id_96:::class::Graphic_x0020_Style::::n_id_96_line_0

rect:::width::32.1:::y::193.5:::x::169.6:::height::1.8:::class::Graphic_x0020_Style:::id::n_id_97::::n_id_97_line_0,n_id_97_line_1,n_id_97_line_2,n_id_97_line_3

rect:::width::29.3:::transform::matrix(-1 -1.224647e-16 1.224647e-16 -1 146.0899 230.7028):::y::105.3:::x::58.4:::class::st2:::id::n_id_102:::height::20.1::::n_id_102_line_0,n_id_102_line_1,n_id_102_line_2,n_id_102_line_3

path:::d::M63.2,107.2H83c1.3,0,2.4,1.1,2.4,2.4v9.5c0,1.3-1.1,2.4-2.4,2.4H63.2c-1.3,0-2.4-1.1-2.4-2.4v-9.5      C60.8,108.3,61.8,107.2,63.2,107.2z:::id::n_id_103:::class::st2::::n_id_103_line_0,n_id_103_line_1,n_id_103_line_2,n_id_103_line_3,n_id_103_line_0,n_id_103_line_1,n_id_103_line_2,n_id_103_line_3

rect:::width::29.3:::transform::matrix(-1 -1.224647e-16 1.224647e-16 -1 146.0899 230.7028):::y::105.3:::x::58.4:::class::Graphic_x0020_Style:::id::n_id_108:::height::20.1::::n_id_108_line_0,n_id_108_line_1,n_id_108_line_2,n_id_108_line_3

path:::d::M63.2,107.2H83c1.3,0,2.4,1.1,2.4,2.4v9.5c0,1.3-1.1,2.4-2.4,2.4H63.2      c-1.3,0-2.4-1.1-2.4-2.4v-9.5C60.8,108.3,61.8,107.2,63.2,107.2z:::id::n_id_109:::class::Graphic_x0020_Style::::n_id_109_line_0,n_id_109_line_1,n_id_109_line_2,n_id_109_line_3,n_id_109_line_0,n_id_109_line_1,n_id_109_line_2,n_id_109_line_3

rect:::width::29.3:::transform::matrix(-1 -1.224647e-16 1.224647e-16 -1 146.0899 230.7028):::y::105.3:::x::58.4:::class::Graphic_x0020_Style:::id::n_id_116:::height::20.1::::n_id_116_line_0,n_id_116_line_1,n_id_116_line_2,n_id_116_line_3

path:::d::M63.2,107.2H83c1.3,0,2.4,1.1,2.4,2.4v9.5c0,1.3-1.1,2.4-2.4,2.4H63.2      c-1.3,0-2.4-1.1-2.4-2.4v-9.5C60.8,108.3,61.8,107.2,63.2,107.2z:::id::n_id_117:::class::Graphic_x0020_Style::::n_id_117_line_0,n_id_117_line_1,n_id_117_line_2,n_id_117_line_3,n_id_117_line_0,n_id_117_line_1,n_id_117_line_2,n_id_117_line_3

rect:::width::29.3:::transform::matrix(-1 -1.224647e-16 1.224647e-16 -1 146.0899 230.7028):::y::105.3:::x::58.4:::class::Graphic_x0020_Style:::id::n_id_122:::height::20.1::::n_id_122_line_0,n_id_122_line_1,n_id_122_line_2,n_id_122_line_3

path:::d::M63.2,107.2H83c1.3,0,2.4,1.1,2.4,2.4v9.5c0,1.3-1.1,2.4-2.4,2.4H63.2      c-1.3,0-2.4-1.1-2.4-2.4v-9.5C60.8,108.3,61.8,107.2,63.2,107.2z:::id::n_id_123:::class::Graphic_x0020_Style::::n_id_123_line_0,n_id_123_line_1,n_id_123_line_2,n_id_123_line_3,n_id_123_line_0,n_id_123_line_1,n_id_123_line_2,n_id_123_line_3

rect:::width::29.3:::transform::matrix(-1 -1.224647e-16 1.224647e-16 -1 146.0899 230.7028):::y::105.3:::x::58.4:::class::Graphic_x0020_Style:::id::n_id_128:::height::20.1::::n_id_128_line_0,n_id_128_line_1,n_id_128_line_2,n_id_128_line_3

path:::d::M63.2,107.2H83c1.3,0,2.4,1.1,2.4,2.4v9.5c0,1.3-1.1,2.4-2.4,2.4H63.2      c-1.3,0-2.4-1.1-2.4-2.4v-9.5C60.8,108.3,61.8,107.2,63.2,107.2z:::id::n_id_129:::class::Graphic_x0020_Style::::n_id_129_line_0,n_id_129_line_1,n_id_129_line_2,n_id_129_line_3,n_id_129_line_0,n_id_129_line_1,n_id_129_line_2,n_id_129_line_3

path:::d::M251.7,202.6c-1.1,1-1.7,2.5-1.7,4s0.6,3,1.7,3.9:::id::n_id_144:::class::st3::::n_id_144_line_0,n_id_144_line_1

path:::d::M251.7,210.6c1.5,1.3,3.2,2.2,5.1,2.7l0.1,0c1.9,0.5,3.9,0.5,5.8,0:::id::n_id_145:::class::st3::::n_id_145_line_0,n_id_145_line_0,n_id_145_line_1

path:::d::M262.6,213.3c0.9-0.2,1.7-0.6,2.4-1.1:::id::n_id_146:::class::st3::::n_id_146_line_0

path:::d::M267.9,211.2c-0.8,0.2-2.2,0.6-2.9,0.9:::id::n_id_147:::class::st3::::n_id_147_line_0

path:::d::M268.1,211.2c0,0.1,0,0.2,0.1,0.3:::id::n_id_148:::class::st3::::n_id_148_line_0

path:::d::M268.1,211.5c0.3,1.9,1.9,3.3,3.8,3.3h0l2.7,0h0c0.8,0,1.4-0.7,1.4-1.4l0,0.1v-13.7v0c0-0.8-0.6-1.4-1.4-1.4    h0l-2.7-0.1h0.1c-1.9,0-3.6,1.7-3.9,3.6:::id::n_id_149:::class::st3::::n_id_149_line_0,n_id_149_line_1,n_id_149_line_2,n_id_149_line_3,n_id_149_line_4,n_id_149_line_5,n_id_149_line_6,n_id_149_line_7,n_id_149_line_8,n_id_149_line_0,n_id_149_line_1,n_id_149_line_2,n_id_149_line_3

path:::d::M265,201.1c0.8,0.3,2.2,0.6,3,0.8:::id::n_id_150:::class::st3::::n_id_150_line_0

path:::d::M265,201.1c-0.7-0.5-1.4-1-2.3-1.2:::id::n_id_151:::class::st3::::n_id_151_line_0

path:::d::M262.6,199.9c-1.9-0.5-3.9-0.6-5.8,0l-0.1,0c-1.9,0.5-3.6,1.4-5.1,2.7:::id::n_id_152:::class::st3::::n_id_152_line_0,n_id_152_line_0,n_id_152_line_1

path:::d::M266.3,202.5c-0.4-0.5-0.8-0.9-1.3-1.3:::id::n_id_153:::class::st3::::n_id_153_line_0

path:::d::M265,212.1c0.5-0.4,0.9-0.9,1.3-1.4:::id::n_id_154:::class::st3::::n_id_154_line_0

path:::d::M266.3,210.7c1.9-2.4,1.9-5.8,0-8.3:::id::n_id_155:::class::st3::::n_id_155_line_0

path:::d::M268.1,202c-0.5,3-0.5,6.2,0,9.2:::id::n_id_156:::class::st3::::n_id_156_line_0

path:::d::M251.7,202.6c-1.1,1-1.7,2.5-1.7,4s0.6,3,1.7,3.9:::id::n_id_158:::class::Graphic_x0020_Style::::n_id_158_line_0,n_id_158_line_1

path:::d::M251.7,210.6c1.5,1.3,3.2,2.2,5.1,2.7l0.1,0c1.9,0.5,3.9,0.5,5.8,0:::id::n_id_159:::class::Graphic_x0020_Style::::n_id_159_line_0,n_id_159_line_0,n_id_159_line_1

path:::d::M262.6,213.3c0.9-0.2,1.7-0.6,2.4-1.1:::id::n_id_160:::class::Graphic_x0020_Style::::n_id_160_line_0

path:::d::M267.9,211.2c-0.8,0.2-2.2,0.6-2.9,0.9:::id::n_id_161:::class::Graphic_x0020_Style::::n_id_161_line_0

path:::d::M268.1,211.2c0,0.1,0,0.2,0.1,0.3:::id::n_id_162:::class::Graphic_x0020_Style::::n_id_162_line_0

path:::d::M268.1,211.5c0.3,1.9,1.9,3.3,3.8,3.3h0l2.7,0h0c0.8,0,1.4-0.7,1.4-1.4l0,0.1v-13.7v0    c0-0.8-0.6-1.4-1.4-1.4h0l-2.7-0.1h0.1c-1.9,0-3.6,1.7-3.9,3.6:::id::n_id_163:::class::Graphic_x0020_Style::::n_id_163_line_0,n_id_163_line_1,n_id_163_line_2,n_id_163_line_3,n_id_163_line_4,n_id_163_line_5,n_id_163_line_6,n_id_163_line_7,n_id_163_line_8,n_id_163_line_0,n_id_163_line_1,n_id_163_line_2,n_id_163_line_3

path:::d::M265,201.1c0.8,0.3,2.2,0.6,3,0.8:::id::n_id_164:::class::Graphic_x0020_Style::::n_id_164_line_0

path:::d::M265,201.1c-0.7-0.5-1.4-1-2.3-1.2:::id::n_id_165:::class::Graphic_x0020_Style::::n_id_165_line_0

path:::d::M262.6,199.9c-1.9-0.5-3.9-0.6-5.8,0l-0.1,0c-1.9,0.5-3.6,1.4-5.1,2.7:::id::n_id_166:::class::Graphic_x0020_Style::::n_id_166_line_0,n_id_166_line_0,n_id_166_line_1

path:::d::M266.3,202.5c-0.4-0.5-0.8-0.9-1.3-1.3:::id::n_id_167:::class::Graphic_x0020_Style::::n_id_167_line_0

path:::d::M265,212.1c0.5-0.4,0.9-0.9,1.3-1.4:::id::n_id_168:::class::Graphic_x0020_Style::::n_id_168_line_0

path:::d::M266.3,210.7c1.9-2.4,1.9-5.8,0-8.3:::id::n_id_169:::class::Graphic_x0020_Style::::n_id_169_line_0

path:::d::M268.1,202c-0.5,3-0.5,6.2,0,9.2:::id::n_id_170:::class::Graphic_x0020_Style::::n_id_170_line_0

polyline:::points::202.9,357.3 200.8,357.3 200.8,363 202.9,363 202.9,357.3 :::class::Graphic_x0020_Style:::id::n_id_173::::n_id_173_line_0,n_id_173_line_1,n_id_173_line_2,n_id_173_line_3

polyline:::points::142.4,357.3 140.3,357.3 140.3,363 142.4,363 142.4,357.3 :::class::Graphic_x0020_Style:::id::n_id_174::::n_id_174_line_0,n_id_174_line_1,n_id_174_line_2,n_id_174_line_3

polyline:::points::14,357.3 11.9,357.3 11.9,363 14,363 14,357.3 :::class::Graphic_x0020_Style:::id::n_id_175::::n_id_175_line_0,n_id_175_line_1,n_id_175_line_2,n_id_175_line_3

polyline:::points::131.1,357.3 127.8,357.3 127.8,363 131.1,363 131.1,357.3 :::class::Graphic_x0020_Style:::id::n_id_176::::n_id_176_line_0,n_id_176_line_1,n_id_176_line_2,n_id_176_line_3

rect:::width::2.1:::y::357.3:::x::87.1:::height::5.7:::class::Graphic_x0020_Style:::id::n_id_177::::n_id_177_line_0,n_id_177_line_1,n_id_177_line_2,n_id_177_line_3

polyline:::points::62.1,357.3 60,357.3 60,363 62.1,363 62.1,357.3 :::class::Graphic_x0020_Style:::id::n_id_178::::n_id_178_line_0,n_id_178_line_1,n_id_178_line_2,n_id_178_line_3

polygon:::points::157,345.9 161.4,345.9 161.4,337.5 156.8,337.5 156.8,343 152.4,343   152.4,345.9 152.4,357.3 157,357.3 :::class::Graphic_x0020_Style_x0020_3:::id::n_id_179::::n_id_179_line_0,n_id_179_line_1,n_id_179_line_2,n_id_179_line_3,n_id_179_line_4,n_id_179_line_5,n_id_179_line_6,n_id_179_line_7,n_id_179_line_8

polyline:::points::155.6,357.3 153.5,357.3 153.5,363 155.6,363 155.6,357.3 :::class::Graphic_x0020_Style_x0020_3:::id::n_id_180::::n_id_180_line_0,n_id_180_line_1,n_id_180_line_2,n_id_180_line_3

rect:::width::37.7:::y::343.1:::x::249.1:::height::23.2:::class::Graphic_x0020_Style_x0020_2:::id::n_id_181::::n_id_181_line_0,n_id_181_line_1,n_id_181_line_2,n_id_181_line_3

path:::d::M196,268.3h3.3c1.2,0,2.1,0.6,2.1,1.8c0,0.8-0.4,1.3-1.2,1.4v0c1,0.1,1.5,0.9,1.5,1.8c0,1.8-1.3,2.1-2.7,2.1   h-3V268.3z M197.3,271.2h1.6c0.6,0,1.1-0.2,1.1-0.9c0-0.5-0.4-0.9-1.1-0.9h-1.6V271.2z M197.3,274.3h1.7c0.8,0,1.3-0.2,1.3-1   c0-0.8-0.5-1.1-1.3-1.1h-1.7V274.3z:::id::n_id_183:::class::st4::::n_id_183_line_0,n_id_183_line_1,n_id_183_line_2,n_id_183_line_3,n_id_183_line_4,n_id_183_line_5,n_id_183_line_6,n_id_183_line_7,n_id_183_line_8,n_id_183_line_9,n_id_183_line_0,n_id_183_line_1,n_id_183_line_2,n_id_183_line_3,n_id_183_line_4,n_id_183_line_5,n_id_183_line_6,n_id_183_line_7

path:::d::M203.9,268.3h5v1.2h-3.7v1.6h3.4v1.2h-3.4v1.8h4v1.2h-5.3V268.3z:::id::n_id_184:::class::st4::::n_id_184_line_0,n_id_184_line_1,n_id_184_line_2,n_id_184_line_3,n_id_184_line_4,n_id_184_line_5,n_id_184_line_6,n_id_184_line_7,n_id_184_line_8,n_id_184_line_9,n_id_184_line_10,n_id_184_line_11

path:::d::M211.2,268.3h2.5c2.5,0,3.5,1.5,3.5,3.6c0,2.3-1.1,3.6-3.2,3.6h-2.7V268.3z M212.5,274.2h1.2   c1.3,0,2-0.5,2-2.3c0-1.4-0.6-2.3-2.1-2.3h-1.2V274.2z:::id::n_id_185:::class::st4::::n_id_185_line_0,n_id_185_line_1,n_id_185_line_2,n_id_185_line_3,n_id_185_line_4,n_id_185_line_5,n_id_185_line_6,n_id_185_line_7,n_id_185_line_0,n_id_185_line_1,n_id_185_line_2,n_id_185_line_3

path:::d::M219.4,268.3h3c1.5,0,2.4,0.9,2.4,2.1c0,1.6-1.1,2-1.4,2.1l1.6,2.9h-1.5l-1.4-2.6h-1.3v2.6h-1.3V268.3z    M220.7,271.6h1.5c0.7,0,1.2-0.4,1.2-1.1c0-0.6-0.4-1.1-1.4-1.1h-1.3V271.6z:::id::n_id_186:::class::st4::::n_id_186_line_0,n_id_186_line_1,n_id_186_line_2,n_id_186_line_3,n_id_186_line_4,n_id_186_line_5,n_id_186_line_6,n_id_186_line_7,n_id_186_line_8,n_id_186_line_9,n_id_186_line_10,n_id_186_line_11,n_id_186_line_0,n_id_186_line_1,n_id_186_line_2,n_id_186_line_3

path:::d::M233.3,271.9c0,2-1.3,3.7-3.4,3.7s-3.4-1.7-3.4-3.7c0-2,1.3-3.7,3.4-3.7S233.3,269.9,233.3,271.9z    M227.9,271.9c0,1.2,0.6,2.5,2,2.5s2-1.3,2-2.5s-0.6-2.5-2-2.5S227.9,270.6,227.9,271.9z:::id::n_id_187:::class::st4::::n_id_187_line_0,n_id_187_line_1,n_id_187_line_2,n_id_187_line_3,n_id_187_line_4,n_id_187_line_5,n_id_187_line_6,n_id_187_line_7

path:::d::M242,271.9c0,2-1.3,3.7-3.4,3.7s-3.4-1.7-3.4-3.7c0-2,1.3-3.7,3.4-3.7S242,269.9,242,271.9z M236.6,271.9   c0,1.2,0.6,2.5,2,2.5s2-1.3,2-2.5s-0.6-2.5-2-2.5S236.6,270.6,236.6,271.9z:::id::n_id_188:::class::st4::::n_id_188_line_0,n_id_188_line_1,n_id_188_line_2,n_id_188_line_3,n_id_188_line_4,n_id_188_line_5,n_id_188_line_6,n_id_188_line_7

path:::d::M244.2,268.3h2l1.3,5.5h0l1.3-5.5h2v7.1h-1.3v-5.9h0l-1.4,5.9h-1.3l-1.4-5.9h0v5.9h-1.3V268.3z:::id::n_id_189:::class::st4::::n_id_189_line_0,n_id_189_line_1,n_id_189_line_2,n_id_189_line_3,n_id_189_line_4,n_id_189_line_5,n_id_189_line_6,n_id_189_line_7,n_id_189_line_8,n_id_189_line_9,n_id_189_line_10,n_id_189_line_11,n_id_189_line_12,n_id_189_line_13,n_id_189_line_14,n_id_189_line_15,n_id_189_line_16

path:::d::M195,284.8c0-0.5-0.1-0.6-0.5-0.6h-1v-0.7h0.2c1.1,0,1.4-0.5,1.5-1.1h0.9v6.1H195V284.8z:::id::n_id_191:::class::st4::::n_id_191_line_0,n_id_191_line_1,n_id_191_line_2,n_id_191_line_3,n_id_191_line_4,n_id_191_line_5,n_id_191_line_6,n_id_191_line_0,n_id_191_line_1

path:::d::M203.1,285.4c0,1.9-0.7,3.2-2.2,3.2c-1.5,0-2.2-1.2-2.2-3.2c0-1.9,0.7-3.2,2.2-3.2   C202.4,282.2,203.1,283.4,203.1,285.4z M199.9,285.4c0,1.5,0.3,2.2,1,2.2c0.7,0,1-0.6,1-2.2s-0.3-2.2-1-2.2   C200.2,283.2,199.9,283.9,199.9,285.4z:::id::n_id_192:::class::st4::::n_id_192_line_0,n_id_192_line_1,n_id_192_line_2,n_id_192_line_3,n_id_192_line_4,n_id_192_line_5,n_id_192_line_6,n_id_192_line_7

path:::d::M205,282h1.2v1.5c0,0.7-0.5,0.9-1.1,1V284c0.3,0,0.5-0.1,0.5-0.4v-0.3H205V282z:::id::n_id_193:::class::st4::::n_id_193_line_0,n_id_193_line_1,n_id_193_line_2,n_id_193_line_3,n_id_193_line_4,n_id_193_line_5,n_id_193_line_0,n_id_193_line_1

path:::d::M210.1,287h-2.7v-0.8l2.7-3.9h1.1v3.8h0.8v1h-0.8v1.4h-1.1V287z M210.1,283.6L210.1,283.6l-1.6,2.5h1.6V283.6z   :::id::n_id_194:::class::st4::::n_id_194_line_0,n_id_194_line_1,n_id_194_line_2,n_id_194_line_3,n_id_194_line_4,n_id_194_line_5,n_id_194_line_6,n_id_194_line_7,n_id_194_line_8,n_id_194_line_9,n_id_194_line_10,n_id_194_line_11,n_id_194_line_12,n_id_194_line_13,n_id_194_line_14

path:::d::M213.5,282h1.2v1.5c0,0.7-0.5,0.9-1.1,1V284c0.3,0,0.5-0.1,0.5-0.4v-0.3h-0.5V282z M215,282h1.2v1.5   c0,0.7-0.5,0.9-1.1,1V284c0.3,0,0.5-0.1,0.5-0.4v-0.3H215V282z:::id::n_id_195:::class::st4::::n_id_195_line_0,n_id_195_line_1,n_id_195_line_2,n_id_195_line_3,n_id_195_line_4,n_id_195_line_5,n_id_195_line_6,n_id_195_line_7,n_id_195_line_8,n_id_195_line_9,n_id_195_line_10,n_id_195_line_11,n_id_195_line_12,n_id_195_line_0,n_id_195_line_1,n_id_195_line_2,n_id_195_line_3

path:::d::M223.1,285l-1.8-2.9h1.4l1.2,1.9l1.2-1.9h1.4l-1.8,2.9l2.1,3.5h-1.4l-1.5-2.4l-1.5,2.4H221L223.1,285z:::id::n_id_196:::class::st4::::n_id_196_line_0,n_id_196_line_1,n_id_196_line_2,n_id_196_line_3,n_id_196_line_4,n_id_196_line_5,n_id_196_line_6,n_id_196_line_7,n_id_196_line_8,n_id_196_line_9,n_id_196_line_10,n_id_196_line_11

path:::d::M233.4,284.8c0-0.5-0.1-0.6-0.5-0.6h-1v-0.7h0.2c1.1,0,1.4-0.5,1.5-1.1h0.9v6.1h-1.1V284.8z:::id::n_id_197:::class::st4::::n_id_197_line_0,n_id_197_line_1,n_id_197_line_2,n_id_197_line_3,n_id_197_line_4,n_id_197_line_5,n_id_197_line_6,n_id_197_line_0,n_id_197_line_1

path:::d::M238.5,284.8c0-0.5-0.1-0.6-0.5-0.6h-1v-0.7h0.2c1.1,0,1.4-0.5,1.5-1.1h0.9v6.1h-1.1V284.8z:::id::n_id_198:::class::st4::::n_id_198_line_0,n_id_198_line_1,n_id_198_line_2,n_id_198_line_3,n_id_198_line_4,n_id_198_line_5,n_id_198_line_6,n_id_198_line_0,n_id_198_line_1

path:::d::M242.4,282h1.2v1.5c0,0.7-0.5,0.9-1.1,1V284c0.3,0,0.5-0.1,0.5-0.4v-0.3h-0.5V282z:::id::n_id_199:::class::st4::::n_id_199_line_0,n_id_199_line_1,n_id_199_line_2,n_id_199_line_3,n_id_199_line_4,n_id_199_line_5,n_id_199_line_6,n_id_199_line_0,n_id_199_line_1

path:::d::M247.5,287h-2.7v-0.8l2.7-3.9h1.1v3.8h0.8v1h-0.8v1.4h-1.1V287z M247.5,283.6L247.5,283.6l-1.6,2.5h1.6V283.6z   :::id::n_id_200:::class::st4::::n_id_200_line_0,n_id_200_line_1,n_id_200_line_2,n_id_200_line_3,n_id_200_line_4,n_id_200_line_5,n_id_200_line_6,n_id_200_line_7,n_id_200_line_8,n_id_200_line_9,n_id_200_line_10,n_id_200_line_11,n_id_200_line_12,n_id_200_line_13,n_id_200_line_14

path:::d::M250.9,282h1.2v1.5c0,0.7-0.5,0.9-1.1,1V284c0.3,0,0.5-0.1,0.5-0.4v-0.3h-0.5V282z M252.5,282h1.2v1.5   c0,0.7-0.5,0.9-1.1,1V284c0.3,0,0.5-0.1,0.5-0.4v-0.3h-0.5V282z:::id::n_id_201:::class::st4::::n_id_201_line_0,n_id_201_line_1,n_id_201_line_2,n_id_201_line_3,n_id_201_line_4,n_id_201_line_5,n_id_201_line_6,n_id_201_line_7,n_id_201_line_8,n_id_201_line_9,n_id_201_line_10,n_id_201_line_11,n_id_201_line_12,n_id_201_line_13,n_id_201_line_0,n_id_201_line_1,n_id_201_line_2,n_id_201_line_3

path:::d::M46.2,232.2h1.3v5.9h2.9v1.2h-4.2V232.2z:::id::n_id_203:::class::st4::::n_id_203_line_0,n_id_203_line_1,n_id_203_line_2,n_id_203_line_3,n_id_203_line_4,n_id_203_line_5

path:::d::M52.3,232.2h1.3v7.1h-1.3V232.2z:::id::n_id_204:::class::st4::::n_id_204_line_0,n_id_204_line_1,n_id_204_line_2,n_id_204_line_3

path:::d::M55.4,232.2h1.4l1.6,5.7h0l1.6-5.7h1.4l-2.1,7.1h-1.8L55.4,232.2z:::id::n_id_205:::class::st4::::n_id_205_line_0,n_id_205_line_1,n_id_205_line_2,n_id_205_line_3,n_id_205_line_4,n_id_205_line_5,n_id_205_line_6,n_id_205_line_7

path:::d::M63.2,232.2h1.3v7.1h-1.3V232.2z:::id::n_id_206:::class::st4::::n_id_206_line_0,n_id_206_line_1,n_id_206_line_2,n_id_206_line_3

path:::d::M67.1,232.2h1.2l3,5.1h0v-5.1h1.2v7.1h-1.2l-3-5.1h0v5.1h-1.2V232.2z:::id::n_id_207:::class::st4::::n_id_207_line_0,n_id_207_line_1,n_id_207_line_2,n_id_207_line_3,n_id_207_line_4,n_id_207_line_5,n_id_207_line_6,n_id_207_line_7,n_id_207_line_8,n_id_207_line_9,n_id_207_line_10,n_id_207_line_11

path:::d::M79.9,234.6c-0.1-0.6-0.6-1.4-1.8-1.4c-1.4,0-2,1.3-2,2.5s0.6,2.5,2,2.5c0.9,0,1.8-0.7,1.8-1.6h-1.8v-1.2h3   v3.9H80v-0.6c-0.5,0.5-1.2,0.8-1.9,0.8c-2.3,0-3.4-1.7-3.4-3.7c0-2,1.3-3.7,3.4-3.7c1.4,0,2.5,0.7,3,2.1L79.9,234.6z:::id::n_id_208:::class::st4::::n_id_208_line_0,n_id_208_line_1,n_id_208_line_2,n_id_208_line_3,n_id_208_line_4,n_id_208_line_5,n_id_208_line_6,n_id_208_line_0,n_id_208_line_1,n_id_208_line_2,n_id_208_line_3,n_id_208_line_4,n_id_208_line_5,n_id_208_line_6,n_id_208_line_7

path:::d::M87.2,232.2h3c1.5,0,2.4,0.9,2.4,2.1c0,1.6-1.1,2-1.4,2.1l1.6,2.9h-1.5l-1.4-2.6h-1.3v2.6h-1.3V232.2z    M88.5,235.5H90c0.7,0,1.2-0.4,1.2-1.1c0-0.6-0.4-1.1-1.4-1.1h-1.3V235.5z:::id::n_id_209:::class::st4::::n_id_209_line_0,n_id_209_line_1,n_id_209_line_2,n_id_209_line_3,n_id_209_line_4,n_id_209_line_5,n_id_209_line_6,n_id_209_line_7,n_id_209_line_8,n_id_209_line_9,n_id_209_line_10,n_id_209_line_11,n_id_209_line_0,n_id_209_line_1,n_id_209_line_2,n_id_209_line_3

path:::d::M101.1,235.7c0,2-1.3,3.7-3.4,3.7s-3.4-1.7-3.4-3.7c0-2,1.3-3.7,3.4-3.7S101.1,233.7,101.1,235.7z M95.7,235.7   c0,1.2,0.6,2.5,2,2.5c1.4,0,2-1.3,2-2.5s-0.6-2.5-2-2.5C96.3,233.2,95.7,234.5,95.7,235.7z:::id::n_id_210:::class::st4::::n_id_210_line_0,n_id_210_line_1,n_id_210_line_2,n_id_210_line_3,n_id_210_line_4,n_id_210_line_5,n_id_210_line_6,n_id_210_line_7

path:::d::M109.8,235.7c0,2-1.3,3.7-3.4,3.7s-3.4-1.7-3.4-3.7c0-2,1.3-3.7,3.4-3.7S109.8,233.7,109.8,235.7z    M104.4,235.7c0,1.2,0.6,2.5,2,2.5c1.4,0,2-1.3,2-2.5s-0.6-2.5-2-2.5C104.9,233.2,104.4,234.5,104.4,235.7z:::id::n_id_211:::class::st4::::n_id_211_line_0,n_id_211_line_1,n_id_211_line_2,n_id_211_line_3,n_id_211_line_4,n_id_211_line_5,n_id_211_line_6,n_id_211_line_7

path:::d::M111.9,232.2h2l1.3,5.5h0l1.3-5.5h2v7.1h-1.3v-5.9h0l-1.4,5.9h-1.3l-1.4-5.9h0v5.9h-1.3V232.2z:::id::n_id_212:::class::st4::::n_id_212_line_0,n_id_212_line_1,n_id_212_line_2,n_id_212_line_3,n_id_212_line_4,n_id_212_line_5,n_id_212_line_6,n_id_212_line_7,n_id_212_line_8,n_id_212_line_9,n_id_212_line_10,n_id_212_line_11,n_id_212_line_12,n_id_212_line_13,n_id_212_line_14,n_id_212_line_15,n_id_212_line_16

path:::d::M52.9,248.6c0-0.5-0.1-0.6-0.5-0.6h-1v-0.7h0.2c1.1,0,1.4-0.5,1.5-1.1H54v6.1h-1.1V248.6z:::id::n_id_214:::class::st4::::n_id_214_line_0,n_id_214_line_1,n_id_214_line_2,n_id_214_line_3,n_id_214_line_4,n_id_214_line_5,n_id_214_line_6,n_id_214_line_0,n_id_214_line_1

path:::d::M56.5,248.4c0-1.4,0.6-2.4,2.1-2.4c1.2,0,1.9,0.7,1.9,1.9c0,1.6-1.5,2.5-2.6,3.4h2.6v1h-4.1v-1   c0.9-0.5,2.8-2,2.8-3.3c0-0.5-0.2-0.9-0.8-0.9c-0.7,0-0.9,0.5-0.9,1.4L56.5,248.4z:::id::n_id_215:::class::st4::::n_id_215_line_0,n_id_215_line_1,n_id_215_line_2,n_id_215_line_3,n_id_215_line_4,n_id_215_line_0,n_id_215_line_1,n_id_215_line_2,n_id_215_line_3,n_id_215_line_4,n_id_215_line_5

path:::d::M62.7,245.9h1.2v1.5c0,0.7-0.5,0.9-1.1,1v-0.5c0.3,0,0.5-0.1,0.5-0.4v-0.3h-0.5V245.9z:::id::n_id_216:::class::st4::::n_id_216_line_0,n_id_216_line_1,n_id_216_line_2,n_id_216_line_3,n_id_216_line_4,n_id_216_line_5,n_id_216_line_6,n_id_216_line_0,n_id_216_line_1

path:::d::M66,248.4c0-1.4,0.6-2.4,2.1-2.4c1.2,0,1.9,0.7,1.9,1.9c0,1.6-1.5,2.5-2.6,3.4h2.6v1H66v-1   c0.9-0.5,2.8-2,2.8-3.3c0-0.5-0.2-0.9-0.8-0.9c-0.7,0-0.9,0.5-0.9,1.4L66,248.4z:::id::n_id_217:::class::st4::::n_id_217_line_0,n_id_217_line_1,n_id_217_line_2,n_id_217_line_3,n_id_217_line_4,n_id_217_line_0,n_id_217_line_1,n_id_217_line_2,n_id_217_line_3,n_id_217_line_4,n_id_217_line_5

path:::d::M72,245.9h1.2v1.5c0,0.7-0.5,0.9-1.1,1v-0.5c0.3,0,0.5-0.1,0.5-0.4v-0.3H72V245.9z M73.5,245.9h1.2v1.5   c0,0.7-0.5,0.9-1.1,1v-0.5c0.3,0,0.5-0.1,0.5-0.4v-0.3h-0.5V245.9z:::id::n_id_218:::class::st4::::n_id_218_line_0,n_id_218_line_1,n_id_218_line_2,n_id_218_line_3,n_id_218_line_4,n_id_218_line_5,n_id_218_line_6,n_id_218_line_7,n_id_218_line_8,n_id_218_line_9,n_id_218_line_10,n_id_218_line_11,n_id_218_line_12,n_id_218_line_0,n_id_218_line_1,n_id_218_line_2,n_id_218_line_3

path:::d::M81.6,248.8l-1.8-2.9h1.4l1.2,1.9l1.2-1.9h1.4l-1.8,2.9l2.1,3.5h-1.4l-1.5-2.4l-1.5,2.4h-1.4L81.6,248.8z:::id::n_id_219:::class::st4::::n_id_219_line_0,n_id_219_line_1,n_id_219_line_2,n_id_219_line_3,n_id_219_line_4,n_id_219_line_5,n_id_219_line_6,n_id_219_line_7,n_id_219_line_8,n_id_219_line_9,n_id_219_line_10,n_id_219_line_11

path:::d::M91.8,248.6c0-0.5-0.1-0.6-0.5-0.6h-1v-0.7h0.2c1.1,0,1.4-0.5,1.5-1.1h0.9v6.1h-1.1V248.6z:::id::n_id_220:::class::st4::::n_id_220_line_0,n_id_220_line_1,n_id_220_line_2,n_id_220_line_3,n_id_220_line_4,n_id_220_line_5,n_id_220_line_6,n_id_220_line_0,n_id_220_line_1

path:::d::M99.8,247.9c0,0.5-0.3,1-0.8,1.2c0.6,0.3,0.9,0.8,0.9,1.4c0,1.4-1.2,1.9-2.3,1.9c-1.1,0-2.3-0.5-2.3-1.9   c0-0.6,0.4-1.1,0.9-1.4c-0.5-0.3-0.8-0.8-0.8-1.2c0-1.4,1-1.8,2.1-1.8C98.7,246,99.8,246.5,99.8,247.9z M97.7,251.4   c0.6,0,1-0.3,1-0.9s-0.4-0.9-1-0.9c-0.6,0-1,0.3-1,0.9S97.1,251.4,97.7,251.4z M97.7,248.7c0.5,0,0.9-0.2,0.9-0.8s-0.3-0.8-0.9-0.8   c-0.5,0-0.9,0.2-0.9,0.8S97.1,248.7,97.7,248.7z:::id::n_id_221:::class::st4::::n_id_221_line_0,n_id_221_line_1,n_id_221_line_2,n_id_221_line_3,n_id_221_line_4,n_id_221_line_5,n_id_221_line_6,n_id_221_line_7,n_id_221_line_8,n_id_221_line_9,n_id_221_line_10,n_id_221_line_11,n_id_221_line_12,n_id_221_line_13,n_id_221_line_14,n_id_221_line_15

path:::d::M101.8,245.9h1.2v1.5c0,0.7-0.5,0.9-1.1,1v-0.5c0.3,0,0.5-0.1,0.5-0.4v-0.3h-0.5V245.9z:::id::n_id_222:::class::st4::::n_id_222_line_0,n_id_222_line_1,n_id_222_line_2,n_id_222_line_3,n_id_222_line_4,n_id_222_line_5,n_id_222_line_6,n_id_222_line_0,n_id_222_line_1

path:::d::M106.7,248.6h0.4c0.5,0,0.8-0.2,0.8-0.7c0-0.5-0.3-0.8-0.8-0.8c-0.6,0-0.8,0.5-0.9,1.1l-1.2-0.3   c0.2-1.2,1-1.8,2.2-1.8c1,0,1.9,0.5,1.9,1.6c0,0.7-0.3,1.1-1,1.3v0c0.8,0.2,1.2,0.7,1.2,1.5c0,1.3-1,1.9-2.2,1.9   c-1.2,0-2.1-0.6-2.1-2.1h1.2c0,0.7,0.3,1.1,1,1.1c0.6,0,0.9-0.4,0.9-0.9c0-0.7-0.4-0.9-0.9-0.9h-0.4V248.6z:::id::n_id_223:::class::st4::::n_id_223_line_0,n_id_223_line_1,n_id_223_line_2,n_id_223_line_3,n_id_223_line_4,n_id_223_line_5,n_id_223_line_6,n_id_223_line_0,n_id_223_line_1,n_id_223_line_2,n_id_223_line_3,n_id_223_line_4,n_id_223_line_5,n_id_223_line_6,n_id_223_line_7,n_id_223_line_8,n_id_223_line_9,n_id_223_line_10,n_id_223_line_11

path:::d::M111.1,245.9h1.2v1.5c0,0.7-0.5,0.9-1.1,1v-0.5c0.3,0,0.5-0.1,0.5-0.4v-0.3h-0.5V245.9z M112.6,245.9h1.2v1.5   c0,0.7-0.5,0.9-1.1,1v-0.5c0.3,0,0.5-0.1,0.5-0.4v-0.3h-0.5V245.9z:::id::n_id_224:::class::st4::::n_id_224_line_0,n_id_224_line_1,n_id_224_line_2,n_id_224_line_3,n_id_224_line_4,n_id_224_line_5,n_id_224_line_6,n_id_224_line_7,n_id_224_line_8,n_id_224_line_9,n_id_224_line_10,n_id_224_line_11,n_id_224_line_12,n_id_224_line_13,n_id_224_line_0,n_id_224_line_1,n_id_224_line_2,n_id_224_line_3

path:::d::M59.1,62.8h1.3V66l2.8-3.2h1.6l-2.3,2.7l2.5,4.4h-1.5l-1.9-3.3l-1.1,1.3v2h-1.3V62.8z:::id::n_id_226:::class::st4::::n_id_226_line_0,n_id_226_line_1,n_id_226_line_2,n_id_226_line_3,n_id_226_line_4,n_id_226_line_5,n_id_226_line_6,n_id_226_line_7,n_id_226_line_8,n_id_226_line_9,n_id_226_line_10,n_id_226_line_11,n_id_226_line_12

path:::d::M66.7,62.8h1.3v7.1h-1.3V62.8z:::id::n_id_227:::class::st4::::n_id_227_line_0,n_id_227_line_1,n_id_227_line_2,n_id_227_line_3

path:::d::M71.9,64h-1.9v-1.2h5.2V64h-1.9v5.9h-1.3V64z:::id::n_id_228:::class::st4::::n_id_228_line_0,n_id_228_line_1,n_id_228_line_2,n_id_228_line_3,n_id_228_line_4,n_id_228_line_5,n_id_228_line_6,n_id_228_line_7,n_id_228_line_8

path:::d::M81.5,65.2c-0.1-0.8-0.8-1.3-1.6-1.3c-1.4,0-2,1.3-2,2.5c0,1.2,0.6,2.5,2,2.5c0.9,0,1.5-0.6,1.7-1.4l1.2,0.6   c-0.6,1.4-1.5,2.1-2.9,2.1c-2.3,0-3.4-1.7-3.4-3.7c0-2,1.3-3.7,3.4-3.7c1.4,0,2.5,0.7,2.9,2.2L81.5,65.2z:::id::n_id_229:::class::st4::::n_id_229_line_0,n_id_229_line_1,n_id_229_line_0,n_id_229_line_1,n_id_229_line_2,n_id_229_line_3,n_id_229_line_4,n_id_229_line_5,n_id_229_line_6,n_id_229_line_7

path:::d::M84.8,62.8h1.3v2.7h3.1v-2.7h1.3v7.1h-1.3v-3.2h-3.1v3.2h-1.3V62.8z:::id::n_id_230:::class::st4::::n_id_230_line_0,n_id_230_line_1,n_id_230_line_2,n_id_230_line_3,n_id_230_line_4,n_id_230_line_5,n_id_230_line_6,n_id_230_line_7,n_id_230_line_8,n_id_230_line_9,n_id_230_line_10,n_id_230_line_11

path:::d::M93.1,62.8h5V64h-3.7v1.6h3.4v1.2h-3.4v1.8h4v1.2h-5.3V62.8z:::id::n_id_231:::class::st4::::n_id_231_line_0,n_id_231_line_1,n_id_231_line_2,n_id_231_line_3,n_id_231_line_4,n_id_231_line_5,n_id_231_line_6,n_id_231_line_7,n_id_231_line_8,n_id_231_line_9,n_id_231_line_10,n_id_231_line_11

path:::d::M100.4,62.8h1.2l3,5.1h0v-5.1h1.2v7.1h-1.2l-3-5.1h0v5.1h-1.2V62.8z:::id::n_id_232:::class::st4::::n_id_232_line_0,n_id_232_line_1,n_id_232_line_2,n_id_232_line_3,n_id_232_line_4,n_id_232_line_5,n_id_232_line_6,n_id_232_line_7,n_id_232_line_8,n_id_232_line_9,n_id_232_line_10,n_id_232_line_11

path:::d::M169.1,129.4h1.3l1,5.6h0l1.1-5.6h1.3l1,5.5h0l0.9-5.5h1.3l-1.5,7.1h-1.6l-1-5.1h0l-1,5.1h-1.6L169.1,129.4z:::id::n_id_234:::class::st4::::n_id_234_line_0,n_id_234_line_1,n_id_234_line_2,n_id_234_line_3,n_id_234_line_4,n_id_234_line_5,n_id_234_line_6,n_id_234_line_7,n_id_234_line_8,n_id_234_line_9,n_id_234_line_10,n_id_234_line_11,n_id_234_line_12,n_id_234_line_13,n_id_234_line_14,n_id_234_line_15

path:::d::M181.4,129.2h1.1l-3.4,7.5H178L181.4,129.2z:::id::n_id_235:::class::st4::::n_id_235_line_0,n_id_235_line_1,n_id_235_line_2,n_id_235_line_3

path:::d::M183.9,129.4h2.5c2.5,0,3.5,1.5,3.5,3.6c0,2.3-1.1,3.6-3.2,3.6h-2.7V129.4z M185.2,135.3h1.2   c1.3,0,2-0.5,2-2.3c0-1.4-0.6-2.3-2.1-2.3h-1.2V135.3z:::id::n_id_236:::class::st4::::n_id_236_line_0,n_id_236_line_1,n_id_236_line_2,n_id_236_line_3,n_id_236_line_4,n_id_236_line_5,n_id_236_line_6,n_id_236_line_7,n_id_236_line_0,n_id_236_line_1,n_id_236_line_2,n_id_236_line_3

path:::d::M48.2,391.5h3.3c1.2,0,2.1,0.6,2.1,1.8c0,0.8-0.4,1.3-1.2,1.4v0c1,0.1,1.5,0.9,1.5,1.8c0,1.8-1.3,2.1-2.7,2.1   h-3V391.5z M49.5,394.4h1.6c0.6,0,1.1-0.2,1.1-0.9c0-0.5-0.4-0.9-1.1-0.9h-1.6V394.4z M49.5,397.5h1.7c0.8,0,1.3-0.2,1.3-1   c0-0.8-0.5-1.1-1.3-1.1h-1.7V397.5z:::id::n_id_238:::class::st4::::n_id_238_line_0,n_id_238_line_1,n_id_238_line_2,n_id_238_line_3,n_id_238_line_4,n_id_238_line_5,n_id_238_line_6,n_id_238_line_7,n_id_238_line_8,n_id_238_line_9,n_id_238_line_0,n_id_238_line_1,n_id_238_line_2,n_id_238_line_3,n_id_238_line_4,n_id_238_line_5,n_id_238_line_6,n_id_238_line_7

path:::d::M57.2,391.5h1.6l2.4,7.1h-1.4l-0.4-1.4h-2.7l-0.4,1.4h-1.4L57.2,391.5z M58,392.8L58,392.8l-1,3.3h2L58,392.8z   :::id::n_id_239:::class::st4::::n_id_239_line_0,n_id_239_line_1,n_id_239_line_2,n_id_239_line_3,n_id_239_line_4,n_id_239_line_5,n_id_239_line_6,n_id_239_line_7,n_id_239_line_8,n_id_239_line_9,n_id_239_line_10,n_id_239_line_11

path:::d::M62.4,391.5h1.3v5.9h2.9v1.2h-4.2V391.5z:::id::n_id_240:::class::st4::::n_id_240_line_0,n_id_240_line_1,n_id_240_line_2,n_id_240_line_3,n_id_240_line_4,n_id_240_line_5

path:::d::M72.6,393.9c-0.1-0.8-0.8-1.3-1.6-1.3c-1.4,0-2,1.3-2,2.5c0,1.2,0.6,2.5,2,2.5c0.9,0,1.5-0.6,1.7-1.4l1.2,0.6   c-0.6,1.4-1.5,2.1-2.9,2.1c-2.3,0-3.4-1.7-3.4-3.7c0-2,1.3-3.7,3.4-3.7c1.4,0,2.5,0.7,2.9,2.2L72.6,393.9z:::id::n_id_241:::class::st4::::n_id_241_line_0,n_id_241_line_1,n_id_241_line_0,n_id_241_line_1,n_id_241_line_2,n_id_241_line_3,n_id_241_line_4,n_id_241_line_5,n_id_241_line_6,n_id_241_line_7

path:::d::M81.8,395.1c0,2-1.3,3.7-3.4,3.7s-3.4-1.7-3.4-3.7c0-2,1.3-3.7,3.4-3.7S81.8,393.1,81.8,395.1z M76.4,395.1   c0,1.2,0.6,2.5,2,2.5c1.4,0,2-1.3,2-2.5c0-1.2-0.6-2.5-2-2.5C77,392.6,76.4,393.8,76.4,395.1z:::id::n_id_242:::class::st4::::n_id_242_line_0,n_id_242_line_1,n_id_242_line_2,n_id_242_line_3,n_id_242_line_4,n_id_242_line_5,n_id_242_line_6,n_id_242_line_7

path:::d::M83.5,391.5h1.2l3,5.1h0v-5.1H89v7.1h-1.2l-3-5.1h0v5.1h-1.2V391.5z:::id::n_id_243:::class::st4::::n_id_243_line_0,n_id_243_line_1,n_id_243_line_2,n_id_243_line_3,n_id_243_line_4,n_id_243_line_5,n_id_243_line_6,n_id_243_line_7,n_id_243_line_8,n_id_243_line_9,n_id_243_line_10,n_id_243_line_11,n_id_243_line_12

path:::d::M92.7,395.9l-2.4-4.3h1.5l1.5,2.9l1.5-2.9h1.5l-2.4,4.3v2.8h-1.3V395.9z:::id::n_id_244:::class::st4::::n_id_244_line_0,n_id_244_line_1,n_id_244_line_2,n_id_244_line_3,n_id_244_line_4,n_id_244_line_5,n_id_244_line_6,n_id_244_line_7,n_id_244_line_8,n_id_244_line_9

path:::d::M214.1,168.3h3.3c1.2,0,2.1,0.6,2.1,1.8c0,0.8-0.4,1.3-1.2,1.4v0c1,0.1,1.5,0.9,1.5,1.8c0,1.8-1.3,2.1-2.7,2.1   h-3V168.3z M215.5,171.1h1.6c0.6,0,1.1-0.2,1.1-0.9c0-0.5-0.3-0.9-1.1-0.9h-1.6V171.1z M215.5,174.2h1.7c0.8,0,1.3-0.2,1.3-1   c0-0.8-0.5-1.1-1.3-1.1h-1.7V174.2z:::id::n_id_246:::class::st4::::n_id_246_line_0,n_id_246_line_1,n_id_246_line_2,n_id_246_line_3,n_id_246_line_4,n_id_246_line_5,n_id_246_line_6,n_id_246_line_7,n_id_246_line_8,n_id_246_line_9,n_id_246_line_0,n_id_246_line_1,n_id_246_line_2,n_id_246_line_3,n_id_246_line_4,n_id_246_line_5,n_id_246_line_6,n_id_246_line_7

path:::d::M223.1,168.3h1.6l2.4,7.1h-1.4l-0.4-1.4h-2.7l-0.4,1.4h-1.4L223.1,168.3z M223.9,169.6L223.9,169.6l-1,3.3h2   L223.9,169.6z:::id::n_id_247:::class::st4::::n_id_247_line_0,n_id_247_line_1,n_id_247_line_2,n_id_247_line_3,n_id_247_line_4,n_id_247_line_5,n_id_247_line_6,n_id_247_line_7,n_id_247_line_8,n_id_247_line_9,n_id_247_line_10,n_id_247_line_11

path:::d::M229.1,169.5h-1.9v-1.2h5.2v1.2h-1.9v5.9h-1.3V169.5z:::id::n_id_248:::class::st4::::n_id_248_line_0,n_id_248_line_1,n_id_248_line_2,n_id_248_line_3,n_id_248_line_4,n_id_248_line_5,n_id_248_line_6,n_id_248_line_7,n_id_248_line_8

path:::d::M233.7,168.3h1.3v2.7h3.1v-2.7h1.3v7.1h-1.3v-3.2H235v3.2h-1.3V168.3z:::id::n_id_249:::class::st4::::n_id_249_line_0,n_id_249_line_1,n_id_249_line_2,n_id_249_line_3,n_id_249_line_4,n_id_249_line_5,n_id_249_line_6,n_id_249_line_7,n_id_249_line_8,n_id_249_line_9,n_id_249_line_10,n_id_249_line_11

path:::d::M172.3,212.3c-0.1-0.8-0.8-1.3-1.6-1.3c-1.4,0-2,1.3-2,2.5s0.6,2.5,2,2.5c0.9,0,1.5-0.6,1.7-1.4l1.2,0.6   c-0.6,1.4-1.5,2.1-2.9,2.1c-2.3,0-3.4-1.7-3.4-3.7c0-2,1.3-3.7,3.4-3.7c1.4,0,2.5,0.7,2.9,2.2L172.3,212.3z:::id::n_id_251:::class::st4::::n_id_251_line_0,n_id_251_line_1,n_id_251_line_0,n_id_251_line_1,n_id_251_line_2,n_id_251_line_3,n_id_251_line_4,n_id_251_line_5,n_id_251_line_6,n_id_251_line_7

path:::d::M175.1,209.9h1.3v5.9h2.9v1.2h-4.2V209.9z:::id::n_id_252:::class::st4::::n_id_252_line_0,n_id_252_line_1,n_id_252_line_2,n_id_252_line_3,n_id_252_line_4,n_id_252_line_5

path:::d::M187,213.5c0,2-1.3,3.7-3.4,3.7s-3.4-1.7-3.4-3.7c0-2,1.3-3.7,3.4-3.7S187,211.5,187,213.5z M181.6,213.5   c0,1.2,0.6,2.5,2,2.5c1.4,0,2-1.3,2-2.5s-0.6-2.5-2-2.5C182.2,211,181.6,212.2,181.6,213.5z:::id::n_id_253:::class::st4::::n_id_253_line_0,n_id_253_line_1,n_id_253_line_2,n_id_253_line_3,n_id_253_line_4,n_id_253_line_5,n_id_253_line_6,n_id_253_line_7

path:::d::M189.1,214.9c0.5,0.7,1.3,1.1,2.1,1.1c0.6,0,1.5-0.2,1.5-0.9c0-0.6-0.5-0.7-1.5-0.9l-0.8-0.2   c-1.1-0.3-2.1-0.7-2.1-2c0-1.5,1.4-2.2,2.8-2.2c1.2,0,2.2,0.4,3,1.4L193,212c-0.3-0.6-1-1-1.9-1c-0.8,0-1.3,0.3-1.3,0.8   c0,0.6,0.7,0.7,1.5,0.9l0.9,0.2c1.1,0.2,2.1,0.7,2.1,2c0,1.7-1.6,2.3-3.1,2.3c-1.2,0-2.4-0.5-3.1-1.5L189.1,214.9z:::id::n_id_254:::class::st4::::n_id_254_line_0,n_id_254_line_1,n_id_254_line_2,n_id_254_line_3,n_id_254_line_0,n_id_254_line_1,n_id_254_line_2,n_id_254_line_3,n_id_254_line_4,n_id_254_line_5,n_id_254_line_6,n_id_254_line_7,n_id_254_line_8,n_id_254_line_9,n_id_254_line_10,n_id_254_line_11

path:::d::M195.8,209.9h5v1.2h-3.7v1.6h3.4v1.2h-3.4v1.8h4v1.2h-5.3V209.9z:::id::n_id_255:::class::st4::::n_id_255_line_0,n_id_255_line_1,n_id_255_line_2,n_id_255_line_3,n_id_255_line_4,n_id_255_line_5,n_id_255_line_6,n_id_255_line_7,n_id_255_line_8,n_id_255_line_9,n_id_255_line_10,n_id_255_line_11

path:::d::M204,211.2H202v-1.2h5.2v1.2h-1.9v5.9H204V211.2z:::id::n_id_256:::class::st4::::n_id_256_line_0,n_id_256_line_1,n_id_256_line_2,n_id_256_line_3,n_id_256_line_4,n_id_256_line_5,n_id_256_line_6,n_id_256_line_7

path:::d::M165.4,85.3h2l1.3,5.5h0l1.3-5.5h2v7.1h-1.3v-5.9h0l-1.4,5.9h-1.3l-1.4-5.9h0v5.9h-1.3V85.3z:::id::n_id_258:::class::st4::::n_id_258_line_0,n_id_258_line_1,n_id_258_line_2,n_id_258_line_3,n_id_258_line_4,n_id_258_line_5,n_id_258_line_6,n_id_258_line_7,n_id_258_line_8,n_id_258_line_9,n_id_258_line_10,n_id_258_line_11,n_id_258_line_12,n_id_258_line_13,n_id_258_line_14,n_id_258_line_15,n_id_258_line_16

path:::d::M174,85.3h5v1.2h-3.7v1.6h3.4v1.2h-3.4v1.8h4v1.2H174V85.3z:::id::n_id_259:::class::st4::::n_id_259_line_0,n_id_259_line_1,n_id_259_line_2,n_id_259_line_3,n_id_259_line_4,n_id_259_line_5,n_id_259_line_6,n_id_259_line_7,n_id_259_line_8,n_id_259_line_9,n_id_259_line_10,n_id_259_line_11

path:::d::M185.4,87.7c-0.1-0.8-0.8-1.3-1.6-1.3c-1.4,0-2,1.3-2,2.5s0.6,2.5,2,2.5c0.9,0,1.5-0.6,1.7-1.4l1.2,0.6   c-0.6,1.4-1.5,2.1-2.9,2.1c-2.3,0-3.4-1.7-3.4-3.7c0-2,1.3-3.7,3.4-3.7c1.4,0,2.5,0.7,2.9,2.2L185.4,87.7z:::id::n_id_260:::class::st4::::n_id_260_line_0,n_id_260_line_1,n_id_260_line_0,n_id_260_line_1,n_id_260_line_2,n_id_260_line_3,n_id_260_line_4,n_id_260_line_5,n_id_260_line_6,n_id_260_line_7

path:::d::M188.2,85.3h1.3V88h3.1v-2.7h1.3v7.1h-1.3v-3.2h-3.1v3.2h-1.3V85.3z:::id::n_id_261:::class::st4::::n_id_261_line_0,n_id_261_line_1,n_id_261_line_2,n_id_261_line_3,n_id_261_line_4,n_id_261_line_5,n_id_261_line_6,n_id_261_line_7,n_id_261_line_8,n_id_261_line_9,n_id_261_line_10,n_id_261_line_11

