polygon:::points::87.169,214.604 164.99,214.604 164.99,68.771 328.067,68.771 328.067,143.452 367.886,143.452   367.886,196.324 257.352,196.324 257.352,277.118 163.903,277.118 163.903,249.524 86.675,249.524 :::id::n_id_1:::fill::#FFFCD5::::n_id_1_line_0,n_id_1_line_1,n_id_1_line_2,n_id_1_line_3,n_id_1_line_4,n_id_1_line_5,n_id_1_line_6,n_id_1_line_7,n_id_1_line_8,n_id_1_line_9,n_id_1_line_10,n_id_1_line_11

rect:::width::46.015:::y::9.75:::x::282.03:::height::41.336:::id::n_id_2:::fill::#7BD3F7::::n_id_2_line_0,n_id_2_line_1,n_id_2_line_2,n_id_2_line_3

polygon:::points::327.356,70.691 327.356,50.41 282.709,50.41 282.709,70.691 284.143,70.691 284.143,72.769   284.646,72.769 292.147,80.068 299.786,72.769 306.345,72.769 313.981,80.068 321.702,72.557 321.48,72.556 321.48,70.691 :::id::n_id_3:::fill::#7BD3F7::::n_id_3_line_0,n_id_3_line_1,n_id_3_line_2,n_id_3_line_3,n_id_3_line_4,n_id_3_line_5,n_id_3_line_6,n_id_3_line_7,n_id_3_line_8,n_id_3_line_9,n_id_3_line_10,n_id_3_line_11,n_id_3_line_12,n_id_3_line_13

polygon:::points::105.167,248.641 96.667,239.929 88.391,248.641 87.975,248.641 87.975,251.448 114.14,251.448   114.14,248.641 :::id::n_id_4:::fill::#7BD3F7::::n_id_4_line_0,n_id_4_line_1,n_id_4_line_2,n_id_4_line_3,n_id_4_line_4,n_id_4_line_5,n_id_4_line_6

polygon:::points::281.841,18.253 182.425,18.253 182.425,68.412 204.108,68.412 204.108,70.922 231.058,70.922   231.058,68.412 281.841,68.412 :::id::n_id_5:::fill::#FFE4C0::::n_id_5_line_0,n_id_5_line_1,n_id_5_line_2,n_id_5_line_3,n_id_5_line_4,n_id_5_line_5,n_id_5_line_6,n_id_5_line_7

rect:::width::132.53:::y::70.375:::x::9.028:::height::145.667:::id::n_id_6:::fill::#FFE4C0::::n_id_6_line_0,n_id_6_line_1,n_id_6_line_2,n_id_6_line_3

path:::id::n_id_7:::d::M31.429,215.279c0.002,0.78,0.023,10,0.012,10.554c-0.012,0.578,0.917,0.515,0.874,1.147  s-0.043,30.768,0,31.4c0.043,0.632-0.885,0.568-0.874,1.146s0,8.628,0,8.628v8.812H9.27v0.36l77.147-0.36v-61.688H31.429z   M54.137,273.169c0,0.646-0.524,1.17-1.17,1.17h-14.16c-0.646,0-1.17-0.523-1.17-1.17v-5.161c0-0.646,0.524-1.17,1.17-1.17  l3.92-0.002c-1.777-1.379-2.965-3.885-2.965-6.749c0-4.349,2.742-7.876,6.125-7.876s6.125,3.527,6.125,7.876  c0,2.855-1.181,5.354-2.949,6.736l3.904,0.015c0.646,0,1.17,0.524,1.17,1.17V273.169z M85.812,276.146H60.155V252.29h25.657V276.146  z:::fill::#DAEBC1::::n_id_7_line_0,n_id_7_line_1,n_id_7_line_2,n_id_7_line_3,n_id_7_line_4,n_id_7_line_5,n_id_7_line_6,n_id_7_line_7,n_id_7_line_8,n_id_7_line_9,n_id_7_line_10,n_id_7_line_11,n_id_7_line_12,n_id_7_line_13,n_id_7_line_14,n_id_7_line_15,n_id_7_line_16,n_id_7_line_17,n_id_7_line_0,n_id_7_line_1,n_id_7_line_2,n_id_7_line_3,n_id_7_line_4,n_id_7_line_5,n_id_7_line_6,n_id_7_line_7,n_id_7_line_8,n_id_7_line_9,n_id_7_line_10,n_id_7_line_11,n_id_7_line_12

path:::id::n_id_11:::d::M63.284,220.274c0,12.771,10.354,23.125,23.125,23.125v-23.125l-23.234-0.157:::fill::#C4DF9B::::n_id_11_line_0,n_id_11_line_1,n_id_11_line_0

path:::id::n_id_12:::d::M141.612,249.001l-8.499-8.712l-8.277,8.712h-9.057v28.011h26.171v-28.011H141.612z M128.344,272.578    c-4.706,0-8.521-3.815-8.521-8.523c0-4.706,3.816-8.521,8.521-8.521c4.708,0,8.523,3.816,8.523,8.521    C136.867,268.762,133.052,272.578,128.344,272.578z:::fill::#7BD3F7::::n_id_12_line_0,n_id_12_line_1,n_id_12_line_2,n_id_12_line_3,n_id_12_line_4,n_id_12_line_5,n_id_12_line_6,n_id_12_line_7,n_id_12_line_0,n_id_12_line_1,n_id_12_line_2,n_id_12_line_3

polygon:::points::141.628,70.81 141.628,72.716 132.994,81.591 141.628,90.625 141.628,105.39 132.994,114.425   141.628,123.299 141.628,125.354 165.037,125.354 165.037,70.81 :::id::n_id_13:::fill::#FFD59C::::n_id_13_line_0,n_id_13_line_1,n_id_13_line_2,n_id_13_line_3,n_id_13_line_4,n_id_13_line_5,n_id_13_line_6,n_id_13_line_7,n_id_13_line_8,n_id_13_line_9

polygon:::points::141.628,125.836 141.628,127.743 132.994,136.617 141.628,145.652 141.628,158.617 132.994,167.652   141.628,176.526 141.628,180.38 165.037,180.38 165.037,125.836 :::id::n_id_14:::fill::#FFD59C::::n_id_14_line_0,n_id_14_line_1,n_id_14_line_2,n_id_14_line_3,n_id_14_line_4,n_id_14_line_5,n_id_14_line_6,n_id_14_line_7,n_id_14_line_8,n_id_14_line_9

polygon:::points::302.027,225.475 302.027,218.812 283.581,218.812 283.581,220.454 258.912,220.454 258.912,219.893   256.673,219.893 256.673,229.039 256.675,229.039 256.675,253.855 327.039,253.855 327.039,225.475 :::id::n_id_16:::fill::#FFE4C0::::n_id_16_line_0,n_id_16_line_1,n_id_16_line_2,n_id_16_line_3,n_id_16_line_4,n_id_16_line_5,n_id_16_line_6,n_id_16_line_7,n_id_16_line_8,n_id_16_line_9,n_id_16_line_10,n_id_16_line_11

path:::id::n_id_18:::d::M136.475,192.542c-12.771,0-23.125,10.354-23.125,23.125h23.125l0.157-23.234:::fill::#FFD59C::::n_id_18_line_0,n_id_18_line_1,n_id_18_line_0

path:::id::n_id_20:::d::M259.062,23.556c0,12.771,10.354,23.125,23.125,23.125V23.556l-23.234-0.157:::fill::#00AEEF::::n_id_20_line_0,n_id_20_line_1,n_id_20_line_0

path:::id::n_id_22:::d::M364.508,165.624c-16.603,0-30.062,13.459-30.062,30.062h30.062l0.205-30.205:::fill::#FFF9AE::::n_id_22_line_0,n_id_22_line_1,n_id_22_line_0

polygon:::points::148.529,214.658 155.228,221.57 162.424,214.658 163.919,214.658 163.919,201.407 139.557,201.407   139.557,214.658 :::id::n_id_23:::fill::#7BD3F7::::n_id_23_line_0,n_id_23_line_1,n_id_23_line_2,n_id_23_line_3,n_id_23_line_4,n_id_23_line_5,n_id_23_line_6

path:::id::n_id_25:::stroke::#25408F:::d::M54.144,272.943c0,0.646-0.524,1.17-1.17,1.17h-14.16c-0.646,0-1.17-0.523-1.17-1.17v-5.16   c0-0.646,0.524-1.17,1.17-1.17h14.16c0.646,0,1.17,0.523,1.17,1.17V272.943z:::fill::none::::n_id_25_line_0,n_id_25_line_1,n_id_25_line_2,n_id_25_line_3,n_id_25_line_4,n_id_25_line_0,n_id_25_line_1,n_id_25_line_2,n_id_25_line_3

path:::id::n_id_26:::stroke::#25408F:::d::M42.734,266.61c-1.777-1.378-2.965-3.885-2.965-6.747c0-4.35,2.742-7.875,6.125-7.875   s6.125,3.525,6.125,7.875c0,2.854-1.181,5.354-2.949,6.734L42.734,266.61z:::fill::none::::n_id_26_line_0,n_id_26_line_0,n_id_26_line_1,n_id_26_line_2,n_id_26_line_3

path:::id::n_id_30:::stroke::#25408F:::stroke-width::0.75:::d::M29.752,234.165v-6.343c0-4.654-3.773-8.428-8.427-8.428    s-8.427,3.773-8.427,8.428v6.343c-0.009,0.117-0.035,0.229-0.035,0.349v26.166c0,2.485,2.015,4.5,4.5,4.5h7.925    c2.485,0,4.5-2.015,4.5-4.5v-26.166C29.788,234.395,29.762,234.282,29.752,234.165z:::fill::none::::n_id_30_line_0,n_id_30_line_1,n_id_30_line_2,n_id_30_line_3,n_id_30_line_4,n_id_30_line_0,n_id_30_line_1,n_id_30_line_2,n_id_30_line_3,n_id_30_line_4,n_id_30_line_5

path:::id::n_id_31:::stroke::#25408F:::d::M31.448,267.93c0,0,0.012-8.049,0-8.627s0.917-0.516,0.874-1.146   c-0.043-0.633-0.043-30.766,0-31.398c0.043-0.631-0.885-0.568-0.874-1.146s-0.012-10.613-0.012-10.613l-22.159-0.012v61.754h22.171   V267.93:::fill::none::::n_id_31_line_0,n_id_31_line_1,n_id_31_line_2,n_id_31_line_3,n_id_31_line_0,n_id_31_line_1,n_id_31_line_2,n_id_31_line_3,n_id_31_line_4

rect:::width::22.171:::stroke::#25408F:::y::267.93:::x::9.277:::height::8.811:::id::n_id_32:::fill::#25408F::::n_id_32_line_0,n_id_32_line_1,n_id_32_line_2,n_id_32_line_3

path:::id::n_id_36:::stroke::#25408F:::stroke-width::0.75:::d::M81.519,263.992c0,3.381-2.741,6.121-6.121,6.121h-4.813     c-3.38,0-6.121-2.74-6.121-6.121l0,0c0-3.381,2.741-6.121,6.121-6.121h4.813C78.778,257.871,81.519,260.611,81.519,263.992     L81.519,263.992z:::fill::none::::n_id_36_line_0,n_id_36_line_1,n_id_36_line_2,n_id_36_line_3,n_id_36_line_0,n_id_36_line_1,n_id_36_line_2,n_id_36_line_3

rect:::width::25.657:::stroke::#25408F:::y::252.066:::x::60.163:::height::23.852:::id::n_id_38:::fill::none::::n_id_38_line_0,n_id_38_line_1,n_id_38_line_2,n_id_38_line_3

path:::id::n_id_40:::stroke::#25408F:::stroke-width::0.75:::d::M73.72,271.853c0,0.413-0.335,0.749-0.749,0.749l0,0    c-0.414,0-0.749-0.336-0.749-0.749v-2.991c0-0.414,0.335-0.748,0.749-0.748l0,0c0.414,0,0.749,0.334,0.749,0.748V271.853z:::fill::#FFFFFF::::n_id_40_line_0,n_id_40_line_1,n_id_40_line_2,n_id_40_line_3,n_id_40_line_0,n_id_40_line_1,n_id_40_line_2,n_id_40_line_3

rect:::height::22.225:::width::24.828:::stroke::#25408F:::y::198.045:::x::258.826:::stroke-width::0.75:::id::n_id_45:::fill::none::::n_id_45_line_0,n_id_45_line_1,n_id_45_line_2,n_id_45_line_3

rect:::height::3.225:::width::24.828:::stroke::#25408F:::y::198.045:::x::258.826:::stroke-width::0.75:::id::n_id_46:::fill::none::::n_id_46_line_0,n_id_46_line_1,n_id_46_line_2,n_id_46_line_3

rect:::height::27.859:::width::23.871:::stroke::#25408F:::y::197.744:::x::302.059:::stroke-width::0.75:::id::n_id_51:::fill::none::::n_id_51_line_0,n_id_51_line_1,n_id_51_line_2,n_id_51_line_3

rect:::height::21.266:::width::18.51:::stroke::#25408F:::y::197.891:::x::283.549:::stroke-width::0.75:::id::n_id_52:::fill::none::::n_id_52_line_0,n_id_52_line_1,n_id_52_line_2,n_id_52_line_3

path:::id::n_id_57:::stroke::#25408F:::stroke-width::0.75:::d::M291.164,269.589c0,1.243-1.008,2.25-2.25,2.25h-7.043     c-1.242,0-2.25-1.007-2.25-2.25v-11.193c0-1.243,1.008-2.25,2.25-2.25h7.043c1.242,0,2.25,1.007,2.25,2.25V269.589z:::fill::none::::n_id_57_line_0,n_id_57_line_1,n_id_57_line_2,n_id_57_line_3,n_id_57_line_4,n_id_57_line_0,n_id_57_line_1,n_id_57_line_2,n_id_57_line_3

path:::id::n_id_60:::stroke::#25408F:::stroke-width::0.75:::d::M279.621,269.589c0,1.243,1.008,2.25,2.25,2.25h7.043     c1.242,0,2.25-1.007,2.25-2.25v-11.193c0-1.243-1.008-2.25-2.25-2.25h-7.043c-1.242,0-2.25,1.007-2.25,2.25V269.589z:::fill::none::::n_id_60_line_0,n_id_60_line_1,n_id_60_line_2,n_id_60_line_3,n_id_60_line_4,n_id_60_line_0,n_id_60_line_1,n_id_60_line_2,n_id_60_line_3

path:::id::n_id_63:::stroke::#25408F:::stroke-width::0.75:::d::M291.08,269.589c0,1.243,1.008,2.25,2.25,2.25h7.043     c1.242,0,2.25-1.007,2.25-2.25v-11.193c0-1.243-1.008-2.25-2.25-2.25h-7.043c-1.242,0-2.25,1.007-2.25,2.25V269.589z:::fill::none::::n_id_63_line_0,n_id_63_line_1,n_id_63_line_2,n_id_63_line_3,n_id_63_line_0,n_id_63_line_1,n_id_63_line_2,n_id_63_line_3

path:::id::n_id_66:::stroke::#25408F:::stroke-width::0.75:::d::M291.85,273.673c0,0.413-0.334,0.749-0.748,0.749l0,0     c-0.414,0-0.748-0.336-0.748-0.749v-2.991c0-0.414,0.334-0.748,0.748-0.748l0,0c0.414,0,0.748,0.334,0.748,0.748V273.673z:::fill::#FFFFFF::::n_id_66_line_0,n_id_66_line_1,n_id_66_line_2,n_id_66_line_3,n_id_66_line_0,n_id_66_line_1,n_id_66_line_2,n_id_66_line_3

rect:::height::22.773:::width::70.012:::stroke::#25408F:::y::253.992:::x::256.742:::stroke-width::0.75:::id::n_id_69:::fill::none::::n_id_69_line_0,n_id_69_line_1,n_id_69_line_2,n_id_69_line_3

path:::id::n_id_72:::stroke::#25408F:::stroke-width::0.5:::d::M113.63,215.334c0-12.771,10.354-23.124,23.125-23.124:::fill::none::::n_id_72_line_0

rect:::width::1.454:::stroke::#25408F:::y::192.22:::x::135.301:::height::23.115:::id::n_id_73:::fill::none::::n_id_73_line_0,n_id_73_line_1,n_id_73_line_2,n_id_73_line_3

path:::id::n_id_75:::stroke::#25408F:::stroke-width::0.5:::d::M86.013,243.33c-12.771,0-23.125-10.354-23.125-23.125:::fill::none::::n_id_75_line_0

rect:::width::23.115:::stroke::#25408F:::y::220.205:::x::62.898:::height::1.453:::id::n_id_76:::fill::none::::n_id_76_line_0,n_id_76_line_1,n_id_76_line_2,n_id_76_line_3

path:::id::n_id_78:::stroke::#25408F:::stroke-width::0.5:::d::M282.375,46.705c-12.771,0-23.125-10.354-23.125-23.125:::fill::none::::n_id_78_line_0

rect:::width::23.113:::stroke::#25408F:::y::23.58:::x::259.262:::height::1.455:::id::n_id_79:::fill::none::::n_id_79_line_0,n_id_79_line_1,n_id_79_line_2,n_id_79_line_3

path:::id::n_id_81:::d::M311.83,220.79l-1.263-2.215h-0.952v2.215h-0.663v-5.245h1.639c1.071,0,1.839,0.384,1.839,1.471   c0,0.815-0.463,1.312-1.175,1.487l1.327,2.287H311.83z M309.615,218.031h0.88c0.815,0,1.271-0.336,1.271-1.016   c0-0.688-0.456-0.936-1.271-0.936h-0.88V218.031z:::fill::#25408F::::n_id_81_line_0,n_id_81_line_1,n_id_81_line_2,n_id_81_line_3,n_id_81_line_4,n_id_81_line_5,n_id_81_line_6,n_id_81_line_7,n_id_81_line_8,n_id_81_line_9,n_id_81_line_10,n_id_81_line_11,n_id_81_line_12,n_id_81_line_0,n_id_81_line_1,n_id_81_line_2,n_id_81_line_3

path:::id::n_id_82:::d::M314.82,216.808c0.991,0,1.551,0.712,1.551,1.823c0,0.136-0.008,0.264-0.024,0.36h-2.622   c0.048,0.839,0.552,1.367,1.295,1.367c0.368,0,0.68-0.12,0.968-0.304l0.231,0.432c-0.336,0.216-0.751,0.4-1.279,0.4   c-1.039,0-1.862-0.76-1.862-2.031C313.077,217.583,313.933,216.808,314.82,216.808z M315.795,218.559   c0-0.792-0.352-1.231-0.959-1.231c-0.544,0-1.039,0.448-1.119,1.231H315.795z:::fill::#25408F::::n_id_82_line_0,n_id_82_line_1,n_id_82_line_2,n_id_82_line_3,n_id_82_line_0,n_id_82_line_1,n_id_82_line_2,n_id_82_line_3,n_id_82_line_4,n_id_82_line_5,n_id_82_line_6,n_id_82_line_7,n_id_82_line_8

path:::id::n_id_83:::d::M318.991,215.632c-0.144-0.064-0.296-0.096-0.439-0.096c-0.368,0-0.544,0.256-0.544,0.751v0.616h0.824   v0.536h-0.824v3.35h-0.655v-3.35h-0.527v-0.496l0.527-0.04v-0.616c0-0.792,0.359-1.287,1.136-1.287   c0.239,0,0.472,0.056,0.647,0.128L318.991,215.632z:::fill::#25408F::::n_id_83_line_0,n_id_83_line_1,n_id_83_line_2,n_id_83_line_3,n_id_83_line_4,n_id_83_line_5,n_id_83_line_6,n_id_83_line_7,n_id_83_line_8,n_id_83_line_9,n_id_83_line_10,n_id_83_line_11,n_id_83_line_0,n_id_83_line_1,n_id_83_line_2,n_id_83_line_3

path:::id::n_id_84:::d::M319.687,219.878c0.256,0,0.472,0.208,0.472,0.512c0,0.288-0.216,0.496-0.472,0.496   c-0.264,0-0.479-0.208-0.479-0.496C319.207,220.086,319.423,219.878,319.687,219.878z:::fill::#25408F::::n_id_84_line_0,n_id_84_line_1,n_id_84_line_2,n_id_84_line_3

path:::id::n_id_86:::d::M263.617,257.974h1.312c1.613,0,2.479,0.936,2.479,2.599c0,1.671-0.865,2.646-2.447,2.646h-1.344V257.974z    M264.881,262.675c1.223,0,1.84-0.775,1.84-2.103c0-1.319-0.617-2.055-1.84-2.055h-0.6v4.157H264.881z:::fill::#25408F::::n_id_86_line_0,n_id_86_line_1,n_id_86_line_2,n_id_86_line_3,n_id_86_line_4,n_id_86_line_5,n_id_86_line_6,n_id_86_line_7,n_id_86_line_0,n_id_86_line_1,n_id_86_line_2,n_id_86_line_3

path:::id::n_id_87:::d::M267.879,257.974h0.688l0.551,2.854c0.098,0.567,0.209,1.127,0.305,1.695h0.031   c0.121-0.567,0.248-1.135,0.369-1.695l0.727-2.854h0.607l0.729,2.854c0.127,0.552,0.256,1.127,0.383,1.695h0.033   c0.096-0.567,0.191-1.135,0.295-1.695l0.553-2.854h0.639l-1.088,5.245H271.9l-0.791-3.158c-0.096-0.408-0.176-0.784-0.256-1.191   h-0.033c-0.08,0.408-0.176,0.784-0.264,1.191l-0.775,3.158h-0.791L267.879,257.974z:::fill::#25408F::::n_id_87_line_0,n_id_87_line_1,n_id_87_line_2,n_id_87_line_3,n_id_87_line_4,n_id_87_line_5,n_id_87_line_6,n_id_87_line_7,n_id_87_line_8,n_id_87_line_9,n_id_87_line_10,n_id_87_line_11,n_id_87_line_12,n_id_87_line_13,n_id_87_line_14,n_id_87_line_15,n_id_87_line_0,n_id_87_line_1,n_id_87_line_2,n_id_87_line_3,n_id_87_line_4,n_id_87_line_5

polyline:::stroke::#25408F:::stroke-width::0.75:::points::142.109,176.791 133.109,167.541 142.109,158.125  :::id::n_id_89:::fill::none::::n_id_89_line_0,n_id_89_line_1

polyline:::stroke::#25408F:::stroke-width::0.75:::points::142.109,127.457 133.109,136.707 142.109,146.125  :::id::n_id_90:::fill::none::::n_id_90_line_0,n_id_90_line_1

path:::id::n_id_93:::d::M144.718,159.02c0-0.631,0.304-1.127,0.647-1.431l0.424,0.376c-0.296,0.271-0.488,0.607-0.488,1.047    c0,1,0.815,1.655,2.119,1.655c1.319,0,2.151-0.632,2.151-1.623c0-0.504-0.208-0.871-0.583-1.207l0.408-0.376    c0.479,0.416,0.759,0.928,0.759,1.599c0,1.319-1.007,2.295-2.718,2.295C145.749,161.354,144.718,160.363,144.718,159.02z:::fill::#25408F::::n_id_93_line_0,n_id_93_line_1,n_id_93_line_0,n_id_93_line_1,n_id_93_line_2,n_id_93_line_3,n_id_93_line_4,n_id_93_line_5,n_id_93_line_6,n_id_93_line_7

path:::id::n_id_94:::d::M144.366,156.673v-0.656h4.958c0.208,0,0.288-0.088,0.288-0.184c0-0.04,0-0.072-0.016-0.144l0.496-0.088    c0.04,0.088,0.063,0.199,0.063,0.375c0,0.496-0.312,0.696-0.879,0.696H144.366z:::fill::#25408F::::n_id_94_line_0,n_id_94_line_1,n_id_94_line_2,n_id_94_line_3,n_id_94_line_4,n_id_94_line_0,n_id_94_line_1,n_id_94_line_2,n_id_94_line_3

path:::id::n_id_95:::d::M146.077,153.279c0-0.951,0.744-1.799,2.047-1.799c1.288,0,2.031,0.848,2.031,1.799    s-0.743,1.799-2.031,1.799C146.82,155.078,146.077,154.23,146.077,153.279z M149.611,153.279c0-0.672-0.6-1.119-1.487-1.119    c-0.896,0-1.503,0.447-1.503,1.119c0,0.664,0.607,1.119,1.503,1.119C149.011,154.398,149.611,153.943,149.611,153.279z:::fill::#25408F::::n_id_95_line_0,n_id_95_line_1,n_id_95_line_2,n_id_95_line_3,n_id_95_line_4,n_id_95_line_5,n_id_95_line_6,n_id_95_line_7

path:::id::n_id_96:::d::M149.179,150.669c0.272-0.336,0.463-0.68,0.463-1.144c0-0.512-0.271-0.768-0.607-0.768    c-0.4,0-0.576,0.464-0.735,0.888c-0.2,0.552-0.464,1.159-1.12,1.159c-0.624,0-1.104-0.495-1.104-1.335    c0-0.487,0.2-0.911,0.44-1.207l0.416,0.312c-0.2,0.264-0.344,0.544-0.344,0.888c0,0.487,0.264,0.711,0.56,0.711    c0.368,0,0.503-0.423,0.671-0.863c0.208-0.56,0.44-1.184,1.175-1.184c0.632,0,1.159,0.504,1.159,1.424    c0,0.552-0.231,1.079-0.536,1.447L149.179,150.669z:::fill::#25408F::::n_id_96_line_0,n_id_96_line_1,n_id_96_line_0,n_id_96_line_1,n_id_96_line_2,n_id_96_line_3,n_id_96_line_4,n_id_96_line_5,n_id_96_line_6,n_id_96_line_7,n_id_96_line_8,n_id_96_line_9,n_id_96_line_10,n_id_96_line_11

path:::id::n_id_97:::d::M146.077,145.805c0-0.992,0.712-1.552,1.823-1.552c0.136,0,0.264,0.008,0.36,0.024v2.622    c0.839-0.048,1.367-0.552,1.367-1.295c0-0.368-0.12-0.68-0.304-0.968l0.432-0.231c0.216,0.336,0.399,0.751,0.399,1.279    c0,1.039-0.759,1.862-2.031,1.862C146.853,147.547,146.077,146.691,146.077,145.805z M147.828,144.829    c-0.792,0-1.231,0.352-1.231,0.959c0,0.544,0.448,1.04,1.231,1.119V144.829z:::fill::#25408F::::n_id_97_line_0,n_id_97_line_1,n_id_97_line_2,n_id_97_line_3,n_id_97_line_0,n_id_97_line_1,n_id_97_line_2,n_id_97_line_3,n_id_97_line_4,n_id_97_line_5,n_id_97_line_6,n_id_97_line_7,n_id_97_line_8

path:::id::n_id_98:::d::M146.708,143.25v0.576h-0.496l-0.04-0.608l-1.087-0.08v-0.552h1.087v-1.047h0.536v1.047h2.159    c0.48,0,0.751-0.151,0.751-0.6c0-0.136-0.056-0.312-0.104-0.439l0.496-0.128c0.072,0.216,0.144,0.479,0.144,0.72    c0,0.831-0.527,1.111-1.295,1.111H146.708z:::fill::#25408F::::n_id_98_line_0,n_id_98_line_1,n_id_98_line_2,n_id_98_line_3,n_id_98_line_4,n_id_98_line_5,n_id_98_line_6,n_id_98_line_7,n_id_98_line_8,n_id_98_line_9,n_id_98_line_10,n_id_98_line_11,n_id_98_line_0,n_id_98_line_1,n_id_98_line_2,n_id_98_line_3

polyline:::stroke::#25408F:::stroke-width::0.75:::points::141.653,123.453 132.653,114.203 141.653,104.785  :::id::n_id_100:::fill::none::::n_id_100_line_0,n_id_100_line_1

polyline:::stroke::#25408F:::stroke-width::0.75:::points::141.653,72.119 132.653,81.369 141.653,90.785  :::id::n_id_101:::fill::none::::n_id_101_line_0,n_id_101_line_1

path:::id::n_id_104:::d::M144.281,105.68c0-0.631,0.304-1.127,0.647-1.431l0.424,0.376c-0.296,0.271-0.488,0.607-0.488,1.047    c0,1,0.815,1.655,2.119,1.655c1.319,0,2.151-0.632,2.151-1.623c0-0.504-0.208-0.871-0.583-1.207l0.408-0.376    c0.479,0.416,0.759,0.928,0.759,1.599c0,1.319-1.007,2.295-2.718,2.295C145.312,108.015,144.281,107.023,144.281,105.68z:::fill::#25408F::::n_id_104_line_0,n_id_104_line_1,n_id_104_line_0,n_id_104_line_1,n_id_104_line_2,n_id_104_line_3,n_id_104_line_4,n_id_104_line_5,n_id_104_line_6,n_id_104_line_7

path:::id::n_id_105:::d::M143.929,103.333v-0.656h4.958c0.208,0,0.288-0.088,0.288-0.184c0-0.04,0-0.072-0.016-0.144l0.496-0.088    c0.04,0.088,0.063,0.199,0.063,0.375c0,0.496-0.312,0.696-0.879,0.696H143.929z:::fill::#25408F::::n_id_105_line_0,n_id_105_line_1,n_id_105_line_2,n_id_105_line_3,n_id_105_line_4,n_id_105_line_0,n_id_105_line_1,n_id_105_line_2,n_id_105_line_3

path:::id::n_id_106:::d::M145.64,99.939c0-0.951,0.744-1.799,2.047-1.799c1.288,0,2.031,0.848,2.031,1.799    s-0.743,1.799-2.031,1.799C146.383,101.738,145.64,100.891,145.64,99.939z M149.174,99.939c0-0.672-0.6-1.119-1.487-1.119    c-0.896,0-1.503,0.447-1.503,1.119c0,0.664,0.607,1.119,1.503,1.119C148.574,101.059,149.174,100.604,149.174,99.939z:::fill::#25408F::::n_id_106_line_0,n_id_106_line_1,n_id_106_line_2,n_id_106_line_3,n_id_106_line_4,n_id_106_line_5,n_id_106_line_6,n_id_106_line_7

path:::id::n_id_107:::d::M148.742,97.329c0.272-0.336,0.463-0.68,0.463-1.144c0-0.512-0.271-0.768-0.607-0.768    c-0.4,0-0.576,0.464-0.735,0.888c-0.2,0.552-0.464,1.159-1.12,1.159c-0.624,0-1.104-0.495-1.104-1.335    c0-0.487,0.2-0.911,0.44-1.207l0.416,0.312c-0.2,0.264-0.344,0.544-0.344,0.888c0,0.487,0.264,0.711,0.56,0.711    c0.368,0,0.503-0.423,0.671-0.863c0.208-0.56,0.44-1.184,1.175-1.184c0.632,0,1.159,0.504,1.159,1.424    c0,0.552-0.231,1.079-0.536,1.447L148.742,97.329z:::fill::#25408F::::n_id_107_line_0,n_id_107_line_1,n_id_107_line_0,n_id_107_line_1,n_id_107_line_2,n_id_107_line_3,n_id_107_line_4,n_id_107_line_5,n_id_107_line_6,n_id_107_line_7,n_id_107_line_8,n_id_107_line_9,n_id_107_line_10,n_id_107_line_11

path:::id::n_id_108:::d::M145.64,92.465c0-0.992,0.712-1.552,1.823-1.552c0.136,0,0.264,0.008,0.36,0.024v2.622    c0.839-0.048,1.367-0.552,1.367-1.295c0-0.368-0.12-0.68-0.304-0.968l0.432-0.231c0.216,0.336,0.399,0.751,0.399,1.279    c0,1.039-0.759,1.862-2.031,1.862C146.416,94.207,145.64,93.352,145.64,92.465z M147.391,91.489c-0.792,0-1.231,0.352-1.231,0.959    c0,0.544,0.448,1.04,1.231,1.119V91.489z:::fill::#25408F::::n_id_108_line_0,n_id_108_line_1,n_id_108_line_2,n_id_108_line_3,n_id_108_line_0,n_id_108_line_1,n_id_108_line_2,n_id_108_line_3,n_id_108_line_4,n_id_108_line_5,n_id_108_line_6,n_id_108_line_7,n_id_108_line_8

path:::id::n_id_109:::d::M146.271,89.91v0.576h-0.496l-0.04-0.608l-1.087-0.08v-0.552h1.087v-1.047h0.536v1.047h2.159    c0.48,0,0.751-0.151,0.751-0.6c0-0.136-0.056-0.312-0.104-0.439l0.496-0.128c0.072,0.216,0.144,0.479,0.144,0.72    c0,0.831-0.527,1.111-1.295,1.111H146.271z:::fill::#25408F::::n_id_109_line_0,n_id_109_line_1,n_id_109_line_2,n_id_109_line_3,n_id_109_line_4,n_id_109_line_5,n_id_109_line_6,n_id_109_line_7,n_id_109_line_8,n_id_109_line_9,n_id_109_line_10,n_id_109_line_11,n_id_109_line_0,n_id_109_line_1,n_id_109_line_2,n_id_109_line_3

polyline:::stroke::#25408F:::stroke-width::0.75:::points::321.77,72.334 314.049,79.846 306.148,72.295  :::id::n_id_111:::fill::none::::n_id_111_line_0,n_id_111_line_1

polyline:::stroke::#25408F:::stroke-width::0.75:::points::284.52,72.357 292.215,79.846 299.928,72.476  :::id::n_id_112:::fill::none::::n_id_112_line_0,n_id_112_line_1

path:::id::n_id_115:::d::M298.562,62.541c0.631,0,1.127,0.304,1.43,0.647l-0.375,0.424c-0.271-0.296-0.607-0.488-1.047-0.488    c-1,0-1.656,0.815-1.656,2.119c0,1.319,0.633,2.151,1.623,2.151c0.504,0,0.871-0.208,1.207-0.583l0.377,0.408    c-0.416,0.479-0.928,0.759-1.6,0.759c-1.318,0-2.295-1.007-2.295-2.718C296.227,63.572,297.219,62.541,298.562,62.541z:::fill::#25408F::::n_id_115_line_0,n_id_115_line_1,n_id_115_line_0,n_id_115_line_1,n_id_115_line_2,n_id_115_line_3,n_id_115_line_4,n_id_115_line_5,n_id_115_line_6,n_id_115_line_7

path:::id::n_id_116:::d::M300.908,62.189h0.656v4.958c0,0.208,0.088,0.288,0.184,0.288c0.041,0,0.072,0,0.145-0.016l0.088,0.496    c-0.088,0.04-0.199,0.063-0.375,0.063c-0.496,0-0.697-0.312-0.697-0.879V62.189z:::fill::#25408F::::n_id_116_line_0,n_id_116_line_1,n_id_116_line_2,n_id_116_line_3,n_id_116_line_4,n_id_116_line_0,n_id_116_line_1,n_id_116_line_2,n_id_116_line_3

path:::id::n_id_117:::d::M304.303,63.9c0.951,0,1.799,0.744,1.799,2.047c0,1.288-0.848,2.031-1.799,2.031s-1.799-0.743-1.799-2.031    C302.504,64.644,303.352,63.9,304.303,63.9z M304.303,67.434c0.672,0,1.119-0.6,1.119-1.487c0-0.896-0.447-1.503-1.119-1.503    c-0.664,0-1.119,0.607-1.119,1.503C303.184,66.834,303.639,67.434,304.303,67.434z:::fill::#25408F::::n_id_117_line_0,n_id_117_line_1,n_id_117_line_2,n_id_117_line_3,n_id_117_line_4,n_id_117_line_5,n_id_117_line_6,n_id_117_line_7

path:::id::n_id_118:::d::M306.912,67.002c0.336,0.272,0.68,0.463,1.145,0.463c0.512,0,0.768-0.271,0.768-0.607    c0-0.4-0.465-0.576-0.889-0.735c-0.551-0.2-1.158-0.464-1.158-1.12c0-0.624,0.494-1.104,1.334-1.104c0.488,0,0.912,0.2,1.207,0.44    l-0.311,0.416c-0.264-0.2-0.545-0.344-0.889-0.344c-0.486,0-0.711,0.264-0.711,0.56c0,0.368,0.424,0.503,0.863,0.671    c0.561,0.208,1.184,0.44,1.184,1.175c0,0.632-0.504,1.159-1.424,1.159c-0.551,0-1.078-0.231-1.447-0.536L306.912,67.002z:::fill::#25408F::::n_id_118_line_0,n_id_118_line_1,n_id_118_line_0,n_id_118_line_1,n_id_118_line_2,n_id_118_line_3,n_id_118_line_4,n_id_118_line_5,n_id_118_line_6,n_id_118_line_7,n_id_118_line_8,n_id_118_line_9,n_id_118_line_10,n_id_118_line_11

path:::id::n_id_119:::d::M311.777,63.9c0.992,0,1.551,0.712,1.551,1.823c0,0.136-0.008,0.264-0.023,0.36h-2.623    c0.049,0.839,0.553,1.367,1.295,1.367c0.369,0,0.68-0.12,0.969-0.304l0.23,0.432c-0.336,0.216-0.75,0.399-1.279,0.399    c-1.039,0-1.861-0.759-1.861-2.031C310.035,64.676,310.891,63.9,311.777,63.9z M312.752,65.651c0-0.792-0.352-1.231-0.959-1.231    c-0.543,0-1.039,0.448-1.119,1.231H312.752z:::fill::#25408F::::n_id_119_line_0,n_id_119_line_1,n_id_119_line_2,n_id_119_line_3,n_id_119_line_0,n_id_119_line_1,n_id_119_line_2,n_id_119_line_3,n_id_119_line_4,n_id_119_line_5,n_id_119_line_6,n_id_119_line_7,n_id_119_line_8

path:::id::n_id_120:::d::M314.332,64.532h-0.576v-0.496l0.607-0.04l0.08-1.087h0.553v1.087h1.047v0.536h-1.047v2.159    c0,0.48,0.15,0.751,0.6,0.751c0.135,0,0.311-0.056,0.439-0.104l0.127,0.496c-0.215,0.072-0.479,0.144-0.719,0.144    c-0.832,0-1.111-0.527-1.111-1.295V64.532z:::fill::#25408F::::n_id_120_line_0,n_id_120_line_1,n_id_120_line_2,n_id_120_line_3,n_id_120_line_4,n_id_120_line_5,n_id_120_line_6,n_id_120_line_7,n_id_120_line_8,n_id_120_line_9,n_id_120_line_10,n_id_120_line_11,n_id_120_line_12,n_id_120_line_0,n_id_120_line_1,n_id_120_line_2,n_id_120_line_3

path:::id::n_id_124:::d::M122.477,262.1h0.688l0.552,2.854c0.096,0.567,0.208,1.127,0.304,1.695h0.032    c0.12-0.567,0.248-1.135,0.368-1.695l0.728-2.854h0.607l0.728,2.854c0.128,0.552,0.256,1.127,0.384,1.695h0.032    c0.096-0.567,0.192-1.135,0.296-1.695l0.552-2.854h0.64l-1.087,5.245h-0.8l-0.792-3.158c-0.096-0.408-0.176-0.784-0.256-1.191    h-0.032c-0.08,0.408-0.176,0.784-0.264,1.191l-0.775,3.158h-0.792L122.477,262.1z:::fill::#25408F::::n_id_124_line_0,n_id_124_line_1,n_id_124_line_2,n_id_124_line_3,n_id_124_line_4,n_id_124_line_5,n_id_124_line_6,n_id_124_line_7,n_id_124_line_8,n_id_124_line_9,n_id_124_line_10,n_id_124_line_11,n_id_124_line_12,n_id_124_line_13,n_id_124_line_14,n_id_124_line_15,n_id_124_line_0,n_id_124_line_1,n_id_124_line_2,n_id_124_line_3,n_id_124_line_4,n_id_124_line_5

path:::id::n_id_125:::d::M129.204,262.1h0.664v2.199h2.438V262.1h0.672v5.245h-0.672v-2.471h-2.438v2.471h-0.664V262.1z:::fill::#25408F::::n_id_125_line_0,n_id_125_line_1,n_id_125_line_2,n_id_125_line_3,n_id_125_line_4,n_id_125_line_5,n_id_125_line_6,n_id_125_line_7,n_id_125_line_8,n_id_125_line_9,n_id_125_line_10,n_id_125_line_11,n_id_125_line_12

polyline:::stroke::#25408F:::points::162.58,214.926 155.291,221.927 148.864,215.117  :::id::n_id_127:::fill::none::::n_id_127_line_0,n_id_127_line_1

path:::id::n_id_130:::d::M160.761,199.08h-0.664v-4.677h-2.294v-0.568h2.958V199.08z:::fill::#25408F::::n_id_130_line_0,n_id_130_line_1,n_id_130_line_2,n_id_130_line_3,n_id_130_line_4,n_id_130_line_5,n_id_130_line_6

path:::id::n_id_131:::d::M157.16,198.944c0,0.256-0.2,0.424-0.456,0.424s-0.456-0.168-0.456-0.424c0-0.248,0.2-0.424,0.456-0.424    S157.16,198.696,157.16,198.944z M157.04,197.721h-0.655v-3.886h0.655V197.721z:::fill::#25408F::::n_id_131_line_0,n_id_131_line_1,n_id_131_line_2,n_id_131_line_3,n_id_131_line_4,n_id_131_line_0,n_id_131_line_1,n_id_131_line_2,n_id_131_line_3

path:::id::n_id_132:::d::M155.233,197.721h-0.543l-0.056-0.56h-0.024c-0.368,0.368-0.768,0.656-1.303,0.656    c-0.815,0-1.184-0.528-1.184-1.519v-2.463h0.656v2.375c0,0.728,0.224,1.04,0.736,1.04c0.399,0,0.671-0.208,1.063-0.6v-2.814h0.655    V197.721z:::fill::#25408F::::n_id_132_line_0,n_id_132_line_1,n_id_132_line_2,n_id_132_line_3,n_id_132_line_4,n_id_132_line_5,n_id_132_line_6,n_id_132_line_7,n_id_132_line_8,n_id_132_line_9,n_id_132_line_0,n_id_132_line_1,n_id_132_line_2,n_id_132_line_3

path:::id::n_id_133:::d::M149.495,197.817c-0.991,0-1.551-0.712-1.551-1.823c0-0.136,0.008-0.264,0.024-0.36h2.623    c-0.048-0.839-0.551-1.367-1.295-1.367c-0.368,0-0.68,0.12-0.968,0.304l-0.232-0.432c0.336-0.216,0.752-0.399,1.279-0.399    c1.04,0,1.863,0.759,1.863,2.031C151.238,197.041,150.383,197.817,149.495,197.817z M148.52,196.066    c0,0.792,0.352,1.231,0.959,1.231c0.544,0,1.04-0.448,1.12-1.231H148.52z:::fill::#25408F::::n_id_133_line_0,n_id_133_line_1,n_id_133_line_2,n_id_133_line_3,n_id_133_line_0,n_id_133_line_1,n_id_133_line_2,n_id_133_line_3,n_id_133_line_4,n_id_133_line_5,n_id_133_line_6,n_id_133_line_7,n_id_133_line_8

path:::id::n_id_134:::d::M147.055,197.721h-0.543l-0.056-0.56h-0.024c-0.368,0.368-0.768,0.656-1.303,0.656    c-0.815,0-1.184-0.528-1.184-1.519v-2.463h0.656v2.375c0,0.728,0.224,1.04,0.736,1.04c0.399,0,0.671-0.208,1.063-0.6v-2.814h0.656    V197.721z:::fill::#25408F::::n_id_134_line_0,n_id_134_line_1,n_id_134_line_2,n_id_134_line_3,n_id_134_line_4,n_id_134_line_5,n_id_134_line_6,n_id_134_line_7,n_id_134_line_8,n_id_134_line_9,n_id_134_line_0,n_id_134_line_1,n_id_134_line_2,n_id_134_line_3

path:::id::n_id_137:::d::M95.435,262.653h0.688l0.552,2.854c0.096,0.567,0.208,1.127,0.304,1.695h0.032    c0.12-0.567,0.248-1.135,0.368-1.695l0.728-2.854h0.607l0.728,2.854c0.128,0.552,0.256,1.127,0.384,1.695h0.032    c0.096-0.567,0.192-1.135,0.296-1.695l0.552-2.854h0.64l-1.087,5.245h-0.8l-0.792-3.158c-0.096-0.408-0.176-0.784-0.256-1.191    h-0.032c-0.08,0.408-0.176,0.784-0.264,1.191l-0.775,3.158h-0.792L95.435,262.653z:::fill::#25408F::::n_id_137_line_0,n_id_137_line_1,n_id_137_line_2,n_id_137_line_3,n_id_137_line_4,n_id_137_line_5,n_id_137_line_6,n_id_137_line_7,n_id_137_line_8,n_id_137_line_9,n_id_137_line_10,n_id_137_line_11,n_id_137_line_12,n_id_137_line_13,n_id_137_line_14,n_id_137_line_15,n_id_137_line_0,n_id_137_line_1,n_id_137_line_2,n_id_137_line_3,n_id_137_line_4,n_id_137_line_5

path:::id::n_id_138:::d::M101.954,262.222h0.479l-2.135,6.956h-0.479L101.954,262.222z:::fill::#25408F::::n_id_138_line_0,n_id_138_line_1,n_id_138_line_2,n_id_138_line_3

path:::id::n_id_139:::d::M103.139,262.653h1.311c1.615,0,2.479,0.936,2.479,2.599c0,1.671-0.863,2.646-2.446,2.646h-1.343V262.653z     M104.402,267.354c1.223,0,1.839-0.775,1.839-2.103c0-1.319-0.616-2.055-1.839-2.055h-0.6v4.157H104.402z:::fill::#25408F::::n_id_139_line_0,n_id_139_line_1,n_id_139_line_2,n_id_139_line_3,n_id_139_line_4,n_id_139_line_5,n_id_139_line_6,n_id_139_line_7,n_id_139_line_0,n_id_139_line_1,n_id_139_line_2,n_id_139_line_3

polyline:::stroke::#25408F:::points::87.806,249.155 96.726,239.852 105.646,249.155  :::id::n_id_141:::fill::none::::n_id_141_line_0,n_id_141_line_1

rect:::width::22.214:::stroke::#25408F:::y::249.293:::x::141.977:::height::27.448:::id::n_id_142:::fill::none::::n_id_142_line_0,n_id_142_line_1,n_id_142_line_2,n_id_142_line_3

path:::id::n_id_144:::d::M144.991,262.641h3.022v0.56h-2.359v1.775h1.999v0.56h-1.999v2.351h-0.664V262.641z:::fill::#25408F::::n_id_144_line_0,n_id_144_line_1,n_id_144_line_2,n_id_144_line_3,n_id_144_line_4,n_id_144_line_5,n_id_144_line_6,n_id_144_line_7,n_id_144_line_8,n_id_144_line_9,n_id_144_line_10

path:::id::n_id_145:::d::M148.574,264h0.664v2.375c0,0.728,0.216,1.04,0.728,1.04c0.4,0,0.68-0.2,1.048-0.656V264h0.655v3.886   h-0.543l-0.056-0.608h-0.024c-0.36,0.424-0.744,0.704-1.279,0.704c-0.824,0-1.191-0.528-1.191-1.52V264z:::fill::#25408F::::n_id_145_line_0,n_id_145_line_1,n_id_145_line_2,n_id_145_line_3,n_id_145_line_4,n_id_145_line_5,n_id_145_line_6,n_id_145_line_7,n_id_145_line_8,n_id_145_line_9,n_id_145_line_0,n_id_145_line_1,n_id_145_line_2,n_id_145_line_3

path:::id::n_id_146:::d::M152.828,264h0.543l0.056,0.704h0.024c0.264-0.488,0.664-0.8,1.104-0.8c0.168,0,0.288,0.024,0.416,0.08   l-0.128,0.576c-0.128-0.04-0.216-0.064-0.375-0.064c-0.328,0-0.72,0.24-0.984,0.896v2.495h-0.655V264z:::fill::#25408F::::n_id_146_line_0,n_id_146_line_1,n_id_146_line_2,n_id_146_line_3,n_id_146_line_4,n_id_146_line_5,n_id_146_line_6,n_id_146_line_7,n_id_146_line_0,n_id_146_line_1,n_id_146_line_2,n_id_146_line_3

path:::id::n_id_147:::d::M155.583,264h0.543l0.056,0.56h0.024c0.368-0.368,0.768-0.656,1.303-0.656c0.815,0,1.184,0.528,1.184,1.52   v2.462h-0.656v-2.375c0-0.728-0.224-1.04-0.736-1.04c-0.399,0-0.671,0.208-1.063,0.6v2.814h-0.656V264z:::fill::#25408F::::n_id_147_line_0,n_id_147_line_1,n_id_147_line_2,n_id_147_line_3,n_id_147_line_4,n_id_147_line_5,n_id_147_line_6,n_id_147_line_7,n_id_147_line_8,n_id_147_line_9,n_id_147_line_0,n_id_147_line_1,n_id_147_line_2,n_id_147_line_3

path:::id::n_id_148:::d::M160.22,266.975c0.256,0,0.472,0.208,0.472,0.512c0,0.288-0.216,0.496-0.472,0.496   c-0.264,0-0.48-0.208-0.48-0.496C159.74,267.183,159.956,266.975,160.22,266.975z:::fill::#25408F::::n_id_148_line_0,n_id_148_line_1,n_id_148_line_2,n_id_148_line_3

polyline:::stroke::#25408F:::points::124.153,249.291 133.073,239.988 141.993,249.291 :::id::n_id_149:::fill::none::::n_id_149_line_0,n_id_149_line_1

polyline:::stroke::#25408F:::stroke-width::4:::points::256.549,220.176 256.549,196.521 327.756,196.479 327.756,276.733   9.119,276.74 8.611,69.82 206.168,69.82 :::id::n_id_150:::fill::none::::n_id_150_line_0,n_id_150_line_1,n_id_150_line_2,n_id_150_line_3,n_id_150_line_4,n_id_150_line_5

polyline:::stroke::#25408F:::stroke-width::4:::points::140.582,175.902 140.582,215.202 136.902,215.183 :::id::n_id_153:::fill::none::::n_id_153_line_0,n_id_153_line_1

polyline:::stroke::#25408F:::stroke-width::4:::points::9.277,276.74 9.277,214.986 87.072,214.998 87.072,221.156 :::id::n_id_156:::fill::none::::n_id_156_line_0,n_id_156_line_1,n_id_156_line_2

polyline:::stroke::#25408F:::stroke-width::4:::points::182.49,69.823 182.49,18.391 282.463,18.391 282.463,8.808   327.756,8.808 327.744,112.775 :::id::n_id_158:::fill::none::::n_id_158_line_0,n_id_158_line_1,n_id_158_line_2,n_id_158_line_3,n_id_158_line_4

polyline:::stroke::#25408F:::stroke-width::4:::points::282.463,46.733 282.463,69.82 256.742,69.82 :::id::n_id_161:::fill::none::::n_id_161_line_0,n_id_161_line_1

polyline:::stroke::#25408F:::stroke-width::4:::points::115.141,276.84 115.141,249.343 124.524,249.088 :::id::n_id_165:::fill::none::::n_id_165_line_0,n_id_165_line_1

polyline:::stroke::#25408F:::stroke-width::4:::points::164.19,276.741 164.19,249.293 140.792,249.088 :::id::n_id_166:::fill::none::::n_id_166_line_0,n_id_166_line_1

rect:::width::27.122:::stroke::#25408F:::y::66.115:::x::76.647:::height::7.326:::id::n_id_168:::fill::#FFFFFF::::n_id_168_line_0,n_id_168_line_1,n_id_168_line_2,n_id_168_line_3

polyline:::stroke::#25408F:::points::206.168,71.06 231.137,71.06 231.137,68.527 256.742,68.456 :::id::n_id_172:::fill::none::::n_id_172_line_0,n_id_172_line_1,n_id_172_line_2

path:::id::n_id_174:::d::M41.688,124.251h2.731c1.863,0,3.152,0.63,3.152,2.241c0,0.911-0.519,1.723-1.597,2.003v0.056   c1.345,0.21,2.129,0.938,2.129,2.199c0,1.807-1.429,2.689-3.488,2.689h-2.928V124.251z M44.209,128.173   c1.569,0,2.213-0.56,2.213-1.583c0-0.995-0.729-1.415-2.157-1.415H42.85v2.998H44.209z M44.447,132.516   c1.583,0,2.507-0.575,2.507-1.821c0-1.134-0.896-1.653-2.507-1.653H42.85v3.474H44.447z:::fill::#25408F::::n_id_174_line_0,n_id_174_line_1,n_id_174_line_2,n_id_174_line_3,n_id_174_line_4,n_id_174_line_5,n_id_174_line_6,n_id_174_line_7,n_id_174_line_8,n_id_174_line_9,n_id_174_line_10,n_id_174_line_11,n_id_174_line_12,n_id_174_line_0,n_id_174_line_1,n_id_174_line_2,n_id_174_line_3,n_id_174_line_4,n_id_174_line_5,n_id_174_line_6,n_id_174_line_7

path:::id::n_id_175:::d::M52.072,126.464c1.737,0,2.718,1.247,2.718,3.193c0,0.238-0.014,0.462-0.042,0.63h-4.595   c0.084,1.471,0.967,2.396,2.27,2.396c0.644,0,1.19-0.21,1.695-0.532l0.406,0.756c-0.588,0.378-1.317,0.7-2.241,0.7   c-1.821,0-3.264-1.331-3.264-3.558C49.019,127.823,50.518,126.464,52.072,126.464z M53.781,129.532   c0-1.387-0.616-2.157-1.681-2.157c-0.953,0-1.821,0.785-1.961,2.157H53.781z:::fill::#25408F::::n_id_175_line_0,n_id_175_line_1,n_id_175_line_2,n_id_175_line_3,n_id_175_line_0,n_id_175_line_1,n_id_175_line_2,n_id_175_line_3,n_id_175_line_4,n_id_175_line_5,n_id_175_line_6,n_id_175_line_7,n_id_175_line_8

path:::id::n_id_176:::d::M58.62,126.464c0.785,0,1.303,0.294,1.905,0.784l-0.056-1.163v-2.619h1.163v9.973h-0.953l-0.098-0.798   H60.54c-0.533,0.518-1.261,0.966-2.059,0.966c-1.709,0-2.816-1.289-2.816-3.558C55.665,127.837,57.065,126.464,58.62,126.464z    M58.732,132.642c0.63,0,1.177-0.308,1.737-0.938v-3.558c-0.574-0.518-1.092-0.714-1.653-0.714c-1.093,0-1.961,1.051-1.961,2.605   C56.855,131.661,57.542,132.642,58.732,132.642z:::fill::#25408F::::n_id_176_line_0,n_id_176_line_1,n_id_176_line_2,n_id_176_line_3,n_id_176_line_4,n_id_176_line_5,n_id_176_line_6,n_id_176_line_7,n_id_176_line_0,n_id_176_line_1,n_id_176_line_2,n_id_176_line_3,n_id_176_line_4,n_id_176_line_5,n_id_176_line_6,n_id_176_line_7

path:::id::n_id_177:::d::M63.398,126.632h0.953l0.098,1.232h0.042c0.462-0.854,1.163-1.4,1.933-1.4c0.294,0,0.504,0.042,0.729,0.14   l-0.224,1.008c-0.224-0.07-0.378-0.112-0.659-0.112c-0.574,0-1.261,0.42-1.723,1.568v4.371h-1.149V126.632z:::fill::#25408F::::n_id_177_line_0,n_id_177_line_1,n_id_177_line_2,n_id_177_line_3,n_id_177_line_4,n_id_177_line_5,n_id_177_line_6,n_id_177_line_7,n_id_177_line_0,n_id_177_line_1,n_id_177_line_2,n_id_177_line_3

path:::id::n_id_178:::d::M70.472,126.464c1.667,0,3.152,1.303,3.152,3.586c0,2.255-1.485,3.558-3.152,3.558   c-1.667,0-3.151-1.303-3.151-3.558C67.321,127.767,68.806,126.464,70.472,126.464z M70.472,132.655c1.177,0,1.961-1.05,1.961-2.605   c0-1.569-0.785-2.634-1.961-2.634c-1.163,0-1.961,1.065-1.961,2.634C68.511,131.605,69.31,132.655,70.472,132.655z:::fill::#25408F::::n_id_178_line_0,n_id_178_line_1,n_id_178_line_2,n_id_178_line_3,n_id_178_line_4,n_id_178_line_5,n_id_178_line_6,n_id_178_line_7

path:::id::n_id_179:::d::M77.699,126.464c1.667,0,3.152,1.303,3.152,3.586c0,2.255-1.485,3.558-3.152,3.558   s-3.151-1.303-3.151-3.558C74.548,127.767,76.032,126.464,77.699,126.464z M77.699,132.655c1.177,0,1.961-1.05,1.961-2.605   c0-1.569-0.785-2.634-1.961-2.634c-1.163,0-1.961,1.065-1.961,2.634C75.738,131.605,76.537,132.655,77.699,132.655z:::fill::#25408F::::n_id_179_line_0,n_id_179_line_1,n_id_179_line_2,n_id_179_line_3,n_id_179_line_4,n_id_179_line_5,n_id_179_line_6,n_id_179_line_7

path:::id::n_id_180:::d::M82.207,126.632h0.953l0.098,0.98H83.3c0.588-0.645,1.303-1.148,2.115-1.148   c1.037,0,1.597,0.49,1.877,1.303c0.714-0.771,1.415-1.303,2.241-1.303c1.401,0,2.073,0.924,2.073,2.661v4.314h-1.149v-4.16   c0-1.275-0.406-1.821-1.261-1.821c-0.532,0-1.079,0.351-1.708,1.051v4.931h-1.149v-4.16c0-1.275-0.406-1.821-1.274-1.821   c-0.504,0-1.079,0.351-1.709,1.051v4.931h-1.149V126.632z:::fill::#25408F::::n_id_180_line_0,n_id_180_line_1,n_id_180_line_2,n_id_180_line_3,n_id_180_line_4,n_id_180_line_5,n_id_180_line_6,n_id_180_line_7,n_id_180_line_8,n_id_180_line_9,n_id_180_line_10,n_id_180_line_11,n_id_180_line_12,n_id_180_line_0,n_id_180_line_1,n_id_180_line_2,n_id_180_line_3,n_id_180_line_4,n_id_180_line_5,n_id_180_line_6,n_id_180_line_7

path:::id::n_id_181:::d::M30.387,148.487h2.045v-6.583h-1.625v-0.742c0.812-0.14,1.401-0.364,1.891-0.659h0.882v7.984h1.849v0.953   h-5.043V148.487z:::fill::#25408F::::n_id_181_line_0,n_id_181_line_1,n_id_181_line_2,n_id_181_line_3,n_id_181_line_4,n_id_181_line_5,n_id_181_line_6,n_id_181_line_7,n_id_181_line_8,n_id_181_line_9,n_id_181_line_10,n_id_181_line_0

path:::id::n_id_182:::d::M36.466,148.753c2.689-2.675,4.203-4.286,4.203-5.729c0-1.022-0.561-1.751-1.695-1.751   c-0.743,0-1.387,0.477-1.905,1.079l-0.658-0.658c0.742-0.812,1.541-1.359,2.703-1.359c1.653,0,2.676,1.051,2.676,2.633   c0,1.681-1.527,3.348-3.642,5.561c0.49-0.042,1.037-0.084,1.499-0.084h2.591v0.995h-5.771V148.753z:::fill::#25408F::::n_id_182_line_0,n_id_182_line_1,n_id_182_line_2,n_id_182_line_3,n_id_182_line_4,n_id_182_line_5,n_id_182_line_0,n_id_182_line_1,n_id_182_line_2,n_id_182_line_3,n_id_182_line_4,n_id_182_line_5,n_id_182_line_6

path:::id::n_id_183:::d::M43.157,142.871c0.701-0.462,1.051-0.939,1.051-1.751c-0.042,0.014-0.07,0.014-0.112,0.014   c-0.392,0-0.742-0.252-0.742-0.7c0-0.49,0.308-0.785,0.742-0.785c0.546,0,0.883,0.462,0.883,1.275c0,1.121-0.532,1.919-1.499,2.479   L43.157,142.871z:::fill::#25408F::::n_id_183_line_0,n_id_183_line_0,n_id_183_line_1,n_id_183_line_2,n_id_183_line_3,n_id_183_line_4,n_id_183_line_5

path:::id::n_id_184:::d::M52.959,141.498h-4.455v-0.995h5.757v0.714c-2.115,2.704-2.549,4.735-2.704,8.223h-1.19   C50.521,146.078,51.194,143.949,52.959,141.498z:::fill::#25408F::::n_id_184_line_0,n_id_184_line_1,n_id_184_line_2,n_id_184_line_3,n_id_184_line_4,n_id_184_line_0,n_id_184_line_1

path:::id::n_id_185:::d::M55.275,142.871c0.701-0.462,1.051-0.939,1.051-1.751c-0.042,0.014-0.07,0.014-0.112,0.014   c-0.392,0-0.742-0.252-0.742-0.7c0-0.49,0.308-0.785,0.742-0.785c0.546,0,0.883,0.462,0.883,1.275c0,1.121-0.532,1.919-1.499,2.479   L55.275,142.871z M57.74,142.871c0.701-0.462,1.065-0.939,1.065-1.751c-0.042,0.014-0.084,0.014-0.126,0.014   c-0.392,0-0.742-0.252-0.742-0.7c0-0.49,0.308-0.785,0.742-0.785c0.561,0,0.883,0.462,0.883,1.275c0,1.121-0.519,1.919-1.485,2.479   L57.74,142.871z:::fill::#25408F::::n_id_185_line_0,n_id_185_line_1,n_id_185_line_0,n_id_185_line_1,n_id_185_line_2,n_id_185_line_3,n_id_185_line_4,n_id_185_line_5,n_id_185_line_6,n_id_185_line_7,n_id_185_line_8,n_id_185_line_9,n_id_185_line_10,n_id_185_line_11

path:::id::n_id_186:::d::M64.908,145.882l-2.059-3.25h1.247l0.911,1.499c0.21,0.364,0.434,0.757,0.672,1.135h0.056   c0.196-0.378,0.406-0.771,0.616-1.135l0.826-1.499h1.205l-2.059,3.376l2.213,3.432h-1.247l-0.995-1.583   c-0.238-0.406-0.49-0.826-0.742-1.218h-0.056c-0.238,0.392-0.462,0.798-0.687,1.218l-0.924,1.583h-1.205L64.908,145.882z:::fill::#25408F::::n_id_186_line_0,n_id_186_line_1,n_id_186_line_2,n_id_186_line_3,n_id_186_line_4,n_id_186_line_5,n_id_186_line_6,n_id_186_line_7,n_id_186_line_8,n_id_186_line_9,n_id_186_line_10,n_id_186_line_11,n_id_186_line_12,n_id_186_line_13,n_id_186_line_0,n_id_186_line_1,n_id_186_line_2,n_id_186_line_3

path:::id::n_id_187:::d::M71.963,148.487h2.045v-6.583h-1.625v-0.742c0.812-0.14,1.401-0.364,1.891-0.659h0.882v7.984h1.849v0.953   h-5.043V148.487z:::fill::#25408F::::n_id_187_line_0,n_id_187_line_1,n_id_187_line_2,n_id_187_line_3,n_id_187_line_4,n_id_187_line_5,n_id_187_line_6,n_id_187_line_7,n_id_187_line_8,n_id_187_line_9,n_id_187_line_10,n_id_187_line_0

path:::id::n_id_188:::d::M83.581,146.975h-1.218v2.465H81.27v-2.465h-4.02v-0.756l3.824-5.715h1.289v5.547h1.218V146.975z    M81.27,146.05v-2.592c0-0.476,0.042-1.247,0.07-1.723h-0.056c-0.224,0.434-0.477,0.826-0.729,1.261l-2.087,3.054H81.27z:::fill::#25408F::::n_id_188_line_0,n_id_188_line_1,n_id_188_line_2,n_id_188_line_3,n_id_188_line_4,n_id_188_line_5,n_id_188_line_6,n_id_188_line_7,n_id_188_line_8,n_id_188_line_9,n_id_188_line_10,n_id_188_line_11,n_id_188_line_12,n_id_188_line_13,n_id_188_line_14,n_id_188_line_15,n_id_188_line_0,n_id_188_line_1

path:::id::n_id_189:::d::M84.16,142.871c0.701-0.462,1.051-0.939,1.051-1.751c-0.042,0.014-0.07,0.014-0.112,0.014   c-0.392,0-0.742-0.252-0.742-0.7c0-0.49,0.308-0.785,0.742-0.785c0.546,0,0.883,0.462,0.883,1.275c0,1.121-0.532,1.919-1.499,2.479   L84.16,142.871z:::fill::#25408F::::n_id_189_line_0,n_id_189_line_0,n_id_189_line_1,n_id_189_line_2,n_id_189_line_3,n_id_189_line_4,n_id_189_line_5

path:::id::n_id_190:::d::M89.508,144.943c0-2.998,1.079-4.608,2.872-4.608c1.779,0,2.857,1.611,2.857,4.608   s-1.079,4.665-2.857,4.665C90.586,149.608,89.508,147.941,89.508,144.943z M94.116,144.943c0-2.619-0.7-3.684-1.737-3.684   c-1.05,0-1.751,1.064-1.751,3.684c0,2.62,0.701,3.74,1.751,3.74C93.416,148.684,94.116,147.563,94.116,144.943z:::fill::#25408F::::n_id_190_line_0,n_id_190_line_1,n_id_190_line_2,n_id_190_line_3,n_id_190_line_4,n_id_190_line_5,n_id_190_line_6,n_id_190_line_7

path:::id::n_id_191:::d::M96.252,142.871c0.701-0.462,1.051-0.939,1.051-1.751c-0.042,0.014-0.07,0.014-0.112,0.014   c-0.392,0-0.742-0.252-0.742-0.7c0-0.49,0.308-0.785,0.742-0.785c0.546,0,0.883,0.462,0.883,1.275c0,1.121-0.532,1.919-1.499,2.479   L96.252,142.871z M98.717,142.871c0.701-0.462,1.065-0.939,1.065-1.751c-0.042,0.014-0.084,0.014-0.126,0.014   c-0.392,0-0.742-0.252-0.742-0.7c0-0.49,0.308-0.785,0.742-0.785c0.561,0,0.883,0.462,0.883,1.275c0,1.121-0.519,1.919-1.485,2.479   L98.717,142.871z:::fill::#25408F::::n_id_191_line_0,n_id_191_line_1,n_id_191_line_0,n_id_191_line_1,n_id_191_line_2,n_id_191_line_3,n_id_191_line_4,n_id_191_line_5,n_id_191_line_6,n_id_191_line_7,n_id_191_line_8,n_id_191_line_9,n_id_191_line_10,n_id_191_line_11

path:::id::n_id_193:::d::M212.088,117.17h1.162v8.194h4.02v0.995h-5.182V117.17z:::fill::#25408F::::n_id_193_line_0,n_id_193_line_1,n_id_193_line_2,n_id_193_line_3,n_id_193_line_4,n_id_193_line_5,n_id_193_line_6

path:::id::n_id_194:::d::M218.131,117.409c0-0.448,0.35-0.743,0.799-0.743c0.447,0,0.797,0.294,0.797,0.743   c0,0.434-0.35,0.742-0.797,0.742C218.48,118.151,218.131,117.843,218.131,117.409z M218.34,119.552h1.148v6.808h-1.148V119.552z:::fill::#25408F::::n_id_194_line_0,n_id_194_line_1,n_id_194_line_2,n_id_194_line_3,n_id_194_line_0,n_id_194_line_1,n_id_194_line_2,n_id_194_line_3

path:::id::n_id_195:::d::M220.414,119.552h1.191l1.289,3.866c0.195,0.672,0.42,1.358,0.629,2.003h0.057   c0.197-0.645,0.42-1.331,0.617-2.003l1.289-3.866h1.133l-2.408,6.808h-1.346L220.414,119.552z:::fill::#25408F::::n_id_195_line_0,n_id_195_line_1,n_id_195_line_2,n_id_195_line_3,n_id_195_line_4,n_id_195_line_5,n_id_195_line_6,n_id_195_line_7,n_id_195_line_0,n_id_195_line_1

path:::id::n_id_196:::d::M227.348,117.409c0-0.448,0.352-0.743,0.799-0.743c0.449,0,0.799,0.294,0.799,0.743   c0,0.434-0.35,0.742-0.799,0.742C227.699,118.151,227.348,117.843,227.348,117.409z M227.559,119.552h1.148v6.808h-1.148V119.552z:::fill::#25408F::::n_id_196_line_0,n_id_196_line_1,n_id_196_line_2,n_id_196_line_3,n_id_196_line_4,n_id_196_line_0,n_id_196_line_1,n_id_196_line_2,n_id_196_line_3

path:::id::n_id_197:::d::M230.461,119.552h0.953l0.098,0.98h0.041c0.645-0.645,1.346-1.148,2.283-1.148   c1.43,0,2.074,0.924,2.074,2.661v4.314h-1.148v-4.16c0-1.275-0.393-1.821-1.289-1.821c-0.701,0-1.178,0.364-1.863,1.051v4.931   h-1.148V119.552z:::fill::#25408F::::n_id_197_line_0,n_id_197_line_1,n_id_197_line_2,n_id_197_line_3,n_id_197_line_4,n_id_197_line_5,n_id_197_line_6,n_id_197_line_7,n_id_197_line_8,n_id_197_line_9,n_id_197_line_0,n_id_197_line_1,n_id_197_line_2,n_id_197_line_3

path:::id::n_id_198:::d::M238.09,126.121v-0.056c-0.336-0.21-0.602-0.575-0.602-1.107c0-0.574,0.393-1.022,0.742-1.261v-0.056   c-0.449-0.364-0.883-1.023-0.883-1.835c0-1.485,1.178-2.423,2.564-2.423c0.377,0,0.713,0.07,0.965,0.168h2.367v0.882h-1.4   c0.322,0.308,0.561,0.827,0.561,1.401c0,1.457-1.105,2.367-2.492,2.367c-0.338,0-0.715-0.084-1.023-0.238   c-0.238,0.21-0.434,0.435-0.434,0.812c0,0.435,0.279,0.743,1.203,0.743h1.318c1.582,0,2.381,0.49,2.381,1.625   c0,1.261-1.332,2.354-3.445,2.354c-1.668,0-2.816-0.658-2.816-1.835C237.096,127.088,237.475,126.542,238.09,126.121z    M240.08,128.699c1.303,0,2.156-0.672,2.156-1.387c0-0.63-0.49-0.84-1.373-0.84h-1.176c-0.266,0-0.588-0.028-0.883-0.112   c-0.49,0.35-0.701,0.756-0.701,1.148C238.104,128.236,238.846,128.699,240.08,128.699z M241.354,121.807   c0-0.995-0.645-1.583-1.441-1.583c-0.799,0-1.443,0.588-1.443,1.583c0,0.994,0.658,1.625,1.443,1.625   C240.695,123.432,241.354,122.801,241.354,121.807z:::fill::#25408F::::n_id_198_line_0,n_id_198_line_1,n_id_198_line_2,n_id_198_line_3,n_id_198_line_4,n_id_198_line_5,n_id_198_line_6,n_id_198_line_0,n_id_198_line_1,n_id_198_line_2,n_id_198_line_3,n_id_198_line_4,n_id_198_line_5,n_id_198_line_6,n_id_198_line_7,n_id_198_line_8,n_id_198_line_9,n_id_198_line_10,n_id_198_line_11,n_id_198_line_12,n_id_198_line_13,n_id_198_line_14,n_id_198_line_15,n_id_198_line_16,n_id_198_line_17,n_id_198_line_18,n_id_198_line_19,n_id_198_line_20,n_id_198_line_21,n_id_198_line_22

path:::id::n_id_199:::d::M251.953,126.359l-2.215-3.88h-1.666v3.88h-1.162v-9.189h2.871c1.877,0,3.221,0.672,3.221,2.578   c0,1.429-0.811,2.297-2.059,2.605l2.326,4.006H251.953z M248.072,121.527h1.541c1.428,0,2.227-0.588,2.227-1.779   c0-1.205-0.799-1.639-2.227-1.639h-1.541V121.527z:::fill::#25408F::::n_id_199_line_0,n_id_199_line_1,n_id_199_line_2,n_id_199_line_3,n_id_199_line_4,n_id_199_line_5,n_id_199_line_6,n_id_199_line_7,n_id_199_line_8,n_id_199_line_9,n_id_199_line_10,n_id_199_line_11,n_id_199_line_12,n_id_199_line_0,n_id_199_line_1,n_id_199_line_2,n_id_199_line_3

path:::id::n_id_200:::d::M257.012,119.384c1.666,0,3.152,1.303,3.152,3.586c0,2.255-1.486,3.558-3.152,3.558   c-1.668,0-3.152-1.303-3.152-3.558C253.859,120.687,255.344,119.384,257.012,119.384z M257.012,125.575   c1.176,0,1.961-1.051,1.961-2.605c0-1.569-0.785-2.634-1.961-2.634c-1.162,0-1.961,1.065-1.961,2.634   C255.051,124.524,255.85,125.575,257.012,125.575z:::fill::#25408F::::n_id_200_line_0,n_id_200_line_1,n_id_200_line_2,n_id_200_line_3,n_id_200_line_4,n_id_200_line_5,n_id_200_line_6,n_id_200_line_7

path:::id::n_id_201:::d::M264.238,119.384c1.666,0,3.152,1.303,3.152,3.586c0,2.255-1.486,3.558-3.152,3.558   c-1.668,0-3.152-1.303-3.152-3.558C261.086,120.687,262.57,119.384,264.238,119.384z M264.238,125.575   c1.176,0,1.961-1.051,1.961-2.605c0-1.569-0.785-2.634-1.961-2.634c-1.162,0-1.961,1.065-1.961,2.634   C262.277,124.524,263.076,125.575,264.238,125.575z:::fill::#25408F::::n_id_201_line_0,n_id_201_line_1,n_id_201_line_2,n_id_201_line_3,n_id_201_line_4,n_id_201_line_5,n_id_201_line_6,n_id_201_line_7

path:::id::n_id_202:::d::M268.746,119.552h0.953l0.098,0.98h0.041c0.588-0.645,1.303-1.148,2.115-1.148   c1.037,0,1.598,0.49,1.877,1.303c0.715-0.771,1.416-1.303,2.242-1.303c1.4,0,2.072,0.924,2.072,2.661v4.314h-1.148v-4.16   c0-1.275-0.406-1.821-1.26-1.821c-0.533,0-1.08,0.351-1.709,1.051v4.931h-1.148v-4.16c0-1.275-0.406-1.821-1.275-1.821   c-0.504,0-1.078,0.351-1.709,1.051v4.931h-1.148V119.552z:::fill::#25408F::::n_id_202_line_0,n_id_202_line_1,n_id_202_line_2,n_id_202_line_3,n_id_202_line_4,n_id_202_line_5,n_id_202_line_6,n_id_202_line_7,n_id_202_line_8,n_id_202_line_9,n_id_202_line_10,n_id_202_line_11,n_id_202_line_12,n_id_202_line_0,n_id_202_line_1,n_id_202_line_2,n_id_202_line_3,n_id_202_line_4,n_id_202_line_5,n_id_202_line_6,n_id_202_line_7

path:::id::n_id_203:::d::M209.619,141.673c2.689-2.675,4.203-4.286,4.203-5.729c0-1.022-0.561-1.751-1.695-1.751   c-0.742,0-1.387,0.477-1.904,1.079l-0.66-0.658c0.744-0.812,1.541-1.359,2.705-1.359c1.652,0,2.674,1.051,2.674,2.633   c0,1.681-1.525,3.348-3.641,5.561c0.49-0.042,1.035-0.084,1.498-0.084h2.592v0.995h-5.771V141.673z:::fill::#25408F::::n_id_203_line_0,n_id_203_line_1,n_id_203_line_2,n_id_203_line_3,n_id_203_line_4,n_id_203_line_5,n_id_203_line_0,n_id_203_line_1,n_id_203_line_2,n_id_203_line_3,n_id_203_line_4,n_id_203_line_5,n_id_203_line_6

path:::id::n_id_204:::d::M216.082,137.863c0-2.998,1.078-4.608,2.871-4.608c1.779,0,2.857,1.611,2.857,4.608   s-1.078,4.665-2.857,4.665C217.16,142.527,216.082,140.86,216.082,137.863z M220.689,137.863c0-2.619-0.699-3.684-1.736-3.684   c-1.051,0-1.75,1.065-1.75,3.684c0,2.62,0.699,3.74,1.75,3.74C219.99,141.603,220.689,140.482,220.689,137.863z:::fill::#25408F::::n_id_204_line_0,n_id_204_line_1,n_id_204_line_2,n_id_204_line_3,n_id_204_line_4,n_id_204_line_5,n_id_204_line_6,n_id_204_line_7

path:::id::n_id_205:::d::M222.826,135.79c0.699-0.462,1.049-0.938,1.049-1.751c-0.041,0.014-0.068,0.014-0.111,0.014   c-0.393,0-0.742-0.252-0.742-0.7c0-0.49,0.309-0.785,0.742-0.785c0.547,0,0.883,0.462,0.883,1.275c0,1.121-0.533,1.919-1.498,2.479   L222.826,135.79z:::fill::#25408F::::n_id_205_line_0,n_id_205_line_0,n_id_205_line_1,n_id_205_line_2,n_id_205_line_3,n_id_205_line_4,n_id_205_line_5

path:::id::n_id_206:::d::M229.812,137.667v-0.056c-0.658-0.462-1.246-1.121-1.246-2.059c0-1.373,1.094-2.297,2.535-2.297   c1.555,0,2.521,0.995,2.521,2.381c0,0.938-0.686,1.737-1.232,2.157v0.056c0.799,0.462,1.555,1.092,1.555,2.297   c0,1.331-1.148,2.381-2.885,2.381c-1.682,0-2.928-1.037-2.928-2.451C228.133,138.914,228.973,138.115,229.812,137.667z    M231.088,141.673c1.037,0,1.752-0.644,1.752-1.569c0-1.148-1.135-1.569-2.424-2.087c-0.715,0.476-1.246,1.135-1.246,1.947   C229.17,140.958,229.996,141.673,231.088,141.673z M232.629,135.692c0-0.883-0.574-1.583-1.555-1.583   c-0.826,0-1.443,0.574-1.443,1.443c0,1.064,0.98,1.513,2.059,1.933C232.293,136.953,232.629,136.35,232.629,135.692z:::fill::#25408F::::n_id_206_line_0,n_id_206_line_1,n_id_206_line_0,n_id_206_line_1,n_id_206_line_2,n_id_206_line_3,n_id_206_line_4,n_id_206_line_5,n_id_206_line_6,n_id_206_line_7,n_id_206_line_8,n_id_206_line_9,n_id_206_line_10,n_id_206_line_11,n_id_206_line_12,n_id_206_line_13,n_id_206_line_14,n_id_206_line_15

path:::id::n_id_207:::d::M234.916,135.79c0.699-0.462,1.049-0.938,1.049-1.751c-0.041,0.014-0.068,0.014-0.111,0.014   c-0.393,0-0.742-0.252-0.742-0.7c0-0.49,0.309-0.785,0.742-0.785c0.547,0,0.883,0.462,0.883,1.275c0,1.121-0.533,1.919-1.498,2.479   L234.916,135.79z M237.381,135.79c0.699-0.462,1.064-0.938,1.064-1.751c-0.043,0.014-0.084,0.014-0.127,0.014   c-0.391,0-0.742-0.252-0.742-0.7c0-0.49,0.309-0.785,0.742-0.785c0.561,0,0.883,0.462,0.883,1.275c0,1.121-0.518,1.919-1.484,2.479   L237.381,135.79z:::fill::#25408F::::n_id_207_line_0,n_id_207_line_1,n_id_207_line_0,n_id_207_line_1,n_id_207_line_2,n_id_207_line_3,n_id_207_line_4,n_id_207_line_5,n_id_207_line_6,n_id_207_line_7,n_id_207_line_8,n_id_207_line_9,n_id_207_line_10,n_id_207_line_11

path:::id::n_id_208:::d::M244.547,138.801l-2.059-3.25h1.248l0.91,1.499c0.209,0.364,0.434,0.757,0.672,1.135h0.057   c0.195-0.378,0.406-0.771,0.615-1.135l0.826-1.499h1.205l-2.059,3.376l2.213,3.432h-1.246l-0.994-1.583   c-0.238-0.406-0.492-0.826-0.744-1.219h-0.055c-0.238,0.393-0.463,0.799-0.688,1.219l-0.924,1.583h-1.205L244.547,138.801z:::fill::#25408F::::n_id_208_line_0,n_id_208_line_1,n_id_208_line_2,n_id_208_line_3,n_id_208_line_4,n_id_208_line_5,n_id_208_line_6,n_id_208_line_7,n_id_208_line_8,n_id_208_line_9,n_id_208_line_10,n_id_208_line_11,n_id_208_line_12,n_id_208_line_13,n_id_208_line_0,n_id_208_line_1,n_id_208_line_2,n_id_208_line_3

path:::id::n_id_209:::d::M251.604,141.407h2.045v-6.583h-1.625v-0.742c0.812-0.14,1.4-0.364,1.891-0.659h0.883v7.984h1.85v0.953   h-5.043V141.407z:::fill::#25408F::::n_id_209_line_0,n_id_209_line_1,n_id_209_line_2,n_id_209_line_3,n_id_209_line_4,n_id_209_line_5,n_id_209_line_6,n_id_209_line_7,n_id_209_line_8,n_id_209_line_9,n_id_209_line_10,n_id_209_line_0

path:::id::n_id_210:::d::M263.221,139.894h-1.219v2.465h-1.092v-2.465h-4.02v-0.756l3.824-5.715h1.287v5.547h1.219V139.894z    M260.91,138.97v-2.592c0-0.476,0.043-1.247,0.07-1.723h-0.057c-0.225,0.434-0.477,0.826-0.729,1.261l-2.086,3.054H260.91z:::fill::#25408F::::n_id_210_line_0,n_id_210_line_1,n_id_210_line_2,n_id_210_line_3,n_id_210_line_4,n_id_210_line_5,n_id_210_line_6,n_id_210_line_7,n_id_210_line_8,n_id_210_line_9,n_id_210_line_10,n_id_210_line_11,n_id_210_line_12,n_id_210_line_13,n_id_210_line_14,n_id_210_line_15,n_id_210_line_0,n_id_210_line_1

path:::id::n_id_211:::d::M263.801,135.79c0.699-0.462,1.049-0.938,1.049-1.751c-0.041,0.014-0.068,0.014-0.111,0.014   c-0.393,0-0.742-0.252-0.742-0.7c0-0.49,0.309-0.785,0.742-0.785c0.547,0,0.883,0.462,0.883,1.275c0,1.121-0.533,1.919-1.498,2.479   L263.801,135.79z:::fill::#25408F::::n_id_211_line_0,n_id_211_line_0,n_id_211_line_1,n_id_211_line_2,n_id_211_line_3,n_id_211_line_4,n_id_211_line_5

path:::id::n_id_212:::d::M269.148,137.863c0-2.998,1.08-4.608,2.873-4.608c1.777,0,2.857,1.611,2.857,4.608s-1.08,4.665-2.857,4.665   C270.229,142.527,269.148,140.86,269.148,137.863z M273.758,137.863c0-2.619-0.701-3.684-1.736-3.684   c-1.051,0-1.752,1.065-1.752,3.684c0,2.62,0.701,3.74,1.752,3.74C273.057,141.603,273.758,140.482,273.758,137.863z:::fill::#25408F::::n_id_212_line_0,n_id_212_line_1,n_id_212_line_2,n_id_212_line_3,n_id_212_line_4,n_id_212_line_5,n_id_212_line_6,n_id_212_line_7

path:::id::n_id_213:::d::M275.893,135.79c0.701-0.462,1.051-0.938,1.051-1.751c-0.043,0.014-0.07,0.014-0.111,0.014   c-0.393,0-0.744-0.252-0.744-0.7c0-0.49,0.309-0.785,0.744-0.785c0.545,0,0.881,0.462,0.881,1.275c0,1.121-0.531,1.919-1.498,2.479   L275.893,135.79z M278.357,135.79c0.701-0.462,1.064-0.938,1.064-1.751c-0.041,0.014-0.084,0.014-0.125,0.014   c-0.393,0-0.742-0.252-0.742-0.7c0-0.49,0.309-0.785,0.742-0.785c0.561,0,0.883,0.462,0.883,1.275c0,1.121-0.52,1.919-1.486,2.479   L278.357,135.79z:::fill::#25408F::::n_id_213_line_0,n_id_213_line_1,n_id_213_line_0,n_id_213_line_1,n_id_213_line_2,n_id_213_line_3,n_id_213_line_4,n_id_213_line_5,n_id_213_line_6,n_id_213_line_7,n_id_213_line_8,n_id_213_line_9,n_id_213_line_10,n_id_213_line_11

path:::id::n_id_215:::d::M181.807,225.944h2.297c2.83,0,4.343,1.639,4.343,4.552c0,2.928-1.513,4.637-4.286,4.637h-2.354V225.944z    M184.02,234.18c2.144,0,3.222-1.358,3.222-3.684c0-2.311-1.078-3.6-3.222-3.6h-1.051v7.284H184.02z:::fill::#25408F::::n_id_215_line_0,n_id_215_line_1,n_id_215_line_2,n_id_215_line_3,n_id_215_line_4,n_id_215_line_5,n_id_215_line_6,n_id_215_line_0,n_id_215_line_1,n_id_215_line_2,n_id_215_line_3

path:::id::n_id_216:::d::M189.677,226.182c0-0.448,0.351-0.743,0.799-0.743s0.798,0.294,0.798,0.743c0,0.434-0.35,0.742-0.798,0.742   S189.677,226.616,189.677,226.182z M189.887,228.325h1.148v6.808h-1.148V228.325z:::fill::#25408F::::n_id_216_line_0,n_id_216_line_1,n_id_216_line_2,n_id_216_line_3,n_id_216_line_4,n_id_216_line_0,n_id_216_line_1,n_id_216_line_2,n_id_216_line_3

path:::id::n_id_217:::d::M192.79,228.325h0.953l0.098,0.98h0.042c0.645-0.645,1.345-1.148,2.283-1.148   c1.429,0,2.073,0.924,2.073,2.661v4.314h-1.148v-4.16c0-1.275-0.393-1.821-1.289-1.821c-0.7,0-1.177,0.364-1.863,1.051v4.931   h-1.148V228.325z:::fill::#25408F::::n_id_217_line_0,n_id_217_line_1,n_id_217_line_2,n_id_217_line_3,n_id_217_line_4,n_id_217_line_5,n_id_217_line_6,n_id_217_line_7,n_id_217_line_8,n_id_217_line_9,n_id_217_line_0,n_id_217_line_1,n_id_217_line_2,n_id_217_line_3

path:::id::n_id_218:::d::M199.72,226.182c0-0.448,0.351-0.743,0.799-0.743s0.798,0.294,0.798,0.743c0,0.434-0.35,0.742-0.798,0.742   S199.72,226.616,199.72,226.182z M199.93,228.325h1.148v6.808h-1.148V228.325z:::fill::#25408F::::n_id_218_line_0,n_id_218_line_1,n_id_218_line_2,n_id_218_line_3,n_id_218_line_0,n_id_218_line_1,n_id_218_line_2,n_id_218_line_3

path:::id::n_id_219:::d::M202.834,228.325h0.953l0.098,0.98h0.041c0.645-0.645,1.346-1.148,2.283-1.148   c1.43,0,2.074,0.924,2.074,2.661v4.314h-1.148v-4.16c0-1.275-0.393-1.821-1.289-1.821c-0.701,0-1.178,0.364-1.863,1.051v4.931   h-1.148V228.325z:::fill::#25408F::::n_id_219_line_0,n_id_219_line_1,n_id_219_line_2,n_id_219_line_3,n_id_219_line_4,n_id_219_line_5,n_id_219_line_6,n_id_219_line_7,n_id_219_line_8,n_id_219_line_9,n_id_219_line_0,n_id_219_line_1,n_id_219_line_2,n_id_219_line_3

path:::id::n_id_220:::d::M210.463,234.895v-0.056c-0.336-0.21-0.604-0.575-0.604-1.107c0-0.574,0.393-1.022,0.742-1.261v-0.056   c-0.447-0.364-0.881-1.023-0.881-1.835c0-1.485,1.176-2.423,2.562-2.423c0.379,0,0.715,0.07,0.967,0.168h2.367v0.882h-1.4   c0.322,0.308,0.561,0.827,0.561,1.401c0,1.457-1.107,2.367-2.494,2.367c-0.336,0-0.715-0.084-1.023-0.238   c-0.236,0.21-0.434,0.435-0.434,0.812c0,0.435,0.281,0.743,1.205,0.743h1.316c1.584,0,2.381,0.49,2.381,1.625   c0,1.261-1.33,2.354-3.445,2.354c-1.666,0-2.816-0.658-2.816-1.835C209.467,235.861,209.846,235.315,210.463,234.895z    M212.451,237.472c1.303,0,2.158-0.672,2.158-1.387c0-0.63-0.49-0.84-1.373-0.84h-1.178c-0.266,0-0.588-0.028-0.883-0.112   c-0.49,0.35-0.699,0.756-0.699,1.148C210.477,237.01,211.219,237.472,212.451,237.472z M213.727,230.581   c0-0.995-0.645-1.583-1.443-1.583s-1.443,0.588-1.443,1.583c0,0.994,0.658,1.625,1.443,1.625S213.727,231.575,213.727,230.581z:::fill::#25408F::::n_id_220_line_0,n_id_220_line_1,n_id_220_line_2,n_id_220_line_3,n_id_220_line_4,n_id_220_line_5,n_id_220_line_6,n_id_220_line_0,n_id_220_line_1,n_id_220_line_2,n_id_220_line_3,n_id_220_line_4,n_id_220_line_5,n_id_220_line_6,n_id_220_line_7,n_id_220_line_8,n_id_220_line_9,n_id_220_line_10,n_id_220_line_11,n_id_220_line_12,n_id_220_line_13,n_id_220_line_14,n_id_220_line_15,n_id_220_line_16,n_id_220_line_17,n_id_220_line_18,n_id_220_line_19,n_id_220_line_20,n_id_220_line_21,n_id_220_line_22

path:::id::n_id_221:::d::M223.484,232.331h-3.348l-0.883,2.802h-1.191l3.109-9.189h1.318l3.109,9.189h-1.248L223.484,232.331z    M223.189,231.393l-0.434-1.4c-0.336-1.022-0.631-2.031-0.924-3.096h-0.057c-0.281,1.064-0.574,2.073-0.91,3.096l-0.436,1.4   H223.189z:::fill::#25408F::::n_id_221_line_0,n_id_221_line_1,n_id_221_line_2,n_id_221_line_3,n_id_221_line_4,n_id_221_line_5,n_id_221_line_6,n_id_221_line_7,n_id_221_line_8,n_id_221_line_9,n_id_221_line_10,n_id_221_line_11,n_id_221_line_12,n_id_221_line_0,n_id_221_line_1

path:::id::n_id_222:::d::M226.508,228.325h0.953l0.098,1.232h0.043c0.461-0.854,1.162-1.4,1.932-1.4c0.295,0,0.506,0.042,0.729,0.14   l-0.223,1.009c-0.225-0.07-0.379-0.112-0.658-0.112c-0.574,0-1.262,0.42-1.725,1.569v4.37h-1.148V228.325z:::fill::#25408F::::n_id_222_line_0,n_id_222_line_1,n_id_222_line_2,n_id_222_line_3,n_id_222_line_4,n_id_222_line_5,n_id_222_line_6,n_id_222_line_7,n_id_222_line_0,n_id_222_line_1,n_id_222_line_2,n_id_222_line_3

path:::id::n_id_223:::d::M233.479,228.157c1.736,0,2.717,1.247,2.717,3.193c0,0.238-0.014,0.462-0.043,0.63h-4.594   c0.084,1.471,0.967,2.396,2.27,2.396c0.645,0,1.191-0.21,1.695-0.532l0.406,0.756c-0.59,0.378-1.316,0.7-2.242,0.7   c-1.82,0-3.264-1.331-3.264-3.558C230.424,229.516,231.924,228.157,233.479,228.157z M235.188,231.225   c0-1.387-0.617-2.157-1.682-2.157c-0.953,0-1.82,0.785-1.961,2.157H235.188z:::fill::#25408F::::n_id_223_line_0,n_id_223_line_1,n_id_223_line_2,n_id_223_line_3,n_id_223_line_0,n_id_223_line_1,n_id_223_line_2,n_id_223_line_3,n_id_223_line_4,n_id_223_line_5,n_id_223_line_6,n_id_223_line_7,n_id_223_line_8

path:::id::n_id_224:::d::M241.162,230.818c0-0.868-0.293-1.709-1.4-1.709c-0.799,0-1.498,0.364-2.031,0.729l-0.463-0.798   c0.631-0.406,1.584-0.882,2.676-0.882c1.668,0,2.367,1.106,2.367,2.801v4.174h-0.951l-0.1-0.812h-0.027   c-0.658,0.532-1.414,0.98-2.256,0.98c-1.148,0-2.002-0.714-2.002-1.933C236.975,231.883,238.264,231.141,241.162,230.818z    M239.299,234.376c0.658,0,1.205-0.322,1.863-0.911v-1.891c-2.283,0.28-3.053,0.841-3.053,1.709   C238.109,234.054,238.627,234.376,239.299,234.376z:::fill::#25408F::::n_id_224_line_0,n_id_224_line_1,n_id_224_line_2,n_id_224_line_3,n_id_224_line_4,n_id_224_line_5,n_id_224_line_0,n_id_224_line_1,n_id_224_line_2,n_id_224_line_3,n_id_224_line_4,n_id_224_line_5,n_id_224_line_6,n_id_224_line_7,n_id_224_line_8,n_id_224_line_9

path:::id::n_id_225:::d::M183.297,249.326c0.532,0.532,1.205,1.023,2.256,1.023c1.093,0,1.961-0.799,1.961-2.045   c0-1.232-0.757-1.961-1.905-1.961c-0.616,0-0.994,0.196-1.526,0.546l-0.617-0.393l0.295-4.3h4.468v0.995h-3.46l-0.237,2.647   c0.42-0.224,0.826-0.364,1.372-0.364c1.527,0,2.773,0.869,2.773,2.802s-1.456,3.025-3.012,3.025c-1.429,0-2.311-0.602-2.927-1.219   L183.297,249.326z:::fill::#25408F::::n_id_225_line_0,n_id_225_line_1,n_id_225_line_2,n_id_225_line_3,n_id_225_line_4,n_id_225_line_5,n_id_225_line_6,n_id_225_line_0,n_id_225_line_1,n_id_225_line_2,n_id_225_line_3,n_id_225_line_4,n_id_225_line_5,n_id_225_line_6,n_id_225_line_7

path:::id::n_id_226:::d::M189.473,244.563c0.7-0.462,1.05-0.938,1.05-1.751c-0.042,0.014-0.069,0.014-0.111,0.014   c-0.393,0-0.743-0.252-0.743-0.7c0-0.49,0.309-0.785,0.743-0.785c0.546,0,0.882,0.462,0.882,1.275c0,1.121-0.532,1.919-1.498,2.479   L189.473,244.563z:::fill::#25408F::::n_id_226_line_0,n_id_226_line_0,n_id_226_line_1,n_id_226_line_2,n_id_226_line_3,n_id_226_line_4,n_id_226_line_5

path:::id::n_id_227:::d::M199.793,243.695c-0.364-0.434-0.91-0.7-1.471-0.7c-1.247,0-2.297,0.966-2.354,3.796   c0.561-0.687,1.359-1.121,2.088-1.121c1.54,0,2.549,0.924,2.549,2.759c0,1.709-1.204,2.872-2.647,2.872   c-1.751,0-3.082-1.429-3.082-4.3c0-3.586,1.625-4.973,3.404-4.973c0.967,0,1.653,0.406,2.157,0.953L199.793,243.695z    M199.513,248.429c0-1.163-0.546-1.891-1.652-1.891c-0.561,0-1.261,0.336-1.863,1.177c0.14,1.737,0.826,2.676,1.961,2.676   C198.841,250.391,199.513,249.606,199.513,248.429z:::fill::#25408F::::n_id_227_line_0,n_id_227_line_0,n_id_227_line_1,n_id_227_line_2,n_id_227_line_3,n_id_227_line_4,n_id_227_line_5,n_id_227_line_6,n_id_227_line_7,n_id_227_line_8,n_id_227_line_9,n_id_227_line_10,n_id_227_line_11

path:::id::n_id_228:::d::M201.406,244.563c0.7-0.462,1.049-0.938,1.049-1.751c-0.041,0.014-0.068,0.014-0.111,0.014   c-0.393,0-0.743-0.252-0.743-0.7c0-0.49,0.309-0.785,0.743-0.785c0.546,0,0.882,0.462,0.882,1.275c0,1.121-0.533,1.919-1.499,2.479   L201.406,244.563z M203.871,244.563c0.699-0.462,1.064-0.938,1.064-1.751c-0.043,0.014-0.084,0.014-0.127,0.014   c-0.391,0-0.742-0.252-0.742-0.7c0-0.49,0.309-0.785,0.742-0.785c0.561,0,0.883,0.462,0.883,1.275c0,1.121-0.518,1.919-1.484,2.479   L203.871,244.563z:::fill::#25408F::::n_id_228_line_0,n_id_228_line_1,n_id_228_line_0,n_id_228_line_1,n_id_228_line_2,n_id_228_line_3,n_id_228_line_4,n_id_228_line_5,n_id_228_line_6,n_id_228_line_7,n_id_228_line_8,n_id_228_line_9,n_id_228_line_10,n_id_228_line_11

path:::id::n_id_229:::d::M211.039,247.575l-2.059-3.25h1.246l0.91,1.499c0.211,0.364,0.436,0.757,0.672,1.135h0.057   c0.197-0.378,0.406-0.771,0.617-1.135l0.826-1.499h1.205l-2.061,3.376l2.215,3.432h-1.248l-0.994-1.583   c-0.238-0.406-0.49-0.826-0.742-1.219h-0.057c-0.238,0.393-0.461,0.799-0.686,1.219l-0.926,1.583h-1.203L211.039,247.575z:::fill::#25408F::::n_id_229_line_0,n_id_229_line_1,n_id_229_line_2,n_id_229_line_3,n_id_229_line_4,n_id_229_line_5,n_id_229_line_6,n_id_229_line_7,n_id_229_line_8,n_id_229_line_9,n_id_229_line_10,n_id_229_line_11,n_id_229_line_12,n_id_229_line_13,n_id_229_line_0,n_id_229_line_1,n_id_229_line_2,n_id_229_line_3

path:::id::n_id_230:::d::M218.346,249.634c0.365,0.435,0.912,0.715,1.471,0.715c1.262,0,2.326-0.981,2.369-3.838   c-0.561,0.714-1.359,1.149-2.102,1.149c-1.541,0-2.535-0.925-2.535-2.76c0-1.709,1.203-2.872,2.633-2.872   c1.766,0,3.082,1.429,3.082,4.3c0,3.586-1.625,4.973-3.404,4.973c-0.953,0-1.666-0.406-2.156-0.938L218.346,249.634z    M222.156,245.6c-0.154-1.737-0.84-2.661-1.975-2.661c-0.869,0-1.555,0.784-1.555,1.961c0,1.163,0.547,1.891,1.652,1.891   C220.854,246.791,221.555,246.454,222.156,245.6z:::fill::#25408F::::n_id_230_line_0,n_id_230_line_0,n_id_230_line_1,n_id_230_line_2,n_id_230_line_3,n_id_230_line_4,n_id_230_line_5,n_id_230_line_6,n_id_230_line_7,n_id_230_line_8,n_id_230_line_9,n_id_230_line_10,n_id_230_line_11

path:::id::n_id_231:::d::M224.32,244.563c0.699-0.462,1.049-0.938,1.049-1.751c-0.041,0.014-0.068,0.014-0.111,0.014   c-0.393,0-0.742-0.252-0.742-0.7c0-0.49,0.309-0.785,0.742-0.785c0.547,0,0.883,0.462,0.883,1.275c0,1.121-0.533,1.919-1.498,2.479   L224.32,244.563z:::fill::#25408F::::n_id_231_line_0,n_id_231_line_0,n_id_231_line_1,n_id_231_line_2,n_id_231_line_3,n_id_231_line_4,n_id_231_line_5

path:::id::n_id_232:::d::M229.668,246.636c0-2.998,1.08-4.608,2.873-4.608c1.777,0,2.857,1.611,2.857,4.608s-1.08,4.665-2.857,4.665   C230.748,251.301,229.668,249.634,229.668,246.636z M234.277,246.636c0-2.619-0.701-3.684-1.736-3.684   c-1.051,0-1.752,1.065-1.752,3.684c0,2.62,0.701,3.74,1.752,3.74C233.576,250.376,234.277,249.256,234.277,246.636z:::fill::#25408F::::n_id_232_line_0,n_id_232_line_1,n_id_232_line_2,n_id_232_line_3,n_id_232_line_4,n_id_232_line_5,n_id_232_line_6,n_id_232_line_7

path:::id::n_id_233:::d::M236.412,244.563c0.701-0.462,1.051-0.938,1.051-1.751c-0.043,0.014-0.07,0.014-0.111,0.014   c-0.393,0-0.744-0.252-0.744-0.7c0-0.49,0.309-0.785,0.744-0.785c0.545,0,0.881,0.462,0.881,1.275c0,1.121-0.531,1.919-1.498,2.479   L236.412,244.563z M238.877,244.563c0.701-0.462,1.064-0.938,1.064-1.751c-0.041,0.014-0.084,0.014-0.125,0.014   c-0.393,0-0.742-0.252-0.742-0.7c0-0.49,0.309-0.785,0.742-0.785c0.561,0,0.883,0.462,0.883,1.275c0,1.121-0.52,1.919-1.486,2.479   L238.877,244.563z:::fill::#25408F::::n_id_233_line_0,n_id_233_line_1,n_id_233_line_0,n_id_233_line_1,n_id_233_line_2,n_id_233_line_3,n_id_233_line_4,n_id_233_line_5,n_id_233_line_6,n_id_233_line_7,n_id_233_line_8,n_id_233_line_9,n_id_233_line_10,n_id_233_line_11

path:::id::n_id_235:::d::M275.865,233.654h0.996v3.946h0.035l3.275-3.946h1.127l-2.459,2.999l2.844,4.869h-1.115l-2.352-4.09   l-1.355,1.595v2.495h-0.996V233.654z:::fill::#25408F::::n_id_235_line_0,n_id_235_line_1,n_id_235_line_2,n_id_235_line_3,n_id_235_line_4,n_id_235_line_5,n_id_235_line_6,n_id_235_line_7,n_id_235_line_8,n_id_235_line_9,n_id_235_line_10,n_id_235_line_11,n_id_235_line_12,n_id_235_line_13

path:::id::n_id_236:::d::M282.311,233.858c0-0.384,0.301-0.636,0.684-0.636c0.385,0,0.684,0.252,0.684,0.636   c0,0.372-0.299,0.635-0.684,0.635C282.611,234.493,282.311,234.229,282.311,233.858z M282.49,235.693h0.984v5.829h-0.984V235.693z:::fill::#25408F::::n_id_236_line_0,n_id_236_line_1,n_id_236_line_2,n_id_236_line_3,n_id_236_line_0,n_id_236_line_1,n_id_236_line_2,n_id_236_line_3

path:::id::n_id_237:::d::M285.215,236.496h-0.863v-0.744l0.91-0.06l0.121-1.631h0.826v1.631h1.572v0.803h-1.572v3.238   c0,0.72,0.229,1.127,0.9,1.127c0.203,0,0.467-0.084,0.66-0.156l0.191,0.744c-0.324,0.108-0.719,0.216-1.08,0.216   c-1.246,0-1.666-0.792-1.666-1.943V236.496z:::fill::#25408F::::n_id_237_line_0,n_id_237_line_1,n_id_237_line_2,n_id_237_line_3,n_id_237_line_4,n_id_237_line_5,n_id_237_line_6,n_id_237_line_7,n_id_237_line_8,n_id_237_line_9,n_id_237_line_10,n_id_237_line_11,n_id_237_line_12,n_id_237_line_0,n_id_237_line_1,n_id_237_line_2,n_id_237_line_3

path:::id::n_id_238:::d::M291.01,235.549c0.768,0,1.307,0.324,1.703,0.695l-0.492,0.636c-0.348-0.3-0.707-0.516-1.176-0.516   c-1.055,0-1.822,0.912-1.822,2.255c0,1.331,0.73,2.23,1.799,2.23c0.551,0,1.02-0.275,1.367-0.587l0.443,0.647   c-0.527,0.468-1.199,0.756-1.895,0.756c-1.547,0-2.734-1.116-2.734-3.046C288.203,236.664,289.51,235.549,291.01,235.549z:::fill::#25408F::::n_id_238_line_0,n_id_238_line_1,n_id_238_line_0,n_id_238_line_1,n_id_238_line_2,n_id_238_line_3,n_id_238_line_4,n_id_238_line_5,n_id_238_line_6,n_id_238_line_7

path:::id::n_id_239:::d::M293.723,232.982h0.982v2.327l-0.035,1.199c0.551-0.528,1.139-0.959,1.943-0.959   c1.223,0,1.773,0.792,1.773,2.279v3.694h-0.982v-3.562c0-1.091-0.336-1.559-1.104-1.559c-0.6,0-1.008,0.312-1.596,0.899v4.222   h-0.982V232.982z:::fill::#25408F::::n_id_239_line_0,n_id_239_line_1,n_id_239_line_2,n_id_239_line_3,n_id_239_line_4,n_id_239_line_5,n_id_239_line_6,n_id_239_line_7,n_id_239_line_8,n_id_239_line_9,n_id_239_line_0,n_id_239_line_1,n_id_239_line_2,n_id_239_line_3

path:::id::n_id_240:::d::M302.107,235.549c1.488,0,2.328,1.067,2.328,2.734c0,0.204-0.012,0.396-0.037,0.54h-3.934   c0.072,1.259,0.828,2.051,1.943,2.051c0.551,0,1.02-0.18,1.451-0.456l0.348,0.648c-0.504,0.324-1.127,0.6-1.92,0.6   c-1.559,0-2.793-1.14-2.793-3.046C299.494,236.712,300.777,235.549,302.107,235.549z M303.572,238.175   c0-1.188-0.529-1.847-1.439-1.847c-0.816,0-1.561,0.672-1.68,1.847H303.572z:::fill::#25408F::::n_id_240_line_0,n_id_240_line_1,n_id_240_line_2,n_id_240_line_3,n_id_240_line_0,n_id_240_line_1,n_id_240_line_2,n_id_240_line_3,n_id_240_line_4,n_id_240_line_5,n_id_240_line_6,n_id_240_line_7,n_id_240_line_8

path:::id::n_id_241:::d::M305.564,235.693h0.816l0.084,0.839h0.035c0.553-0.552,1.152-0.983,1.955-0.983   c1.225,0,1.775,0.792,1.775,2.279v3.694h-0.984v-3.562c0-1.091-0.334-1.559-1.102-1.559c-0.602,0-1.008,0.312-1.596,0.899v4.222   h-0.984V235.693z:::fill::#25408F::::n_id_241_line_0,n_id_241_line_1,n_id_241_line_2,n_id_241_line_3,n_id_241_line_4,n_id_241_line_5,n_id_241_line_6,n_id_241_line_7,n_id_241_line_8,n_id_241_line_9,n_id_241_line_0,n_id_241_line_1,n_id_241_line_2,n_id_241_line_3

path:::id::n_id_243:::d::M209.805,37.981h2.73c1.863,0,3.152,0.63,3.152,2.241c0,0.911-0.518,1.723-1.598,2.003v0.056   c1.346,0.21,2.129,0.938,2.129,2.199c0,1.807-1.428,2.689-3.486,2.689h-2.928V37.981z M212.326,41.903   c1.568,0,2.213-0.561,2.213-1.583c0-0.995-0.729-1.415-2.158-1.415h-1.414v2.998H212.326z M212.564,46.246   c1.582,0,2.506-0.575,2.506-1.821c0-1.134-0.896-1.653-2.506-1.653h-1.598v3.474H212.564z:::fill::#25408F::::n_id_243_line_0,n_id_243_line_1,n_id_243_line_2,n_id_243_line_3,n_id_243_line_4,n_id_243_line_5,n_id_243_line_6,n_id_243_line_7,n_id_243_line_8,n_id_243_line_9,n_id_243_line_10,n_id_243_line_11,n_id_243_line_12,n_id_243_line_0,n_id_243_line_1,n_id_243_line_2,n_id_243_line_3,n_id_243_line_4,n_id_243_line_5,n_id_243_line_6,n_id_243_line_7

path:::id::n_id_244:::d::M221.395,42.855c0-0.868-0.293-1.709-1.4-1.709c-0.799,0-1.498,0.364-2.031,0.729l-0.463-0.798   c0.631-0.406,1.584-0.882,2.676-0.882c1.668,0,2.367,1.106,2.367,2.801v4.174h-0.951l-0.1-0.812h-0.027   c-0.658,0.532-1.414,0.98-2.256,0.98c-1.148,0-2.002-0.714-2.002-1.933C217.207,43.92,218.496,43.178,221.395,42.855z    M219.531,46.414c0.658,0,1.205-0.322,1.863-0.911v-1.891c-2.283,0.28-3.053,0.841-3.053,1.709   C218.342,46.091,218.859,46.414,219.531,46.414z:::fill::#25408F::::n_id_244_line_0,n_id_244_line_1,n_id_244_line_2,n_id_244_line_3,n_id_244_line_4,n_id_244_line_5,n_id_244_line_0,n_id_244_line_1,n_id_244_line_2,n_id_244_line_3,n_id_244_line_4,n_id_244_line_5,n_id_244_line_6,n_id_244_line_7,n_id_244_line_8,n_id_244_line_9

path:::id::n_id_245:::d::M224.221,37.196h1.148v8.685c0,0.364,0.154,0.504,0.322,0.504c0.07,0,0.127,0,0.252-0.028l0.154,0.869   c-0.154,0.07-0.35,0.112-0.658,0.112c-0.867,0-1.219-0.546-1.219-1.541V37.196z:::fill::#25408F::::n_id_245_line_0,n_id_245_line_1,n_id_245_line_2,n_id_245_line_3,n_id_245_line_4,n_id_245_line_0,n_id_245_line_1,n_id_245_line_2,n_id_245_line_3

path:::id::n_id_246:::d::M230.027,40.194c0.896,0,1.527,0.378,1.99,0.812l-0.574,0.742c-0.406-0.35-0.826-0.603-1.373-0.603   c-1.232,0-2.129,1.065-2.129,2.634c0,1.555,0.854,2.605,2.102,2.605c0.643,0,1.189-0.322,1.596-0.687l0.52,0.756   c-0.617,0.546-1.402,0.882-2.215,0.882c-1.807,0-3.193-1.303-3.193-3.558C226.75,41.497,228.277,40.194,230.027,40.194z:::fill::#25408F::::n_id_246_line_0,n_id_246_line_1,n_id_246_line_0,n_id_246_line_1,n_id_246_line_2,n_id_246_line_3,n_id_246_line_4,n_id_246_line_5,n_id_246_line_6,n_id_246_line_7

path:::id::n_id_247:::d::M235.699,40.194c1.666,0,3.152,1.303,3.152,3.586c0,2.255-1.486,3.558-3.152,3.558   c-1.668,0-3.152-1.303-3.152-3.558C232.547,41.497,234.031,40.194,235.699,40.194z M235.699,46.386   c1.176,0,1.961-1.051,1.961-2.605c0-1.569-0.785-2.634-1.961-2.634c-1.162,0-1.961,1.065-1.961,2.634   C233.738,45.335,234.537,46.386,235.699,46.386z:::fill::#25408F::::n_id_247_line_0,n_id_247_line_1,n_id_247_line_2,n_id_247_line_3,n_id_247_line_4,n_id_247_line_5,n_id_247_line_6,n_id_247_line_7

path:::id::n_id_248:::d::M240.207,40.362h0.953l0.098,0.98h0.041c0.645-0.645,1.346-1.148,2.283-1.148   c1.43,0,2.074,0.924,2.074,2.661v4.314h-1.148v-4.16c0-1.275-0.393-1.821-1.289-1.821c-0.701,0-1.178,0.364-1.863,1.051v4.931   h-1.148V40.362z:::fill::#25408F::::n_id_248_line_0,n_id_248_line_1,n_id_248_line_2,n_id_248_line_3,n_id_248_line_4,n_id_248_line_5,n_id_248_line_6,n_id_248_line_7,n_id_248_line_8,n_id_248_line_9,n_id_248_line_0,n_id_248_line_1,n_id_248_line_2,n_id_248_line_3

path:::id::n_id_249:::d::M247.328,49.145c0.77,0,1.26-0.616,1.539-1.457l0.154-0.504l-2.73-6.822h1.189l1.387,3.768   c0.211,0.588,0.449,1.289,0.66,1.919h0.055c0.197-0.616,0.393-1.317,0.574-1.919l1.219-3.768h1.121l-2.562,7.368   c-0.477,1.345-1.178,2.367-2.551,2.367c-0.309,0-0.574-0.056-0.799-0.14l0.225-0.911C246.949,49.089,247.158,49.145,247.328,49.145   z:::fill::#25408F::::n_id_249_line_0,n_id_249_line_1,n_id_249_line_2,n_id_249_line_3,n_id_249_line_4,n_id_249_line_5,n_id_249_line_6,n_id_249_line_7,n_id_249_line_8,n_id_249_line_0,n_id_249_line_1,n_id_249_line_2,n_id_249_line_3,n_id_249_line_4,n_id_249_line_5

path:::id::n_id_251:::d::M286.354,33.26c0.564,0.587,1.355,0.983,2.172,0.983c1.031,0,1.643-0.516,1.643-1.284   c0-0.803-0.564-1.055-1.307-1.391l-1.129-0.492c-0.742-0.312-1.594-0.875-1.594-2.027c0-1.199,1.043-2.087,2.471-2.087   c0.936,0,1.762,0.396,2.326,0.972l-0.539,0.647c-0.48-0.456-1.057-0.744-1.787-0.744c-0.877,0-1.465,0.444-1.465,1.151   c0,0.756,0.684,1.043,1.309,1.308l1.115,0.479c0.912,0.396,1.619,0.936,1.619,2.099c0,1.247-1.02,2.243-2.674,2.243   c-1.104,0-2.076-0.456-2.76-1.164L286.354,33.26z:::fill::#25408F::::n_id_251_line_0,n_id_251_line_1,n_id_251_line_2,n_id_251_line_3,n_id_251_line_0,n_id_251_line_1,n_id_251_line_2,n_id_251_line_3,n_id_251_line_4,n_id_251_line_5,n_id_251_line_6,n_id_251_line_7,n_id_251_line_8,n_id_251_line_9,n_id_251_line_10,n_id_251_line_11

path:::id::n_id_252:::d::M292.338,29.95h-0.863v-0.744l0.91-0.06l0.121-1.631h0.826v1.631h1.572v0.803h-1.572v3.238   c0,0.72,0.229,1.127,0.9,1.127c0.203,0,0.467-0.084,0.66-0.156l0.191,0.744c-0.324,0.108-0.719,0.216-1.08,0.216   c-1.246,0-1.666-0.792-1.666-1.943V29.95z:::fill::#25408F::::n_id_252_line_0,n_id_252_line_1,n_id_252_line_2,n_id_252_line_3,n_id_252_line_4,n_id_252_line_5,n_id_252_line_6,n_id_252_line_7,n_id_252_line_8,n_id_252_line_9,n_id_252_line_10,n_id_252_line_11,n_id_252_line_12,n_id_252_line_0,n_id_252_line_1,n_id_252_line_2,n_id_252_line_3

path:::id::n_id_253:::d::M298.012,29.002c1.428,0,2.699,1.115,2.699,3.07c0,1.931-1.271,3.046-2.699,3.046s-2.699-1.116-2.699-3.046   C295.312,30.118,296.584,29.002,298.012,29.002z M298.012,34.304c1.008,0,1.68-0.9,1.68-2.231c0-1.343-0.672-2.255-1.68-2.255   c-0.996,0-1.68,0.912-1.68,2.255C296.332,33.404,297.016,34.304,298.012,34.304z:::fill::#25408F::::n_id_253_line_0,n_id_253_line_1,n_id_253_line_2,n_id_253_line_3,n_id_253_line_4,n_id_253_line_5,n_id_253_line_6,n_id_253_line_7

path:::id::n_id_254:::d::M301.889,29.146h0.816l0.084,1.055h0.035c0.396-0.731,0.996-1.199,1.656-1.199   c0.252,0,0.432,0.036,0.623,0.12l-0.191,0.864c-0.193-0.06-0.324-0.096-0.564-0.096c-0.492,0-1.08,0.36-1.475,1.344v3.742h-0.984   V29.146z:::fill::#25408F::::n_id_254_line_0,n_id_254_line_1,n_id_254_line_2,n_id_254_line_3,n_id_254_line_4,n_id_254_line_5,n_id_254_line_6,n_id_254_line_7,n_id_254_line_0,n_id_254_line_1,n_id_254_line_2,n_id_254_line_3

path:::id::n_id_255:::d::M309.086,31.281c0-0.744-0.25-1.463-1.199-1.463c-0.684,0-1.283,0.312-1.738,0.624l-0.396-0.684   c0.541-0.348,1.355-0.755,2.291-0.755c1.428,0,2.027,0.947,2.027,2.398v3.574h-0.816l-0.084-0.696h-0.023   c-0.562,0.456-1.211,0.84-1.93,0.84c-0.984,0-1.717-0.612-1.717-1.655C305.5,32.192,306.604,31.557,309.086,31.281z    M307.492,34.328c0.562,0,1.031-0.276,1.594-0.78v-1.619c-1.953,0.24-2.613,0.72-2.613,1.463   C306.473,34.052,306.916,34.328,307.492,34.328z:::fill::#25408F::::n_id_255_line_0,n_id_255_line_1,n_id_255_line_2,n_id_255_line_3,n_id_255_line_4,n_id_255_line_5,n_id_255_line_0,n_id_255_line_1,n_id_255_line_2,n_id_255_line_3,n_id_255_line_4,n_id_255_line_5,n_id_255_line_6,n_id_255_line_7,n_id_255_line_8,n_id_255_line_9

path:::id::n_id_256:::d::M311.91,34.771v-0.048c-0.287-0.18-0.516-0.492-0.516-0.947c0-0.492,0.336-0.875,0.635-1.08v-0.048   c-0.383-0.312-0.754-0.875-0.754-1.571c0-1.271,1.006-2.075,2.193-2.075c0.324,0,0.613,0.06,0.828,0.144h2.027v0.755h-1.199   c0.275,0.264,0.479,0.708,0.479,1.199c0,1.248-0.947,2.027-2.135,2.027c-0.287,0-0.611-0.072-0.875-0.204   c-0.203,0.18-0.371,0.372-0.371,0.695c0,0.372,0.24,0.636,1.031,0.636h1.127c1.355,0,2.039,0.42,2.039,1.391   c0,1.08-1.139,2.015-2.951,2.015c-1.426,0-2.41-0.563-2.41-1.571C311.059,35.599,311.383,35.131,311.91,34.771z M313.613,36.978   c1.115,0,1.848-0.576,1.848-1.188c0-0.54-0.42-0.719-1.176-0.719h-1.008c-0.229,0-0.504-0.024-0.756-0.096   c-0.42,0.3-0.6,0.647-0.6,0.983C311.922,36.582,312.559,36.978,313.613,36.978z M314.705,31.077c0-0.852-0.553-1.355-1.236-1.355   s-1.234,0.503-1.234,1.355s0.562,1.391,1.234,1.391S314.705,31.929,314.705,31.077z:::fill::#25408F::::n_id_256_line_0,n_id_256_line_1,n_id_256_line_2,n_id_256_line_3,n_id_256_line_4,n_id_256_line_5,n_id_256_line_6,n_id_256_line_0,n_id_256_line_1,n_id_256_line_2,n_id_256_line_3,n_id_256_line_4,n_id_256_line_5,n_id_256_line_6,n_id_256_line_7,n_id_256_line_8,n_id_256_line_9,n_id_256_line_10,n_id_256_line_11,n_id_256_line_12,n_id_256_line_13,n_id_256_line_14,n_id_256_line_15,n_id_256_line_16,n_id_256_line_17,n_id_256_line_18,n_id_256_line_19,n_id_256_line_20,n_id_256_line_21,n_id_256_line_22

path:::id::n_id_257:::d::M319.295,29.002c1.488,0,2.328,1.067,2.328,2.734c0,0.204-0.012,0.396-0.037,0.54h-3.934   c0.072,1.26,0.828,2.051,1.943,2.051c0.551,0,1.02-0.18,1.451-0.456l0.348,0.648c-0.504,0.324-1.127,0.6-1.92,0.6   c-1.559,0-2.793-1.14-2.793-3.046C316.682,30.166,317.965,29.002,319.295,29.002z M320.76,31.629c0-1.188-0.529-1.847-1.439-1.847   c-0.816,0-1.561,0.672-1.68,1.847H320.76z:::fill::#25408F::::n_id_257_line_0,n_id_257_line_1,n_id_257_line_2,n_id_257_line_3,n_id_257_line_0,n_id_257_line_1,n_id_257_line_2,n_id_257_line_3,n_id_257_line_4,n_id_257_line_5,n_id_257_line_6,n_id_257_line_7,n_id_257_line_8

path:::id::n_id_259:::d::M36.569,230.032h2.338c1.595,0,2.699,0.54,2.699,1.919c0,0.78-0.444,1.475-1.367,1.715v0.048   c1.151,0.18,1.823,0.803,1.823,1.883c0,1.547-1.223,2.303-2.986,2.303h-2.506V230.032z M38.728,233.39   c1.343,0,1.895-0.479,1.895-1.355c0-0.852-0.624-1.211-1.847-1.211h-1.211v2.566H38.728z M38.932,237.108   c1.355,0,2.147-0.492,2.147-1.559c0-0.972-0.768-1.416-2.147-1.416h-1.367v2.975H38.932z:::fill::#25408F::::n_id_259_line_0,n_id_259_line_1,n_id_259_line_2,n_id_259_line_3,n_id_259_line_4,n_id_259_line_5,n_id_259_line_6,n_id_259_line_7,n_id_259_line_8,n_id_259_line_9,n_id_259_line_10,n_id_259_line_11,n_id_259_line_0,n_id_259_line_1,n_id_259_line_2,n_id_259_line_3,n_id_259_line_4,n_id_259_line_5,n_id_259_line_6,n_id_259_line_7

path:::id::n_id_260:::d::M46.509,234.206c0-0.744-0.252-1.463-1.199-1.463c-0.684,0-1.284,0.312-1.739,0.624l-0.396-0.684   c0.54-0.348,1.355-0.755,2.291-0.755c1.427,0,2.027,0.947,2.027,2.398v3.574h-0.815l-0.084-0.696h-0.024   c-0.564,0.456-1.211,0.84-1.931,0.84c-0.983,0-1.715-0.612-1.715-1.655C42.923,235.117,44.026,234.481,46.509,234.206z    M44.914,237.252c0.563,0,1.031-0.276,1.595-0.78v-1.619c-1.955,0.24-2.615,0.72-2.615,1.463   C43.895,236.976,44.338,237.252,44.914,237.252z:::fill::#25408F::::n_id_260_line_0,n_id_260_line_1,n_id_260_line_2,n_id_260_line_3,n_id_260_line_4,n_id_260_line_5,n_id_260_line_0,n_id_260_line_1,n_id_260_line_2,n_id_260_line_3,n_id_260_line_4,n_id_260_line_5,n_id_260_line_6,n_id_260_line_7,n_id_260_line_8,n_id_260_line_9

path:::id::n_id_261:::d::M49.079,232.874h-0.863v-0.744l0.911-0.06l0.12-1.631h0.828v1.631h1.571v0.803h-1.571v3.238   c0,0.72,0.228,1.127,0.899,1.127c0.204,0,0.468-0.084,0.66-0.156l0.192,0.744c-0.324,0.108-0.72,0.216-1.08,0.216   c-1.247,0-1.667-0.792-1.667-1.943V232.874z:::fill::#25408F::::n_id_261_line_0,n_id_261_line_1,n_id_261_line_2,n_id_261_line_3,n_id_261_line_4,n_id_261_line_5,n_id_261_line_6,n_id_261_line_7,n_id_261_line_8,n_id_261_line_9,n_id_261_line_10,n_id_261_line_11,n_id_261_line_12,n_id_261_line_0,n_id_261_line_1,n_id_261_line_2,n_id_261_line_3

path:::id::n_id_262:::d::M52.643,229.36h0.983v2.327l-0.036,1.199c0.551-0.528,1.139-0.959,1.943-0.959   c1.223,0,1.775,0.792,1.775,2.279v3.694h-0.983v-3.562c0-1.091-0.336-1.559-1.104-1.559c-0.6,0-1.007,0.312-1.595,0.899v4.222   h-0.983V229.36z:::fill::#25408F::::n_id_262_line_0,n_id_262_line_1,n_id_262_line_2,n_id_262_line_3,n_id_262_line_4,n_id_262_line_5,n_id_262_line_6,n_id_262_line_7,n_id_262_line_8,n_id_262_line_9,n_id_262_line_0,n_id_262_line_1,n_id_262_line_2,n_id_262_line_3

path:::id::n_id_265:::stroke::#25408F:::stroke-width::0.5:::d::M334.609,195.984c0-16.762,13.588-30.352,30.352-30.352:::fill::none::::n_id_265_line_0

rect:::width::1.908:::stroke::#25408F:::y::165.646:::x::363.053:::height::30.338:::id::n_id_266:::fill::none::::n_id_266_line_0,n_id_266_line_1,n_id_266_line_2,n_id_266_line_3

polyline:::stroke::#25408F:::stroke-width::4:::points::327.782,111.836 327.82,143.337 367.916,143.502 367.891,199.564     :::id::n_id_267:::fill::none::::n_id_267_line_0,n_id_267_line_1,n_id_267_line_2

path:::id::n_id_269:::d::M331.99,169.531h4.535v0.839h-3.539v2.663h2.998v0.84h-2.998v3.526h-0.996V169.531z:::fill::#25408F::::n_id_269_line_0,n_id_269_line_1,n_id_269_line_2,n_id_269_line_3,n_id_269_line_4,n_id_269_line_5,n_id_269_line_6,n_id_269_line_7,n_id_269_line_8,n_id_269_line_9

path:::id::n_id_270:::d::M339.65,171.426c1.428,0,2.699,1.115,2.699,3.07c0,1.931-1.271,3.046-2.699,3.046    c-1.426,0-2.697-1.116-2.697-3.046C336.953,172.541,338.225,171.426,339.65,171.426z M339.65,176.727    c1.008,0,1.68-0.899,1.68-2.23c0-1.343-0.672-2.255-1.68-2.255c-0.994,0-1.678,0.912-1.678,2.255    C337.973,175.827,338.656,176.727,339.65,176.727z:::fill::#25408F::::n_id_270_line_0,n_id_270_line_1,n_id_270_line_2,n_id_270_line_3,n_id_270_line_4,n_id_270_line_5,n_id_270_line_6,n_id_270_line_7

path:::id::n_id_271:::d::M343.457,179.089c0.66,0,1.08-0.527,1.318-1.247l0.133-0.432l-2.34-5.841h1.02l1.188,3.226    c0.18,0.504,0.385,1.104,0.564,1.643h0.047c0.168-0.528,0.336-1.127,0.492-1.643l1.043-3.226h0.961l-2.195,6.308    c-0.408,1.151-1.008,2.027-2.184,2.027c-0.264,0-0.49-0.048-0.684-0.12l0.193-0.78    C343.133,179.042,343.312,179.089,343.457,179.089z:::fill::#25408F::::n_id_271_line_0,n_id_271_line_1,n_id_271_line_2,n_id_271_line_3,n_id_271_line_4,n_id_271_line_5,n_id_271_line_6,n_id_271_line_7,n_id_271_line_8,n_id_271_line_0,n_id_271_line_1,n_id_271_line_2,n_id_271_line_3,n_id_271_line_4,n_id_271_line_5

path:::id::n_id_272:::d::M350.744,171.426c1.488,0,2.328,1.067,2.328,2.734c0,0.204-0.012,0.396-0.037,0.54h-3.934    c0.072,1.259,0.828,2.051,1.943,2.051c0.551,0,1.02-0.18,1.451-0.456l0.348,0.648c-0.504,0.324-1.127,0.6-1.92,0.6    c-1.559,0-2.793-1.14-2.793-3.046C348.131,172.589,349.414,171.426,350.744,171.426z M352.209,174.052    c0-1.188-0.529-1.847-1.439-1.847c-0.816,0-1.561,0.672-1.68,1.847H352.209z:::fill::#25408F::::n_id_272_line_0,n_id_272_line_1,n_id_272_line_2,n_id_272_line_3,n_id_272_line_0,n_id_272_line_1,n_id_272_line_2,n_id_272_line_3,n_id_272_line_4,n_id_272_line_5,n_id_272_line_6,n_id_272_line_7,n_id_272_line_8

path:::id::n_id_273:::d::M354.203,171.57h0.814l0.084,1.055h0.037c0.395-0.731,0.994-1.199,1.654-1.199    c0.252,0,0.432,0.036,0.623,0.12l-0.191,0.863c-0.191-0.06-0.324-0.096-0.562-0.096c-0.492,0-1.08,0.359-1.477,1.343v3.742h-0.982    V171.57z:::fill::#25408F::::n_id_273_line_0,n_id_273_line_1,n_id_273_line_2,n_id_273_line_3,n_id_273_line_4,n_id_273_line_5,n_id_273_line_6,n_id_273_line_7,n_id_273_line_0,n_id_273_line_1,n_id_273_line_2,n_id_273_line_3

