25
3
2.83368667842
0
unknown
0
3281
0
4677
15.8113883008
6.15028018965e-52
1.3634116278e-51
1.76148801548e-51
2.81838082477e-51
3.36573585783e-51
4.48831127109e-51
3.54487023229e-51
2.38049679832e-51
3.35578394814e-51
3.5767163433e-51
6.12838598833e-51
6.67773140333e-51
8.64422875846e-51
9.74889073427e-51
7.72268192098e-51
8.8432669523e-51
5.83978060726e-51
5.51932911518e-51
4.42461904906e-51
5.78604029492e-51
4.59579189576e-51
4.01061960587e-51
5.16902189402e-51
4.80478199929e-51
4.80080123542e-51
6.15028018965e-52
1.3634116278e-51
1.76148801548e-51
2.81838082477e-51
3.36573585783e-51
4.48831127109e-51
3.54487023229e-51
2.38049679832e-51
3.35578394814e-51
3.5767163433e-51
6.12838598833e-51
6.67773140333e-51
8.64422875846e-51
9.74889073427e-51
7.72268192098e-51
8.8432669523e-51
5.83978060726e-51
5.51932911518e-51
4.42461904906e-51
5.78604029492e-51
4.59579189576e-51
4.01061960587e-51
5.16902189402e-51
4.80478199929e-51
4.80080123542e-51
6.15028018965e-52
1.3634116278e-51
1.76148801548e-51
2.81838082477e-51
3.36573585783e-51
4.48831127109e-51
3.54487023229e-51
2.38049679832e-51
3.35578394814e-51
3.5767163433e-51
6.12838598833e-51
6.67773140333e-51
8.64422875846e-51
9.74889073427e-51
7.72268192098e-51
8.8432669523e-51
5.83978060726e-51
5.51932911518e-51
4.42461904906e-51
5.78604029492e-51
4.59579189576e-51
4.01061960587e-51
5.16902189402e-51
4.80478199929e-51
4.80080123542e-51
6.15028018965e-52
1.3634116278e-51
1.76148801548e-51
2.81838082477e-51
3.36573585783e-51
4.48831127109e-51
3.54487023229e-51
2.38049679832e-51
3.35578394814e-51
3.5767163433e-51
6.12838598833e-51
6.67773140333e-51
8.64422875846e-51
9.74889073427e-51
7.72268192098e-51
8.8432669523e-51
5.83978060726e-51
5.51932911518e-51
4.42461904906e-51
5.78604029492e-51
4.59579189576e-51
4.01061960587e-51
5.16902189402e-51
4.80478199929e-51
4.80080123542e-51
6.15028018965e-52
1.3634116278e-51
1.76148801548e-51
2.81838082477e-51
3.36573585783e-51
4.48831127109e-51
3.54487023229e-51
2.38049679832e-51
3.35578394814e-51
3.5767163433e-51
6.12838598833e-51
6.67773140333e-51
8.64422875846e-51
9.74889073427e-51
7.72268192098e-51
8.8432669523e-51
5.83978060726e-51
5.51932911518e-51
4.42461904906e-51
5.78604029492e-51
4.59579189576e-51
4.01061960587e-51
5.16902189402e-51
4.80478199929e-51
4.80080123542e-51
6.15028018965e-52
1.3634116278e-51
1.76148801548e-51
2.81838082477e-51
3.36573585783e-51
4.48831127109e-51
3.54487023229e-51
2.38049679832e-51
3.35578394814e-51
3.5767163433e-51
6.12838598833e-51
6.67773140333e-51
8.64422875846e-51
9.74889073427e-51
7.72268192098e-51
8.8432669523e-51
5.83978060726e-51
5.51932911518e-51
4.42461904906e-51
5.78604029492e-51
4.59579189576e-51
4.01061960587e-51
5.16902189402e-51
4.80478199929e-51
4.80080123542e-51
6.15028018965e-52
1.3634116278e-51
1.76148801548e-51
2.81838082477e-51
3.36573585783e-51
4.48831127109e-51
3.54487023229e-51
2.38049679832e-51
3.35578394814e-51
3.5767163433e-51
6.12838598833e-51
6.67773140333e-51
8.64422875846e-51
9.74889073427e-51
7.72268192098e-51
8.8432669523e-51
5.83978060726e-51
5.51932911518e-51
4.42461904906e-51
5.78604029492e-51
4.59579189576e-51
4.01061960587e-51
5.16902189402e-51
4.80478199929e-51
4.80080123542e-51
6.15028018965e-52
1.3634116278e-51
1.76148801548e-51
2.81838082477e-51
3.36573585783e-51
4.48831127109e-51
3.54487023229e-51
2.38049679832e-51
3.35578394814e-51
3.5767163433e-51
6.12838598833e-51
6.67773140333e-51
8.64422875846e-51
9.74889073427e-51
7.72268192098e-51
8.8432669523e-51
5.83978060726e-51
5.51932911518e-51
4.42461904906e-51
5.78604029492e-51
4.59579189576e-51
4.01061960587e-51
5.16902189402e-51
4.80478199929e-51
4.80080123542e-51
6.15028018965e-52
1.3634116278e-51
1.76148801548e-51
2.81838082477e-51
3.36573585783e-51
4.48831127109e-51
3.54487023229e-51
2.38049679832e-51
3.35578394814e-51
3.5767163433e-51
6.12838598833e-51
6.67773140333e-51
8.64422875846e-51
9.74889073427e-51
7.72268192098e-51
8.8432669523e-51
5.83978060726e-51
5.51932911518e-51
4.42461904906e-51
5.78604029492e-51
4.59579189576e-51
4.01061960587e-51
5.16902189402e-51
4.80478199929e-51
4.80080123542e-51
6.15028018965e-52
1.3634116278e-51
1.76148801548e-51
2.81838082477e-51
3.36573585783e-51
4.48831127109e-51
3.54487023229e-51
2.38049679832e-51
3.35578394814e-51
3.5767163433e-51
6.12838598833e-51
6.67773140333e-51
8.64422875846e-51
9.74889073427e-51
7.72268192098e-51
8.8432669523e-51
5.83978060726e-51
5.51932911518e-51
4.42461904906e-51
5.78604029492e-51
4.59579189576e-51
4.01061960587e-51
5.16902189402e-51
4.80478199929e-51
4.80080123542e-51
6.15028018965e-52
1.3634116278e-51
1.76148801548e-51
2.81838082477e-51
3.36573585783e-51
4.48831127109e-51
3.54487023229e-51
2.38049679832e-51
3.35578394814e-51
3.5767163433e-51
6.12838598833e-51
6.67773140333e-51
8.64422875846e-51
9.74889073427e-51
7.72268192098e-51
8.8432669523e-51
5.83978060726e-51
5.51932911518e-51
4.42461904906e-51
5.78604029492e-51
4.59579189576e-51
4.01061960587e-51
5.16902189402e-51
4.80478199929e-51
4.80080123542e-51
6.15028018965e-52
1.3634116278e-51
1.76148801548e-51
2.81838082477e-51
3.36573585783e-51
4.48831127109e-51
3.54487023229e-51
2.38049679832e-51
3.35578394814e-51
3.5767163433e-51
6.12838598833e-51
6.67773140333e-51
8.64422875846e-51
9.74889073427e-51
7.72268192098e-51
8.8432669523e-51
5.83978060726e-51
5.51932911518e-51
4.42461904906e-51
5.78604029492e-51
4.59579189576e-51
4.01061960587e-51
5.16902189402e-51
4.80478199929e-51
4.80080123542e-51
6.15028018965e-52
1.3634116278e-51
1.76148801548e-51
2.81838082477e-51
3.36573585783e-51
4.48831127109e-51
3.54487023229e-51
2.38049679832e-51
3.35578394814e-51
3.5767163433e-51
6.12838598833e-51
6.67773140333e-51
8.64422875846e-51
9.74889073427e-51
7.72268192098e-51
8.8432669523e-51
5.83978060726e-51
5.51932911518e-51
4.42461904906e-51
5.78604029492e-51
4.59579189576e-51
4.01061960587e-51
5.16902189402e-51
4.80478199929e-51
4.80080123542e-51
6.15028018965e-52
1.3634116278e-51
1.76148801548e-51
2.81838082477e-51
3.36573585783e-51
4.48831127109e-51
3.54487023229e-51
2.38049679832e-51
3.35578394814e-51
3.5767163433e-51
6.12838598833e-51
6.67773140333e-51
8.64422875846e-51
9.74889073427e-51
7.72268192098e-51
8.8432669523e-51
5.83978060726e-51
5.51932911518e-51
4.42461904906e-51
5.78604029492e-51
4.59579189576e-51
4.01061960587e-51
5.16902189402e-51
4.80478199929e-51
4.80080123542e-51
6.15028018965e-52
1.3634116278e-51
1.76148801548e-51
2.81838082477e-51
3.36573585783e-51
4.48831127109e-51
3.54487023229e-51
2.38049679832e-51
3.35578394814e-51
3.5767163433e-51
6.12838598833e-51
6.67773140333e-51
8.64422875846e-51
9.74889073427e-51
7.72268192098e-51
8.8432669523e-51
5.83978060726e-51
5.51932911518e-51
4.42461904906e-51
5.78604029492e-51
4.59579189576e-51
4.01061960587e-51
5.16902189402e-51
4.80478199929e-51
4.80080123542e-51
6.15028018965e-52
1.3634116278e-51
1.76148801548e-51
2.81838082477e-51
3.36573585783e-51
4.48831127109e-51
3.54487023229e-51
2.38049679832e-51
3.35578394814e-51
3.5767163433e-51
6.12838598833e-51
6.67773140333e-51
8.64422875846e-51
9.74889073427e-51
7.72268192098e-51
8.8432669523e-51
5.83978060726e-51
5.51932911518e-51
4.42461904906e-51
5.78604029492e-51
4.59579189576e-51
4.01061960587e-51
5.16902189402e-51
4.80478199929e-51
4.80080123542e-51
6.15028018965e-52
1.3634116278e-51
1.76148801548e-51
2.81838082477e-51
3.36573585783e-51
4.48831127109e-51
3.54487023229e-51
2.38049679832e-51
3.35578394814e-51
3.5767163433e-51
6.12838598833e-51
6.67773140333e-51
8.64422875846e-51
9.74889073427e-51
7.72268192098e-51
8.8432669523e-51
5.83978060726e-51
5.51932911518e-51
4.42461904906e-51
5.78604029492e-51
4.59579189576e-51
4.01061960587e-51
5.16902189402e-51
4.80478199929e-51
4.80080123542e-51
0.457223218947
1.90678589699e-51
2.36457374282e-51
2.81240967896e-51
4.74507054114e-51
5.23072373411e-51
5.91143435704e-51
5.44170421958e-51
5.10732005393e-51
4.23951352879e-51
4.3489845354e-51
4.85255116581e-51
6.21994355749e-51
8.85321886199e-51
1.78935336262e-51
8.75768052895e-52
1.01310440664e-51
1.35545010005e-51
3.13485155298e-51
3.13684193492e-51
3.50108182964e-51
2.92785183138e-51
2.24913159039e-51
1.9903819384e-51
3.90911012701e-51
1.65599777275e-51
1.90678589699e-51
2.36457374282e-51
2.81240967896e-51
4.74507054114e-51
5.23072373411e-51
5.91143435704e-51
5.44170421958e-51
5.10732005393e-51
4.23951352879e-51
4.3489845354e-51
4.85255116581e-51
6.21994355749e-51
8.85321886199e-51
1.78935336262e-51
8.75768052895e-52
1.01310440664e-51
1.35545010005e-51
3.13485155298e-51
3.13684193492e-51
3.50108182964e-51
2.92785183138e-51
2.24913159039e-51
1.9903819384e-51
3.90911012701e-51
1.65599777275e-51
1.90678589699e-51
2.36457374282e-51
2.81240967896e-51
4.74507054114e-51
5.23072373411e-51
5.91143435704e-51
5.44170421958e-51
5.10732005393e-51
4.23951352879e-51
4.3489845354e-51
4.85255116581e-51
6.21994355749e-51
8.85321886199e-51
1.78935336262e-51
8.75768052895e-52
1.01310440664e-51
1.35545010005e-51
3.13485155298e-51
3.13684193492e-51
3.50108182964e-51
2.92785183138e-51
2.24913159039e-51
1.9903819384e-51
3.90911012701e-51
1.65599777275e-51
1.90678589699e-51
2.36457374282e-51
2.81240967896e-51
4.74507054114e-51
5.23072373411e-51
5.91143435704e-51
5.44170421958e-51
5.10732005393e-51
4.23951352879e-51
4.3489845354e-51
4.85255116581e-51
6.21994355749e-51
8.85321886199e-51
1.78935336262e-51
8.75768052895e-52
1.01310440664e-51
1.35545010005e-51
3.13485155298e-51
3.13684193492e-51
3.50108182964e-51
2.92785183138e-51
2.24913159039e-51
1.9903819384e-51
3.90911012701e-51
1.65599777275e-51
1.90678589699e-51
2.36457374282e-51
2.81240967896e-51
4.74507054114e-51
5.23072373411e-51
5.91143435704e-51
5.44170421958e-51
5.10732005393e-51
4.23951352879e-51
4.3489845354e-51
4.85255116581e-51
6.21994355749e-51
8.85321886199e-51
1.78935336262e-51
8.75768052895e-52
1.01310440664e-51
1.35545010005e-51
3.13485155298e-51
3.13684193492e-51
3.50108182964e-51
2.92785183138e-51
2.24913159039e-51
1.9903819384e-51
3.90911012701e-51
1.65599777275e-51
1.90678589699e-51
2.36457374282e-51
2.81240967896e-51
4.74507054114e-51
5.23072373411e-51
5.91143435704e-51
5.44170421958e-51
5.10732005393e-51
4.23951352879e-51
4.3489845354e-51
4.85255116581e-51
6.21994355749e-51
8.85321886199e-51
1.78935336262e-51
8.75768052895e-52
1.01310440664e-51
1.35545010005e-51
3.13485155298e-51
3.13684193492e-51
3.50108182964e-51
2.92785183138e-51
2.24913159039e-51
1.9903819384e-51
3.90911012701e-51
1.65599777275e-51
1.90678589699e-51
2.36457374282e-51
2.81240967896e-51
4.74507054114e-51
5.23072373411e-51
5.91143435704e-51
5.44170421958e-51
5.10732005393e-51
4.23951352879e-51
4.3489845354e-51
4.85255116581e-51
6.21994355749e-51
8.85321886199e-51
1.78935336262e-51
8.75768052895e-52
1.01310440664e-51
1.35545010005e-51
3.13485155298e-51
3.13684193492e-51
3.50108182964e-51
2.92785183138e-51
2.24913159039e-51
1.9903819384e-51
3.90911012701e-51
1.65599777275e-51
1.90678589699e-51
2.36457374282e-51
2.81240967896e-51
4.74507054114e-51
5.23072373411e-51
5.91143435704e-51
5.44170421958e-51
5.10732005393e-51
4.23951352879e-51
4.3489845354e-51
4.85255116581e-51
6.21994355749e-51
8.85321886199e-51
1.78935336262e-51
8.75768052895e-52
1.01310440664e-51
1.35545010005e-51
3.13485155298e-51
3.13684193492e-51
3.50108182964e-51
2.92785183138e-51
2.24913159039e-51
1.9903819384e-51
3.90911012701e-51
1.65599777275e-51
1.90678589699e-51
2.36457374282e-51
2.81240967896e-51
4.74507054114e-51
5.23072373411e-51
5.91143435704e-51
5.44170421958e-51
5.10732005393e-51
4.23951352879e-51
4.3489845354e-51
4.85255116581e-51
6.21994355749e-51
8.85321886199e-51
1.78935336262e-51
8.75768052895e-52
1.01310440664e-51
1.35545010005e-51
3.13485155298e-51
3.13684193492e-51
3.50108182964e-51
2.92785183138e-51
2.24913159039e-51
1.9903819384e-51
3.90911012701e-51
1.65599777275e-51
1.90678589699e-51
2.36457374282e-51
2.81240967896e-51
4.74507054114e-51
5.23072373411e-51
5.91143435704e-51
5.44170421958e-51
5.10732005393e-51
4.23951352879e-51
4.3489845354e-51
4.85255116581e-51
6.21994355749e-51
8.85321886199e-51
1.78935336262e-51
8.75768052895e-52
1.01310440664e-51
1.35545010005e-51
3.13485155298e-51
3.13684193492e-51
3.50108182964e-51
2.92785183138e-51
2.24913159039e-51
1.9903819384e-51
3.90911012701e-51
1.65599777275e-51
1.90678589699e-51
2.36457374282e-51
2.81240967896e-51
4.74507054114e-51
5.23072373411e-51
5.91143435704e-51
5.44170421958e-51
5.10732005393e-51
4.23951352879e-51
4.3489845354e-51
4.85255116581e-51
6.21994355749e-51
8.85321886199e-51
1.78935336262e-51
8.75768052895e-52
1.01310440664e-51
1.35545010005e-51
3.13485155298e-51
3.13684193492e-51
3.50108182964e-51
2.92785183138e-51
2.24913159039e-51
1.9903819384e-51
3.90911012701e-51
1.65599777275e-51
1.90678589699e-51
2.36457374282e-51
2.81240967896e-51
4.74507054114e-51
5.23072373411e-51
5.91143435704e-51
5.44170421958e-51
5.10732005393e-51
4.23951352879e-51
4.3489845354e-51
4.85255116581e-51
6.21994355749e-51
8.85321886199e-51
1.78935336262e-51
8.75768052895e-52
1.01310440664e-51
1.35545010005e-51
3.13485155298e-51
3.13684193492e-51
3.50108182964e-51
2.92785183138e-51
2.24913159039e-51
1.9903819384e-51
3.90911012701e-51
1.65599777275e-51
1.90678589699e-51
2.36457374282e-51
2.81240967896e-51
4.74507054114e-51
5.23072373411e-51
5.91143435704e-51
5.44170421958e-51
5.10732005393e-51
4.23951352879e-51
4.3489845354e-51
4.85255116581e-51
6.21994355749e-51
8.85321886199e-51
1.78935336262e-51
8.75768052895e-52
1.01310440664e-51
1.35545010005e-51
3.13485155298e-51
3.13684193492e-51
3.50108182964e-51
2.92785183138e-51
2.24913159039e-51
1.9903819384e-51
3.90911012701e-51
1.65599777275e-51
1.90678589699e-51
2.36457374282e-51
2.81240967896e-51
4.74507054114e-51
5.23072373411e-51
5.91143435704e-51
5.44170421958e-51
5.10732005393e-51
4.23951352879e-51
4.3489845354e-51
4.85255116581e-51
6.21994355749e-51
8.85321886199e-51
1.78935336262e-51
8.75768052895e-52
1.01310440664e-51
1.35545010005e-51
3.13485155298e-51
3.13684193492e-51
3.50108182964e-51
2.92785183138e-51
2.24913159039e-51
1.9903819384e-51
3.90911012701e-51
1.65599777275e-51
1.90678589699e-51
2.36457374282e-51
2.81240967896e-51
4.74507054114e-51
5.23072373411e-51
5.91143435704e-51
5.44170421958e-51
5.10732005393e-51
4.23951352879e-51
4.3489845354e-51
4.85255116581e-51
6.21994355749e-51
8.85321886199e-51
1.78935336262e-51
8.75768052895e-52
1.01310440664e-51
1.35545010005e-51
3.13485155298e-51
3.13684193492e-51
3.50108182964e-51
2.92785183138e-51
2.24913159039e-51
1.9903819384e-51
3.90911012701e-51
1.65599777275e-51
1.90678589699e-51
2.36457374282e-51
2.81240967896e-51
4.74507054114e-51
5.23072373411e-51
5.91143435704e-51
5.44170421958e-51
5.10732005393e-51
4.23951352879e-51
4.3489845354e-51
4.85255116581e-51
6.21994355749e-51
8.85321886199e-51
1.78935336262e-51
8.75768052895e-52
1.01310440664e-51
1.35545010005e-51
3.13485155298e-51
3.13684193492e-51
3.50108182964e-51
2.92785183138e-51
2.24913159039e-51
1.9903819384e-51
3.90911012701e-51
1.65599777275e-51
1.90678589699e-51
2.36457374282e-51
2.81240967896e-51
4.74507054114e-51
5.23072373411e-51
5.91143435704e-51
5.44170421958e-51
5.10732005393e-51
4.23951352879e-51
4.3489845354e-51
4.85255116581e-51
6.21994355749e-51
8.85321886199e-51
1.78935336262e-51
8.75768052895e-52
1.01310440664e-51
1.35545010005e-51
3.13485155298e-51
3.13684193492e-51
3.50108182964e-51
2.92785183138e-51
2.24913159039e-51
1.9903819384e-51
3.90911012701e-51
1.65599777275e-51
598
unknown
229
770
2807
3396
421.753482499
0.0
1.25987950187e-84
2.90065280664e-84
5.77200608997e-84
6.18219941616e-84
7.38347987144e-84
6.82678892875e-84
4.07263373861e-84
4.95161943759e-84
4.16053230851e-84
5.62550847347e-84
4.83442134439e-84
1.05185288645e-83
1.24815969255e-83
7.73507415103e-84
1.30382878682e-83
1.8693095865e-83
1.33312831012e-83
1.12510169469e-83
1.88688930048e-83
8.907055083e-84
1.14854131333e-83
4.74652277449e-84
7.41277939474e-84
2.69555614354e-84
0.0
1.25987950187e-84
2.90065280664e-84
5.77200608997e-84
6.18219941616e-84
7.38347987144e-84
6.82678892875e-84
4.07263373861e-84
4.95161943759e-84
4.16053230851e-84
5.62550847347e-84
4.83442134439e-84
1.05185288645e-83
1.24815969255e-83
7.73507415103e-84
1.30382878682e-83
1.8693095865e-83
1.33312831012e-83
1.12510169469e-83
1.88688930048e-83
8.907055083e-84
1.14854131333e-83
4.74652277449e-84
7.41277939474e-84
2.69555614354e-84
0.0
1.25987950187e-84
2.90065280664e-84
5.77200608997e-84
6.18219941616e-84
7.38347987144e-84
6.82678892875e-84
4.07263373861e-84
4.95161943759e-84
4.16053230851e-84
5.62550847347e-84
4.83442134439e-84
1.05185288645e-83
1.24815969255e-83
7.73507415103e-84
1.30382878682e-83
1.8693095865e-83
1.33312831012e-83
1.12510169469e-83
1.88688930048e-83
8.907055083e-84
1.14854131333e-83
4.74652277449e-84
7.41277939474e-84
2.69555614354e-84
0.0
1.25987950187e-84
2.90065280664e-84
5.77200608997e-84
6.18219941616e-84
7.38347987144e-84
6.82678892875e-84
4.07263373861e-84
4.95161943759e-84
4.16053230851e-84
5.62550847347e-84
4.83442134439e-84
1.05185288645e-83
1.24815969255e-83
7.73507415103e-84
1.30382878682e-83
1.8693095865e-83
1.33312831012e-83
1.12510169469e-83
1.88688930048e-83
8.907055083e-84
1.14854131333e-83
4.74652277449e-84
7.41277939474e-84
2.69555614354e-84
0.0
1.25987950187e-84
2.90065280664e-84
5.77200608997e-84
6.18219941616e-84
7.38347987144e-84
6.82678892875e-84
4.07263373861e-84
4.95161943759e-84
4.16053230851e-84
5.62550847347e-84
4.83442134439e-84
1.05185288645e-83
1.24815969255e-83
7.73507415103e-84
1.30382878682e-83
1.8693095865e-83
1.33312831012e-83
1.12510169469e-83
1.88688930048e-83
8.907055083e-84
1.14854131333e-83
4.74652277449e-84
7.41277939474e-84
2.69555614354e-84
0.0
1.25987950187e-84
2.90065280664e-84
5.77200608997e-84
6.18219941616e-84
7.38347987144e-84
6.82678892875e-84
4.07263373861e-84
4.95161943759e-84
4.16053230851e-84
5.62550847347e-84
4.83442134439e-84
1.05185288645e-83
1.24815969255e-83
7.73507415103e-84
1.30382878682e-83
1.8693095865e-83
1.33312831012e-83
1.12510169469e-83
1.88688930048e-83
8.907055083e-84
1.14854131333e-83
4.74652277449e-84
7.41277939474e-84
2.69555614354e-84
0.0
1.25987950187e-84
2.90065280664e-84
5.77200608997e-84
6.18219941616e-84
7.38347987144e-84
6.82678892875e-84
4.07263373861e-84
4.95161943759e-84
4.16053230851e-84
5.62550847347e-84
4.83442134439e-84
1.05185288645e-83
1.24815969255e-83
7.73507415103e-84
1.30382878682e-83
1.8693095865e-83
1.33312831012e-83
1.12510169469e-83
1.88688930048e-83
8.907055083e-84
1.14854131333e-83
4.74652277449e-84
7.41277939474e-84
2.69555614354e-84
0.0
1.25987950187e-84
2.90065280664e-84
5.77200608997e-84
6.18219941616e-84
7.38347987144e-84
6.82678892875e-84
4.07263373861e-84
4.95161943759e-84
4.16053230851e-84
5.62550847347e-84
4.83442134439e-84
1.05185288645e-83
1.24815969255e-83
7.73507415103e-84
1.30382878682e-83
1.8693095865e-83
1.33312831012e-83
1.12510169469e-83
1.88688930048e-83
8.907055083e-84
1.14854131333e-83
4.74652277449e-84
7.41277939474e-84
2.69555614354e-84
0.0
1.25987950187e-84
2.90065280664e-84
5.77200608997e-84
6.18219941616e-84
7.38347987144e-84
6.82678892875e-84
4.07263373861e-84
4.95161943759e-84
4.16053230851e-84
5.62550847347e-84
4.83442134439e-84
1.05185288645e-83
1.24815969255e-83
7.73507415103e-84
1.30382878682e-83
1.8693095865e-83
1.33312831012e-83
1.12510169469e-83
1.88688930048e-83
8.907055083e-84
1.14854131333e-83
4.74652277449e-84
7.41277939474e-84
2.69555614354e-84
0.0
1.25987950187e-84
2.90065280664e-84
5.77200608997e-84
6.18219941616e-84
7.38347987144e-84
6.82678892875e-84
4.07263373861e-84
4.95161943759e-84
4.16053230851e-84
5.62550847347e-84
4.83442134439e-84
1.05185288645e-83
1.24815969255e-83
7.73507415103e-84
1.30382878682e-83
1.8693095865e-83
1.33312831012e-83
1.12510169469e-83
1.88688930048e-83
8.907055083e-84
1.14854131333e-83
4.74652277449e-84
7.41277939474e-84
2.69555614354e-84
0.0
1.25987950187e-84
2.90065280664e-84
5.77200608997e-84
6.18219941616e-84
7.38347987144e-84
6.82678892875e-84
4.07263373861e-84
4.95161943759e-84
4.16053230851e-84
5.62550847347e-84
4.83442134439e-84
1.05185288645e-83
1.24815969255e-83
7.73507415103e-84
1.30382878682e-83
1.8693095865e-83
1.33312831012e-83
1.12510169469e-83
1.88688930048e-83
8.907055083e-84
1.14854131333e-83
4.74652277449e-84
7.41277939474e-84
2.69555614354e-84
0.0
1.25987950187e-84
2.90065280664e-84
5.77200608997e-84
6.18219941616e-84
7.38347987144e-84
6.82678892875e-84
4.07263373861e-84
4.95161943759e-84
4.16053230851e-84
5.62550847347e-84
4.83442134439e-84
1.05185288645e-83
1.24815969255e-83
7.73507415103e-84
1.30382878682e-83
1.8693095865e-83
1.33312831012e-83
1.12510169469e-83
1.88688930048e-83
8.907055083e-84
1.14854131333e-83
4.74652277449e-84
7.41277939474e-84
2.69555614354e-84
0.0
1.25987950187e-84
2.90065280664e-84
5.77200608997e-84
6.18219941616e-84
7.38347987144e-84
6.82678892875e-84
4.07263373861e-84
4.95161943759e-84
4.16053230851e-84
5.62550847347e-84
4.83442134439e-84
1.05185288645e-83
1.24815969255e-83
7.73507415103e-84
1.30382878682e-83
1.8693095865e-83
1.33312831012e-83
1.12510169469e-83
1.88688930048e-83
8.907055083e-84
1.14854131333e-83
4.74652277449e-84
7.41277939474e-84
2.69555614354e-84
0.0
1.25987950187e-84
2.90065280664e-84
5.77200608997e-84
6.18219941616e-84
7.38347987144e-84
6.82678892875e-84
4.07263373861e-84
4.95161943759e-84
4.16053230851e-84
5.62550847347e-84
4.83442134439e-84
1.05185288645e-83
1.24815969255e-83
7.73507415103e-84
1.30382878682e-83
1.8693095865e-83
1.33312831012e-83
1.12510169469e-83
1.88688930048e-83
8.907055083e-84
1.14854131333e-83
4.74652277449e-84
7.41277939474e-84
2.69555614354e-84
0.0
1.25987950187e-84
2.90065280664e-84
5.77200608997e-84
6.18219941616e-84
7.38347987144e-84
6.82678892875e-84
4.07263373861e-84
4.95161943759e-84
4.16053230851e-84
5.62550847347e-84
4.83442134439e-84
1.05185288645e-83
1.24815969255e-83
7.73507415103e-84
1.30382878682e-83
1.8693095865e-83
1.33312831012e-83
1.12510169469e-83
1.88688930048e-83
8.907055083e-84
1.14854131333e-83
4.74652277449e-84
7.41277939474e-84
2.69555614354e-84
0.0
1.25987950187e-84
2.90065280664e-84
5.77200608997e-84
6.18219941616e-84
7.38347987144e-84
6.82678892875e-84
4.07263373861e-84
4.95161943759e-84
4.16053230851e-84
5.62550847347e-84
4.83442134439e-84
1.05185288645e-83
1.24815969255e-83
7.73507415103e-84
1.30382878682e-83
1.8693095865e-83
1.33312831012e-83
1.12510169469e-83
1.88688930048e-83
8.907055083e-84
1.14854131333e-83
4.74652277449e-84
7.41277939474e-84
2.69555614354e-84
0.0
1.25987950187e-84
2.90065280664e-84
5.77200608997e-84
6.18219941616e-84
7.38347987144e-84
6.82678892875e-84
4.07263373861e-84
4.95161943759e-84
4.16053230851e-84
5.62550847347e-84
4.83442134439e-84
1.05185288645e-83
1.24815969255e-83
7.73507415103e-84
1.30382878682e-83
1.8693095865e-83
1.33312831012e-83
1.12510169469e-83
1.88688930048e-83
8.907055083e-84
1.14854131333e-83
4.74652277449e-84
7.41277939474e-84
2.69555614354e-84
0.0
1.25987950187e-84
2.90065280664e-84
5.77200608997e-84
6.18219941616e-84
7.38347987144e-84
6.82678892875e-84
4.07263373861e-84
4.95161943759e-84
4.16053230851e-84
5.62550847347e-84
4.83442134439e-84
1.05185288645e-83
1.24815969255e-83
7.73507415103e-84
1.30382878682e-83
1.8693095865e-83
1.33312831012e-83
1.12510169469e-83
1.88688930048e-83
8.907055083e-84
1.14854131333e-83
4.74652277449e-84
7.41277939474e-84
2.69555614354e-84
0.0
1.25987950187e-84
2.90065280664e-84
5.77200608997e-84
6.18219941616e-84
7.38347987144e-84
6.82678892875e-84
4.07263373861e-84
4.95161943759e-84
4.16053230851e-84
5.62550847347e-84
4.83442134439e-84
1.05185288645e-83
1.24815969255e-83
7.73507415103e-84
1.30382878682e-83
1.8693095865e-83
1.33312831012e-83
1.12510169469e-83
1.88688930048e-83
8.907055083e-84
1.14854131333e-83
4.74652277449e-84
7.41277939474e-84
2.69555614354e-84
0.0
1.25987950187e-84
2.90065280664e-84
5.77200608997e-84
6.18219941616e-84
7.38347987144e-84
6.82678892875e-84
4.07263373861e-84
4.95161943759e-84
4.16053230851e-84
5.62550847347e-84
4.83442134439e-84
1.05185288645e-83
1.24815969255e-83
7.73507415103e-84
1.30382878682e-83
1.8693095865e-83
1.33312831012e-83
1.12510169469e-83
1.88688930048e-83
8.907055083e-84
1.14854131333e-83
4.74652277449e-84
7.41277939474e-84
2.69555614354e-84
0.0
1.25987950187e-84
2.90065280664e-84
5.77200608997e-84
6.18219941616e-84
7.38347987144e-84
6.82678892875e-84
4.07263373861e-84
4.95161943759e-84
4.16053230851e-84
5.62550847347e-84
4.83442134439e-84
1.05185288645e-83
1.24815969255e-83
7.73507415103e-84
1.30382878682e-83
1.8693095865e-83
1.33312831012e-83
1.12510169469e-83
1.88688930048e-83
8.907055083e-84
1.14854131333e-83
4.74652277449e-84
7.41277939474e-84
2.69555614354e-84
0.0
1.25987950187e-84
2.90065280664e-84
5.77200608997e-84
6.18219941616e-84
7.38347987144e-84
6.82678892875e-84
4.07263373861e-84
4.95161943759e-84
4.16053230851e-84
5.62550847347e-84
4.83442134439e-84
1.05185288645e-83
1.24815969255e-83
7.73507415103e-84
1.30382878682e-83
1.8693095865e-83
1.33312831012e-83
1.12510169469e-83
1.88688930048e-83
8.907055083e-84
1.14854131333e-83
4.74652277449e-84
7.41277939474e-84
2.69555614354e-84
0.0
1.25987950187e-84
2.90065280664e-84
5.77200608997e-84
6.18219941616e-84
7.38347987144e-84
6.82678892875e-84
4.07263373861e-84
4.95161943759e-84
4.16053230851e-84
5.62550847347e-84
4.83442134439e-84
1.05185288645e-83
1.24815969255e-83
7.73507415103e-84
1.30382878682e-83
1.8693095865e-83
1.33312831012e-83
1.12510169469e-83
1.88688930048e-83
8.907055083e-84
1.14854131333e-83
4.74652277449e-84
7.41277939474e-84
2.69555614354e-84
0.0
1.25987950187e-84
2.90065280664e-84
5.77200608997e-84
6.18219941616e-84
7.38347987144e-84
6.82678892875e-84
4.07263373861e-84
4.95161943759e-84
4.16053230851e-84
5.62550847347e-84
4.83442134439e-84
1.05185288645e-83
1.24815969255e-83
7.73507415103e-84
1.30382878682e-83
1.8693095865e-83
1.33312831012e-83
1.12510169469e-83
1.88688930048e-83
8.907055083e-84
1.14854131333e-83
4.74652277449e-84
7.41277939474e-84
2.69555614354e-84
0.0
1.25987950187e-84
2.90065280664e-84
5.77200608997e-84
6.18219941616e-84
7.38347987144e-84
6.82678892875e-84
4.07263373861e-84
4.95161943759e-84
4.16053230851e-84
5.62550847347e-84
4.83442134439e-84
1.05185288645e-83
1.24815969255e-83
7.73507415103e-84
1.30382878682e-83
1.8693095865e-83
1.33312831012e-83
1.12510169469e-83
1.88688930048e-83
8.907055083e-84
1.14854131333e-83
4.74652277449e-84
7.41277939474e-84
2.69555614354e-84
0.0
1.25987950187e-84
2.90065280664e-84
5.77200608997e-84
6.18219941616e-84
7.38347987144e-84
6.82678892875e-84
4.07263373861e-84
4.95161943759e-84
4.16053230851e-84
5.62550847347e-84
4.83442134439e-84
1.05185288645e-83
1.24815969255e-83
7.73507415103e-84
1.30382878682e-83
1.8693095865e-83
1.33312831012e-83
1.12510169469e-83
1.88688930048e-83
8.907055083e-84
1.14854131333e-83
4.74652277449e-84
7.41277939474e-84
2.69555614354e-84
0.0
1.25987950187e-84
2.90065280664e-84
5.77200608997e-84
6.18219941616e-84
7.38347987144e-84
6.82678892875e-84
4.07263373861e-84
4.95161943759e-84
4.16053230851e-84
5.62550847347e-84
4.83442134439e-84
1.05185288645e-83
1.24815969255e-83
7.73507415103e-84
1.30382878682e-83
1.8693095865e-83
1.33312831012e-83
1.12510169469e-83
1.88688930048e-83
8.907055083e-84
1.14854131333e-83
4.74652277449e-84
7.41277939474e-84
2.69555614354e-84
0.0
1.25987950187e-84
2.90065280664e-84
5.77200608997e-84
6.18219941616e-84
7.38347987144e-84
6.82678892875e-84
4.07263373861e-84
4.95161943759e-84
4.16053230851e-84
5.62550847347e-84
4.83442134439e-84
1.05185288645e-83
1.24815969255e-83
7.73507415103e-84
1.30382878682e-83
1.8693095865e-83
1.33312831012e-83
1.12510169469e-83
1.88688930048e-83
8.907055083e-84
1.14854131333e-83
4.74652277449e-84
7.41277939474e-84
2.69555614354e-84
0.0
1.25987950187e-84
2.90065280664e-84
5.77200608997e-84
6.18219941616e-84
7.38347987144e-84
6.82678892875e-84
4.07263373861e-84
4.95161943759e-84
4.16053230851e-84
5.62550847347e-84
4.83442134439e-84
1.05185288645e-83
1.24815969255e-83
7.73507415103e-84
1.30382878682e-83
1.8693095865e-83
1.33312831012e-83
1.12510169469e-83
1.88688930048e-83
8.907055083e-84
1.14854131333e-83
4.74652277449e-84
7.41277939474e-84
2.69555614354e-84
0.0
1.25987950187e-84
2.90065280664e-84
5.77200608997e-84
6.18219941616e-84
7.38347987144e-84
6.82678892875e-84
4.07263373861e-84
4.95161943759e-84
4.16053230851e-84
5.62550847347e-84
4.83442134439e-84
1.05185288645e-83
1.24815969255e-83
7.73507415103e-84
1.30382878682e-83
1.8693095865e-83
1.33312831012e-83
1.12510169469e-83
1.88688930048e-83
8.907055083e-84
1.14854131333e-83
4.74652277449e-84
7.41277939474e-84
2.69555614354e-84
0.0
1.25987950187e-84
2.90065280664e-84
5.77200608997e-84
6.18219941616e-84
7.38347987144e-84
6.82678892875e-84
4.07263373861e-84
4.95161943759e-84
4.16053230851e-84
5.62550847347e-84
4.83442134439e-84
1.05185288645e-83
1.24815969255e-83
7.73507415103e-84
1.30382878682e-83
1.8693095865e-83
1.33312831012e-83
1.12510169469e-83
1.88688930048e-83
8.907055083e-84
1.14854131333e-83
4.74652277449e-84
7.41277939474e-84
2.69555614354e-84
0.0
1.25987950187e-84
2.90065280664e-84
5.77200608997e-84
6.18219941616e-84
7.38347987144e-84
6.82678892875e-84
4.07263373861e-84
4.95161943759e-84
4.16053230851e-84
5.62550847347e-84
4.83442134439e-84
1.05185288645e-83
1.24815969255e-83
7.73507415103e-84
1.30382878682e-83
1.8693095865e-83
1.33312831012e-83
1.12510169469e-83
1.88688930048e-83
8.907055083e-84
1.14854131333e-83
4.74652277449e-84
7.41277939474e-84
2.69555614354e-84
0.0
1.25987950187e-84
2.90065280664e-84
5.77200608997e-84
6.18219941616e-84
7.38347987144e-84
6.82678892875e-84
4.07263373861e-84
4.95161943759e-84
4.16053230851e-84
5.62550847347e-84
4.83442134439e-84
1.05185288645e-83
1.24815969255e-83
7.73507415103e-84
1.30382878682e-83
1.8693095865e-83
1.33312831012e-83
1.12510169469e-83
1.88688930048e-83
8.907055083e-84
1.14854131333e-83
4.74652277449e-84
7.41277939474e-84
2.69555614354e-84
0.0
1.25987950187e-84
2.90065280664e-84
5.77200608997e-84
6.18219941616e-84
7.38347987144e-84
6.82678892875e-84
4.07263373861e-84
4.95161943759e-84
4.16053230851e-84
5.62550847347e-84
4.83442134439e-84
1.05185288645e-83
1.24815969255e-83
7.73507415103e-84
1.30382878682e-83
1.8693095865e-83
1.33312831012e-83
1.12510169469e-83
1.88688930048e-83
8.907055083e-84
1.14854131333e-83
4.74652277449e-84
7.41277939474e-84
2.69555614354e-84
0.0
1.25987950187e-84
2.90065280664e-84
5.77200608997e-84
6.18219941616e-84
7.38347987144e-84
6.82678892875e-84
4.07263373861e-84
4.95161943759e-84
4.16053230851e-84
5.62550847347e-84
4.83442134439e-84
1.05185288645e-83
1.24815969255e-83
7.73507415103e-84
1.30382878682e-83
1.8693095865e-83
1.33312831012e-83
1.12510169469e-83
1.88688930048e-83
8.907055083e-84
1.14854131333e-83
4.74652277449e-84
7.41277939474e-84
2.69555614354e-84
0.0
1.25987950187e-84
2.90065280664e-84
5.77200608997e-84
6.18219941616e-84
7.38347987144e-84
6.82678892875e-84
4.07263373861e-84
4.95161943759e-84
4.16053230851e-84
5.62550847347e-84
4.83442134439e-84
1.05185288645e-83
1.24815969255e-83
7.73507415103e-84
1.30382878682e-83
1.8693095865e-83
1.33312831012e-83
1.12510169469e-83
1.88688930048e-83
8.907055083e-84
1.14854131333e-83
4.74652277449e-84
7.41277939474e-84
2.69555614354e-84
0.0
1.25987950187e-84
2.90065280664e-84
5.77200608997e-84
6.18219941616e-84
7.38347987144e-84
6.82678892875e-84
4.07263373861e-84
4.95161943759e-84
4.16053230851e-84
5.62550847347e-84
4.83442134439e-84
1.05185288645e-83
1.24815969255e-83
7.73507415103e-84
1.30382878682e-83
1.8693095865e-83
1.33312831012e-83
1.12510169469e-83
1.88688930048e-83
8.907055083e-84
1.14854131333e-83
4.74652277449e-84
7.41277939474e-84
2.69555614354e-84
0.0
1.25987950187e-84
2.90065280664e-84
5.77200608997e-84
6.18219941616e-84
7.38347987144e-84
6.82678892875e-84
4.07263373861e-84
4.95161943759e-84
4.16053230851e-84
5.62550847347e-84
4.83442134439e-84
1.05185288645e-83
1.24815969255e-83
7.73507415103e-84
1.30382878682e-83
1.8693095865e-83
1.33312831012e-83
1.12510169469e-83
1.88688930048e-83
8.907055083e-84
1.14854131333e-83
4.74652277449e-84
7.41277939474e-84
2.69555614354e-84
0.0
1.25987950187e-84
2.90065280664e-84
5.77200608997e-84
6.18219941616e-84
7.38347987144e-84
6.82678892875e-84
4.07263373861e-84
4.95161943759e-84
4.16053230851e-84
5.62550847347e-84
4.83442134439e-84
1.05185288645e-83
1.24815969255e-83
7.73507415103e-84
1.30382878682e-83
1.8693095865e-83
1.33312831012e-83
1.12510169469e-83
1.88688930048e-83
8.907055083e-84
1.14854131333e-83
4.74652277449e-84
7.41277939474e-84
2.69555614354e-84
0.0
1.25987950187e-84
2.90065280664e-84
5.77200608997e-84
6.18219941616e-84
7.38347987144e-84
6.82678892875e-84
4.07263373861e-84
4.95161943759e-84
4.16053230851e-84
5.62550847347e-84
4.83442134439e-84
1.05185288645e-83
1.24815969255e-83
7.73507415103e-84
1.30382878682e-83
1.8693095865e-83
1.33312831012e-83
1.12510169469e-83
1.88688930048e-83
8.907055083e-84
1.14854131333e-83
4.74652277449e-84
7.41277939474e-84
2.69555614354e-84
0.0
1.25987950187e-84
2.90065280664e-84
5.77200608997e-84
6.18219941616e-84
7.38347987144e-84
6.82678892875e-84
4.07263373861e-84
4.95161943759e-84
4.16053230851e-84
5.62550847347e-84
4.83442134439e-84
1.05185288645e-83
1.24815969255e-83
7.73507415103e-84
1.30382878682e-83
1.8693095865e-83
1.33312831012e-83
1.12510169469e-83
1.88688930048e-83
8.907055083e-84
1.14854131333e-83
4.74652277449e-84
7.41277939474e-84
2.69555614354e-84
0.0
1.25987950187e-84
2.90065280664e-84
5.77200608997e-84
6.18219941616e-84
7.38347987144e-84
6.82678892875e-84
4.07263373861e-84
4.95161943759e-84
4.16053230851e-84
5.62550847347e-84
4.83442134439e-84
1.05185288645e-83
1.24815969255e-83
7.73507415103e-84
1.30382878682e-83
1.8693095865e-83
1.33312831012e-83
1.12510169469e-83
1.88688930048e-83
8.907055083e-84
1.14854131333e-83
4.74652277449e-84
7.41277939474e-84
2.69555614354e-84
0.0
1.25987950187e-84
2.90065280664e-84
5.77200608997e-84
6.18219941616e-84
7.38347987144e-84
6.82678892875e-84
4.07263373861e-84
4.95161943759e-84
4.16053230851e-84
5.62550847347e-84
4.83442134439e-84
1.05185288645e-83
1.24815969255e-83
7.73507415103e-84
1.30382878682e-83
1.8693095865e-83
1.33312831012e-83
1.12510169469e-83
1.88688930048e-83
8.907055083e-84
1.14854131333e-83
4.74652277449e-84
7.41277939474e-84
2.69555614354e-84
0.0
1.25987950187e-84
2.90065280664e-84
5.77200608997e-84
6.18219941616e-84
7.38347987144e-84
6.82678892875e-84
4.07263373861e-84
4.95161943759e-84
4.16053230851e-84
5.62550847347e-84
4.83442134439e-84
1.05185288645e-83
1.24815969255e-83
7.73507415103e-84
1.30382878682e-83
1.8693095865e-83
1.33312831012e-83
1.12510169469e-83
1.88688930048e-83
8.907055083e-84
1.14854131333e-83
4.74652277449e-84
7.41277939474e-84
2.69555614354e-84
0.0
1.25987950187e-84
2.90065280664e-84
5.77200608997e-84
6.18219941616e-84
7.38347987144e-84
6.82678892875e-84
4.07263373861e-84
4.95161943759e-84
4.16053230851e-84
5.62550847347e-84
4.83442134439e-84
1.05185288645e-83
1.24815969255e-83
7.73507415103e-84
1.30382878682e-83
1.8693095865e-83
1.33312831012e-83
1.12510169469e-83
1.88688930048e-83
8.907055083e-84
1.14854131333e-83
4.74652277449e-84
7.41277939474e-84
2.69555614354e-84
0.0
1.25987950187e-84
2.90065280664e-84
5.77200608997e-84
6.18219941616e-84
7.38347987144e-84
6.82678892875e-84
4.07263373861e-84
4.95161943759e-84
4.16053230851e-84
5.62550847347e-84
4.83442134439e-84
1.05185288645e-83
1.24815969255e-83
7.73507415103e-84
1.30382878682e-83
1.8693095865e-83
1.33312831012e-83
1.12510169469e-83
1.88688930048e-83
8.907055083e-84
1.14854131333e-83
4.74652277449e-84
7.41277939474e-84
2.69555614354e-84
0.0
1.25987950187e-84
2.90065280664e-84
5.77200608997e-84
6.18219941616e-84
7.38347987144e-84
6.82678892875e-84
4.07263373861e-84
4.95161943759e-84
4.16053230851e-84
5.62550847347e-84
4.83442134439e-84
1.05185288645e-83
1.24815969255e-83
7.73507415103e-84
1.30382878682e-83
1.8693095865e-83
1.33312831012e-83
1.12510169469e-83
1.88688930048e-83
8.907055083e-84
1.14854131333e-83
4.74652277449e-84
7.41277939474e-84
2.69555614354e-84
0.0
1.25987950187e-84
2.90065280664e-84
5.77200608997e-84
6.18219941616e-84
7.38347987144e-84
6.82678892875e-84
4.07263373861e-84
4.95161943759e-84
4.16053230851e-84
5.62550847347e-84
4.83442134439e-84
1.05185288645e-83
1.24815969255e-83
7.73507415103e-84
1.30382878682e-83
1.8693095865e-83
1.33312831012e-83
1.12510169469e-83
1.88688930048e-83
8.907055083e-84
1.14854131333e-83
4.74652277449e-84
7.41277939474e-84
2.69555614354e-84
0.0291745586339
8.9656541296e-84
1.22765002624e-83
6.88538797535e-84
6.68029131225e-84
5.80130561327e-84
4.89302039099e-84
8.9363546063e-84
9.25864936259e-84
8.70195841991e-84
8.67265889661e-84
8.08666843062e-84
7.35418034814e-84
4.74652277449e-84
5.06881753079e-84
4.4242280182e-84
3.80893802892e-84
4.4535275415e-84
4.7172232512e-84
5.03951800749e-84
3.19364803963e-84
3.51594279592e-84
3.34014565613e-84
2.10956567755e-84
3.51594279592e-84
2.28536281735e-84
8.9656541296e-84
1.22765002624e-83
6.88538797535e-84
6.68029131225e-84
5.80130561327e-84
4.89302039099e-84
8.9363546063e-84
9.25864936259e-84
8.70195841991e-84
8.67265889661e-84
8.08666843062e-84
7.35418034814e-84
4.74652277449e-84
5.06881753079e-84
4.4242280182e-84
3.80893802892e-84
4.4535275415e-84
4.7172232512e-84
5.03951800749e-84
3.19364803963e-84
3.51594279592e-84
3.34014565613e-84
2.10956567755e-84
3.51594279592e-84
2.28536281735e-84
8.9656541296e-84
1.22765002624e-83
6.88538797535e-84
6.68029131225e-84
5.80130561327e-84
4.89302039099e-84
8.9363546063e-84
9.25864936259e-84
8.70195841991e-84
8.67265889661e-84
8.08666843062e-84
7.35418034814e-84
4.74652277449e-84
5.06881753079e-84
4.4242280182e-84
3.80893802892e-84
4.4535275415e-84
4.7172232512e-84
5.03951800749e-84
3.19364803963e-84
3.51594279592e-84
3.34014565613e-84
2.10956567755e-84
3.51594279592e-84
2.28536281735e-84
8.9656541296e-84
1.22765002624e-83
6.88538797535e-84
6.68029131225e-84
5.80130561327e-84
4.89302039099e-84
8.9363546063e-84
9.25864936259e-84
8.70195841991e-84
8.67265889661e-84
8.08666843062e-84
7.35418034814e-84
4.74652277449e-84
5.06881753079e-84
4.4242280182e-84
3.80893802892e-84
4.4535275415e-84
4.7172232512e-84
5.03951800749e-84
3.19364803963e-84
3.51594279592e-84
3.34014565613e-84
2.10956567755e-84
3.51594279592e-84
2.28536281735e-84
8.9656541296e-84
1.22765002624e-83
6.88538797535e-84
6.68029131225e-84
5.80130561327e-84
4.89302039099e-84
8.9363546063e-84
9.25864936259e-84
8.70195841991e-84
8.67265889661e-84
8.08666843062e-84
7.35418034814e-84
4.74652277449e-84
5.06881753079e-84
4.4242280182e-84
3.80893802892e-84
4.4535275415e-84
4.7172232512e-84
5.03951800749e-84
3.19364803963e-84
3.51594279592e-84
3.34014565613e-84
2.10956567755e-84
3.51594279592e-84
2.28536281735e-84
8.9656541296e-84
1.22765002624e-83
6.88538797535e-84
6.68029131225e-84
5.80130561327e-84
4.89302039099e-84
8.9363546063e-84
9.25864936259e-84
8.70195841991e-84
8.67265889661e-84
8.08666843062e-84
7.35418034814e-84
4.74652277449e-84
5.06881753079e-84
4.4242280182e-84
3.80893802892e-84
4.4535275415e-84
4.7172232512e-84
5.03951800749e-84
3.19364803963e-84
3.51594279592e-84
3.34014565613e-84
2.10956567755e-84
3.51594279592e-84
2.28536281735e-84
8.9656541296e-84
1.22765002624e-83
6.88538797535e-84
6.68029131225e-84
5.80130561327e-84
4.89302039099e-84
8.9363546063e-84
9.25864936259e-84
8.70195841991e-84
8.67265889661e-84
8.08666843062e-84
7.35418034814e-84
4.74652277449e-84
5.06881753079e-84
4.4242280182e-84
3.80893802892e-84
4.4535275415e-84
4.7172232512e-84
5.03951800749e-84
3.19364803963e-84
3.51594279592e-84
3.34014565613e-84
2.10956567755e-84
3.51594279592e-84
2.28536281735e-84
8.9656541296e-84
1.22765002624e-83
6.88538797535e-84
6.68029131225e-84
5.80130561327e-84
4.89302039099e-84
8.9363546063e-84
9.25864936259e-84
8.70195841991e-84
8.67265889661e-84
8.08666843062e-84
7.35418034814e-84
4.74652277449e-84
5.06881753079e-84
4.4242280182e-84
3.80893802892e-84
4.4535275415e-84
4.7172232512e-84
5.03951800749e-84
3.19364803963e-84
3.51594279592e-84
3.34014565613e-84
2.10956567755e-84
3.51594279592e-84
2.28536281735e-84
8.9656541296e-84
1.22765002624e-83
6.88538797535e-84
6.68029131225e-84
5.80130561327e-84
4.89302039099e-84
8.9363546063e-84
9.25864936259e-84
8.70195841991e-84
8.67265889661e-84
8.08666843062e-84
7.35418034814e-84
4.74652277449e-84
5.06881753079e-84
4.4242280182e-84
3.80893802892e-84
4.4535275415e-84
4.7172232512e-84
5.03951800749e-84
3.19364803963e-84
3.51594279592e-84
3.34014565613e-84
2.10956567755e-84
3.51594279592e-84
2.28536281735e-84
8.9656541296e-84
1.22765002624e-83
6.88538797535e-84
6.68029131225e-84
5.80130561327e-84
4.89302039099e-84
8.9363546063e-84
9.25864936259e-84
8.70195841991e-84
8.67265889661e-84
8.08666843062e-84
7.35418034814e-84
4.74652277449e-84
5.06881753079e-84
4.4242280182e-84
3.80893802892e-84
4.4535275415e-84
4.7172232512e-84
5.03951800749e-84
3.19364803963e-84
3.51594279592e-84
3.34014565613e-84
2.10956567755e-84
3.51594279592e-84
2.28536281735e-84
8.9656541296e-84
1.22765002624e-83
6.88538797535e-84
6.68029131225e-84
5.80130561327e-84
4.89302039099e-84
8.9363546063e-84
9.25864936259e-84
8.70195841991e-84
8.67265889661e-84
8.08666843062e-84
7.35418034814e-84
4.74652277449e-84
5.06881753079e-84
4.4242280182e-84
3.80893802892e-84
4.4535275415e-84
4.7172232512e-84
5.03951800749e-84
3.19364803963e-84
3.51594279592e-84
3.34014565613e-84
2.10956567755e-84
3.51594279592e-84
2.28536281735e-84
8.9656541296e-84
1.22765002624e-83
6.88538797535e-84
6.68029131225e-84
5.80130561327e-84
4.89302039099e-84
8.9363546063e-84
9.25864936259e-84
8.70195841991e-84
8.67265889661e-84
8.08666843062e-84
7.35418034814e-84
4.74652277449e-84
5.06881753079e-84
4.4242280182e-84
3.80893802892e-84
4.4535275415e-84
4.7172232512e-84
5.03951800749e-84
3.19364803963e-84
3.51594279592e-84
3.34014565613e-84
2.10956567755e-84
3.51594279592e-84
2.28536281735e-84
8.9656541296e-84
1.22765002624e-83
6.88538797535e-84
6.68029131225e-84
5.80130561327e-84
4.89302039099e-84
8.9363546063e-84
9.25864936259e-84
8.70195841991e-84
8.67265889661e-84
8.08666843062e-84
7.35418034814e-84
4.74652277449e-84
5.06881753079e-84
4.4242280182e-84
3.80893802892e-84
4.4535275415e-84
4.7172232512e-84
5.03951800749e-84
3.19364803963e-84
3.51594279592e-84
3.34014565613e-84
2.10956567755e-84
3.51594279592e-84
2.28536281735e-84
8.9656541296e-84
1.22765002624e-83
6.88538797535e-84
6.68029131225e-84
5.80130561327e-84
4.89302039099e-84
8.9363546063e-84
9.25864936259e-84
8.70195841991e-84
8.67265889661e-84
8.08666843062e-84
7.35418034814e-84
4.74652277449e-84
5.06881753079e-84
4.4242280182e-84
3.80893802892e-84
4.4535275415e-84
4.7172232512e-84
5.03951800749e-84
3.19364803963e-84
3.51594279592e-84
3.34014565613e-84
2.10956567755e-84
3.51594279592e-84
2.28536281735e-84
8.9656541296e-84
1.22765002624e-83
6.88538797535e-84
6.68029131225e-84
5.80130561327e-84
4.89302039099e-84
8.9363546063e-84
9.25864936259e-84
8.70195841991e-84
8.67265889661e-84
8.08666843062e-84
7.35418034814e-84
4.74652277449e-84
5.06881753079e-84
4.4242280182e-84
3.80893802892e-84
4.4535275415e-84
4.7172232512e-84
5.03951800749e-84
3.19364803963e-84
3.51594279592e-84
3.34014565613e-84
2.10956567755e-84
3.51594279592e-84
2.28536281735e-84
8.9656541296e-84
1.22765002624e-83
6.88538797535e-84
6.68029131225e-84
5.80130561327e-84
4.89302039099e-84
8.9363546063e-84
9.25864936259e-84
8.70195841991e-84
8.67265889661e-84
8.08666843062e-84
7.35418034814e-84
4.74652277449e-84
5.06881753079e-84
4.4242280182e-84
3.80893802892e-84
4.4535275415e-84
4.7172232512e-84
5.03951800749e-84
3.19364803963e-84
3.51594279592e-84
3.34014565613e-84
2.10956567755e-84
3.51594279592e-84
2.28536281735e-84
8.9656541296e-84
1.22765002624e-83
6.88538797535e-84
6.68029131225e-84
5.80130561327e-84
4.89302039099e-84
8.9363546063e-84
9.25864936259e-84
8.70195841991e-84
8.67265889661e-84
8.08666843062e-84
7.35418034814e-84
4.74652277449e-84
5.06881753079e-84
4.4242280182e-84
3.80893802892e-84
4.4535275415e-84
4.7172232512e-84
5.03951800749e-84
3.19364803963e-84
3.51594279592e-84
3.34014565613e-84
2.10956567755e-84
3.51594279592e-84
2.28536281735e-84
8.9656541296e-84
1.22765002624e-83
6.88538797535e-84
6.68029131225e-84
5.80130561327e-84
4.89302039099e-84
8.9363546063e-84
9.25864936259e-84
8.70195841991e-84
8.67265889661e-84
8.08666843062e-84
7.35418034814e-84
4.74652277449e-84
5.06881753079e-84
4.4242280182e-84
3.80893802892e-84
4.4535275415e-84
4.7172232512e-84
5.03951800749e-84
3.19364803963e-84
3.51594279592e-84
3.34014565613e-84
2.10956567755e-84
3.51594279592e-84
2.28536281735e-84
8.9656541296e-84
1.22765002624e-83
6.88538797535e-84
6.68029131225e-84
5.80130561327e-84
4.89302039099e-84
8.9363546063e-84
9.25864936259e-84
8.70195841991e-84
8.67265889661e-84
8.08666843062e-84
7.35418034814e-84
4.74652277449e-84
5.06881753079e-84
4.4242280182e-84
3.80893802892e-84
4.4535275415e-84
4.7172232512e-84
5.03951800749e-84
3.19364803963e-84
3.51594279592e-84
3.34014565613e-84
2.10956567755e-84
3.51594279592e-84
2.28536281735e-84
8.9656541296e-84
1.22765002624e-83
6.88538797535e-84
6.68029131225e-84
5.80130561327e-84
4.89302039099e-84
8.9363546063e-84
9.25864936259e-84
8.70195841991e-84
8.67265889661e-84
8.08666843062e-84
7.35418034814e-84
4.74652277449e-84
5.06881753079e-84
4.4242280182e-84
3.80893802892e-84
4.4535275415e-84
4.7172232512e-84
5.03951800749e-84
3.19364803963e-84
3.51594279592e-84
3.34014565613e-84
2.10956567755e-84
3.51594279592e-84
2.28536281735e-84
8.9656541296e-84
1.22765002624e-83
6.88538797535e-84
6.68029131225e-84
5.80130561327e-84
4.89302039099e-84
8.9363546063e-84
9.25864936259e-84
8.70195841991e-84
8.67265889661e-84
8.08666843062e-84
7.35418034814e-84
4.74652277449e-84
5.06881753079e-84
4.4242280182e-84
3.80893802892e-84
4.4535275415e-84
4.7172232512e-84
5.03951800749e-84
3.19364803963e-84
3.51594279592e-84
3.34014565613e-84
2.10956567755e-84
3.51594279592e-84
2.28536281735e-84
8.9656541296e-84
1.22765002624e-83
6.88538797535e-84
6.68029131225e-84
5.80130561327e-84
4.89302039099e-84
8.9363546063e-84
9.25864936259e-84
8.70195841991e-84
8.67265889661e-84
8.08666843062e-84
7.35418034814e-84
4.74652277449e-84
5.06881753079e-84
4.4242280182e-84
3.80893802892e-84
4.4535275415e-84
4.7172232512e-84
5.03951800749e-84
3.19364803963e-84
3.51594279592e-84
3.34014565613e-84
2.10956567755e-84
3.51594279592e-84
2.28536281735e-84
8.9656541296e-84
1.22765002624e-83
6.88538797535e-84
6.68029131225e-84
5.80130561327e-84
4.89302039099e-84
8.9363546063e-84
9.25864936259e-84
8.70195841991e-84
8.67265889661e-84
8.08666843062e-84
7.35418034814e-84
4.74652277449e-84
5.06881753079e-84
4.4242280182e-84
3.80893802892e-84
4.4535275415e-84
4.7172232512e-84
5.03951800749e-84
3.19364803963e-84
3.51594279592e-84
3.34014565613e-84
2.10956567755e-84
3.51594279592e-84
2.28536281735e-84
8.9656541296e-84
1.22765002624e-83
6.88538797535e-84
6.68029131225e-84
5.80130561327e-84
4.89302039099e-84
8.9363546063e-84
9.25864936259e-84
8.70195841991e-84
8.67265889661e-84
8.08666843062e-84
7.35418034814e-84
4.74652277449e-84
5.06881753079e-84
4.4242280182e-84
3.80893802892e-84
4.4535275415e-84
4.7172232512e-84
5.03951800749e-84
3.19364803963e-84
3.51594279592e-84
3.34014565613e-84
2.10956567755e-84
3.51594279592e-84
2.28536281735e-84
8.9656541296e-84
1.22765002624e-83
6.88538797535e-84
6.68029131225e-84
5.80130561327e-84
4.89302039099e-84
8.9363546063e-84
9.25864936259e-84
8.70195841991e-84
8.67265889661e-84
8.08666843062e-84
7.35418034814e-84
4.74652277449e-84
5.06881753079e-84
4.4242280182e-84
3.80893802892e-84
4.4535275415e-84
4.7172232512e-84
5.03951800749e-84
3.19364803963e-84
3.51594279592e-84
3.34014565613e-84
2.10956567755e-84
3.51594279592e-84
2.28536281735e-84
8.9656541296e-84
1.22765002624e-83
6.88538797535e-84
6.68029131225e-84
5.80130561327e-84
4.89302039099e-84
8.9363546063e-84
9.25864936259e-84
8.70195841991e-84
8.67265889661e-84
8.08666843062e-84
7.35418034814e-84
4.74652277449e-84
5.06881753079e-84
4.4242280182e-84
3.80893802892e-84
4.4535275415e-84
4.7172232512e-84
5.03951800749e-84
3.19364803963e-84
3.51594279592e-84
3.34014565613e-84
2.10956567755e-84
3.51594279592e-84
2.28536281735e-84
8.9656541296e-84
1.22765002624e-83
6.88538797535e-84
6.68029131225e-84
5.80130561327e-84
4.89302039099e-84
8.9363546063e-84
9.25864936259e-84
8.70195841991e-84
8.67265889661e-84
8.08666843062e-84
7.35418034814e-84
4.74652277449e-84
5.06881753079e-84
4.4242280182e-84
3.80893802892e-84
4.4535275415e-84
4.7172232512e-84
5.03951800749e-84
3.19364803963e-84
3.51594279592e-84
3.34014565613e-84
2.10956567755e-84
3.51594279592e-84
2.28536281735e-84
8.9656541296e-84
1.22765002624e-83
6.88538797535e-84
6.68029131225e-84
5.80130561327e-84
4.89302039099e-84
8.9363546063e-84
9.25864936259e-84
8.70195841991e-84
8.67265889661e-84
8.08666843062e-84
7.35418034814e-84
4.74652277449e-84
5.06881753079e-84
4.4242280182e-84
3.80893802892e-84
4.4535275415e-84
4.7172232512e-84
5.03951800749e-84
3.19364803963e-84
3.51594279592e-84
3.34014565613e-84
2.10956567755e-84
3.51594279592e-84
2.28536281735e-84
8.9656541296e-84
1.22765002624e-83
6.88538797535e-84
6.68029131225e-84
5.80130561327e-84
4.89302039099e-84
8.9363546063e-84
9.25864936259e-84
8.70195841991e-84
8.67265889661e-84
8.08666843062e-84
7.35418034814e-84
4.74652277449e-84
5.06881753079e-84
4.4242280182e-84
3.80893802892e-84
4.4535275415e-84
4.7172232512e-84
5.03951800749e-84
3.19364803963e-84
3.51594279592e-84
3.34014565613e-84
2.10956567755e-84
3.51594279592e-84
2.28536281735e-84
8.9656541296e-84
1.22765002624e-83
6.88538797535e-84
6.68029131225e-84
5.80130561327e-84
4.89302039099e-84
8.9363546063e-84
9.25864936259e-84
8.70195841991e-84
8.67265889661e-84
8.08666843062e-84
7.35418034814e-84
4.74652277449e-84
5.06881753079e-84
4.4242280182e-84
3.80893802892e-84
4.4535275415e-84
4.7172232512e-84
5.03951800749e-84
3.19364803963e-84
3.51594279592e-84
3.34014565613e-84
2.10956567755e-84
3.51594279592e-84
2.28536281735e-84
8.9656541296e-84
1.22765002624e-83
6.88538797535e-84
6.68029131225e-84
5.80130561327e-84
4.89302039099e-84
8.9363546063e-84
9.25864936259e-84
8.70195841991e-84
8.67265889661e-84
8.08666843062e-84
7.35418034814e-84
4.74652277449e-84
5.06881753079e-84
4.4242280182e-84
3.80893802892e-84
4.4535275415e-84
4.7172232512e-84
5.03951800749e-84
3.19364803963e-84
3.51594279592e-84
3.34014565613e-84
2.10956567755e-84
3.51594279592e-84
2.28536281735e-84
8.9656541296e-84
1.22765002624e-83
6.88538797535e-84
6.68029131225e-84
5.80130561327e-84
4.89302039099e-84
8.9363546063e-84
9.25864936259e-84
8.70195841991e-84
8.67265889661e-84
8.08666843062e-84
7.35418034814e-84
4.74652277449e-84
5.06881753079e-84
4.4242280182e-84
3.80893802892e-84
4.4535275415e-84
4.7172232512e-84
5.03951800749e-84
3.19364803963e-84
3.51594279592e-84
3.34014565613e-84
2.10956567755e-84
3.51594279592e-84
2.28536281735e-84
8.9656541296e-84
1.22765002624e-83
6.88538797535e-84
6.68029131225e-84
5.80130561327e-84
4.89302039099e-84
8.9363546063e-84
9.25864936259e-84
8.70195841991e-84
8.67265889661e-84
8.08666843062e-84
7.35418034814e-84
4.74652277449e-84
5.06881753079e-84
4.4242280182e-84
3.80893802892e-84
4.4535275415e-84
4.7172232512e-84
5.03951800749e-84
3.19364803963e-84
3.51594279592e-84
3.34014565613e-84
2.10956567755e-84
3.51594279592e-84
2.28536281735e-84
8.9656541296e-84
1.22765002624e-83
6.88538797535e-84
6.68029131225e-84
5.80130561327e-84
4.89302039099e-84
8.9363546063e-84
9.25864936259e-84
8.70195841991e-84
8.67265889661e-84
8.08666843062e-84
7.35418034814e-84
4.74652277449e-84
5.06881753079e-84
4.4242280182e-84
3.80893802892e-84
4.4535275415e-84
4.7172232512e-84
5.03951800749e-84
3.19364803963e-84
3.51594279592e-84
3.34014565613e-84
2.10956567755e-84
3.51594279592e-84
2.28536281735e-84
8.9656541296e-84
1.22765002624e-83
6.88538797535e-84
6.68029131225e-84
5.80130561327e-84
4.89302039099e-84
8.9363546063e-84
9.25864936259e-84
8.70195841991e-84
8.67265889661e-84
8.08666843062e-84
7.35418034814e-84
4.74652277449e-84
5.06881753079e-84
4.4242280182e-84
3.80893802892e-84
4.4535275415e-84
4.7172232512e-84
5.03951800749e-84
3.19364803963e-84
3.51594279592e-84
3.34014565613e-84
2.10956567755e-84
3.51594279592e-84
2.28536281735e-84
8.9656541296e-84
1.22765002624e-83
6.88538797535e-84
6.68029131225e-84
5.80130561327e-84
4.89302039099e-84
8.9363546063e-84
9.25864936259e-84
8.70195841991e-84
8.67265889661e-84
8.08666843062e-84
7.35418034814e-84
4.74652277449e-84
5.06881753079e-84
4.4242280182e-84
3.80893802892e-84
4.4535275415e-84
4.7172232512e-84
5.03951800749e-84
3.19364803963e-84
3.51594279592e-84
3.34014565613e-84
2.10956567755e-84
3.51594279592e-84
2.28536281735e-84
8.9656541296e-84
1.22765002624e-83
6.88538797535e-84
6.68029131225e-84
5.80130561327e-84
4.89302039099e-84
8.9363546063e-84
9.25864936259e-84
8.70195841991e-84
8.67265889661e-84
8.08666843062e-84
7.35418034814e-84
4.74652277449e-84
5.06881753079e-84
4.4242280182e-84
3.80893802892e-84
4.4535275415e-84
4.7172232512e-84
5.03951800749e-84
3.19364803963e-84
3.51594279592e-84
3.34014565613e-84
2.10956567755e-84
3.51594279592e-84
2.28536281735e-84
8.9656541296e-84
1.22765002624e-83
6.88538797535e-84
6.68029131225e-84
5.80130561327e-84
4.89302039099e-84
8.9363546063e-84
9.25864936259e-84
8.70195841991e-84
8.67265889661e-84
8.08666843062e-84
7.35418034814e-84
4.74652277449e-84
5.06881753079e-84
4.4242280182e-84
3.80893802892e-84
4.4535275415e-84
4.7172232512e-84
5.03951800749e-84
3.19364803963e-84
3.51594279592e-84
3.34014565613e-84
2.10956567755e-84
3.51594279592e-84
2.28536281735e-84
8.9656541296e-84
1.22765002624e-83
6.88538797535e-84
6.68029131225e-84
5.80130561327e-84
4.89302039099e-84
8.9363546063e-84
9.25864936259e-84
8.70195841991e-84
8.67265889661e-84
8.08666843062e-84
7.35418034814e-84
4.74652277449e-84
5.06881753079e-84
4.4242280182e-84
3.80893802892e-84
4.4535275415e-84
4.7172232512e-84
5.03951800749e-84
3.19364803963e-84
3.51594279592e-84
3.34014565613e-84
2.10956567755e-84
3.51594279592e-84
2.28536281735e-84
8.9656541296e-84
1.22765002624e-83
6.88538797535e-84
6.68029131225e-84
5.80130561327e-84
4.89302039099e-84
8.9363546063e-84
9.25864936259e-84
8.70195841991e-84
8.67265889661e-84
8.08666843062e-84
7.35418034814e-84
4.74652277449e-84
5.06881753079e-84
4.4242280182e-84
3.80893802892e-84
4.4535275415e-84
4.7172232512e-84
5.03951800749e-84
3.19364803963e-84
3.51594279592e-84
3.34014565613e-84
2.10956567755e-84
3.51594279592e-84
2.28536281735e-84
8.9656541296e-84
1.22765002624e-83
6.88538797535e-84
6.68029131225e-84
5.80130561327e-84
4.89302039099e-84
8.9363546063e-84
9.25864936259e-84
8.70195841991e-84
8.67265889661e-84
8.08666843062e-84
7.35418034814e-84
4.74652277449e-84
5.06881753079e-84
4.4242280182e-84
3.80893802892e-84
4.4535275415e-84
4.7172232512e-84
5.03951800749e-84
3.19364803963e-84
3.51594279592e-84
3.34014565613e-84
2.10956567755e-84
3.51594279592e-84
2.28536281735e-84
8.9656541296e-84
1.22765002624e-83
6.88538797535e-84
6.68029131225e-84
5.80130561327e-84
4.89302039099e-84
8.9363546063e-84
9.25864936259e-84
8.70195841991e-84
8.67265889661e-84
8.08666843062e-84
7.35418034814e-84
4.74652277449e-84
5.06881753079e-84
4.4242280182e-84
3.80893802892e-84
4.4535275415e-84
4.7172232512e-84
5.03951800749e-84
3.19364803963e-84
3.51594279592e-84
3.34014565613e-84
2.10956567755e-84
3.51594279592e-84
2.28536281735e-84
8.9656541296e-84
1.22765002624e-83
6.88538797535e-84
6.68029131225e-84
5.80130561327e-84
4.89302039099e-84
8.9363546063e-84
9.25864936259e-84
8.70195841991e-84
8.67265889661e-84
8.08666843062e-84
7.35418034814e-84
4.74652277449e-84
5.06881753079e-84
4.4242280182e-84
3.80893802892e-84
4.4535275415e-84
4.7172232512e-84
5.03951800749e-84
3.19364803963e-84
3.51594279592e-84
3.34014565613e-84
2.10956567755e-84
3.51594279592e-84
2.28536281735e-84
8.9656541296e-84
1.22765002624e-83
6.88538797535e-84
6.68029131225e-84
5.80130561327e-84
4.89302039099e-84
8.9363546063e-84
9.25864936259e-84
8.70195841991e-84
8.67265889661e-84
8.08666843062e-84
7.35418034814e-84
4.74652277449e-84
5.06881753079e-84
4.4242280182e-84
3.80893802892e-84
4.4535275415e-84
4.7172232512e-84
5.03951800749e-84
3.19364803963e-84
3.51594279592e-84
3.34014565613e-84
2.10956567755e-84
3.51594279592e-84
2.28536281735e-84
8.9656541296e-84
1.22765002624e-83
6.88538797535e-84
6.68029131225e-84
5.80130561327e-84
4.89302039099e-84
8.9363546063e-84
9.25864936259e-84
8.70195841991e-84
8.67265889661e-84
8.08666843062e-84
7.35418034814e-84
4.74652277449e-84
5.06881753079e-84
4.4242280182e-84
3.80893802892e-84
4.4535275415e-84
4.7172232512e-84
5.03951800749e-84
3.19364803963e-84
3.51594279592e-84
3.34014565613e-84
2.10956567755e-84
3.51594279592e-84
2.28536281735e-84
8.9656541296e-84
1.22765002624e-83
6.88538797535e-84
6.68029131225e-84
5.80130561327e-84
4.89302039099e-84
8.9363546063e-84
9.25864936259e-84
8.70195841991e-84
8.67265889661e-84
8.08666843062e-84
7.35418034814e-84
4.74652277449e-84
5.06881753079e-84
4.4242280182e-84
3.80893802892e-84
4.4535275415e-84
4.7172232512e-84
5.03951800749e-84
3.19364803963e-84
3.51594279592e-84
3.34014565613e-84
2.10956567755e-84
3.51594279592e-84
2.28536281735e-84
8.9656541296e-84
1.22765002624e-83
6.88538797535e-84
6.68029131225e-84
5.80130561327e-84
4.89302039099e-84
8.9363546063e-84
9.25864936259e-84
8.70195841991e-84
8.67265889661e-84
8.08666843062e-84
7.35418034814e-84
4.74652277449e-84
5.06881753079e-84
4.4242280182e-84
3.80893802892e-84
4.4535275415e-84
4.7172232512e-84
5.03951800749e-84
3.19364803963e-84
3.51594279592e-84
3.34014565613e-84
2.10956567755e-84
3.51594279592e-84
2.28536281735e-84
8.9656541296e-84
1.22765002624e-83
6.88538797535e-84
6.68029131225e-84
5.80130561327e-84
4.89302039099e-84
8.9363546063e-84
9.25864936259e-84
8.70195841991e-84
8.67265889661e-84
8.08666843062e-84
7.35418034814e-84
4.74652277449e-84
5.06881753079e-84
4.4242280182e-84
3.80893802892e-84
4.4535275415e-84
4.7172232512e-84
5.03951800749e-84
3.19364803963e-84
3.51594279592e-84
3.34014565613e-84
2.10956567755e-84
3.51594279592e-84
2.28536281735e-84
602
unknown
287
711
2864
3338
326.252969335
0.0112612612613
0.0117117117117
0.0117117117117
0.0117117117117
0.0252252252252
0.0220720720721
0.0171171171171
0.0144144144144
0.013963963964
0.0135135135135
0.0130630630631
0.0126126126126
0.0126126126126
0.0193693693694
0.036036036036
0.0662162162162
0.0405405405405
0.072972972973
0.154954954955
0.107207207207
0.0900900900901
0.0783783783784
0.0707207207207
0.045045045045
0.027027027027
0.132762457937
0.022972972973
0.0315315315315
0.0238738738739
0.0265765765766
0.0297297297297
0.0364864864865
0.045045045045
0.0427927927928
0.0351351351351
0.0310810810811
0.0283783783784
0.027027027027
0.0202702702703
0.031981981982
0.0234234234234
0.0220720720721
0.0238738738739
0.0265765765766
0.0324324324324
0.0301801801802
0.0301801801802
0.0355855855856
0.0405405405405
0.00045045045045
0.0
1
598
602
1
1
0.701878517047
floor
