utility : [1597,425] : [1523,400,1671,451] : [80] : match : 0
diningarea : [2043,467] : [1934,391,2153,543] : [88] : match : 0
store : [1473,859] : [1411,840,1536,879] : [89] : match : 0
kitchen : [2033,1194] : [1885,1161,2181,1228] : [90] : match : 0
livingroom : [999,1483] : [883,1407,1115,1559] : [91] : match : 0
hall : [1544,1701] : [1465,1668,1623,1735] : [85] : match : 0
wc : [1771,1928] : [1729,1909,1814,1948] : [71] : match : 0
study : [2177,1908] : [2060,1865,2295,1952] : [88] : match : 0
D : [1677,2376] : [1661,2360,1693,2392] : [64] : none : -1
canopy : [1826,2392] : [1736,2368,1916,2417] : [88] : none : -1
over : [1981,2392] : [1930,2378,2033,2406] : [93] : none : -1
door : [2101,2386] : [2046,2366,2157,2406] : [91] : none : -1
dg : [1379,1546] : [1288,1515,1470,1578] : [60] : none : -1
No Text Detected
