25
3
1.41421356237
4
ellipse
19
52
35
68
17.2626765016
0.0
0.0
0.0
0.0
0.0
0.0
0.0
0.0
0.0
0.0
0.0
0.0
0.0
0.0
0.0
0.0
0.0
0.0
0.0
0.0
0.0108695652174
0.163043478261
0.239130434783
0.358695652174
0.217391304348
0.266361931683
0.054347826087
0.0434782608696
0.0217391304348
0.054347826087
0.0434782608696
0.0217391304348
0.0434782608696
0.0326086956522
0.0326086956522
0.0434782608696
0.0434782608696
0.0434782608696
0.0217391304348
0.0217391304348
0.0217391304348
0.0217391304348
0.0217391304348
0.0217391304348
0.0217391304348
0.0217391304348
0.0108695652174
0.0217391304348
0.0217391304348
0.0217391304348
0.0108695652174
3
unknown
26
44
27
34
9.48683298051
0.0
0.0
0.0
0.0
0.0
0.136363636364
0.0
0.0454545454545
0.0
0.0909090909091
0.0
0.0909090909091
0.0
0.0454545454545
0.0454545454545
0.0454545454545
0.0454545454545
0.0227272727273
0.0
0.0681818181818
0.0227272727273
0.136363636364
0.0454545454545
0.0909090909091
0.0454545454545
0.183234780309
0.0681818181818
0.0681818181818
0.0909090909091
0.0909090909091
0.0454545454545
0.0227272727273
0.0454545454545
0.0227272727273
0.0454545454545
0.0
0.0
0.0
0.0227272727273
0.0
0.0
0.0
0.0227272727273
0.0
0.0227272727273
0.0
0.0227272727273
0.0454545454545
0.0454545454545
0.0
0.0227272727273
2
rectangle
22
47
18
25
12.3693168769
0.0
0.0
0.0
0.0
0.0
0.0
0.1
0.0666666666667
0.0666666666667
0.0
0.0666666666667
0.0666666666667
0.0
0.0666666666667
0.0
0.0666666666667
0.0
0.0666666666667
0.0
0.0666666666667
0.0
0.0666666666667
0.0
0.0666666666667
0.166666666667
0.171853814311
0.05
0.0666666666667
0.133333333333
0.0666666666667
0.0333333333333
0.0333333333333
0.0333333333333
0.0333333333333
0.0
0.0333333333333
0.0
0.0
0.0166666666667
0.0
0.0
0.0166666666667
0.0
0.0166666666667
0.0166666666667
0.0166666666667
0.0166666666667
0.0333333333333
0.0666666666667
0.0333333333333
0.0166666666667
2
3
4
1
1
0.10447761194
floor
2
3
1
1
0.583333333333
touch
