double garage : [917,1472] :[788,1444,1045,1503] :100
study : [194,1760] :[139,1733,250,1788] :100
entry : [507,1681] :[451,1653,563,1708] :100
portico : [507,1979] :[438,1951,580,2010] :100
broom : [323,1076] :[285,1052,365,1101] :100
living : [215,1247] :[160,1219,274,1274] :100
laundry : [160,979] :[83,951,236,1010] :100
pwdr : [635,1111] :[587,1083,688,1139] :100
w.i.l. : [625,948] :[583,920,670,976] :100
family : [222,767] :[163,740,281,795] :100
kitchen : [813,799] :[743,771,885,830] :100
pantry : [872,1021] :[833,1000,910,1045] :100
dining : [760,333] :[701,306,819,365] :100
outdoorroom : [247,184] :[170,135,326,233] :100
sliding door : [368,392] :[313,372,427,413] :100
