25
3
2.30064531128
2
unknown
6
98
6
66
55.2268050859
0.00511073253833
0.015332197615
0.0204429301533
0.0136286201022
0.0170357751278
0.0170357751278
0.0136286201022
0.015332197615
0.0255536626917
0.00851788756388
0.00851788756388
0.0170357751278
0.0255536626917
0.0374787052811
0.0715502555366
0.0545144804089
0.0477001703578
0.0442930153322
0.0442930153322
0.0936967632027
0.112436115843
0.134582623509
0.0868824531516
0.0528109028961
0.015332197615
0.0345389038283
0.0391822827939
0.0374787052811
0.0408858603066
0.0477001703578
0.0442930153322
0.0545144804089
0.0477001703578
0.0408858603066
0.0221465076661
0.0187393526405
0.0204429301533
0.0562180579216
0.0255536626917
0.00340715502555
0.0119250425894
0.00851788756388
0.00340715502555
0.0119250425894
0.0272572402044
0.0272572402044
0.0289608177172
0.0289608177172
0.0204429301533
0.0238500851789
0.0170357751278
4
rectangle
58
92
18
59
26.2488094968
0.0
0.0
0.0
0.0
0.0
0.0
0.0
0.0
0.0
0.0
0.0
0.0
0.0
0.0
0.0
0.00224673202614
0.0030637254902
0.00245098039216
0.0016339869281
0.0077614379085
0.00571895424837
0.00408496732026
0.00490196078431
0.00285947712418
0.00102124183007
0.0
0.0
0.0
0.0
0.0
0.0
0.0
0.0
0.0
0.0
0.0
0.0
0.0
0.0
0.0
0.00224673202614
0.0030637254902
0.00245098039216
0.0016339869281
0.0077614379085
0.00571895424837
0.00408496732026
0.00490196078431
0.00285947712418
0.00102124183007
0.147235646372
0.00122549019608
0.00122549019608
0.00102124183007
0.00142973856209
0.0016339869281
0.00142973856209
0.00224673202614
0.00183823529412
0.0016339869281
0.0016339869281
0.00142973856209
0.00102124183007
0.00102124183007
0.000408496732026
0.000816993464052
0.000816993464052
0.000816993464052
0.000816993464052
0.000816993464052
0.000816993464052
0.000816993464052
0.000612745098039
0.000408496732026
0.000612745098039
0.000408496732026
0.00122549019608
0.00122549019608
0.00102124183007
0.00142973856209
0.0016339869281
0.00142973856209
0.00224673202614
0.00183823529412
0.0016339869281
0.0016339869281
0.00142973856209
0.00102124183007
0.00102124183007
0.000408496732026
0.000816993464052
0.000816993464052
0.000816993464052
0.000816993464052
0.000816993464052
0.000816993464052
0.000816993464052
0.000612745098039
0.000408496732026
0.000612745098039
0.000408496732026
3
rectangle
11
46
18
59
25.6124969497
0.0
0.0
0.0
0.0
0.0
0.0
0.0
0.0
0.0
0.0
0.0
0.0
0.0
0.0
0.0
0.0
0.00285947712418
0.00326797385621
0.00183823529412
0.00592320261438
0.00551470588235
0.00510620915033
0.00510620915033
0.0030637254902
0.00265522875817
0.0
0.0
0.0
0.0
0.0
0.0
0.0
0.0
0.0
0.0
0.0
0.0
0.0
0.0
0.0
0.0
0.00285947712418
0.00326797385621
0.00183823529412
0.00592320261438
0.00551470588235
0.00510620915033
0.00510620915033
0.0030637254902
0.00265522875817
0.153062029039
0.00122549019608
0.00122549019608
0.00122549019608
0.00142973856209
0.00142973856209
0.00142973856209
0.00183823529412
0.00183823529412
0.0016339869281
0.0016339869281
0.00142973856209
0.00102124183007
0.00102124183007
0.000612745098039
0.000612745098039
0.000816993464052
0.000816993464052
0.000816993464052
0.00102124183007
0.000612745098039
0.000816993464052
0.000816993464052
0.000408496732026
0.000612745098039
0.000408496732026
0.00122549019608
0.00122549019608
0.00122549019608
0.00142973856209
0.00142973856209
0.00142973856209
0.00183823529412
0.00183823529412
0.0016339869281
0.0016339869281
0.00142973856209
0.00102124183007
0.00102124183007
0.000612745098039
0.000612745098039
0.000816993464052
0.000816993464052
0.000816993464052
0.00102124183007
0.000612745098039
0.000816993464052
0.000816993464052
0.000408496732026
0.000612745098039
0.000408496732026
2
2
4
1
1
0.842564491654
touch
2
3
1
1
0.818349299926
floor
