<svg enable-background="new 0 0 792 612" height="612px" id="Layer_1" version="1.1" viewBox="0 0 792 612" width="792px" x="0px" y="0px" xml:space="preserve">
  <g id="n_id_0">
	<path d="M412.854,30.818c-0.699,0.56-1.681,1.26-2.941,1.26c-1.541,0-2.522-0.84-2.381-3.081V17.789l-0.422-0.28   c-1.68,0.56-4.203,0.84-6.584,0.981v1.26l2.381,0.701v9.947c0,3.083,1.683,4.203,4.063,4.203c2.661,0,3.783-1.261,5.743-2.382   v2.382l0.141,0.14c2.101-0.701,4.203-1.121,6.305-1.542v-1.26l-1.962-0.421v-13.87l-0.42-0.279c-1.682,0.559-4.203,0.84-6.584,0.98   v1.261l2.381,0.7v10.508H412.854z" fill="#3A4B00" id="n_id_3"/><path d="M428.264,18.77c2.384,0,3.644,2.101,3.924,4.203h1.121c0-1.542,0-3.223,0-4.203   c-1.683-0.561-3.223-1.121-4.902-1.121c-3.084,0-6.026,1.821-6.026,5.184c0,6.584,8.407,4.203,8.407,8.406   c0,1.121-0.701,2.521-2.804,2.521c-2.942,0-4.061-2.521-4.622-5.043h-1.121c0,1.962,0.14,3.223,0.14,4.904   c1.963,0.7,3.362,1.401,5.465,1.401c3.924,0,6.444-2.522,6.444-5.464c0-6.725-8.406-4.483-8.406-8.266   C425.603,19.61,426.724,18.77,428.264,18.77z" fill="#3A4B00" id="n_id_5"/><path d="M436.391,20.871h2.241v8.406c0,2.382,0.701,5.324,4.063,5.324c2.242,0,3.502-1.121,5.184-2.522l-0.42-0.98   c-0.141,0.141-1.121,0.841-1.963,0.841c-1.121,0-2.241-0.701-2.241-3.083v-7.985h3.924v-1.822h-3.924v-4.902h-1.121   c-0.841,1.681-2.801,4.483-5.743,5.464V20.871L436.391,20.871z" fill="#3A4B00" id="n_id_6"/><path d="M458.247,25.074c-2.242,0.56-4.625,0.98-6.725,1.961c-1.121,0.56-1.822,1.821-1.822,3.223   c0,2.802,1.399,4.483,3.082,4.483c2.521,0,3.643-1.821,5.323-3.083v2.802l0.28,0.281c1.962-0.701,3.922-1.401,6.023-1.542v-1.26   l-1.82-0.421v-9.666c0-3.083-1.402-4.343-4.203-4.343c-1.821,0-4.202,0.7-5.885,1.54c-1.54,0.701-1.82,1.402-1.82,3.083   c0,0.7,0,1.121,0.56,1.261c0.282,0,2.102-0.561,3.222-0.841c0-1.82,0.423-3.642,1.822-3.503c1.54,0,1.821,1.262,1.821,2.663v3.362   H458.247z M458.247,30.818c-0.701,0.42-1.683,1.121-2.523,1.121c-1.121,0-1.681-1.121-1.681-2.522c0-2.381,2.521-2.662,4.204-3.222   V30.818z" fill="#3A4B00" id="n_id_7"/><path d="M445.637,82.793c0.561,0,1.121-0.56,1.121-1.121s-0.561-1.121-1.121-1.121s-1.12,0.56-1.12,1.121   S445.076,82.793,445.637,82.793z" fill="#3A4B00" id="n_id_16"/><path d="M318.988,62.9c2.662,0,4.343-1.542,4.343-3.783c0-2.381-2.102-3.502-3.642-3.362l0,0l0,0   c1.54-0.561,2.802-1.681,2.802-3.502c0-2.662-2.242-2.942-4.343-2.942h-5.464v0.701l1.961,0.279v11.628l-1.961,0.281V62.9H318.988z    M316.467,50.012c0.279,0,0.7-0.141,1.121-0.141c1.681,0,2.942,0.701,2.942,2.802c0,1.821-0.84,2.661-2.802,2.802   c-0.421,0-0.841,0-1.261,0V50.012z M316.467,56.315c0.279,0,0.56-0.14,0.98-0.14c2.101,0,4.063,0.98,4.063,3.362   c0,1.82-0.842,2.802-2.803,2.802c-0.701,0-1.541-0.28-2.241-0.421V56.315L316.467,56.315z" fill="#3A4B00" id="n_id_19"/><path d="M450.821,62.9c2.661,0,4.342-1.542,4.342-3.783c0-2.381-2.101-3.502-3.641-3.362l0,0l0,0   c1.54-0.561,2.8-1.681,2.8-3.502c0-2.662-2.241-2.942-4.343-2.942h-5.463v0.701l1.961,0.279v11.628l-1.961,0.281V62.9H450.821z    M448.299,50.012c0.28,0,0.7-0.141,1.121-0.141c1.68,0,2.941,0.701,2.941,2.802c0,1.821-0.839,2.661-2.802,2.802   c-0.421,0-0.841,0-1.261,0V50.012z M448.299,56.315c0.28,0,0.56-0.14,0.981-0.14c2.1,0,4.062,0.98,4.062,3.362   c0,1.82-0.841,2.802-2.801,2.802c-0.701,0-1.542-0.28-2.242-0.421V56.315z" fill="#3A4B00" id="n_id_30"/><path d="M462.168,57.717c-0.981,0.279-2.102,0.7-3.223,1.121c-0.84,0.28-2.101,0.701-2.101,2.382   c0,0.7,0.56,1.961,2.101,1.961c1.262,0,2.382-0.701,3.362-1.401v1.26l0.142,0.141c1.12-0.42,2.242-0.701,3.221-0.841v-0.421   l-1.541-0.279v-5.745c0-1.681-0.979-2.382-2.241-2.382c-0.279,0-0.42,0-0.701,0.14l-2.381,1.262c-0.28,0.14-1.121,0.56-1.121,0.98   l-0.139,1.261l0.139,0.14l1.121-0.281c0.14,0,0.421,0,0.28-0.279c0-0.981,0.421-2.102,1.681-2.102c0.842,0,1.401,0.421,1.401,1.962   V57.717z M462.168,61.219c-0.56,0.42-1.54,0.84-2.241,0.84c-0.841,0-1.401-0.42-1.401-1.121c0-1.401,1.822-1.681,3.643-2.522   V61.219z" fill="#3A4B00" id="n_id_31"/><path d="M466.512,55.055h1.399v5.604c0,1.821,1.121,2.522,2.244,2.522c0.56,0,1.118,0,1.54-0.42l1.121-1.261   l-0.28-0.42c-0.421,0.42-0.981,0.84-1.542,0.84c-1.12,0-1.54-0.7-1.54-2.101v-4.763h2.942v-0.981h-2.942v-2.802h-0.422   c-0.42,1.401-1.4,2.662-2.661,3.083v0.701H466.512z" fill="#3A4B00" id="n_id_32"/><path d="M476.599,47.489c-0.84,0.42-1.96,0.701-2.941,0.841v0.56c0.559,0,1.12,0.14,1.68,0.42V62.06l-1.68,0.28   V62.9h5.042V62.34l-1.68-0.28v-6.444c0.699-0.56,1.54-0.841,2.521-0.841c2.101,0,1.961,1.681,1.961,3.363V62.2l-1.682,0.28v0.56   h5.044v-0.56l-1.683-0.28v-5.604c0-1.962-0.698-3.083-3.361-3.083c-0.14,0-0.56,0.14-0.699,0.14   c-0.281,0.141-1.121,0.701-2.102,1.402V47.77L476.599,47.489z" fill="#3A4B00" id="n_id_34"/><path d="M488.786,53.374c-0.84,0.42-1.96,0.7-2.94,0.84v0.561c0.56,0,1.121,0.141,1.68,0.42v6.865l-1.82,0.28V62.9   h5.464V62.34l-2.102-0.28v-4.763c0-0.421,0.981-2.381,2.102-2.381c0.28,0,0.7,0.279,0.979,0.419h0.281l0.28-1.541   c-0.28-0.281-0.562-0.42-0.981-0.42c-0.98,0-1.822,1.26-2.241,2.101l-0.42,0.561v-2.522L488.786,53.374z" fill="#3A4B00" id="n_id_35"/><path d="M518.769,55.615c0.7-0.56,1.54-0.841,2.521-0.841c2.101,0,1.962,1.681,1.962,3.363V62.2l-1.683,0.28v0.56   h5.044v-0.56l-1.682-0.28v-6.445c0.701-0.561,1.543-0.84,2.521-0.84c2.102,0,1.961,1.681,1.961,3.362v4.063l-1.68,0.28v0.561h5.042   V62.62l-1.68-0.28v-5.604c0-1.962-0.701-3.083-3.362-3.083c-0.281,0-0.701,0.141-1.26,0.561l-1.543,1.121   c-0.56-0.98-1.541-1.541-2.801-1.541c-0.841,0-1.121,0.14-1.683,0.561l-1.54,1.121v-1.541l-0.421-0.14   c-0.84,0.42-1.96,0.701-2.941,0.84v0.56c0.561,0,1.12,0.14,1.681,0.421v6.864l-1.681,0.281v0.56h5.043v-0.56l-1.681-0.281v-6.864   H518.769z" fill="#3A4B00" id="n_id_37"/><path d="M518.769,586.163v0.562h5.322v-0.562l-1.82-0.278v-10.228c0.419,0,0.842,0,1.261,0   c1.541,0,2.661,0.7,2.803,2.521c0.141,1.26-0.282,3.082-2.663,3.082c-0.28,0-0.559,0-0.841-0.14v0.14v0.42   c0.422,0.141,0.701,0.141,1.121,0.141c2.241,0,4.063-1.682,4.063-3.923c0-2.381-1.822-2.942-4.063-2.942h-5.183v0.562l1.82,0.28   v10.087L518.769,586.163z" fill="#3A4B00" id="n_id_39"/><path d="M533.618,582.242c-0.842,0.28-1.82,0.559-2.802,0.98c-0.701,0.279-1.821,0.56-1.821,1.962   c0,0.7,0.56,1.68,1.821,1.68c1.121,0,1.96-0.559,2.802-1.26v1.12l0.14,0.14c0.981-0.279,1.961-0.559,2.803-0.701v-0.42l-1.4-0.278   v-4.905c0-1.54-0.841-2.101-1.822-2.101c-0.139,0-0.419,0-0.562,0.141l-1.96,1.12c-0.141,0.142-0.841,0.561-0.979,0.84v1.121h0.139   l0.981-0.14c0.14,0,0.279,0,0.279-0.28c0-0.841,0.28-1.822,1.4-1.822c0.701,0,1.121,0.423,1.121,1.683v1.121H533.618z    M533.618,585.185c-0.561,0.28-1.4,0.7-1.962,0.7c-0.699,0-1.261-0.42-1.261-0.981c0-1.121,1.542-1.401,3.082-2.242v2.523H533.618z   " fill="#3A4B00" id="n_id_41"/><path d="M551.131,582.242c0-1.541,0.561-3.362,2.381-3.362c2.241,0,2.662,2.381,2.662,4.063   c0,1.68-0.421,3.22-2.382,3.22C551.691,586.306,551.131,583.782,551.131,582.242z M553.512,586.864c2.662,0,4.063-1.68,4.063-4.342   c0-2.522-1.401-4.063-3.924-4.063c-2.661,0-4.061,1.681-4.061,4.202C549.729,585.043,550.99,586.864,553.512,586.864z" fill="#3A4B00" id="n_id_42"/><polygon fill="#3A4B00" id="n_id_43" points="564.439,573.415 563.599,573.415 558.835,590.227 559.677,590.227  "/><path d="M546.927,575.657c0-0.42-0.42-0.841-0.841-0.841c-0.42,0-0.839,0.421-0.839,0.841   c0,0.419,0.419,0.842,0.839,0.842C546.507,576.499,546.927,576.076,546.927,575.657z M548.609,586.725v-0.562l-1.683-0.278V578.6   l-0.42-0.141c-0.701,0.281-1.681,0.561-2.521,0.701v0.56c0.42,0,0.979,0.142,1.4,0.28v5.885l-1.682,0.278v0.562H548.609   L548.609,586.725z" fill="#3A4B00" id="n_id_44"/><path d="M580.552,582.242c-0.842,0.28-1.821,0.559-2.803,0.98c-0.7,0.279-1.821,0.56-1.821,1.962   c0,0.7,0.561,1.68,1.821,1.68c1.12,0,1.961-0.559,2.803-1.26v1.12l0.14,0.14c0.981-0.279,1.961-0.559,2.801-0.701v-0.42l-1.4-0.278   v-4.905c0-1.54-0.842-2.101-1.82-2.101c-0.142,0-0.421,0-0.562,0.141l-1.961,1.12c-0.14,0.142-0.981,0.561-0.981,0.84v1.121h0.14   l0.98-0.14c0.143,0,0.282,0,0.282-0.28c0-0.841,0.28-1.822,1.4-1.822c0.701,0,1.121,0.423,1.121,1.683v1.121H580.552z    M580.552,585.185c-0.562,0.28-1.403,0.7-1.963,0.7c-0.701,0-1.26-0.42-1.26-0.981c0-1.121,1.54-1.401,3.082-2.242v2.523H580.552z" fill="#3A4B00" id="n_id_45"/><path d="M586.715,573.415c-0.7,0.28-1.68,0.561-2.521,0.701v0.561c0.419,0,0.98,0.14,1.4,0.279v10.929l-1.68,0.278   v0.562h4.762v-0.562l-1.68-0.278v-12.329L586.715,573.415z" fill="#3A4B00" id="n_id_46"/><path d="M570.744,586.725c2.241,0,3.781-1.26,3.781-3.223c0-2.101-1.818-3.082-3.223-2.942l0,0l0,0   c1.404-0.56,2.384-1.399,2.384-2.94c0-2.241-1.961-2.522-3.783-2.522h-4.622v0.561l1.68,0.279v10.087l-1.68,0.14v0.562H570.744z    M568.644,575.518c0.278,0,0.559,0,0.979,0c1.401,0,2.521,0.699,2.521,2.381c0,1.54-0.701,2.241-2.381,2.382   c-0.419,0-0.842,0-1.12,0V575.518z M568.644,580.981c0.278,0,0.559-0.141,0.84-0.141c1.819,0,3.502,0.84,3.502,2.802   c0,1.682-0.701,2.381-2.381,2.381c-0.701,0-1.26-0.139-1.822-0.28v-4.762H568.644z" fill="#3A4B00" id="n_id_47"/><path d="M596.521,580.56c0-0.56,0.141-0.84-0.28-1.261c-0.419-0.559-1.682-0.84-2.521-0.84   c-2.803,0-3.783,1.961-3.783,4.484c0,2.521,1.26,3.921,3.783,3.921c0.7,0,1.399,0,1.961-0.42c0.42-0.281,1.262-1.961,1.541-2.381   l-0.42-0.281c-0.841,1.261-1.121,1.822-2.662,1.822c-1.822,0-2.522-1.261-2.661-2.943c-0.14-1.68,0-3.781,2.241-3.781   c1.26,0,1.26,0.699,1.26,1.82l0.28,0.141L596.521,580.56z" fill="#3A4B00" id="n_id_48"/><path d="M610.252,580.28c0.699-0.419,1.4-0.842,2.241-0.842c1.82,0,1.68,1.543,1.68,2.942v3.504l-1.399,0.278v0.562   h4.344v-0.562l-1.401-0.278v-4.764c0-1.683-0.701-2.662-2.942-2.662c-0.14,0-0.42,0-0.56,0.14c-0.142,0.142-0.98,0.7-1.821,1.263   v-1.263l-0.42-0.14c-0.701,0.281-1.683,0.561-2.524,0.701v0.56c0.423,0,0.981,0.142,1.403,0.28v5.885l-1.403,0.278v0.562h4.344   v-0.562l-1.399-0.278v-5.604H610.252z" fill="#3A4B00" id="n_id_49"/><path d="M599.884,582.242c0-1.541,0.562-3.362,2.383-3.362c2.242,0,2.661,2.381,2.661,4.063   c0,1.68-0.419,3.22-2.381,3.22C600.445,586.306,599.884,583.782,599.884,582.242z M602.265,586.864c2.663,0,4.063-1.68,4.063-4.342   c0-2.522-1.4-4.063-3.922-4.063c-2.662,0-4.063,1.681-4.063,4.202C598.343,585.043,599.744,586.864,602.265,586.864z" fill="#3A4B00" id="n_id_50"/><path d="M617.535,578.6v0.561l1.121,0.278l3.083,6.867c-0.842,1.26-1.82,2.661-3.083,3.501v0.141   c0.422,0.14,1.121,0.56,1.402,0.14c2.521-3.082,3.922-7.005,5.322-10.788l1.123-0.279v-0.561h-3.365v0.561l1.402,0.279   c-0.421,1.822-1.12,3.502-1.82,5.324l-2.382-5.324l1.4-0.279v-0.561h-4.204V578.6z" fill="#3A4B00" id="n_id_51"/><polygon fill="#3A4B00" id="n_id_52" points="151.853,349.541 127.896,349.541 127.896,132.949 655.644,132.949 655.644,180.862    669.794,180.862 669.794,197.393 660.127,197.393 660.127,189.969 648.778,189.969 648.778,141.214 559.677,141.214    559.677,236.481 570.183,236.481 570.183,245.447 528.995,245.447 528.995,333.149 579.851,333.149 579.851,343.516    507.279,343.516 507.279,334.55 518.487,334.55 518.487,286.636 460.767,286.636 460.767,336.09 471.975,336.09 471.975,342.814    459.227,342.814 459.227,353.322 450.961,353.322 450.961,286.636 416.497,286.636 416.497,237.042 428.546,237.042    428.546,243.906 421.679,243.906 421.679,277.669 450.961,277.669 450.961,245.447 445.776,245.447 445.776,236.481    453.342,236.481 453.342,229.616 461.468,229.616 461.468,235.641 468.192,235.641 468.192,243.206 460.767,243.206    460.767,277.669 519.188,277.669 519.188,244.606 512.464,244.606 512.464,237.882 552.953,237.882 552.953,141.915    461.468,141.915 461.468,185.486 451.801,185.486 451.801,141.915 139.104,141.915 139.104,336.931 151.152,336.931  "/><polygon fill="none" id="n_id_53" points="151.853,349.541 127.896,349.541 127.896,132.949    655.644,132.949 655.644,180.862 669.794,180.862 669.794,197.393 660.127,197.393 660.127,189.969 648.778,189.969    648.778,141.214 559.677,141.214 559.677,236.481 570.183,236.481 570.183,245.447 528.995,245.447 528.995,333.149    579.851,333.149 579.851,343.516 507.279,343.516 507.279,334.55 518.487,334.55 518.487,286.636 460.767,286.636 460.767,336.09    471.975,336.09 471.975,342.814 459.227,342.814 459.227,353.322 450.961,353.322 450.961,286.636 416.497,286.636    416.497,237.042 428.546,237.042 428.546,243.906 421.679,243.906 421.679,277.669 450.961,277.669 450.961,245.447    445.776,245.447 445.776,236.481 453.342,236.481 453.342,229.616 461.468,229.616 461.468,235.641 468.192,235.641    468.192,243.206 460.767,243.206 460.767,277.669 519.188,277.669 519.188,244.606 512.464,244.606 512.464,237.882    552.953,237.882 552.953,141.915 461.468,141.915 461.468,185.486 451.801,185.486 451.801,141.915 139.104,141.915    139.104,336.931 151.152,336.931  " stroke="#3A4B00" stroke-miterlimit="3.8636"/><polygon fill="#3A4B00" id="n_id_54" points="605.348,234.94 663.069,234.94 663.069,225.273 671.334,225.273 671.334,560.246 586.715,560.246    586.715,551.28 663.069,551.28 663.069,343.516 619.638,343.516 619.638,321.8 629.444,321.8 629.444,334.55 661.667,334.55    661.667,243.906 628.604,243.906 628.604,255.114 618.938,255.114 618.938,245.447 604.648,245.447  "/><polygon fill="none" id="n_id_55" points="605.348,234.94 663.069,234.94 663.069,225.273    671.334,225.273 671.334,560.246 586.715,560.246 586.715,551.28 663.069,551.28 663.069,343.516 619.638,343.516 619.638,321.8    629.444,321.8 629.444,334.55 661.667,334.55 661.667,243.906 628.604,243.906 628.604,255.114 618.938,255.114 618.938,245.447    604.648,245.447  " stroke="#3A4B00" stroke-miterlimit="3.8636"/><polygon fill="#3A4B00" id="n_id_56" points="453.342,392.409 453.342,592.468 387.917,592.468 387.917,602.977 464.549,602.977    464.549,563.889 546.086,563.889 546.086,553.383 463.009,553.383 463.009,390.868  "/><polygon fill="none" id="n_id_57" points="453.342,392.409 453.342,592.468 387.917,592.468    387.917,602.977 464.549,602.977 464.549,563.889 546.086,563.889 546.086,553.383 463.009,553.383 463.009,390.868  " stroke="#3A4B00" stroke-miterlimit="3.8636"/><polygon fill="#3A4B00" id="n_id_58" points="214.896,583.502 214.896,602.977 285.226,602.977 285.226,595.411 223.863,595.411    223.863,583.502  "/><polygon fill="none" id="n_id_59" points="214.896,583.502 214.896,602.977 285.226,602.977    285.226,595.411 223.863,595.411 223.863,583.502  " stroke="#3A4B00" stroke-miterlimit="3.8636"/><rect fill="#3A4B00" height="142.338" id="n_id_60" width="8.966" x="214.896" y="402.777"/><rect fill="none" height="142.338" id="n_id_61" stroke="#3A4B00" stroke-miterlimit="3.8636" width="8.966" x="214.896" y="402.777"/><polygon fill="#3A4B00" id="n_id_62" points="190.94,337.632 223.162,337.632 223.162,354.863 214.196,354.863 214.196,346.598 190.94,346.598     "/><polygon fill="none" id="n_id_63" points="190.94,337.632 223.162,337.632 223.162,354.863    214.196,354.863 214.196,346.598 190.94,346.598  " stroke="#3A4B00" stroke-miterlimit="3.8636"/><polyline fill="none" id="n_id_64" points="288.308,141.915 288.308,176.52 400.806,176.52  " stroke="#3A4B00" stroke-miterlimit="3.8636"/><polyline fill="none" id="n_id_65" points="399.965,142.756 399.965,181.563 451.801,181.563  " stroke="#3A4B00" stroke-miterlimit="3.8636"/><polyline fill="none" id="n_id_66" points="318.988,140.374 318.988,176.379 363.4,176.379    363.4,138.973  " stroke="#3A4B00" stroke-miterlimit="3.8636"/><polyline fill="none" id="n_id_67" points="416.497,238.582 289.848,238.582 289.848,270.805    415.796,270.805  " stroke="#3A4B00" stroke-miterlimit="3.8636"/><line fill="none" id="n_id_68" stroke="#3A4B00" stroke-miterlimit="3.8636" x1="557.436" x2="557.436" y1="244.606" y2="332.308"/><line fill="none" id="n_id_69" stroke="#3A4B00" stroke-miterlimit="3.8636" x1="559.677" x2="648.077" y1="186.186" y2="186.186"/><rect fill="none" height="31.662" id="n_id_70" stroke="#3A4B00" stroke-miterlimit="3.8636" width="51.274" x="324.313" y="238.863"/><rect fill="none" height="23.957" id="n_id_71" stroke="#3A4B00" stroke-miterlimit="3.8636" width="27.74" x="488.366" y="250.07"/><line fill="none" id="n_id_72" stroke="#3A4B00" stroke-dasharray="4,4" stroke-miterlimit="3.8636" x1="223.863" x2="450.26" y1="337.632" y2="337.632"/><line fill="none" id="n_id_73" stroke="#3A4B00" stroke-dasharray="4,4" stroke-miterlimit="3.8636" x1="222.461" x2="448.719" y1="345.617" y2="345.617"/><ellipse cx="475.197" cy="262.959" fill="none" id="n_id_74" rx="11.348" ry="11.348" stroke="#3A4B00" stroke-miterlimit="3.8636"/><line fill="none" id="n_id_82" stroke="#3A4B00" stroke-miterlimit="3.8636" stroke-width="2" x1="219.379" x2="219.379" y1="545.957" y2="583.502"/><line fill="none" id="n_id_83" stroke="#3A4B00" stroke-miterlimit="3.8636" stroke-width="2" x1="336.921" x2="387.216" y1="599.894" y2="599.894"/><line fill="none" id="n_id_84" stroke="#3A4B00" stroke-miterlimit="3.8636" stroke-width="2" x1="540.622" x2="586.715" y1="557.164" y2="557.164"/><line fill="none" id="n_id_85" stroke="#3A4B00" stroke-miterlimit="3.8636" stroke-width="2" x1="624.961" x2="624.961" y1="268.283" y2="303.588"/><line fill="none" id="n_id_86" stroke="#3A4B00" stroke-miterlimit="3.8636" stroke-width="2" x1="621.04" x2="621.04" y1="290.419" y2="321.8"/><rect fill="none" height="41.189" id="n_id_87" stroke="#3A4B00" stroke-dasharray="4,4" stroke-miterlimit="3.8636" width="41.188" x="463.009" y="144.297"/><rect fill="none" height="41.189" id="n_id_88" stroke="#3A4B00" stroke-dasharray="4,4" stroke-miterlimit="3.8636" width="41.19" x="510.642" y="144.297"/><path d="M457.965,349.82l29.981,29.98c0,0-14.289,9.808-35.304,9.106" fill="none" id="n_id_89" stroke="#3A4B00" stroke-miterlimit="3.8636"/><path d="M470.715,340.713l26.897,26.899c0,0,9.247-13.309,9.807-23.817" fill="none" id="n_id_90" stroke="#3A4B00" stroke-miterlimit="3.8636"/><polyline fill="none" id="n_id_91" points="223.162,354.863 268.834,354.863 220.92,402.777  " stroke="#3A4B00" stroke-miterlimit="3.8636"/><polyline fill="none" id="n_id_92" points="284.945,597.652 284.945,555.483 332.158,602.836  " stroke="#3A4B00" stroke-miterlimit="3.8636"/><path d="M456.704,230.877l-29.98-29.981c0,0,12.188-14.29,27.738-13.59" fill="none" id="n_id_93" stroke="#3A4B00" stroke-miterlimit="3.8636"/><path d="M446.478,237.042l-14.29-14.29c0,0-6.725,6.725-5.184,14.99" fill="none" id="n_id_94" stroke="#3A4B00" stroke-miterlimit="3.8636"/><line fill="none" id="n_id_95" stroke="#3A4B00" stroke-miterlimit="3.8636" stroke-width="2" x1="151.292" x2="197.244" y1="342.954" y2="342.954"/><polyline fill="none" id="n_id_96" points="569.483,240.684 569.483,208.462 600.165,239.142  " stroke="#3A4B00" stroke-miterlimit="3.8636"/><path d="M330.757,247.269c0-2.662,2.102-4.764,4.763-4.764h7.144   c2.663,0,4.765,2.102,4.765,4.764v14.29c0,2.662-2.102,4.763-4.765,4.763h-7.144c-2.661,0-4.763-2.102-4.763-4.763V247.269z" fill="none" id="n_id_97" stroke="#3A4B00" stroke-miterlimit="3.8636"/><path d="M351.211,247.269c0-2.662,2.102-4.764,4.765-4.764h7.143   c2.663,0,4.765,2.102,4.765,4.764v14.29c0,2.662-2.102,4.763-4.765,4.763h-7.143c-2.663,0-4.765-2.102-4.765-4.763V247.269z" fill="none" id="n_id_98" stroke="#3A4B00" stroke-miterlimit="3.8636"/><polygon fill="#3A4B00" id="n_id_99" points="279.901,478.989 288.308,478.989 289.008,475.627 288.448,475.627 287.467,477.869    283.124,477.869 283.124,468.063 284.805,467.782 284.805,467.222 279.901,467.222 279.901,467.782 281.583,468.063    281.583,478.01 279.901,478.288  "/><polygon fill="#3A4B00" id="n_id_100" points="295.312,470.865 295.312,471.425 296.433,471.704 299.375,479.13 300.076,479.13 303.158,471.704    304.138,471.425 304.138,470.865 300.776,470.865 300.776,471.425 302.177,471.704 300.076,477.028 297.974,471.704    299.375,471.425 299.375,470.865  "/><path d="M293.07,467.923c0-0.42-0.42-0.842-0.84-0.842c-0.42,0-0.841,0.422-0.841,0.842s0.421,0.841,0.841,0.841   C292.65,468.764,293.07,468.343,293.07,467.923z M294.612,478.989v-0.559l-1.681-0.282v-7.283l-0.421-0.141   c-0.7,0.28-1.681,0.561-2.521,0.7v0.562c0.419,0,0.98,0.139,1.4,0.278v5.884l-1.681,0.282v0.559H294.612L294.612,478.989z" fill="#3A4B00" id="n_id_101"/><path d="M313.245,472.545c0.7-0.42,1.4-0.841,2.241-0.841c1.821,0,1.681,1.542,1.681,2.943v3.501l-1.401,0.282   v0.559h4.343v-0.559l-1.4-0.282v-4.763c0-1.682-0.7-2.661-2.942-2.661c-0.14,0-0.42,0-0.56,0.141   c-0.141,0.14-0.98,0.698-1.822,1.26v-1.26l-0.42-0.141c-0.701,0.28-1.681,0.561-2.521,0.7v0.562c0.42,0,0.981,0.139,1.4,0.278   v5.884l-1.4,0.282v0.559h4.343v-0.559l-1.402-0.282v-5.604H313.245z" fill="#3A4B00" id="n_id_102"/><path d="M308.061,467.923c0-0.42-0.42-0.842-0.841-0.842c-0.42,0-0.84,0.422-0.84,0.842s0.42,0.841,0.84,0.841   C307.641,468.764,308.061,468.343,308.061,467.923z M309.602,478.989v-0.559l-1.681-0.282v-7.283l-0.42-0.141   c-0.701,0.28-1.681,0.561-2.522,0.7v0.562c0.421,0,0.981,0.139,1.401,0.278v5.884l-1.681,0.282v0.559H309.602L309.602,478.989z" fill="#3A4B00" id="n_id_103"/><path d="M334.12,478.288v0.562h5.043v-0.562l-1.681-0.278v-4.063c0.7,0,1.26,0,1.82,0   c1.121,1.541,2.242,3.222,3.503,4.765c0.141,0.139,0.701,0.278,1.121,0.419l1.261,0.279l0.14-0.56   c-1.121-0.419-1.821-1.54-2.381-2.381l-2.242-2.942c1.121-0.842,2.101-1.963,2.101-3.503c0-1.961-1.54-2.802-3.221-2.802h-5.464   v0.561l1.681,0.28v10.086L334.12,478.288z M337.482,467.923c0.28,0,0.56-0.141,0.981-0.141c1.96,0,2.802,1.12,2.802,2.942   c0,2.382-0.981,2.521-3.083,2.521c-0.279,0-0.561,0-0.7,0V467.923z" fill="#3A4B00" id="n_id_104"/><path d="M347.849,474.507c0-1.541,0.561-3.362,2.382-3.362c2.242,0,2.661,2.382,2.661,4.063   c0,1.681-0.419,3.223-2.381,3.223C348.409,478.569,347.849,476.047,347.849,474.507z M350.231,479.13   c2.661,0,4.062-1.681,4.062-4.343c0-2.522-1.401-4.063-3.922-4.063c-2.663,0-4.062,1.681-4.062,4.201   C346.309,477.31,347.708,479.13,350.231,479.13z" fill="#3A4B00" id="n_id_105"/><path d="M367.742,472.545c0.701-0.42,1.401-0.841,2.241-0.841c1.822,0,1.681,1.542,1.681,2.943v3.501l-1.399,0.282   v0.559h4.342v-0.559l-1.401-0.282v-5.604c0.7-0.42,1.401-0.841,2.241-0.841c1.821,0,1.681,1.542,1.681,2.943v3.501l-1.399,0.282   v0.559h4.341v-0.559l-1.399-0.282v-4.763c0-1.682-0.7-2.661-2.941-2.661c-0.282,0-0.562,0-1.122,0.42l-1.262,0.98   c-0.419-0.84-1.399-1.4-2.521-1.4c-0.701,0-0.981,0.141-1.542,0.42l-1.401,0.98v-1.4l-0.421-0.141   c-0.7,0.281-1.681,0.561-2.521,0.701v0.561c0.421,0,0.981,0.141,1.401,0.279v5.885l-1.401,0.278v0.562h4.343v-0.562l-1.401-0.278   v-5.465H367.742z" fill="#3A4B00" id="n_id_107"/><path d="M543.986,455.033c0.14-1.121,0.84-2.242,2.1-2.242c1.402,0,1.962,0.981,1.822,2.242H543.986z    M548.749,455.454c0.56,0,0.7,0,0.7-0.701c0-1.4-1.261-2.661-3.082-2.661c-2.102,0-3.783,1.54-3.783,4.201   c0,2.664,1.682,4.204,3.783,4.204c0.841,0,1.401-0.141,1.541-0.141l1.961-1.962l-0.42-0.419c-0.7,0.701-1.401,1.4-2.522,1.4   c-2.241,0-3.082-1.82-3.082-4.062h4.904V455.454z" fill="#3A4B00" id="n_id_109"/><path d="M556.734,452.651c-0.42-0.141-1.12-0.419-1.82-0.419c-2.243,0-3.783,1.54-3.783,4.342   c0,1.541,1.26,4.063,3.082,4.063c0.841,0,1.68-0.7,2.661-1.401v1.262l0.14,0.14c0.842-0.28,1.683-0.56,2.663-0.7v-0.561   c-1.12-0.141-1.261-0.141-1.261-0.419v-11.63l-0.421-0.14c-0.7,0.28-1.681,0.562-2.522,0.701v0.559c0.42,0,0.981,0.142,1.401,0.282   v3.922H556.734z M556.734,458.677c-0.42,0.419-1.12,0.839-1.681,0.839c-1.402,0-2.523-1.68-2.523-3.643   c0-1.399,0.562-3.082,2.242-3.082c0.98,0,1.962,0.701,1.962,1.822V458.677z" fill="#3A4B00" id="n_id_110"/><path d="M537.401,460.497c2.242,0,3.782-1.262,3.782-3.223c0-2.103-1.822-3.081-3.223-2.941l0,0l0,0   c1.4-0.561,2.382-1.402,2.382-2.942c0-2.242-1.962-2.521-3.782-2.521h-4.763v0.559l1.68,0.28v10.088l-1.68,0.28v0.56h5.604V460.497   z M535.3,449.289c0.28,0,0.561,0,0.981,0c1.4,0,2.521,0.701,2.521,2.382c0,1.541-0.701,2.241-2.383,2.381c-0.421,0-0.84,0-1.12,0   V449.289z M535.3,454.753c0.28,0,0.561-0.14,0.839-0.14c1.822,0,3.505,0.841,3.505,2.801c0,1.682-0.701,2.383-2.384,2.383   c-0.699,0-1.261-0.139-1.819-0.281v-4.763H535.3z" fill="#3A4B00" id="n_id_112"/><path d="M577.749,456.014c0-1.54,0.562-3.362,2.381-3.362c2.241,0,2.663,2.382,2.663,4.063   c0,1.68-0.422,3.222-2.382,3.222C578.311,460.077,577.749,457.556,577.749,456.014z M580.13,460.637   c2.663,0,4.063-1.68,4.063-4.344c0-2.521-1.4-4.061-3.922-4.061c-2.662,0-4.063,1.68-4.063,4.202   C576.208,458.815,577.609,460.637,580.13,460.637z" fill="#3A4B00" id="n_id_113"/><path d="M588.397,454.052c0.7-0.42,1.399-0.84,2.24-0.84c1.822,0,1.681,1.541,1.681,2.941v3.505l-1.4,0.278v0.561   h4.343v-0.561l-1.4-0.278v-5.606c0.701-0.42,1.4-0.84,2.241-0.84c1.822,0,1.682,1.541,1.682,2.941v3.505l-1.401,0.278v0.561h4.342   v-0.561l-1.399-0.278v-4.765c0-1.682-0.701-2.661-2.942-2.661c-0.28,0-0.56,0-1.121,0.419l-1.261,0.98   c-0.419-0.841-1.4-1.399-2.521-1.399c-0.701,0-0.981,0.139-1.542,0.419l-1.401,0.98v-1.399l-0.419-0.141   c-0.701,0.279-1.683,0.56-2.523,0.699v0.562c0.421,0,0.981,0.14,1.402,0.279v5.884l-1.402,0.281v0.56h4.344v-0.56l-1.401-0.281   v-5.464H588.397z" fill="#3A4B00" id="n_id_114"/><path d="M568.363,456.014c0-1.54,0.559-3.362,2.381-3.362c2.241,0,2.661,2.382,2.661,4.063   c0,1.68-0.42,3.222-2.381,3.222C568.922,460.077,568.363,457.556,568.363,456.014z M570.744,460.637   c2.661,0,4.063-1.68,4.063-4.344c0-2.521-1.402-4.061-3.923-4.061c-2.661,0-4.064,1.68-4.064,4.202   C566.961,458.815,568.224,460.637,570.744,460.637z" fill="#3A4B00" id="n_id_115"/><path d="M589.377,288.037c-0.279-0.841-0.561-1.821-0.979-2.802c-0.28-0.7-0.562-1.821-1.963-1.821   c-0.698,0-1.68,0.56-1.68,1.821c0,1.121,0.559,1.961,1.26,2.802h-1.12l-0.14,0.141c0.28,0.98,0.559,1.96,0.699,2.802h0.421   l0.28-1.401h4.903c1.541,0,2.101-0.841,2.101-1.821c0-0.141,0-0.42-0.14-0.561l-1.121-2.241c-0.141-0.141-0.559-0.981-0.84-0.981   h-1.121v0.14l0.14,0.98c0,0.14,0,0.28,0.281,0.28c0.839,0,1.82,0.281,1.82,1.401c0,0.701-0.421,1.121-1.681,1.121h-1.121V288.037z    M586.435,288.037c-0.279-0.561-0.698-1.401-0.698-1.961c0-0.701,0.419-1.262,0.979-1.262c1.121,0,1.402,1.542,2.241,3.083h-2.521   V288.037z" fill="#3A4B00" id="n_id_133"/><path d="M591.618,291.819v1.261h-4.764c-1.681,0-2.1,0.981-2.1,1.961c0,0.421,0,0.981,0.28,1.401l0.979,0.981   l0.42-0.28c-0.42-0.421-0.698-0.841-0.698-1.261c0-0.98,0.559-1.401,1.819-1.401h4.063v2.522h0.842v-2.522h2.382v-0.42   c-1.121-0.28-2.242-1.121-2.663-2.242H591.618z" fill="#3A4B00" id="n_id_134"/><path d="M584.895,278.371c0,2.241,1.261,3.782,3.223,3.782c2.102,0,3.08-1.821,2.941-3.222l0,0l0,0   c0.56,1.4,1.401,2.382,2.941,2.382c2.241,0,2.521-1.961,2.521-3.783v-4.763h-0.42l-0.279,1.681h-10.089l-0.279-1.681h-0.56V278.371   z M596.102,276.129c0,0.28,0,0.561,0,0.98c0,1.402-0.701,2.522-2.381,2.522c-1.542,0-2.241-0.701-2.381-2.382   c0-0.42,0-0.841,0-1.121H596.102z M590.638,276.129c0,0.28,0.141,0.561,0.141,0.84c0,1.821-0.841,3.503-2.801,3.503   c-1.683,0-2.384-0.701-2.384-2.382c0-0.7,0.143-1.26,0.281-1.821h4.763V276.129z" fill="#3A4B00" id="n_id_135"/><path d="M598.064,300.506c-0.281-0.701-0.562-1.682-0.703-2.521h-0.559c0,0.419-0.141,0.981-0.281,1.401h-10.928   l-0.28-1.401h-0.419v4.343h0.56l0.282-1.402h5.604c0.418,0.701,0.839,1.402,0.839,2.241c0,1.822-1.541,1.682-2.941,1.682h-3.501   l-0.282-1.4h-0.56v4.342h0.56l0.282-1.402h4.762c1.681,0,2.661-0.699,2.661-2.94c0-0.14,0-0.422-0.14-0.562   c-0.141-0.139-0.701-0.98-1.262-1.82h6.307V300.506z" fill="#3A4B00" id="n_id_136"/><line fill="none" id="n_id_144" stroke="#3A4B00" stroke-miterlimit="3.8636" stroke-width="2" x1="665.73" x2="665.73" y1="191.931" y2="229.756"/><line fill="none" id="n_id_145" stroke="#3A4B00" stroke-dasharray="4,4" stroke-miterlimit="3.8636" x1="289.148" x2="324.313" y1="238.162" y2="269.824"/><line fill="none" id="n_id_146" stroke="#3A4B00" stroke-dasharray="4,4" stroke-miterlimit="3.8636" x1="322.911" x2="289.848" y1="238.162" y2="271.226"/><line fill="none" id="n_id_147" stroke="#3A4B00" stroke-miterlimit="3.8636" x1="399.545" x2="455.023" y1="172.177" y2="172.177"/><path d="M288.868,270.945v13.869c0,0-0.141,5.605,8.966,5.745h115.58   c0,0,4.763-0.98,3.782-4.763v-14.851H288.868z" fill="none" id="n_id_149" stroke="#3A4B00" stroke-miterlimit="3.8636"/><line fill="none" id="n_id_151" stroke="#3A4B00" stroke-miterlimit="3.8636" x1="456.985" x2="521.01" y1="303.868" y2="303.868"/><line fill="none" id="n_id_152" stroke="#3A4B00" stroke-miterlimit="3.8636" x1="650.179" x2="650.179" y1="240.544" y2="338.052"/><path d="M573.827,169.935c0,0,34.183,12.188,62.202,3.221v-19.473   c0,0-23.396-10.647-62.343,0.981L573.827,169.935z" fill="none" id="n_id_155" stroke="#3A4B00" stroke-miterlimit="3.8636"/><polyline fill="none" id="n_id_156" points="463.428,601.015 670.353,601.015 670.353,559.406  " stroke="#3A4B00" stroke-miterlimit="3.8636"/></g>
</svg>