<svg enable-background="new 0 0 612 792" height="792px" id="Layer_1" version="1.0" viewBox="0 0 612 792" width="612px" x="0px" y="0px" xml:space="preserve">
  <g id="_x33_60int">
	<g id="LINE">
		
			<line fill="none" id="n_id_0" stroke="#000000" stroke-linecap="round" stroke-linejoin="round" stroke-miterlimit="10" stroke-width="0.15" x1="391.5" x2="391.5" y1="515.8" y2="607.1"/></g><g id="LWPOLYLINE">
		
			<rect fill="none" height="2.1" id="n_id_1" stroke="#000000" stroke-linecap="round" stroke-linejoin="round" stroke-miterlimit="10" stroke-width="0.15" width="209.4" x="204.1" y="28.9"/></g><g id="LINE_7_">
		
			<line fill="none" id="n_id_2" stroke="#000000" stroke-linecap="round" stroke-linejoin="round" stroke-miterlimit="10" stroke-width="0.15" x1="348.8" x2="321.4" y1="317.9" y2="290.6"/></g><g id="LINE_8_">
		
			<line fill="none" id="n_id_3" stroke="#000000" stroke-linecap="round" stroke-linejoin="round" stroke-miterlimit="10" stroke-width="0.15" x1="321.4" x2="320.1" y1="290.6" y2="292"/></g><g id="ARC">
		
			<path d="    M348.8,317.9c6.3-7.2,9.8-16.4,10-26" fill="none" id="n_id_4" stroke="#000000" stroke-linecap="round" stroke-linejoin="round" stroke-miterlimit="10" stroke-width="0.15"/></g><g id="LINE_9_">
		
			<line fill="none" id="n_id_5" stroke="#000000" stroke-linecap="round" stroke-linejoin="round" stroke-miterlimit="10" stroke-width="0.15" x1="320.1" x2="347.4" y1="292" y2="319.3"/></g><g id="LINE_10_">
		
			<line fill="none" id="n_id_6" stroke="#000000" stroke-linecap="round" stroke-linejoin="round" stroke-miterlimit="10" stroke-width="0.15" x1="348.8" x2="347.4" y1="317.9" y2="319.3"/></g><g id="LINE_11_">
		
			<line fill="none" id="n_id_7" stroke="#000000" stroke-linecap="round" stroke-linejoin="round" stroke-miterlimit="10" stroke-width="0.15" x1="187.5" x2="189.1" y1="315.8" y2="304.5"/></g><g id="LINE_12_">
		
			<line fill="none" id="n_id_8" stroke="#000000" stroke-linecap="round" stroke-linejoin="round" stroke-miterlimit="10" stroke-width="0.15" x1="203.5" x2="201.9" y1="315.8" y2="304.5"/></g><g id="SPLINE">
		
			<path d="    M197,325.6c0.1,0,0.1,0,0.2-0.1c0.6-0.2,1.1-0.5,1.7-0.8c0.5-0.4,1.1-0.9,1.5-1.5c0.5-0.6,0.9-1.3,1.2-2c0.6-1.4,0.9-3,0.9-4.5    c0-0.6,0-1.1-0.1-1.7" fill="none" id="n_id_9" stroke="#000000" stroke-linecap="round" stroke-linejoin="round" stroke-miterlimit="10" stroke-width="0.15"/></g><g id="SPLINE_1_">
		
			<path d="    M188.7,315.1c-0.1,0.6-0.1,1.1-0.1,1.7c0,1.5,0.3,3.1,0.9,4.5c0.3,0.7,0.7,1.4,1.2,2s1,1.1,1.5,1.5s1.1,0.7,1.7,0.8    c0.1,0,0.1,0,0.2,0.1" fill="none" id="n_id_10" stroke="#000000" stroke-linecap="round" stroke-linejoin="round" stroke-miterlimit="10" stroke-width="0.15"/></g><g id="ELLIPSE">
		
			<path d="    M187.5,315.8c-0.4,5.6,2.8,10.5,7.2,11s8.4-3.5,8.8-9.1c0-0.6,0-1.3,0-1.9" fill="none" id="n_id_11" stroke="#000000" stroke-linecap="round" stroke-linejoin="round" stroke-miterlimit="10" stroke-width="0.15"/></g><g id="LINE_13_">
		
			<line fill="none" id="n_id_12" stroke="#000000" stroke-linecap="round" stroke-linejoin="round" stroke-miterlimit="10" stroke-width="0.15" x1="194.1" x2="197" y1="325.6" y2="325.6"/></g><g id="ARC_1_">
		
			<path d="    M201.3,304.6c2.4,0,4.3-1.9,4.3-4.3" fill="none" id="n_id_13" stroke="#000000" stroke-linecap="round" stroke-linejoin="round" stroke-miterlimit="10" stroke-width="0.15"/></g><g id="ARC_2_">
		
			<path d="    M185.5,300.3c0,2.4,1.9,4.3,4.3,4.3" fill="none" id="n_id_14" stroke="#000000" stroke-linecap="round" stroke-linejoin="round" stroke-miterlimit="10" stroke-width="0.15"/></g><g id="LINE_14_">
		
			<line fill="none" id="n_id_15" stroke="#000000" stroke-linecap="round" stroke-linejoin="round" stroke-miterlimit="10" stroke-width="0.15" x1="200.8" x2="190.3" y1="307" y2="307"/></g><g id="LINE_15_">
		
			<line fill="none" id="n_id_16" stroke="#000000" stroke-linecap="round" stroke-linejoin="round" stroke-miterlimit="10" stroke-width="0.15" x1="201.3" x2="189.8" y1="304.6" y2="304.6"/></g><g id="LINE_16_">
		
			<line fill="none" id="n_id_17" stroke="#000000" stroke-linecap="round" stroke-linejoin="round" stroke-miterlimit="10" stroke-width="0.15" x1="202.4" x2="201.3" y1="315.1" y2="307.4"/></g><g id="ARC_3_">
		
			<path d="    M201.3,307.4c0-0.3-0.3-0.4-0.5-0.4" fill="none" id="n_id_18" stroke="#000000" stroke-linecap="round" stroke-linejoin="round" stroke-miterlimit="10" stroke-width="0.15"/></g><g id="LINE_17_">
		
			<line fill="none" id="n_id_19" stroke="#000000" stroke-linecap="round" stroke-linejoin="round" stroke-miterlimit="10" stroke-width="0.15" x1="188.7" x2="189.8" y1="315.1" y2="307.4"/></g><g id="ARC_4_">
		
			<path d="    M190.3,307c-0.3,0-0.5,0.2-0.5,0.4" fill="none" id="n_id_20" stroke="#000000" stroke-linecap="round" stroke-linejoin="round" stroke-miterlimit="10" stroke-width="0.15"/></g><g id="LINE_18_">
		
			<line fill="none" id="n_id_21" stroke="#000000" stroke-linecap="round" stroke-linejoin="round" stroke-miterlimit="10" stroke-width="0.15" x1="187.6" x2="203.4" y1="295.2" y2="295.2"/></g><g id="LINE_19_">
		
			<line fill="none" id="n_id_22" stroke="#000000" stroke-linecap="round" stroke-linejoin="round" stroke-miterlimit="10" stroke-width="0.15" x1="205.6" x2="205.6" y1="297.3" y2="300.3"/></g><g id="ARC_5_">
		
			<path d="    M204.9,295.7c-0.4-0.3-0.9-0.5-1.4-0.5" fill="none" id="n_id_23" stroke="#000000" stroke-linecap="round" stroke-linejoin="round" stroke-miterlimit="10" stroke-width="0.15"/></g><g id="LINE_20_">
		
			<line fill="none" id="n_id_24" stroke="#000000" stroke-linecap="round" stroke-linejoin="round" stroke-miterlimit="10" stroke-width="0.15" x1="185.5" x2="185.5" y1="300.3" y2="297.3"/></g><g id="ARC_6_">
		
			<path d="    M187.6,295.2c-0.5,0-1,0.2-1.4,0.5" fill="none" id="n_id_25" stroke="#000000" stroke-linecap="round" stroke-linejoin="round" stroke-miterlimit="10" stroke-width="0.15"/></g><g id="LINE_21_">
		
			<line fill="none" id="n_id_26" stroke="#000000" stroke-linecap="round" stroke-linejoin="round" stroke-miterlimit="10" stroke-width="0.15" x1="348.8" x2="321.4" y1="377.7" y2="405"/></g><g id="LINE_22_">
		
			<line fill="none" id="n_id_27" stroke="#000000" stroke-linecap="round" stroke-linejoin="round" stroke-miterlimit="10" stroke-width="0.15" x1="321.4" x2="320.1" y1="405" y2="403.6"/></g><g id="ARC_7_">
		
			<path d="    M358.7,403.6c-0.1-9.6-3.7-18.8-10-26" fill="none" id="n_id_28" stroke="#000000" stroke-linecap="round" stroke-linejoin="round" stroke-miterlimit="10" stroke-width="0.15"/></g><g id="LINE_23_">
		
			<line fill="none" id="n_id_29" stroke="#000000" stroke-linecap="round" stroke-linejoin="round" stroke-miterlimit="10" stroke-width="0.15" x1="320.1" x2="347.4" y1="403.6" y2="376.3"/></g><g id="LINE_24_">
		
			<line fill="none" id="n_id_30" stroke="#000000" stroke-linecap="round" stroke-linejoin="round" stroke-miterlimit="10" stroke-width="0.15" x1="348.8" x2="347.4" y1="377.7" y2="376.3"/></g><g id="LINE_25_">
		
			<line fill="none" id="n_id_31" stroke="#000000" stroke-linecap="round" stroke-linejoin="round" stroke-miterlimit="10" stroke-width="0.15" x1="258.9" x2="258.9" y1="330.6" y2="403.6"/></g><g id="ARC_9_">
		
			<path d="    M270.6,379.4c-0.3,0-0.5,0.3-0.5,0.5" fill="none" id="n_id_38" stroke="#000000" stroke-linecap="round" stroke-linejoin="round" stroke-miterlimit="10" stroke-width="0.15"/></g><g id="ARC_10_">
		
			<path d="    M270.1,380c0,0.3,0.2,0.5,0.5,0.5" fill="none" id="n_id_39" stroke="#000000" stroke-linecap="round" stroke-linejoin="round" stroke-miterlimit="10" stroke-width="0.15"/></g><g id="LINE_26_">
		
			<line fill="none" id="n_id_40" stroke="#000000" stroke-linecap="round" stroke-linejoin="round" stroke-miterlimit="10" stroke-width="0.15" x1="270.1" x2="270.1" y1="380" y2="380"/></g><g id="LINE_30_">
		
			<line fill="none" id="n_id_43" stroke="#000000" stroke-linecap="round" stroke-linejoin="round" stroke-miterlimit="10" stroke-width="0.15" x1="312" x2="312" y1="366" y2="399.3"/></g><g id="LINE_31_">
		
			<line fill="none" id="n_id_44" stroke="#000000" stroke-linecap="round" stroke-linejoin="round" stroke-miterlimit="10" stroke-width="0.15" x1="313.6" x2="313.6" y1="366" y2="399.3"/></g><g id="LINE_32_">
		
			<line fill="none" id="n_id_45" stroke="#000000" stroke-linecap="round" stroke-linejoin="round" stroke-miterlimit="10" stroke-width="0.15" x1="314.2" x2="314.2" y1="368.2" y2="334.9"/></g><g id="LINE_33_">
		
			<line fill="none" id="n_id_46" stroke="#000000" stroke-linecap="round" stroke-linejoin="round" stroke-miterlimit="10" stroke-width="0.15" x1="315.8" x2="315.8" y1="368.2" y2="334.9"/></g><g id="LINE_34_">
		
			<line fill="none" id="n_id_47" stroke="#000000" stroke-linecap="round" stroke-linejoin="round" stroke-miterlimit="10" stroke-width="0.15" x1="315.8" x2="315.8" y1="366" y2="363.9"/></g><g id="LINE_35_">
		
			<line fill="none" id="n_id_48" stroke="#000000" stroke-linecap="round" stroke-linejoin="round" stroke-miterlimit="10" stroke-width="0.15" x1="312" x2="313.6" y1="366" y2="366"/></g><g id="LINE_36_">
		
			<line fill="none" id="n_id_49" stroke="#000000" stroke-linecap="round" stroke-linejoin="round" stroke-miterlimit="10" stroke-width="0.15" x1="315.8" x2="314.2" y1="368.2" y2="368.2"/></g><g id="ARC_11_">
		
			<path d="    M219.1,403.6c0-20.6-16.2-37.6-36.8-38.7" fill="none" id="n_id_50" stroke="#000000" stroke-linecap="round" stroke-linejoin="round" stroke-miterlimit="10" stroke-width="0.15"/></g><g id="LINE_37_">
		
			<line fill="none" id="n_id_51" stroke="#000000" stroke-linecap="round" stroke-linejoin="round" stroke-miterlimit="10" stroke-width="0.15" x1="180.5" x2="180.5" y1="403.6" y2="365"/></g><g id="LINE_38_">
		
			<line fill="none" id="n_id_52" stroke="#000000" stroke-linecap="round" stroke-linejoin="round" stroke-miterlimit="10" stroke-width="0.15" x1="182.4" x2="182.4" y1="403.6" y2="365"/></g><g id="LINE_39_">
		
			<line fill="none" id="n_id_53" stroke="#000000" stroke-linecap="round" stroke-linejoin="round" stroke-miterlimit="10" stroke-width="0.15" x1="182.4" x2="180.5" y1="403.6" y2="403.6"/></g><g id="LINE_40_">
		
			<line fill="none" id="n_id_54" stroke="#000000" stroke-linecap="round" stroke-linejoin="round" stroke-miterlimit="10" stroke-width="0.15" x1="182.4" x2="180.5" y1="365" y2="365"/></g><g id="LINE_42_">
		
			<line fill="none" id="n_id_55" stroke="#000000" stroke-linecap="round" stroke-linejoin="round" stroke-miterlimit="10" stroke-width="0.15" x1="395.2" x2="435.5" y1="568.4" y2="568.4"/></g><g id="LINE_43_">
		
			<line fill="none" id="n_id_56" stroke="#000000" stroke-linecap="round" stroke-linejoin="round" stroke-miterlimit="10" stroke-width="0.15" x1="395.2" x2="435.5" y1="557.7" y2="557.7"/></g><g id="LINE_44_">
		
			<line fill="none" id="n_id_57" stroke="#000000" stroke-linecap="round" stroke-linejoin="round" stroke-miterlimit="10" stroke-width="0.15" x1="395.2" x2="435.5" y1="579.2" y2="579.2"/></g><g id="ELLIPSE_1_">
		
			<path d="    M419.4,509.3c0,1.3-0.5,2.5-1,2.7c-0.6,0.2-1.1-0.6-1.1-2" fill="none" id="n_id_58" stroke="#000000" stroke-linecap="round" stroke-linejoin="round" stroke-miterlimit="10" stroke-width="0.15"/></g><g id="LINE_45_">
		
			<line fill="none" id="n_id_59" stroke="#000000" stroke-linecap="round" stroke-linejoin="round" stroke-miterlimit="10" stroke-width="0.15" x1="417.5" x2="417.3" y1="506.7" y2="510"/></g><g id="LINE_46_">
		
			<line fill="none" id="n_id_60" stroke="#000000" stroke-linecap="round" stroke-linejoin="round" stroke-miterlimit="10" stroke-width="0.15" x1="437.6" x2="437.6" y1="513.3" y2="600.6"/></g><g id="LINE_47_">
		
			<line fill="none" id="n_id_61" stroke="#000000" stroke-linecap="round" stroke-linejoin="round" stroke-miterlimit="10" stroke-width="0.15" x1="435.5" x2="435.5" y1="512.7" y2="602.8"/></g><g id="LINE_53_">
		
			<line fill="none" id="n_id_62" stroke="#000000" stroke-linecap="round" stroke-linejoin="round" stroke-miterlimit="10" stroke-width="0.15" x1="395.2" x2="435.5" y1="589.9" y2="589.9"/></g><g id="LINE_54_">
		
			<line fill="none" id="n_id_63" stroke="#000000" stroke-linecap="round" stroke-linejoin="round" stroke-miterlimit="10" stroke-width="0.15" x1="395.2" x2="435.5" y1="546.9" y2="546.9"/></g><g id="ELLIPSE_2_">
		
			<path d="    M409.6,506.4c-0.7,4.8,0.4,9.6,2.4,10.7s4.3-1.9,5-6.7c0-0.2,0.1-0.5,0.1-0.7" fill="none" id="n_id_64" stroke="#000000" stroke-linecap="round" stroke-linejoin="round" stroke-miterlimit="10" stroke-width="0.15"/></g><g id="LINE_56_">
		
			<line fill="none" id="n_id_65" stroke="#000000" stroke-linecap="round" stroke-linejoin="round" stroke-miterlimit="10" stroke-width="0.15" x1="417.1" x2="417.5" y1="509.7" y2="506.7"/></g><g id="LINE_57_">
		
			<line fill="none" id="n_id_66" stroke="#000000" stroke-linecap="round" stroke-linejoin="round" stroke-miterlimit="10" stroke-width="0.15" x1="395.2" x2="435.5" y1="600.6" y2="600.6"/></g><g id="LINE_58_">
		
			<line fill="none" id="n_id_67" stroke="#000000" stroke-linecap="round" stroke-linejoin="round" stroke-miterlimit="10" stroke-width="0.15" x1="419.4" x2="419.5" y1="509.3" y2="507.3"/></g><g id="LINE_60_">
		
			<line fill="none" id="n_id_68" stroke="#000000" stroke-linecap="round" stroke-linejoin="round" stroke-miterlimit="10" stroke-width="0.15" x1="419.5" x2="419.8" y1="507.3" y2="511.6"/></g><g id="ARC_12_">
		
			<path d="    M419.8,511.6c0,0.2,0.2,0.3,0.4,0.3h0.1" fill="none" id="n_id_69" stroke="#000000" stroke-linecap="round" stroke-linejoin="round" stroke-miterlimit="10" stroke-width="0.15"/></g><g id="ARC_13_">
		
			<path d="    M420.3,511.8c0.1-0.1,0.2-0.2,0.3-0.4" fill="none" id="n_id_70" stroke="#000000" stroke-linecap="round" stroke-linejoin="round" stroke-miterlimit="10" stroke-width="0.15"/></g><g id="ARC_14_">
		
			<path d="    M420.6,511.5c0.4-1.3,0.7-2.7,0.8-4.2" fill="none" id="n_id_71" stroke="#000000" stroke-linecap="round" stroke-linejoin="round" stroke-miterlimit="10" stroke-width="0.15"/></g><g id="LINE_61_">
		
			<line fill="none" id="n_id_72" stroke="#000000" stroke-linecap="round" stroke-linejoin="round" stroke-miterlimit="10" stroke-width="0.15" x1="421.3" x2="421.5" y1="507.3" y2="511.2"/></g><g id="ARC_15_">
		
			<path d="    M421.5,511.2c0,0.2,0.2,0.3,0.4,0.3c0.1,0,0.2-0.1,0.2-0.1" fill="none" id="n_id_73" stroke="#000000" stroke-linecap="round" stroke-linejoin="round" stroke-miterlimit="10" stroke-width="0.15"/></g><g id="ARC_16_">
		
			<path d="    M422.1,511.3c0.1-0.1,0.2-0.3,0.2-0.4" fill="none" id="n_id_74" stroke="#000000" stroke-linecap="round" stroke-linejoin="round" stroke-miterlimit="10" stroke-width="0.15"/></g><g id="ARC_17_">
		
			<path d="    M422.3,510.9c0.3-1,0.5-1.9,0.6-2.9" fill="none" id="n_id_75" stroke="#000000" stroke-linecap="round" stroke-linejoin="round" stroke-miterlimit="10" stroke-width="0.15"/></g><g id="ARC_18_">
		
			<path d="    M423.4,507.9c-0.1-0.1-0.2-0.1-0.3-0.1l-0.1,0.1" fill="none" id="n_id_76" stroke="#000000" stroke-linecap="round" stroke-linejoin="round" stroke-miterlimit="10" stroke-width="0.15"/></g><g id="ARC_19_">
		
			<path d="    M424.6,510.1c-0.2-0.8-0.6-1.6-1.2-2.2" fill="none" id="n_id_77" stroke="#000000" stroke-linecap="round" stroke-linejoin="round" stroke-miterlimit="10" stroke-width="0.15"/></g><g id="LWPOLYLINE_6_">
		
			<line fill="none" id="n_id_78" stroke="#000000" stroke-linecap="round" stroke-linejoin="round" stroke-miterlimit="10" stroke-width="0.15" x1="395.2" x2="409.6" y1="502.9" y2="506.4"/></g><g id="LWPOLYLINE_7_">
		
			<line fill="none" id="n_id_79" stroke="#000000" stroke-linecap="round" stroke-linejoin="round" stroke-miterlimit="10" stroke-width="0.15" x1="424.6" x2="439.2" y1="510.1" y2="513.7"/></g><g id="LINE_62_">
		
			<line fill="none" id="n_id_80" stroke="#000000" stroke-linecap="round" stroke-linejoin="round" stroke-miterlimit="10" stroke-width="0.15" x1="395.2" x2="395.2" y1="515.8" y2="607.1"/></g><g id="LINE_63_">
		
			<line fill="none" id="n_id_81" stroke="#000000" stroke-linecap="round" stroke-linejoin="round" stroke-miterlimit="10" stroke-width="0.15" x1="391.5" x2="395.2" y1="607.1" y2="607.1"/></g><g id="LINE_64_">
		
			<line fill="none" id="n_id_82" stroke="#000000" stroke-linecap="round" stroke-linejoin="round" stroke-miterlimit="10" stroke-width="0.15" x1="395.2" x2="435.5" y1="536.2" y2="536.2"/></g><g id="LINE_65_">
		
			<line fill="none" id="n_id_83" stroke="#000000" stroke-linecap="round" stroke-linejoin="round" stroke-miterlimit="10" stroke-width="0.15" x1="395.2" x2="435.5" y1="525.5" y2="525.5"/></g><g id="LINE_66_">
		
			<line fill="none" id="n_id_84" stroke="#000000" stroke-linecap="round" stroke-linejoin="round" stroke-miterlimit="10" stroke-width="0.15" x1="395.2" x2="410.3" y1="514.7" y2="514.7"/></g><g id="LINE_67_">
		
			<line fill="none" id="n_id_85" stroke="#000000" stroke-linecap="round" stroke-linejoin="round" stroke-miterlimit="10" stroke-width="0.15" x1="415.7" x2="435.5" y1="514.7" y2="514.7"/></g><g id="ARC_20_">
		
			<path d="    M363.3,644.7c-20.6,1-36.8,18-36.8,38.7" fill="none" id="n_id_86" stroke="#000000" stroke-linecap="round" stroke-linejoin="round" stroke-miterlimit="10" stroke-width="0.15"/></g><g id="LINE_69_">
		
			<line fill="none" id="n_id_87" stroke="#000000" stroke-linecap="round" stroke-linejoin="round" stroke-miterlimit="10" stroke-width="0.15" x1="365.2" x2="365.2" y1="683.3" y2="644.7"/></g><g id="LINE_70_">
		
			<line fill="none" id="n_id_88" stroke="#000000" stroke-linecap="round" stroke-linejoin="round" stroke-miterlimit="10" stroke-width="0.15" x1="363.3" x2="363.3" y1="683.3" y2="644.7"/></g><g id="LINE_71_">
		
			<line fill="none" id="n_id_89" stroke="#000000" stroke-linecap="round" stroke-linejoin="round" stroke-miterlimit="10" stroke-width="0.15" x1="363.3" x2="365.2" y1="683.3" y2="683.3"/></g><g id="LINE_72_">
		
			<line fill="none" id="n_id_90" stroke="#000000" stroke-linecap="round" stroke-linejoin="round" stroke-miterlimit="10" stroke-width="0.15" x1="363.3" x2="365.2" y1="644.7" y2="644.7"/></g><g id="LWPOLYLINE_8_">
		
			<polyline fill="none" id="n_id_91" points="    365.2,687.1 365.2,688.7 326.5,688.7 326.5,687.1   " stroke="#000000" stroke-linecap="round" stroke-linejoin="round" stroke-miterlimit="10" stroke-width="0.15"/></g><g id="LWPOLYLINE_9_">
		
			<path d="    M182.6,30h12.9c0.6,0,1.1,0.5,1.1,1.1v6.7c0,0.6-0.5,1.1-1.1,1.1h-12.9c-0.6,0-1.1-0.5-1.1-1.1v-6.7C181.6,30.5,182,30,182.6,30z" fill="none" id="n_id_92" stroke="#000000" stroke-linecap="round" stroke-linejoin="round" stroke-miterlimit="10" stroke-width="0.15"/></g><g id="CIRCLE_2_">
		
			<path d="    M187.4,34.8c0-0.9,0.7-1.6,1.6-1.6s1.6,0.7,1.6,1.6s-0.7,1.6-1.6,1.6S187.4,35.7,187.4,34.8L187.4,34.8z" fill="none" id="n_id_93" stroke="#000000" stroke-linecap="round" stroke-linejoin="round" stroke-miterlimit="10" stroke-width="0.15"/></g><g id="LINE_74_">
		
			<line fill="none" id="n_id_94" stroke="#000000" stroke-linecap="round" stroke-linejoin="round" stroke-miterlimit="10" stroke-width="0.15" x1="437.6" x2="439.2" y1="600.6" y2="600.6"/></g><g id="LINE_75_">
		
			<line fill="none" id="n_id_95" stroke="#000000" stroke-linecap="round" stroke-linejoin="round" stroke-miterlimit="10" stroke-width="0.15" x1="435.5" x2="439.2" y1="602.8" y2="602.8"/></g><g id="CIRCLE_3_">
		
			<path d="    M414.3,600.6c0-0.6,0.5-1.1,1.1-1.1s1.1,0.5,1.1,1.1s-0.5,1.1-1.1,1.1C414.8,601.7,414.3,601.2,414.3,600.6L414.3,600.6z" fill="none" id="n_id_96" stroke="#000000" stroke-linecap="round" stroke-linejoin="round" stroke-miterlimit="10" stroke-width="0.15"/></g><g id="LWPOLYLINE_12_">
		
			<polygon fill="none" id="n_id_97" points="    421.1,532.3 409.6,532.3 415.4,529.4   " stroke="#000000" stroke-linecap="round" stroke-linejoin="round" stroke-miterlimit="10" stroke-width="0.15"/></g><g id="LINE_77_">
		
			<line fill="none" id="n_id_98" stroke="#000000" stroke-linecap="round" stroke-linejoin="round" stroke-miterlimit="10" stroke-width="0.15" x1="185.5" x2="186.2" y1="297.3" y2="295.7"/></g><g id="LINE_78_">
		
			<line fill="none" id="n_id_99" stroke="#000000" stroke-linecap="round" stroke-linejoin="round" stroke-miterlimit="10" stroke-width="0.15" x1="204.9" x2="205.6" y1="295.7" y2="297.3"/></g><g id="LINE_80_">
		
			<line fill="none" id="n_id_100" stroke="#000000" stroke-linecap="round" stroke-linejoin="round" stroke-miterlimit="10" stroke-width="0.15" x1="370.9" x2="382.7" y1="327.2" y2="298.8"/></g><g id="LINE_81_">
		
			<line fill="none" id="n_id_101" stroke="#000000" stroke-linecap="round" stroke-linejoin="round" stroke-miterlimit="10" stroke-width="0.15" x1="369.9" x2="381.7" y1="326.8" y2="298.4"/></g><g id="LINE_82_">
		
			<line fill="none" id="n_id_102" stroke="#000000" stroke-linecap="round" stroke-linejoin="round" stroke-miterlimit="10" stroke-width="0.15" x1="382.7" x2="381.7" y1="298.8" y2="298.4"/></g><g id="LINE_83_">
		
			<line fill="none" id="n_id_103" stroke="#000000" stroke-linecap="round" stroke-linejoin="round" stroke-miterlimit="10" stroke-width="0.15" x1="370.9" x2="369.9" y1="327.2" y2="326.8"/></g><g id="ARC_21_">
		
			<path d="    M369.9,326.8c3.7,1.6,7.8,2.4,11.8,2.4" fill="none" id="n_id_104" stroke="#000000" stroke-linecap="round" stroke-linejoin="round" stroke-miterlimit="10" stroke-width="0.15"/></g><g id="ARC_22_">
		
			<path d="    M381.9,360.9c-9.1-0.1-17.9,3.3-24.7,9.4" fill="none" id="n_id_105" stroke="#000000" stroke-linecap="round" stroke-linejoin="round" stroke-miterlimit="10" stroke-width="0.15"/></g><g id="LINE_84_">
		
			<line fill="none" id="n_id_106" stroke="#000000" stroke-linecap="round" stroke-linejoin="round" stroke-miterlimit="10" stroke-width="0.15" x1="383" x2="357.2" y1="396.1" y2="370.3"/></g><g id="LINE_85_">
		
			<line fill="none" id="n_id_107" stroke="#000000" stroke-linecap="round" stroke-linejoin="round" stroke-miterlimit="10" stroke-width="0.15" x1="357.2" x2="355.9" y1="370.3" y2="371.6"/></g><g id="LINE_86_">
		
			<line fill="none" id="n_id_108" stroke="#000000" stroke-linecap="round" stroke-linejoin="round" stroke-miterlimit="10" stroke-width="0.15" x1="355.9" x2="381.7" y1="371.6" y2="397.4"/></g><g id="LINE_87_">
		
			<line fill="none" id="n_id_109" stroke="#000000" stroke-linecap="round" stroke-linejoin="round" stroke-miterlimit="10" stroke-width="0.15" x1="381.7" x2="383" y1="397.4" y2="396.1"/></g></g>
  <g id="_x33_60dash">
	<g id="LWPOLYLINE_1_">
		
			<path d="    M307.7,311.3h-1.1v8.6h-30.1v-8.6h-1.1v-17.2c0-1.2,1-2.1,2.1-2.1h27.9c1.2,0,2.1,1,2.1,2.1v17.2H307.7z" fill="none" id="n_id_110" stroke="#000000" stroke-dasharray="4.9981,2.499" stroke-linecap="round" stroke-linejoin="round" stroke-miterlimit="10" stroke-width="0.15"/></g><g id="LINE_1_">
		
			<line fill="none" id="n_id_111" stroke="#000000" stroke-dasharray="4.9981,2.499" stroke-linecap="round" stroke-linejoin="round" stroke-miterlimit="10" stroke-width="0.15" x1="276.6" x2="306.7" y1="323.1" y2="323.1"/></g><g id="LINE_2_">
		
			<line fill="none" id="n_id_112" stroke="#000000" stroke-dasharray="4.9981,2.499" stroke-linecap="round" stroke-linejoin="round" stroke-miterlimit="10" stroke-width="0.15" x1="306.7" x2="306.7" y1="319.9" y2="323.1"/></g><g id="LINE_3_">
		
			<line fill="none" id="n_id_113" stroke="#000000" stroke-dasharray="4.9981,2.499" stroke-linecap="round" stroke-linejoin="round" stroke-miterlimit="10" stroke-width="0.15" x1="276.6" x2="276.6" y1="319.9" y2="323.1"/></g><g id="LWPOLYLINE_2_">
		
			<path d="    M241.2,311.3h1.1v8.6h30.1v-8.6h1.1v-17.2c0-1.2-1-2.1-2.1-2.1h-27.9c-1.2,0-2.1,1-2.1,2.1v17.2H241.2z" fill="none" id="n_id_114" stroke="#000000" stroke-dasharray="4.9981,2.499" stroke-linecap="round" stroke-linejoin="round" stroke-miterlimit="10" stroke-width="0.15"/></g><g id="LINE_4_">
		
			<line fill="none" id="n_id_115" stroke="#000000" stroke-dasharray="4.9981,2.499" stroke-linecap="round" stroke-linejoin="round" stroke-miterlimit="10" stroke-width="0.15" x1="272.3" x2="242.2" y1="323.1" y2="323.1"/></g><g id="LINE_5_">
		
			<line fill="none" id="n_id_116" stroke="#000000" stroke-dasharray="4.9981,2.499" stroke-linecap="round" stroke-linejoin="round" stroke-miterlimit="10" stroke-width="0.15" x1="242.2" x2="242.2" y1="319.9" y2="323.1"/></g><g id="LINE_6_">
		
			<line fill="none" id="n_id_117" stroke="#000000" stroke-dasharray="4.9981,2.499" stroke-linecap="round" stroke-linejoin="round" stroke-miterlimit="10" stroke-width="0.15" x1="272.3" x2="272.3" y1="319.9" y2="323.1"/></g><g id="LINE_29_">
		
			<line fill="none" id="n_id_118" stroke="#000000" stroke-dasharray="4.9981,2.499" stroke-linecap="round" stroke-linejoin="round" stroke-miterlimit="10" stroke-width="0.15" x1="300.2" x2="300.2" y1="330.6" y2="403.6"/></g><g id="LINE_41_">
		
			<line fill="none" id="n_id_119" stroke="#000000" stroke-dasharray="4.9981,2.499" stroke-linecap="round" stroke-linejoin="round" stroke-miterlimit="10" stroke-width="0.15" x1="395.2" x2="439.2" y1="492.2" y2="492.2"/></g><g id="LINE_48_">
		
			<line fill="none" id="n_id_120" stroke="#000000" stroke-dasharray="4.9981,2.499" stroke-linecap="round" stroke-linejoin="round" stroke-miterlimit="10" stroke-width="0.15" x1="395.2" x2="439.2" y1="460" y2="460"/></g><g id="LINE_49_">
		
			<line fill="none" id="n_id_121" stroke="#000000" stroke-dasharray="4.9981,2.499" stroke-linecap="round" stroke-linejoin="round" stroke-miterlimit="10" stroke-width="0.15" x1="395.2" x2="439.2" y1="470.7" y2="470.7"/></g><g id="LINE_50_">
		
			<line fill="none" id="n_id_122" stroke="#000000" stroke-dasharray="4.9981,2.499" stroke-linecap="round" stroke-linejoin="round" stroke-miterlimit="10" stroke-width="0.15" x1="395.2" x2="439.2" y1="449.2" y2="449.2"/></g><g id="LINE_51_">
		
			<line fill="none" id="n_id_123" stroke="#000000" stroke-dasharray="4.9981,2.499" stroke-linecap="round" stroke-linejoin="round" stroke-miterlimit="10" stroke-width="0.15" x1="395.2" x2="439.2" y1="438.5" y2="438.5"/></g><g id="LINE_52_">
		
			<line fill="none" id="n_id_124" stroke="#000000" stroke-dasharray="4.9981,2.499" stroke-linecap="round" stroke-linejoin="round" stroke-miterlimit="10" stroke-width="0.15" x1="395.2" x2="439.2" y1="481.5" y2="481.5"/></g><g id="LINE_55_">
		
			<line fill="none" id="n_id_125" stroke="#000000" stroke-dasharray="4.9981,2.499" stroke-linecap="round" stroke-linejoin="round" stroke-miterlimit="10" stroke-width="0.15" x1="395.2" x2="439.2" y1="502.9" y2="502.9"/></g><g id="LINE_59_">
		
			<line fill="none" id="n_id_126" stroke="#000000" stroke-dasharray="4.9981,2.499" stroke-linecap="round" stroke-linejoin="round" stroke-miterlimit="10" stroke-width="0.15" x1="395.2" x2="439.2" y1="427.8" y2="427.8"/></g><g id="LINE_68_">
		
			<line fill="none" id="n_id_127" stroke="#000000" stroke-dasharray="4.9981,2.499" stroke-linecap="round" stroke-linejoin="round" stroke-miterlimit="10" stroke-width="0.15" x1="395.2" x2="439.2" y1="417" y2="417"/></g><g id="LINE_73_">
		
			<line fill="none" id="n_id_128" stroke="#000000" stroke-dasharray="4.9981,2.499" stroke-linecap="round" stroke-linejoin="round" stroke-miterlimit="10" stroke-width="0.15" x1="246.5" x2="371.1" y1="693" y2="693"/></g><g id="LINE_79_">
		
			<line fill="none" id="n_id_129" stroke="#000000" stroke-dasharray="4.9981,2.499" stroke-linecap="round" stroke-linejoin="round" stroke-miterlimit="10" stroke-width="0.15" x1="204.1" x2="413.5" y1="23" y2="23"/></g></g>
  <g id="_x33_60text">
	<g id="MTEXT_11_">
		<g id="n_id_203">
			</g></g></g>
  <g id="_x33_60hatch">
	<g id="LINE_76_">
		
			<line fill="none" id="n_id_228" stroke="#000000" stroke-linecap="round" stroke-linejoin="round" stroke-miterlimit="10" stroke-width="0.15" x1="415.4" x2="415.4" y1="532.3" y2="599.6"/></g><g id="HATCH">
		<polygon id="n_id_229" points="246.5,687.1 252.4,687.1 252.4,683.3 176.2,683.3 176.2,407.4 180.5,407.4 180.5,403.6 176.2,403.6 176.2,294.1     235.3,294.1 235.3,330.6 282.5,330.6 282.5,403.6 219.1,403.7 219.1,407.4 320.1,407.4 320.1,403.6 315.8,403.6 315.8,399.3     312,399.3 312,403.6 286.3,403.6 286.3,330.6 312,330.6 312,334.9 315.8,334.9 315.8,292 320.1,292 320.1,288.2 309.9,288.2     309.9,326.8 239,326.8 239,288.2 181.3,288.2 181.3,100.3 176.2,100.3 176.2,28.9 204.1,28.9 204.1,23 172.4,23 172.4,693     246.5,693   "/></g><g id="HATCH_1_">
		<rect height="3.8" id="n_id_230" width="11.8" x="314.7" y="683.3"/></g></g>
  <g id="_x33_60walls">
	<g id="LWPOLYLINE_13_">
		
			<polygon fill="none" id="n_id_231" points="    286.3,330.6 286.3,403.6 312,403.6 312,399.3 315.8,399.3 315.8,403.6 320.1,403.6 320.1,407.4 219.1,407.4 219.1,403.7     282.5,403.6 282.5,330.6 235.3,330.6 235.3,294.1 176.2,294.1 176.2,403.6 180.5,403.6 180.5,407.4 176.2,407.4 176.2,683.3     252.4,683.3 252.4,687.1 246.5,687.1 246.5,693 172.4,693 172.4,23 204.1,23 204.1,28.9 176.2,28.9 176.2,100.3 181.3,100.3     181.3,288.2 239,288.2 239,326.8 309.9,326.8 309.9,288.2 320.1,288.2 320.1,292 315.8,292 315.8,334.9 312,334.9 312,330.6   " stroke="#000000" stroke-linecap="round" stroke-linejoin="round" stroke-miterlimit="10" stroke-width="0.15"/></g><g id="LWPOLYLINE_14_">
		
			<rect fill="none" height="3.8" id="n_id_232" stroke="#000000" stroke-linecap="round" stroke-linejoin="round" stroke-miterlimit="10" stroke-width="0.15" width="11.8" x="314.7" y="683.3"/></g><g id="LWPOLYLINE_15_">
		
			<rect fill="none" height="3.8" id="n_id_233" stroke="#000000" stroke-linecap="round" stroke-linejoin="round" stroke-miterlimit="10" stroke-width="0.15" width="62.3" x="252.4" y="683.3"/></g><g id="HATCH_2_">
		<polygon id="n_id_234" points="445.2,23 413.5,23 413.5,28.9 441.4,28.9 441.4,158.3 435,158.3 435,164.2 441.4,164.2 441.4,282.3 435,282.3     435,288.2 358.7,288.2 358.7,292 381.7,292 381.7,298.4 382.7,298.4 382.7,298.9 384.9,298.9 384.9,298.4 385.4,298.4 385.4,292     441.4,292 441.4,351 385.4,351 385.4,329.1 384.9,329.1 384.9,328.6 382.7,328.6 382.7,329.1 381.7,329.1 381.7,360.9     385.4,360.9 385.4,354.8 439.2,354.8 439.2,403.6 385.4,403.6 385.4,397.4 381.7,397.4 381.7,403.6 358.7,403.6 358.7,407.4     391.5,407.4 391.5,515.8 395.2,515.8 395.2,407.4 439.2,407.4 439.2,683.3 365.2,683.3 365.2,687.1 371.1,687.1 371.1,693     445.2,693   "/></g><g id="LWPOLYLINE_16_">
		
			<polyline fill="none" id="n_id_235" points="    395.2,354.8 439.2,354.8 439.2,403.6 385.4,403.6 385.4,397.4 381.7,397.4 381.7,403.6 358.7,403.6 358.7,407.4 391.5,407.4     391.5,515.8 395.2,515.8 395.2,407.4 439.2,407.4 439.2,683.3 365.2,683.3 365.2,687.1 371.1,687.1 371.1,693 445.2,693 445.2,23     413.5,23 413.5,28.9 441.4,28.9 441.4,158.3 435,158.3 435,164.2 441.4,164.2 441.4,282.3 435,282.3 435,288.2 358.7,288.2     358.7,292 381.7,292 381.7,298.4 382.7,298.4 382.7,298.9 384.9,298.9 384.9,298.4 385.4,298.4 385.4,292 441.4,292 441.4,351     385.4,351 385.4,329.1 384.9,329.1 384.9,328.6 382.7,328.6 382.7,329.1 381.7,329.1 381.7,360.9 385.4,360.9 385.4,354.8     439.2,354.8   " stroke="#000000" stroke-linecap="round" stroke-linejoin="round" stroke-miterlimit="10" stroke-width="0.15"/></g></g>
</svg>