<svg xmlns="http://www.w3.org/2000/svg" enable-background="new 0 0 545.7 418.4" height="418.4px" id="Layer_1" version="1.1" viewBox="0 0 545.7 418.4" width="545.7px" x="0px" y="0px" xml:space="preserve">
<path d="M545.7,106.4v-6h-14.1V20.2H408.2V0h-6v20.2h-3.7v0.2h-38.3v-0.2H46.8V0h-12v11.8H10.6v38.4H6.6L0,179.4h10.6v67.7H5.9  L0.8,378h9.5v40.4h521.8v-24.9h13.4v-7h-13.8V195.4h14.1v-6h-14.1v-82.9H545.7z M17.7,20.2v30h-6.5V12.3h23.7v7.9H17.7z" id="n_id_0" />
<rect fill="#FFFFFF" height="67.7" id="n_id_1" width="7.1" x="11.4" y="179.4" />
<path d="M82.8,227.7v19.4H74v3h-0.2c0,13.8-3.8,24.5-11.4,31.9c-9.3,9.1-21.7,10.4-25.6,10.6V253h-2.4v-5.9h-9.8  v-19.4h4.8v-0.5h-4.8v-17.1h58.3v17.1h-4.5v0.5H82.8z" fill="#F3CF9A" id="n_id_2" />
<path d="M136.5,215.7c-9.9-4.6-20-4.7-20.1-4.7l0-0.3h-3.6v-0.7H105v4h-0.5v-4H87.8v37h16.7v-0.8h0.5v0.8h13.6v-0.4  h38C156,228.6,145.4,219.9,136.5,215.7z M105,239.7h-0.5V233h0.5V239.7z M105,226.5h-0.5v-6.7h0.5V226.5z" fill="#EDDBC3" id="n_id_3" />
<path d="M525.7,150.1v24.7h-26.3l0-0.3l-0.5,0l0,0.3h-0.7v6h3.3v5c0,3.8-5.3,6.2-5.9,6.4l-80.3,0  c-5.7-1.2-12.2-9.2-13.1-21.7c-0.9-11.9,10.7-20.7,11.7-21.4h84.7v-8.8h12.8v1.8h0.5v-1.8h14v9.2h-2v0.5H525.7z" fill="#B2A18E" id="n_id_4" />
<polygon id="n_id_5" points="457.4,150.4 457.2,150.1 450.7,150.1 450.7,150.6 456.9,150.6 456.9,156.9 457.2,156.9 457.2,159.2 456.9,159.2   456.9,161.6 457.2,161.6 457.2,164 456.9,164 456.9,166.4 457.2,166.4 457.2,168.7 456.9,168.7 456.9,175 450.7,175 450.7,175.5   457.2,175.5 457.4,175.2 457.4,174.2 489.8,174.2 489.8,151.2 457.4,151.2 " />
<rect fill="#FFFFFF" height="21.9" id="n_id_6" width="31.7" x="457.7" y="151.7" />
<rect height="2.9" id="n_id_7" transform="matrix(-0.7264 -0.6872 0.6872 -0.7264 769.2424 615.0816)" width="0.5" x="506.8" y="153" />
<polygon id="n_id_8" points="511.7,145.4 511.2,145.4 511.2,149.7 509.8,151.1 510.2,151.5 511.5,150.1 513.4,150.1 513.4,149.6 511.7,149.6 " />
<rect height="0.5" id="n_id_9" width="2.1" x="519.6" y="149.6" />
<rect height="0.5" id="n_id_10" width="2.1" x="515.4" y="149.6" />
<polygon fill="#B2A18E" id="n_id_11" points="474.2,26.2 498.7,26.2 498.7,30.4 499.2,30.4 499.2,26.2 525.7,26.2 525.7,53.5 523.3,53.5   523.3,54 525.7,54 525.7,107.9 511.7,107.9 511.7,107.1 511.2,107.1 511.2,107.9 498.2,107.9 498.2,54.5 474.2,54.5 " />
<polygon fill="#FFFFFF" id="n_id_12" points="511.7,116.6 511.7,108.4 522.6,108.4 522.6,139.9 511.7,139.9 511.7,132.6 511.2,132.6 511.2,139.9   497.1,139.9 497.1,108.4 511.2,108.4 511.2,116.6 " />
<rect fill="#EDDBC3" height="31.5" id="n_id_13" width="2.6" x="523.1" y="108.4" />
<polygon fill="#FFFFFF" id="n_id_14" points="435.1,26.2 437.1,26.2 437.1,30.4 437.6,30.4 437.6,26.2 473.7,26.2 473.7,59.9 435.1,59.9 " />
<rect fill="#B2A18E" height="27.3" id="n_id_15" width="19" x="414.8" y="26.2" />
<path d="M338.2,26.2h21.1c0,1.3,0.1,3.4,0.5,6.1h-21.6V26.2z" fill="#EDDBC3" id="n_id_16" />
<path d="M297,103.9h41.2v-7.7h-6v1.7H297V26.2h35.2v6.2h5.5v2.4h22.5c0.6,2.8,1.5,6,2.9,9.2c0.6,1.4,1.4,2.9,2.4,4.4  c-4.3,6.8-12.2,13.8-26.4,15.6l0,0.5c0.3,0,29.7,2.1,30.6,29.3h-32v2.5H370V95h0.2c0-24.6-22.4-29.8-29.2-30.8  c13.1-2.2,20.5-8.8,24.7-15.4c5.1,7.8,14.5,15.8,32,18l0-0.2h1.2V28.7h-2.5v37.5c-16.7-2.4-25.7-10.2-30.5-17.8  c4.6-7.5,5.2-14.7,5.2-14.8l-0.2,0v-1.2h-10.7c-0.4-2.7-0.5-4.8-0.5-6.1h0.4v-5.3h38.3v5.3h15.8V54h20V26.2h0.2v34.2h39.6V55h23.6  v52.9h-1.2v32.5h1.3v8.2h-84.3l-0.1,0c-0.1,0.1-12.9,9.2-11.9,21.9c0.9,12.8,7.7,20.9,13.6,22.1h80.5l0,0c0.3-0.1,6.2-2.6,6.2-6.9  v-5h23.7v221.9H369.4V255.1h-11.5c-0.4-16.9-10.5-26.2-18.9-31c-9.3-5.3-18.8-6.6-18.9-6.6l0,0.2h-1.2v37.3h-85.1v2.5l0,0  c0,0,0,1.2-0.3,3.1h-38.9v-5.6h-11v5.6h-38.6v-5.6h-26v-5.4h38v-1.5h0.2c0-19.4-11.1-28.6-20.4-32.9c-7.1-3.3-14.3-4.3-17.9-4.6  v-31.3H140v-5.7h38.7v4.5h2.5v30.3h17.3V203h0.7v0.2h38.6c0,0.4,0,0.7,0,1.1h0.2v4.2h59V103.9z" fill="#EDDBC3" id="n_id_17" />
<path d="M360.7,34.8h9.9c-0.4,2.3-1.5,7.6-4.8,13.1c-0.9-1.4-1.6-2.8-2.2-4.1C362.1,40.6,361.2,37.5,360.7,34.8z" fill="#EDDBC3" id="n_id_18" />
<path d="M346.9,397.2v5.5h-8.2v-28.5h-5v-2.5h-32.4c1.8-25.9,30.7-29.5,31-29.5l0-0.5c-25.7-1.9-30.9-25.2-31.8-31  h32.2v-1.2h5.9v-4.1h8.3v5.2h0.5v-5.2h16v97.3h-16v-5.5H346.9z" fill="#F3CF9A" id="n_id_19" />
<path d="M195.1,299.1v0.2c19.6,0,29.1-11.4,33.7-20.9c3.2-6.7,4.5-13.4,5-17.4h73.4v44.3h25.4v2.9H300v1.2l-0.2,0  c0,0.3,2.7,29.2,30.5,32.5c-6.8,1.3-29.7,7.7-29.7,32.2v0.2h32v28.2H191.9V261.2h2v37.9H195.1z" fill="#F3CF9A" id="n_id_20" />
<path d="M196.4,298.8v-37.6h36.9c-0.5,3.9-1.8,10.5-4.9,17.1C224,287.4,214.8,298.3,196.4,298.8z" fill="#F3CF9A" id="n_id_21" />
<path d="M301.2,374c0-0.6,0-1.2,0.1-1.8h31.9v1.8H301.2z" fill="#F3CF9A" id="n_id_22" />
<path d="M313.2,299.4v-38.3h6v-4.2h2.1v-38.7c2.9,0.5,10.2,2.1,17.4,6.3c8.5,4.9,18.7,14.3,18.7,31.7h0.2v4.9h5.8  v38.3H313.2z" fill="#EDDBC3" id="n_id_23" />
<path d="M181.1,261.2v37.6c-17.6-0.5-26.4-10.5-30.8-18.9c-4.4-8.5-5.1-17.1-5.2-18.7H181.1z" fill="#F3CF9A" id="n_id_24" />
<path d="M24.5,204.1v-16.4h4.8v-0.5h-4.8v-7.8H47v-5.9h2.2v-32c1.8,0.1,7.9,0.5,14,3.8c6.7,3.6,14.9,11.4,15.6,28.2  l0.5,0c0-0.1,0.3-8.1,4.3-16c3.6-7.1,11-15.5,25.8-15.9v32h2.1v5.9h1.3v7.8h-3.5v0.5h3.5v16.4H24.5z" fill="#F3CF9A" id="n_id_25" />
<path d="M139.7,173.2c0.1-2.7,0.9-9.9,4.5-17.4c4.1-8.5,12.9-18.9,31.5-21.2v38.6H139.7z" fill="#F3CF9A" id="n_id_26" />
<path d="M286.7,101.5v4.7h4.3v7.5h-35v-7.5h4.7v-4.1l0.2,0c0-0.3,1.2-24.7,23.6-25.6v24.9H286.7z" fill="#D4D4EB" id="n_id_27" />
<rect fill="#888888" height="15" id="n_id_28" width="35" x="256" y="118.7" />
<rect fill="#FFFFFF" height="62.8" id="n_id_29" width="32.5" x="258.5" y="139.7" />
<path d="M258,139.7v62.8h-19.8c-0.3-10.7-3.7-19.3-10.1-25.7c-11.6-11.5-29.1-11.7-29.4-11.7c0,0,0,0,0,0v0.2h-0.8  v37.1h-10.8v-41.7h32.1v-21.1h8.3l0,8.5c0,0,0.8,3.9,3.7,3.9h1.6v2.7c-1.5,0.8-2.7,2.3-2.7,4.7c0,5.6,3.2,14.1,8,14.1h0.7  c4.8,0,8-8.5,8-14.1c0-2.5-1.3-3.9-2.8-4.7v-2.7h1.6c3,0,3.7-3.9,3.8-3.9v-8.5H258z" fill="#D4D4EB" id="n_id_30" />
<path d="M237.7,202.7h-37.3v-36.9c4.6,0.3,18,2.1,27.3,11.4C234.1,183.6,237.4,192.1,237.7,202.7z" fill="#D4D4EB" id="n_id_31" />
<rect fill="#888888" height="20.6" id="n_id_32" width="31.6" x="187.2" y="139.7" />
<path d="M243.7,154.6c-1.9-0.9-4-0.9-4.4-0.9l-0.1,0l-1.3,0c-0.4,0-2.5,0.1-4.4,0.9v-2.4h10.2V154.6z" fill="#FFFFFF" id="n_id_33" />
<path d="M246.4,159.6c0,6.2-3.3,13.6-7.5,13.6h-0.7c-4.2,0-7.5-7.5-7.5-13.6c0-5.3,6.4-5.4,7.2-5.4l0.1,0l1.3,0  C240,154.2,246.4,154.3,246.4,159.6z" fill="#FFFFFF" id="n_id_34" />
<path d="M231.3,151.7c-2.6,0-3.2-3.4-3.2-3.4v-8.5h21l0,8.4c0,0-0.7,3.5-3.3,3.5H231.3z" fill="#FFFFFF" id="n_id_35" />
<rect fill="#FFFFFF" height="32" id="n_id_36" width="63.8" x="187.2" y="101.8" />
<path d="M186.9,89v1.2h-0.2V51.5c19.1,1.5,28.6,11.1,33.2,19.2c4.4,7.6,5.4,15.3,5.6,18.2H186.9z" fill="#D4D4EB" id="n_id_37" />
<rect fill="#FFFFFF" height="1.3" id="n_id_38" width="3.5" x="287.5" y="69.8" />
<rect fill="#D4D4EB" height="6.4" id="n_id_39" width="1.9" x="289.1" y="71.6" />
<rect fill="#D4D4EB" height="34.6" id="n_id_40" width="1.9" x="289.1" y="34.7" />
<path d="M288.6,34.2v35.1h-1l0-34.8c0,0,0.2-0.7,0.8-0.7h2.6v0.4H288.6z" fill="#FFFFFF" id="n_id_41" />
<path d="M288.6,71.6v6.9h2.4v1h-1.7c-0.2-0.1-1.7-0.7-1.7-1.6l0-6.3H288.6z" fill="#FFFFFF" id="n_id_42" />
<rect fill="#D4D4EB" height="2.7" id="n_id_43" width="36.9" x="246.5" y="26.2" />
<path d="M245.2,26.2h0.9v3.2H284v-3.2h0.8v3.6c-0.1,0.2-0.4,0.8-1,0.8h-37.1c-0.2-0.1-1.4-0.6-1.4-2.6V26.2z" fill="#FFFFFF" id="n_id_44" />
<path d="M275.4,44.2c-1.9-0.9-4-0.9-4.4-0.9l-0.1,0l-1.3,0c-0.4,0-2.5,0.1-4.4,0.9v-2.4h10.2V44.2z" fill="#FFFFFF" id="n_id_45" />
<path d="M278.1,49.2c0,6.2-3.3,13.6-7.5,13.6h-0.7c-4.2,0-7.5-7.5-7.5-13.6c0-5.3,6.4-5.4,7.2-5.4l0.1,0l1.3,0  C271.7,43.7,278.1,43.9,278.1,49.2z" fill="#FFFFFF" id="n_id_46" />
<path d="M263,41.2c-2.6,0-3.2-3.4-3.2-3.4v-6.7l21,0l0,6.6c0,0-0.7,3.5-3.3,3.5H263z" fill="#FFFFFF" id="n_id_47" />
<rect fill="#B2A18E" height="22.3" id="n_id_48" width="38.5" x="187.2" y="26.2" />
<path d="M187.2,49h39V26.2h18.5V28c0,2.5,1.7,3.1,1.8,3.1l12.8,0l0,6.7c0,0,0.8,3.9,3.7,3.9h1.6v2.7  c-1.5,0.8-2.7,2.3-2.7,4.7c0,5.6,3.2,14.1,8,14.1h0.7c4.8,0,8-8.5,8-14.1c0-2.5-1.3-3.9-2.8-4.7v-2.7h1.6c3,0,3.7-3.9,3.8-3.9v-6.7  l2.5,0c1,0,1.5-1.1,1.5-1.2l0-3.8h5.8v7.1h-2.6c-0.9,0-1.2,0.7-1.3,1.2v43.4c0,1.4,2,2.1,2.1,2.1l1.8,0v21.2h-4v-25h-1.2V76  c-21.6,0-24.8,20.7-25.3,25.2H251v0h-63.8v-9.8h38.8v-1.2l0.2,0c0-0.1-0.2-10-5.7-19.7c-4.7-8.2-14.2-17.8-33.3-19.5V49z" fill="#D4D4EB" id="n_id_49" />
<path d="M6.3,173.4l6-117.2h11.4v-30h157.5v24.9h0.2v0.2c1.7,0,3.3,0.1,4.8,0.2v38.7h-5.1v82h-2.5v1h-0.4v-39H177  l0-0.2c-19.7,2-28.9,12.9-33.2,21.7c-3.8,7.7-4.4,15.2-4.6,17.8h-27.3v-32.8h-2.5v0.4c-15,0.5-22.6,9-26.2,16.2  c-2.6,5.1-3.6,10.2-4.1,13.3c-1.5-15-9.2-22.3-15.6-25.7c-6.2-3.3-12.4-3.8-14.2-3.9v-1.1h-2.5v33.5H6.3z" fill="#F3CF9A" id="n_id_50" />
<path d="M7,372l4.7-118.9h22.5v39.7h1.2l0,0.2c0,0,0.1,0,0.1,0c1.6,0,16.3-0.3,27.1-10.8c7.1-6.9,11-16.8,11.5-29.2  h38.7v8h31.8c0.1,1.2,0.7,10.2,5.3,19.1c4.5,8.8,13.8,19.2,32.5,19.2v-0.2h1.2v-37.9h2.3v141.6H25.7V372H7z" fill="#F3CF9A" id="n_id_51" />
<polygon fill="#FFFFFF" id="n_id_52" points="531.6,417.9 10.8,417.9 10.8,378 19.7,378 19.7,408.7 531.6,408.7 " />
<path d="M236,131h-43.5c-2.8,0-3-4.6-3-4.8v-14.8c0-6.5,2.9-6.8,3-6.8l43.5,0c6.8,0,12.2,5.5,12.2,12.2v1.9  C248.3,125.5,242.8,131,236,131z M192.5,105.1c0,0-2.5,0.3-2.5,6.3v14.8c0,0,0.2,4.3,2.5,4.3H236c6.5,0,11.8-5.3,11.8-11.8v-1.9  c0-6.5-5.3-11.8-11.8-11.8H192.5z" id="n_id_53" />
<path d="M311.8,53.3c-5.7,0-10.4-4.7-10.4-10.4c0-5.7,4.7-10.4,10.4-10.4c5.7,0,10.4,4.7,10.4,10.4  C322.2,48.7,317.6,53.3,311.8,53.3z" id="n_id_54" />
<path d="M311.8,33c-5.5,0-9.9,4.4-9.9,9.9c0,5.5,4.4,9.9,9.9,9.9c5.5,0,9.9-4.4,9.9-9.9  C321.7,37.4,317.3,33,311.8,33z" fill="#FFFFFF" id="n_id_55" />
<path d="M330.9,91.6h-31.2V61.1h31.2V91.6z" id="n_id_56" />
<rect fill="#FFFFFF" height="29.5" id="n_id_57" width="30.2" x="300.2" y="61.6" />
<path d="M516,118.7c-2,0-3.6-1.6-3.6-3.6s1.6-3.6,3.6-3.6c2,0,3.6,1.6,3.6,3.6S518,118.7,516,118.7z M516,111.9  c-1.7,0-3.1,1.4-3.1,3.1c0,1.7,1.4,3.1,3.1,3.1s3.1-1.4,3.1-3.1C519.2,113.3,517.8,111.9,516,111.9z" id="n_id_58" />
<path d="M516.2,138.1c-2.7,0-4.9-2.2-4.9-4.9c0-2.7,2.2-4.9,4.9-4.9c2.7,0,4.9,2.2,4.9,4.9C521.1,135.9,518.9,138.1,516.2,138.1z   M516.2,128.8c-2.4,0-4.4,2-4.4,4.4c0,2.4,2,4.4,4.4,4.4s4.4-2,4.4-4.4C520.6,130.8,518.6,128.8,516.2,128.8z" id="n_id_59" />
<path d="M503.2,137.2c-2.1,0-3.9-1.7-3.9-3.9c0-2.1,1.7-3.9,3.9-3.9c2.1,0,3.9,1.7,3.9,3.9C507.1,135.4,505.3,137.2,503.2,137.2z   M503.2,129.9c-1.9,0-3.4,1.5-3.4,3.4c0,1.9,1.5,3.4,3.4,3.4c1.9,0,3.4-1.5,3.4-3.4C506.6,131.4,505.1,129.9,503.2,129.9z" id="n_id_60" />
<path d="M503.1,118.5c-1.9,0-3.4-1.5-3.4-3.4c0-1.9,1.5-3.4,3.4-3.4c1.9,0,3.4,1.5,3.4,3.4C506.5,117,505,118.5,503.1,118.5z   M503.1,112.2c-1.6,0-2.9,1.3-2.9,2.9c0,1.6,1.3,2.9,2.9,2.9c1.6,0,2.9-1.3,2.9-2.9C506,113.5,504.7,112.2,503.1,112.2z" id="n_id_61" />
<path d="M474.1,172.4h-1.6v-8.8h1.6V172.4z M473,171.9h0.6v-7.8H473V171.9z" id="n_id_62" />
<path d="M486.7,169.1h-13.1v-5H473v5h-12.9c-0.7,0-1.2-0.6-1.2-1.2v-13.5c0-0.7,0.6-1.2,1.2-1.2h26.6c0.7,0,1.2,0.6,1.2,1.2v13.5  C488,168.6,487.4,169.1,486.7,169.1z M474.1,168.6h12.6c0.4,0,0.8-0.3,0.8-0.8v-13.5c0-0.4-0.3-0.8-0.8-0.8h-26.6  c-0.4,0-0.8,0.3-0.8,0.8v13.5c0,0.4,0.3,0.8,0.8,0.8h12.4v-5h1.6V168.6z" id="n_id_63" />
<path d="M473.8,164.1l-1.2,0c-0.5-0.2-0.9-0.8-0.9-1.4c0-0.8,0.7-1.5,1.5-1.5c0.8,0,1.5,0.7,1.5,1.5  C474.7,163.3,474.4,163.8,473.8,164.1L473.8,164.1z M472.8,163.6h0.9c0.3-0.2,0.6-0.5,0.6-0.9c0-0.6-0.4-1-1-1c-0.6,0-1,0.4-1,1  C472.2,163.1,472.5,163.4,472.8,163.6z" id="n_id_64" />
<path d="M477.5,173c-0.8,0-1.4-0.6-1.4-1.4c0-0.8,0.6-1.4,1.4-1.4c0.8,0,1.4,0.6,1.4,1.4C478.9,172.4,478.3,173,477.5,173z   M477.5,170.7c-0.5,0-0.9,0.4-0.9,0.9c0,0.5,0.4,0.9,0.9,0.9c0.5,0,0.9-0.4,0.9-0.9C478.4,171.1,478,170.7,477.5,170.7z" id="n_id_65" />
<path d="M469.1,173c-0.8,0-1.4-0.6-1.4-1.4c0-0.8,0.6-1.4,1.4-1.4c0.8,0,1.4,0.6,1.4,1.4C470.6,172.4,469.9,173,469.1,173z   M469.1,170.7c-0.5,0-0.9,0.4-0.9,0.9c0,0.5,0.4,0.9,0.9,0.9c0.5,0,0.9-0.4,0.9-0.9C470.1,171.1,469.7,170.7,469.1,170.7z" id="n_id_66" />
<path d="M214.6,35.2L214.6,35.2C214.6,35.2,214.6,35.2,214.6,35.2c-1.5-2.7-4.3-4.5-7.6-4.5c-4.7,0-8.6,3.9-8.6,8.6  c0,4.7,3.9,8.6,8.6,8.6s8.6-3.9,8.6-8.6C215.6,37.7,215.2,36.4,214.6,35.2z" id="n_id_67" />
<path d="M207,31.1c2.8,0,5.2,1.4,6.7,3.5c-2.3-1.2-4.9-1.3-5.7-1.4V32c0-0.1-0.1-0.2-0.2-0.2h-1.2  c-0.1,0-0.2,0.1-0.2,0.2v1.3c-0.8,0-3.6,0.2-6,1.4C201.7,32.5,204.2,31.1,207,31.1z" fill="#FFFFFF" id="n_id_68" />
<rect fill="#FFFFFF" height="4.8" id="n_id_69" width="0.7" x="206.8" y="32.2" />
<path d="M207,47.3c-4.5,0-8.1-3.6-8.1-8.1c0-1.3,0.3-2.6,0.9-3.7c2.4-1.5,5.6-1.7,6.5-1.8v3.5c0,0.1,0.1,0.2,0.2,0.2  h1.2c0.1,0,0.2-0.1,0.2-0.2v-3.5c0.9,0,3.9,0.3,6.2,1.7c0.6,1.1,0.9,2.4,0.9,3.7C215.1,43.7,211.5,47.3,207,47.3z" fill="#FFFFFF" id="n_id_70" />
<path d="M207.1,37.8c-0.7,0-1.3,0.6-1.3,1.3c0,0.7,0.6,1.3,1.3,1.3c0.7,0,1.3-0.6,1.3-1.3C208.4,38.4,207.8,37.8,207.1,37.8z   M207.1,39.9c-0.4,0-0.8-0.4-0.8-0.8c0-0.4,0.4-0.8,0.8-0.8c0.4,0,0.8,0.4,0.8,0.8C207.9,39.5,207.5,39.9,207.1,39.9z" id="n_id_71" />
<path d="M209.2,33.2c0.4,0,0.8-0.4,0.8-0.8c0-0.4-0.4-0.8-0.8-0.8c-0.4,0-0.8,0.4-0.8,0.8C208.3,32.8,208.7,33.2,209.2,33.2z   M209.2,32.1c0.2,0,0.3,0.1,0.3,0.3c0,0.2-0.1,0.3-0.3,0.3c-0.2,0-0.3-0.1-0.3-0.3C208.8,32.2,209,32.1,209.2,32.1z" id="n_id_72" />
<path d="M204.8,33.2c0.4,0,0.8-0.4,0.8-0.8c0-0.4-0.4-0.8-0.8-0.8c-0.4,0-0.8,0.4-0.8,0.8C204,32.8,204.3,33.2,204.8,33.2z   M204.8,32.1c0.2,0,0.3,0.1,0.3,0.3c0,0.2-0.1,0.3-0.3,0.3c-0.2,0-0.3-0.1-0.3-0.3C204.5,32.2,204.6,32.1,204.8,32.1z" id="n_id_73" />
<path d="M203.1,150.8c-0.7,0-1.3-0.6-1.3-1.3c0-0.7,0.6-1.3,1.3-1.3c0.7,0,1.3,0.6,1.3,1.3C204.4,150.2,203.8,150.8,203.1,150.8z   M203.1,148.7c-0.4,0-0.8,0.4-0.8,0.8c0,0.4,0.4,0.8,0.8,0.8c0.4,0,0.8-0.4,0.8-0.8C203.9,149.1,203.5,148.7,203.1,148.7z" id="n_id_74" />
<path d="M210.6,145.6L210.6,145.6C210.6,145.6,210.6,145.6,210.6,145.6c-1.5-2.7-4.3-4.5-7.6-4.5c-4.7,0-8.6,3.9-8.6,8.6  c0,4.7,3.9,8.6,8.6,8.6c4.7,0,8.6-3.9,8.6-8.6C211.6,148.2,211.2,146.8,210.6,145.6z" id="n_id_75" />
<path d="M203,141.5c2.8,0,5.2,1.4,6.7,3.5c-2.3-1.2-4.9-1.3-5.7-1.4v-1.3c0-0.1-0.1-0.2-0.2-0.2h-1.2  c-0.1,0-0.2,0.1-0.2,0.2v1.3c-0.8,0-3.6,0.2-6,1.4C197.7,143,200.2,141.5,203,141.5z" fill="#FFFFFF" id="n_id_76" />
<rect height="4.8" id="n_id_77" width="0.7" x="202.8" y="142.7" />
<path d="M203,157.7c-4.5,0-8.1-3.6-8.1-8.1c0-1.3,0.3-2.6,0.9-3.7c2.4-1.5,5.6-1.7,6.5-1.8v3.5  c0,0.1,0.1,0.2,0.2,0.2h1.2c0.1,0,0.2-0.1,0.2-0.2v-3.5c0.9,0,3.9,0.3,6.2,1.7c0.6,1.1,0.9,2.4,0.9,3.7  C211.1,154.1,207.5,157.7,203,157.7z" fill="#FFFFFF" id="n_id_78" />
<path d="M205.1,143.6c-0.4,0-0.8-0.4-0.8-0.8c0-0.4,0.4-0.8,0.8-0.8c0.4,0,0.8,0.4,0.8,0.8C206,143.2,205.6,143.6,205.1,143.6z   M205.1,142.5c-0.2,0-0.3,0.1-0.3,0.3c0,0.2,0.1,0.3,0.3,0.3c0.2,0,0.3-0.1,0.3-0.3C205.5,142.6,205.3,142.5,205.1,142.5z" id="n_id_79" />
<path d="M200.8,143.6c-0.4,0-0.8-0.4-0.8-0.8c0-0.4,0.4-0.8,0.8-0.8c0.4,0,0.8,0.4,0.8,0.8C201.6,143.2,201.2,143.6,200.8,143.6z   M200.8,142.5c-0.2,0-0.3,0.1-0.3,0.3c0,0.2,0.1,0.3,0.3,0.3c0.2,0,0.3-0.1,0.3-0.3C201.1,142.6,200.9,142.5,200.8,142.5z" id="n_id_80" />
<path d="M195.1,119.1c-0.6,0-1.2-0.5-1.2-1.2s0.5-1.2,1.2-1.2s1.2,0.5,1.2,1.2S195.7,119.1,195.1,119.1z M195.1,117.2  c-0.4,0-0.7,0.3-0.7,0.7c0,0.4,0.3,0.7,0.7,0.7c0.4,0,0.7-0.3,0.7-0.7C195.7,117.5,195.4,117.2,195.1,117.2z" id="n_id_81" />
<path d="M283.2,200.4h-14.8c-6.5,0-6.8-2.9-6.8-3l0-43.5c0-6.8,5.5-12.2,12.2-12.2h1.9c6.8,0,12.2,5.5,12.2,12.2v43.5  C288,200.2,283.4,200.4,283.2,200.4L283.2,200.4z M273.9,142.1c-6.5,0-11.7,5.3-11.7,11.8v43.5c0,0,0.3,2.5,6.3,2.5h14.7  c0.2,0,4.3-0.2,4.3-2.5v-43.5c0-6.5-5.3-11.8-11.8-11.8H273.9z" id="n_id_82" />
<path d="M274.9,196c-0.6,0-1.2-0.5-1.2-1.2s0.5-1.2,1.2-1.2c0.6,0,1.2,0.5,1.2,1.2S275.6,196,274.9,196z M274.9,194.1  c-0.4,0-0.7,0.3-0.7,0.7c0,0.4,0.3,0.7,0.7,0.7c0.4,0,0.7-0.3,0.7-0.7C275.6,194.4,275.3,194.1,274.9,194.1z" id="n_id_83" />
<rect height="0.5" id="n_id_84" width="2.6" x="440.3" y="175" />
<rect height="0.5" id="n_id_85" width="2.6" x="445.5" y="150.1" />
<rect height="2.4" id="n_id_86" width="0.5" x="430.9" y="164" />
<rect height="2.4" id="n_id_87" width="0.5" x="430.9" y="159.2" />
<rect height="1.9" id="n_id_88" transform="matrix(0.9994 -3.318172e-02 3.318172e-02 0.9994 -5.2996 16.6473)" width="0.5" x="498.7" y="167.1" />
<rect height="0.5" id="n_id_89" width="2.6" x="440.3" y="150.1" />
<rect height="0.5" id="n_id_90" width="2.6" x="445.5" y="175" />
<polygon id="n_id_91" points="430.9,150.4 430.9,156.9 431.4,156.9 431.4,150.6 437.7,150.6 437.7,150.1 431.2,150.1 " />
<polygon id="n_id_92" points="431.4,168.7 430.9,168.7 430.9,175.2 431.2,175.5 437.7,175.5 437.7,175 431.4,175 " />
<rect height="0.5" id="n_id_93" width="3.5" x="511.4" y="53.5" />
<polygon id="n_id_94" points="511.7,62.8 517,62.8 517,62.3 511.7,62.3 511.7,56 511.2,56 511.2,65.6 511.7,65.6 " />
<rect height="9.6" id="n_id_95" width="0.5" x="511.2" y="68.8" />
<rect height="0.5" id="n_id_96" width="5.6" x="519.9" y="62.3" />
<rect height="0.5" id="n_id_97" width="1.7" x="519.9" y="53.5" />
<rect height="0.5" id="n_id_98" width="5.6" x="519.9" y="97.8" />
<rect height="9.6" id="n_id_99" width="0.5" x="511.2" y="81.5" />
<rect height="0.5" id="n_id_100" width="7.5" x="484.5" y="40.2" />
<rect height="1.9" id="n_id_101" width="0.5" x="498.7" y="33.5" />
<rect height="0.5" id="n_id_102" width="7.5" x="474.4" y="40.2" />
<polygon id="n_id_103" points="501.9,43.9 502.3,43.6 499.2,40.4 499.2,36 498.7,36 498.7,40.2 494.5,40.2 494.5,40.7 498.9,40.7 " />
<rect height="1.9" id="n_id_104" width="0.5" x="498.7" y="31.1" />
<polygon id="n_id_105" points="511.7,98.3 517,98.3 517,97.8 511.7,97.8 511.7,94.3 511.2,94.3 511.2,103.9 511.7,103.9 " />
<rect height="0.5" id="n_id_106" transform="matrix(0.6845 0.729 -0.729 0.6845 196.2721 -354.3466)" width="9.6" x="502.8" y="49.3" />
<rect height="0.5" id="n_id_107" width="1.7" x="516.6" y="53.5" />
<rect height="7.9" id="n_id_108" width="0.5" x="346.9" y="365.7" />
<rect height="7.9" id="n_id_109" width="0.5" x="346.9" y="381.5" />
<rect height="7.9" id="n_id_110" width="0.5" x="346.9" y="350" />
<rect height="7.9" id="n_id_111" width="0.5" x="346.9" y="318.5" />
<rect height="0.5" id="n_id_112" width="7.5" x="464.4" y="40.2" />
<rect height="0.5" id="n_id_113" width="9.8" x="39.1" y="227.2" />
<rect height="7.9" id="n_id_114" width="0.5" x="346.9" y="334.2" />
<rect height="0.5" id="n_id_115" width="7.3" x="80.2" y="187.2" />
<rect height="0.5" id="n_id_116" width="7.3" x="94.8" y="187.2" />
<rect height="0.5" id="n_id_117" width="7.3" x="65.7" y="187.2" />
<rect height="0.5" id="n_id_118" width="7.3" x="36.6" y="187.2" />
<rect height="0.5" id="n_id_119" transform="matrix(-3.342701e-02 -0.9994 0.9994 -3.342701e-02 344.0852 676.2318)" width="1.9" x="498.1" y="171.5" />
<rect height="0.5" id="n_id_120" width="9.8" x="58.7" y="227.2" />
<rect height="0.5" id="n_id_121" width="7.3" x="51.1" y="187.2" />
<polygon id="n_id_122" points="498.5,163.1 498.6,165.2 499.1,165.2 499,163.3 500.3,161.9 499.9,161.6 " />
<rect height="2.9" id="n_id_123" transform="matrix(-0.7263 -0.6873 0.6873 -0.7263 759.4896 619.6047)" width="0.5" x="502.8" y="157.2" />
<polygon id="n_id_124" points="437.6,36 437.1,36 437.1,40.7 441.8,40.7 441.8,40.2 437.6,40.2 " />
<rect height="9.6" id="n_id_125" width="0.5" x="511.2" y="119.8" />
<rect height="0.5" id="n_id_126" width="7.5" x="444.4" y="40.2" />
<rect height="0.5" id="n_id_127" width="7.5" x="454.4" y="40.2" />
<rect height="1.9" id="n_id_128" width="0.5" x="437.1" y="33.5" />
<rect height="1.9" id="n_id_129" width="0.5" x="437.1" y="31.1" />
<path d="M403.7,403.2v5h63.5v-5H403.7z M244.7,408.2h63.5v-5h-63.5V408.2z M2.1,147.9h5l3.2-63.4h-5L2.1,147.9z   M2.6,344.2h5l2.4-62h-5L2.6,344.2z" fill="#FFFFFF" id="n_id_130" />
<rect height="31.1" id="n_id_131" width="23" x="328.3" y="266.3" />
<rect fill="#FFFFFF" height="30.1" id="n_id_132" width="22" x="328.8" y="266.8" />
<g id="n_id_133">
	<g id="n_id_134">
		<text font-family="'CenturyGothic-Bold'" font-size="12.3217" id="n_id_135" transform="matrix(1.0236 0 0 1 51.1411 94.6411)">MASTER BDRM.</text>
	</g>
</g>
<g id="n_id_136">
	<g id="n_id_137">
		<text font-family="'CenturyGothic'" font-size="9.8465" id="n_id_138" transform="matrix(1 0 0 1.018 65.0156 106.2949)">13</text>
		<text font-family="'CenturyGothic'" font-size="9.8465" id="n_id_139" transform="matrix(1 0 0 1.018 75.9257 106.2949)">’</text>
		<text font-family="'CenturyGothic'" font-size="9.8465" id="n_id_140" transform="matrix(1 0 0 1.018 79.3818 106.2949)">-5</text>
		<text font-family="'CenturyGothic'" font-size="9.8465" id="n_id_141" transform="matrix(1 0 0 1.018 88.1054 106.2949)">”</text>
		<text font-family="'CenturyGothic'" font-size="9.8465" id="n_id_142" transform="matrix(1 0 0 1.018 92.8711 106.2949)">x11</text>
		<text font-family="'CenturyGothic'" font-size="9.8465" id="n_id_143" transform="matrix(1 0 0 1.018 108.5073 106.2949)">’</text>
		<text font-family="'CenturyGothic'" font-size="9.8465" id="n_id_144" transform="matrix(1 0 0 1.018 111.9638 106.2949)">-2</text>
		<text font-family="'CenturyGothic'" font-size="9.8465" id="n_id_145" transform="matrix(1 0 0 1.018 120.6875 106.2949)">”</text>
	</g>
</g>
<g id="n_id_146">
	<g id="n_id_147">
		<text font-family="'CenturyGothic-Bold'" font-size="12.3217" id="n_id_148" transform="matrix(1.0236 0 0 1 307.7148 150.6938)">DINING</text>
	</g>
</g>
<g id="n_id_149">
	<g id="n_id_150">
		<text font-family="'CenturyGothic-Bold'" font-size="12.3217" id="n_id_151" transform="matrix(1.0236 0 0 1 216.2148 184.2783)">BA. 2</text>
	</g>
</g>
<g id="n_id_152">
	<g id="n_id_153">
		<text font-family="'CenturyGothic-Bold'" font-size="12.3217" id="n_id_154" transform="matrix(1.0236 0 0 1 76.7148 323.0288)">BDRM. 2</text>
	</g>
</g>
<g id="n_id_155">
	<g id="n_id_156">
		<text font-family="'CenturyGothic-Bold'" font-size="12.3217" id="n_id_157" transform="matrix(1.0236 0 0 1 231.4648 324.5288)">BDRM. 3</text>
	</g>
</g>
<g id="n_id_158">
	<g id="n_id_159">
		<text font-family="'CenturyGothic-Bold'" font-size="12.3217" id="n_id_160" transform="matrix(1.0236 0 0 1 426.5742 331.9067)">LIVING</text>
	</g>
</g>
<g id="n_id_161">
	<g id="n_id_162">
		<text font-family="'CenturyGothic-Bold'" font-size="12.3217" id="n_id_163" transform="matrix(1.0236 0 0 1 431.4062 99.0947)">KITCHEN</text>
	</g>
</g>
<g id="n_id_164">
	<g id="n_id_165">
		<text font-family="'CenturyGothic-Bold'" font-size="12.3217" id="n_id_166" transform="matrix(1.0236 0 0 1 203.0551 70.4687)">MASTER BA.</text>
	</g>
</g>
<g id="n_id_167">
	<g id="n_id_168">
		<text font-family="'CenturyGothic'" font-size="9.8465" id="n_id_169" transform="matrix(1 0 0 1.018 305.457 162.4531)">8</text>
		<text font-family="'CenturyGothic'" font-size="9.8465" id="n_id_170" transform="matrix(1 0 0 1.018 310.912 162.4531)">’</text>
		<text font-family="'CenturyGothic'" font-size="9.8465" id="n_id_171" transform="matrix(1 0 0 1.018 314.3681 162.4531)">-2</text>
		<text font-family="'CenturyGothic'" font-size="9.8465" id="n_id_172" transform="matrix(1 0 0 1.018 323.0922 162.4531)">”</text>
		<text font-family="'CenturyGothic'" font-size="9.8465" id="n_id_173" transform="matrix(1 0 0 1.018 327.8578 162.4531)">x8</text>
		<text font-family="'CenturyGothic'" font-size="9.8465" id="n_id_174" transform="matrix(1 0 0 1.018 338.039 162.4531)">’</text>
		<text font-family="'CenturyGothic'" font-size="9.8465" id="n_id_175" transform="matrix(1 0 0 1.018 341.4951 162.4531)">-0</text>
		<text font-family="'CenturyGothic'" font-size="9.8465" id="n_id_176" transform="matrix(1 0 0 1.018 350.2192 162.4531)">”</text>
	</g>
</g>
<g id="n_id_177">
	<g id="n_id_178">
		<text font-family="'CenturyGothic'" font-size="9.8465" id="n_id_179" transform="matrix(1 0 0 1.018 207.2324 195.9668)">8</text>
		<text font-family="'CenturyGothic'" font-size="9.8465" id="n_id_180" transform="matrix(1 0 0 1.018 212.6875 195.9668)">’</text>
		<text font-family="'CenturyGothic'" font-size="9.8465" id="n_id_181" transform="matrix(1 0 0 1.018 216.1435 195.9668)">-0</text>
		<text font-family="'CenturyGothic'" font-size="9.8465" id="n_id_182" transform="matrix(1 0 0 1.018 224.8676 195.9668)">”</text>
		<text font-family="'CenturyGothic'" font-size="9.8465" id="n_id_183" transform="matrix(1 0 0 1.018 229.6333 195.9668)">x5</text>
		<text font-family="'CenturyGothic'" font-size="9.8465" id="n_id_184" transform="matrix(1 0 0 1.018 239.8144 195.9668)">’</text>
		<text font-family="'CenturyGothic'" font-size="9.8465" id="n_id_185" transform="matrix(1 0 0 1.018 243.2705 195.9668)">-0</text>
		<text font-family="'CenturyGothic'" font-size="9.8465" id="n_id_186" transform="matrix(1 0 0 1.018 251.9946 195.9668)">”</text>
	</g>
</g>
<g id="n_id_187">
	<g id="n_id_188">
		<text font-family="'CenturyGothic'" font-size="9.8465" id="n_id_189" transform="matrix(1 0 0 1.018 70.9594 334.9668)">13</text>
		<text font-family="'CenturyGothic'" font-size="9.8465" id="n_id_190" transform="matrix(1 0 0 1.018 81.8695 334.9668)">’</text>
		<text font-family="'CenturyGothic'" font-size="9.8465" id="n_id_191" transform="matrix(1 0 0 1.018 85.3256 334.9668)">-8</text>
		<text font-family="'CenturyGothic'" font-size="9.8465" id="n_id_192" transform="matrix(1 0 0 1.018 94.0492 334.9668)">”</text>
		<text font-family="'CenturyGothic'" font-size="9.8465" id="n_id_193" transform="matrix(1 0 0 1.018 98.8149 334.9668)">x11</text>
		<text font-family="'CenturyGothic'" font-size="9.8465" id="n_id_194" transform="matrix(1 0 0 1.018 114.4511 334.9668)">’</text>
		<text font-family="'CenturyGothic'" font-size="9.8465" id="n_id_195" transform="matrix(1 0 0 1.018 117.9076 334.9668)">-4</text>
		<text font-family="'CenturyGothic'" font-size="9.8465" id="n_id_196" transform="matrix(1 0 0 1.018 126.6313 334.9668)">”</text>
	</g>
</g>
<g id="n_id_197">
	<g id="n_id_198">
		<text font-family="'CenturyGothic'" font-size="9.8465" id="n_id_199" transform="matrix(1 0 0 1.018 225.9594 336.4668)">11</text>
		<text font-family="'CenturyGothic'" font-size="9.8465" id="n_id_200" transform="matrix(1 0 0 1.018 236.8696 336.4668)">’</text>
		<text font-family="'CenturyGothic'" font-size="9.8465" id="n_id_201" transform="matrix(1 0 0 1.018 240.3256 336.4668)">-0</text>
		<text font-family="'CenturyGothic'" font-size="9.8465" id="n_id_202" transform="matrix(1 0 0 1.018 249.0492 336.4668)">”</text>
		<text font-family="'CenturyGothic'" font-size="9.8465" id="n_id_203" transform="matrix(1 0 0 1.018 253.8148 336.4668)">x11</text>
		<text font-family="'CenturyGothic'" font-size="9.8465" id="n_id_204" transform="matrix(1 0 0 1.018 269.4511 336.4668)">’</text>
		<text font-family="'CenturyGothic'" font-size="9.8465" id="n_id_205" transform="matrix(1 0 0 1.018 272.9077 336.4668)">-0</text>
		<text font-family="'CenturyGothic'" font-size="9.8465" id="n_id_206" transform="matrix(1 0 0 1.018 281.6313 336.4668)">”</text>
	</g>
</g>
<g id="n_id_207">
	<g id="n_id_208">
		<text font-family="'CenturyGothic'" font-size="6.8123" id="n_id_209" transform="matrix(1 0 0 1.018 330.3935 284.2735)">HVAC</text>
	</g>
</g>
<g id="n_id_210">
	<g id="n_id_211">
		<text font-family="'CenturyGothic'" font-size="6.8123" id="n_id_212" transform="matrix(1 0 0 1.018 93.9438 232.9962)">LINEN</text>
	</g>
</g>
<g id="n_id_213">
	<g id="n_id_214">
		<text font-family="'CenturyGothic'" font-size="9.8465" id="n_id_215" transform="matrix(1 0 0 1.018 416.7148 343.7148)">12</text>
		<text font-family="'CenturyGothic'" font-size="9.8465" id="n_id_216" transform="matrix(1 0 0 1.018 427.6249 343.7148)">’</text>
		<text font-family="'CenturyGothic'" font-size="9.8465" id="n_id_217" transform="matrix(1 0 0 1.018 431.081 343.7148)">-0</text>
		<text font-family="'CenturyGothic'" font-size="9.8465" id="n_id_218" transform="matrix(1 0 0 1.018 439.8046 343.7148)">”</text>
		<text font-family="'CenturyGothic'" font-size="9.8465" id="n_id_219" transform="matrix(1 0 0 1.018 444.5703 343.7148)">x14</text>
		<text font-family="'CenturyGothic'" font-size="9.8465" id="n_id_220" transform="matrix(1 0 0 1.018 460.2065 343.7148)">’</text>
		<text font-family="'CenturyGothic'" font-size="9.8465" id="n_id_221" transform="matrix(1 0 0 1.018 463.663 343.7148)">-0</text>
		<text font-family="'CenturyGothic'" font-size="9.8465" id="n_id_222" transform="matrix(1 0 0 1.018 472.3867 343.7148)">”</text>
	</g>
</g>
<g id="n_id_223">
	<g id="n_id_224">
		<text font-family="'CenturyGothic'" font-size="9.8465" id="n_id_225" transform="matrix(1 0 0 1.018 426.5742 111.4082)">11</text>
		<text font-family="'CenturyGothic'" font-size="9.8465" id="n_id_226" transform="matrix(1 0 0 1.018 437.4843 111.4082)">’</text>
		<text font-family="'CenturyGothic'" font-size="9.8465" id="n_id_227" transform="matrix(1 0 0 1.018 440.9404 111.4082)">-4</text>
		<text font-family="'CenturyGothic'" font-size="9.8465" id="n_id_228" transform="matrix(1 0 0 1.018 449.664 111.4082)">”</text>
		<text font-family="'CenturyGothic'" font-size="9.8465" id="n_id_229" transform="matrix(1 0 0 1.018 454.4296 111.4082)">x9</text>
		<text font-family="'CenturyGothic'" font-size="9.8465" id="n_id_230" transform="matrix(1 0 0 1.018 464.6113 111.4082)">’</text>
		<text font-family="'CenturyGothic'" font-size="9.8465" id="n_id_231" transform="matrix(1 0 0 1.018 468.0674 111.4082)">-10</text>
		<text font-family="'CenturyGothic'" font-size="9.8465" id="n_id_232" transform="matrix(1 0 0 1.018 482.2461 111.4082)">”</text>
	</g>
</g>
<g id="n_id_233">
	<g id="n_id_234">
		<text font-family="'CenturyGothic'" font-size="9.8465" id="n_id_235" transform="matrix(1 0 0 1.018 213.2265 82.1846)">8</text>
		<text font-family="'CenturyGothic'" font-size="9.8465" id="n_id_236" transform="matrix(1 0 0 1.018 218.6816 82.1846)">’</text>
		<text font-family="'CenturyGothic'" font-size="9.8465" id="n_id_237" transform="matrix(1 0 0 1.018 222.1376 82.1846)">-2</text>
		<text font-family="'CenturyGothic'" font-size="9.8465" id="n_id_238" transform="matrix(1 0 0 1.018 230.8618 82.1846)">”</text>
		<text font-family="'CenturyGothic'" font-size="9.8465" id="n_id_239" transform="matrix(1 0 0 1.018 235.6274 82.1846)">x8</text>
		<text font-family="'CenturyGothic'" font-size="9.8465" id="n_id_240" transform="matrix(1 0 0 1.018 245.8085 82.1846)">’</text>
		<text font-family="'CenturyGothic'" font-size="9.8465" id="n_id_241" transform="matrix(1 0 0 1.018 249.2646 82.1846)">-0</text>
		<text font-family="'CenturyGothic'" font-size="9.8465" id="n_id_242" transform="matrix(1 0 0 1.018 257.9887 82.1846)">”</text>
	</g>
</g>
<g id="n_id_243">
	<g id="n_id_244">
		<text font-family="'CenturyGothic'" font-size="6.6994" id="n_id_245" transform="matrix(1.0445 0 0 1 304.957 83.6656)">LAUNDRY</text>
	</g>
</g>
<g id="n_id_246">
	<g id="n_id_247">
		<text font-family="'CenturyGothic'" font-size="6.6994" id="n_id_248" transform="matrix(1.0445 0 0 1 304.957 75.5832)">OPT.</text>
	</g>
</g>
</svg>