25
2
0
99
rectangle
7649
8258
4216
4274
305.380091034
0.0
0.0
0.0691729323308
0.0511278195489
0.0421052631579
0.0406015037594
0.0390977443609
0.0390977443609
0.0390977443609
0.0360902255639
0.0390977443609
0.0360902255639
0.0390977443609
0.0360902255639
0.0375939849624
0.0375939849624
0.0360902255639
0.0375939849624
0.0375939849624
0.0360902255639
0.0360902255639
0.0390977443609
0.0360902255639
0.0360902255639
0.121804511278
0.0235352863923
0.160902255639
0.172180451128
0.0586466165414
0.0308270676692
0.0187969924812
0.0135338345865
0.00977443609023
0.00827067669173
0.00676691729323
0.00601503759398
0.00601503759398
0.00601503759398
0.00300751879699
0.00300751879699
0.00300751879699
0.00300751879699
0.00300751879699
0.00451127819549
0.00451127819549
0.00676691729323
0.00902255639098
0.015037593985
0.0293233082707
0.0842105263158
0.0827067669173
0
unknown
0
9027
0
5774
22.8473193176
5.97405424815e-148
6.49809409448e-148
8.7752854267e-148
1.67311630937e-147
3.72639970726e-147
4.3066547371e-147
3.71877730949e-147
4.81354418846e-147
6.10268221043e-147
6.45902930593e-147
7.13837550672e-147
7.36037784162e-147
6.47332130174e-147
6.05694782384e-147
6.25798856489e-147
9.64042757301e-147
8.02162084771e-147
7.8081937103e-147
8.51326550354e-147
8.47705911416e-147
7.09549951929e-147
6.50952769112e-147
4.69634982283e-147
6.86206358774e-147
6.41234211962e-147
5.97405424815e-148
6.49809409448e-148
8.7752854267e-148
1.67311630937e-147
3.72639970726e-147
4.3066547371e-147
3.71877730949e-147
4.81354418846e-147
6.10268221043e-147
6.45902930593e-147
7.13837550672e-147
7.36037784162e-147
6.47332130174e-147
6.05694782384e-147
6.25798856489e-147
9.64042757301e-147
8.02162084771e-147
7.8081937103e-147
8.51326550354e-147
8.47705911416e-147
7.09549951929e-147
6.50952769112e-147
4.69634982283e-147
6.86206358774e-147
6.41234211962e-147
5.97405424815e-148
6.49809409448e-148
8.7752854267e-148
1.67311630937e-147
3.72639970726e-147
4.3066547371e-147
3.71877730949e-147
4.81354418846e-147
6.10268221043e-147
6.45902930593e-147
7.13837550672e-147
7.36037784162e-147
6.47332130174e-147
6.05694782384e-147
6.25798856489e-147
9.64042757301e-147
8.02162084771e-147
7.8081937103e-147
8.51326550354e-147
8.47705911416e-147
7.09549951929e-147
6.50952769112e-147
4.69634982283e-147
6.86206358774e-147
6.41234211962e-147
5.97405424815e-148
6.49809409448e-148
8.7752854267e-148
1.67311630937e-147
3.72639970726e-147
4.3066547371e-147
3.71877730949e-147
4.81354418846e-147
6.10268221043e-147
6.45902930593e-147
7.13837550672e-147
7.36037784162e-147
6.47332130174e-147
6.05694782384e-147
6.25798856489e-147
9.64042757301e-147
8.02162084771e-147
7.8081937103e-147
8.51326550354e-147
8.47705911416e-147
7.09549951929e-147
6.50952769112e-147
4.69634982283e-147
6.86206358774e-147
6.41234211962e-147
5.97405424815e-148
6.49809409448e-148
8.7752854267e-148
1.67311630937e-147
3.72639970726e-147
4.3066547371e-147
3.71877730949e-147
4.81354418846e-147
6.10268221043e-147
6.45902930593e-147
7.13837550672e-147
7.36037784162e-147
6.47332130174e-147
6.05694782384e-147
6.25798856489e-147
9.64042757301e-147
8.02162084771e-147
7.8081937103e-147
8.51326550354e-147
8.47705911416e-147
7.09549951929e-147
6.50952769112e-147
4.69634982283e-147
6.86206358774e-147
6.41234211962e-147
5.97405424815e-148
6.49809409448e-148
8.7752854267e-148
1.67311630937e-147
3.72639970726e-147
4.3066547371e-147
3.71877730949e-147
4.81354418846e-147
6.10268221043e-147
6.45902930593e-147
7.13837550672e-147
7.36037784162e-147
6.47332130174e-147
6.05694782384e-147
6.25798856489e-147
9.64042757301e-147
8.02162084771e-147
7.8081937103e-147
8.51326550354e-147
8.47705911416e-147
7.09549951929e-147
6.50952769112e-147
4.69634982283e-147
6.86206358774e-147
6.41234211962e-147
5.97405424815e-148
6.49809409448e-148
8.7752854267e-148
1.67311630937e-147
3.72639970726e-147
4.3066547371e-147
3.71877730949e-147
4.81354418846e-147
6.10268221043e-147
6.45902930593e-147
7.13837550672e-147
7.36037784162e-147
6.47332130174e-147
6.05694782384e-147
6.25798856489e-147
9.64042757301e-147
8.02162084771e-147
7.8081937103e-147
8.51326550354e-147
8.47705911416e-147
7.09549951929e-147
6.50952769112e-147
4.69634982283e-147
6.86206358774e-147
6.41234211962e-147
5.97405424815e-148
6.49809409448e-148
8.7752854267e-148
1.67311630937e-147
3.72639970726e-147
4.3066547371e-147
3.71877730949e-147
4.81354418846e-147
6.10268221043e-147
6.45902930593e-147
7.13837550672e-147
7.36037784162e-147
6.47332130174e-147
6.05694782384e-147
6.25798856489e-147
9.64042757301e-147
8.02162084771e-147
7.8081937103e-147
8.51326550354e-147
8.47705911416e-147
7.09549951929e-147
6.50952769112e-147
4.69634982283e-147
6.86206358774e-147
6.41234211962e-147
5.97405424815e-148
6.49809409448e-148
8.7752854267e-148
1.67311630937e-147
3.72639970726e-147
4.3066547371e-147
3.71877730949e-147
4.81354418846e-147
6.10268221043e-147
6.45902930593e-147
7.13837550672e-147
7.36037784162e-147
6.47332130174e-147
6.05694782384e-147
6.25798856489e-147
9.64042757301e-147
8.02162084771e-147
7.8081937103e-147
8.51326550354e-147
8.47705911416e-147
7.09549951929e-147
6.50952769112e-147
4.69634982283e-147
6.86206358774e-147
6.41234211962e-147
5.97405424815e-148
6.49809409448e-148
8.7752854267e-148
1.67311630937e-147
3.72639970726e-147
4.3066547371e-147
3.71877730949e-147
4.81354418846e-147
6.10268221043e-147
6.45902930593e-147
7.13837550672e-147
7.36037784162e-147
6.47332130174e-147
6.05694782384e-147
6.25798856489e-147
9.64042757301e-147
8.02162084771e-147
7.8081937103e-147
8.51326550354e-147
8.47705911416e-147
7.09549951929e-147
6.50952769112e-147
4.69634982283e-147
6.86206358774e-147
6.41234211962e-147
5.97405424815e-148
6.49809409448e-148
8.7752854267e-148
1.67311630937e-147
3.72639970726e-147
4.3066547371e-147
3.71877730949e-147
4.81354418846e-147
6.10268221043e-147
6.45902930593e-147
7.13837550672e-147
7.36037784162e-147
6.47332130174e-147
6.05694782384e-147
6.25798856489e-147
9.64042757301e-147
8.02162084771e-147
7.8081937103e-147
8.51326550354e-147
8.47705911416e-147
7.09549951929e-147
6.50952769112e-147
4.69634982283e-147
6.86206358774e-147
6.41234211962e-147
5.97405424815e-148
6.49809409448e-148
8.7752854267e-148
1.67311630937e-147
3.72639970726e-147
4.3066547371e-147
3.71877730949e-147
4.81354418846e-147
6.10268221043e-147
6.45902930593e-147
7.13837550672e-147
7.36037784162e-147
6.47332130174e-147
6.05694782384e-147
6.25798856489e-147
9.64042757301e-147
8.02162084771e-147
7.8081937103e-147
8.51326550354e-147
8.47705911416e-147
7.09549951929e-147
6.50952769112e-147
4.69634982283e-147
6.86206358774e-147
6.41234211962e-147
5.97405424815e-148
6.49809409448e-148
8.7752854267e-148
1.67311630937e-147
3.72639970726e-147
4.3066547371e-147
3.71877730949e-147
4.81354418846e-147
6.10268221043e-147
6.45902930593e-147
7.13837550672e-147
7.36037784162e-147
6.47332130174e-147
6.05694782384e-147
6.25798856489e-147
9.64042757301e-147
8.02162084771e-147
7.8081937103e-147
8.51326550354e-147
8.47705911416e-147
7.09549951929e-147
6.50952769112e-147
4.69634982283e-147
6.86206358774e-147
6.41234211962e-147
5.97405424815e-148
6.49809409448e-148
8.7752854267e-148
1.67311630937e-147
3.72639970726e-147
4.3066547371e-147
3.71877730949e-147
4.81354418846e-147
6.10268221043e-147
6.45902930593e-147
7.13837550672e-147
7.36037784162e-147
6.47332130174e-147
6.05694782384e-147
6.25798856489e-147
9.64042757301e-147
8.02162084771e-147
7.8081937103e-147
8.51326550354e-147
8.47705911416e-147
7.09549951929e-147
6.50952769112e-147
4.69634982283e-147
6.86206358774e-147
6.41234211962e-147
5.97405424815e-148
6.49809409448e-148
8.7752854267e-148
1.67311630937e-147
3.72639970726e-147
4.3066547371e-147
3.71877730949e-147
4.81354418846e-147
6.10268221043e-147
6.45902930593e-147
7.13837550672e-147
7.36037784162e-147
6.47332130174e-147
6.05694782384e-147
6.25798856489e-147
9.64042757301e-147
8.02162084771e-147
7.8081937103e-147
8.51326550354e-147
8.47705911416e-147
7.09549951929e-147
6.50952769112e-147
4.69634982283e-147
6.86206358774e-147
6.41234211962e-147
5.97405424815e-148
6.49809409448e-148
8.7752854267e-148
1.67311630937e-147
3.72639970726e-147
4.3066547371e-147
3.71877730949e-147
4.81354418846e-147
6.10268221043e-147
6.45902930593e-147
7.13837550672e-147
7.36037784162e-147
6.47332130174e-147
6.05694782384e-147
6.25798856489e-147
9.64042757301e-147
8.02162084771e-147
7.8081937103e-147
8.51326550354e-147
8.47705911416e-147
7.09549951929e-147
6.50952769112e-147
4.69634982283e-147
6.86206358774e-147
6.41234211962e-147
5.97405424815e-148
6.49809409448e-148
8.7752854267e-148
1.67311630937e-147
3.72639970726e-147
4.3066547371e-147
3.71877730949e-147
4.81354418846e-147
6.10268221043e-147
6.45902930593e-147
7.13837550672e-147
7.36037784162e-147
6.47332130174e-147
6.05694782384e-147
6.25798856489e-147
9.64042757301e-147
8.02162084771e-147
7.8081937103e-147
8.51326550354e-147
8.47705911416e-147
7.09549951929e-147
6.50952769112e-147
4.69634982283e-147
6.86206358774e-147
6.41234211962e-147
5.97405424815e-148
6.49809409448e-148
8.7752854267e-148
1.67311630937e-147
3.72639970726e-147
4.3066547371e-147
3.71877730949e-147
4.81354418846e-147
6.10268221043e-147
6.45902930593e-147
7.13837550672e-147
7.36037784162e-147
6.47332130174e-147
6.05694782384e-147
6.25798856489e-147
9.64042757301e-147
8.02162084771e-147
7.8081937103e-147
8.51326550354e-147
8.47705911416e-147
7.09549951929e-147
6.50952769112e-147
4.69634982283e-147
6.86206358774e-147
6.41234211962e-147
5.97405424815e-148
6.49809409448e-148
8.7752854267e-148
1.67311630937e-147
3.72639970726e-147
4.3066547371e-147
3.71877730949e-147
4.81354418846e-147
6.10268221043e-147
6.45902930593e-147
7.13837550672e-147
7.36037784162e-147
6.47332130174e-147
6.05694782384e-147
6.25798856489e-147
9.64042757301e-147
8.02162084771e-147
7.8081937103e-147
8.51326550354e-147
8.47705911416e-147
7.09549951929e-147
6.50952769112e-147
4.69634982283e-147
6.86206358774e-147
6.41234211962e-147
5.97405424815e-148
6.49809409448e-148
8.7752854267e-148
1.67311630937e-147
3.72639970726e-147
4.3066547371e-147
3.71877730949e-147
4.81354418846e-147
6.10268221043e-147
6.45902930593e-147
7.13837550672e-147
7.36037784162e-147
6.47332130174e-147
6.05694782384e-147
6.25798856489e-147
9.64042757301e-147
8.02162084771e-147
7.8081937103e-147
8.51326550354e-147
8.47705911416e-147
7.09549951929e-147
6.50952769112e-147
4.69634982283e-147
6.86206358774e-147
6.41234211962e-147
5.97405424815e-148
6.49809409448e-148
8.7752854267e-148
1.67311630937e-147
3.72639970726e-147
4.3066547371e-147
3.71877730949e-147
4.81354418846e-147
6.10268221043e-147
6.45902930593e-147
7.13837550672e-147
7.36037784162e-147
6.47332130174e-147
6.05694782384e-147
6.25798856489e-147
9.64042757301e-147
8.02162084771e-147
7.8081937103e-147
8.51326550354e-147
8.47705911416e-147
7.09549951929e-147
6.50952769112e-147
4.69634982283e-147
6.86206358774e-147
6.41234211962e-147
5.97405424815e-148
6.49809409448e-148
8.7752854267e-148
1.67311630937e-147
3.72639970726e-147
4.3066547371e-147
3.71877730949e-147
4.81354418846e-147
6.10268221043e-147
6.45902930593e-147
7.13837550672e-147
7.36037784162e-147
6.47332130174e-147
6.05694782384e-147
6.25798856489e-147
9.64042757301e-147
8.02162084771e-147
7.8081937103e-147
8.51326550354e-147
8.47705911416e-147
7.09549951929e-147
6.50952769112e-147
4.69634982283e-147
6.86206358774e-147
6.41234211962e-147
5.97405424815e-148
6.49809409448e-148
8.7752854267e-148
1.67311630937e-147
3.72639970726e-147
4.3066547371e-147
3.71877730949e-147
4.81354418846e-147
6.10268221043e-147
6.45902930593e-147
7.13837550672e-147
7.36037784162e-147
6.47332130174e-147
6.05694782384e-147
6.25798856489e-147
9.64042757301e-147
8.02162084771e-147
7.8081937103e-147
8.51326550354e-147
8.47705911416e-147
7.09549951929e-147
6.50952769112e-147
4.69634982283e-147
6.86206358774e-147
6.41234211962e-147
5.97405424815e-148
6.49809409448e-148
8.7752854267e-148
1.67311630937e-147
3.72639970726e-147
4.3066547371e-147
3.71877730949e-147
4.81354418846e-147
6.10268221043e-147
6.45902930593e-147
7.13837550672e-147
7.36037784162e-147
6.47332130174e-147
6.05694782384e-147
6.25798856489e-147
9.64042757301e-147
8.02162084771e-147
7.8081937103e-147
8.51326550354e-147
8.47705911416e-147
7.09549951929e-147
6.50952769112e-147
4.69634982283e-147
6.86206358774e-147
6.41234211962e-147
5.97405424815e-148
6.49809409448e-148
8.7752854267e-148
1.67311630937e-147
3.72639970726e-147
4.3066547371e-147
3.71877730949e-147
4.81354418846e-147
6.10268221043e-147
6.45902930593e-147
7.13837550672e-147
7.36037784162e-147
6.47332130174e-147
6.05694782384e-147
6.25798856489e-147
9.64042757301e-147
8.02162084771e-147
7.8081937103e-147
8.51326550354e-147
8.47705911416e-147
7.09549951929e-147
6.50952769112e-147
4.69634982283e-147
6.86206358774e-147
6.41234211962e-147
5.97405424815e-148
6.49809409448e-148
8.7752854267e-148
1.67311630937e-147
3.72639970726e-147
4.3066547371e-147
3.71877730949e-147
4.81354418846e-147
6.10268221043e-147
6.45902930593e-147
7.13837550672e-147
7.36037784162e-147
6.47332130174e-147
6.05694782384e-147
6.25798856489e-147
9.64042757301e-147
8.02162084771e-147
7.8081937103e-147
8.51326550354e-147
8.47705911416e-147
7.09549951929e-147
6.50952769112e-147
4.69634982283e-147
6.86206358774e-147
6.41234211962e-147
5.97405424815e-148
6.49809409448e-148
8.7752854267e-148
1.67311630937e-147
3.72639970726e-147
4.3066547371e-147
3.71877730949e-147
4.81354418846e-147
6.10268221043e-147
6.45902930593e-147
7.13837550672e-147
7.36037784162e-147
6.47332130174e-147
6.05694782384e-147
6.25798856489e-147
9.64042757301e-147
8.02162084771e-147
7.8081937103e-147
8.51326550354e-147
8.47705911416e-147
7.09549951929e-147
6.50952769112e-147
4.69634982283e-147
6.86206358774e-147
6.41234211962e-147
5.97405424815e-148
6.49809409448e-148
8.7752854267e-148
1.67311630937e-147
3.72639970726e-147
4.3066547371e-147
3.71877730949e-147
4.81354418846e-147
6.10268221043e-147
6.45902930593e-147
7.13837550672e-147
7.36037784162e-147
6.47332130174e-147
6.05694782384e-147
6.25798856489e-147
9.64042757301e-147
8.02162084771e-147
7.8081937103e-147
8.51326550354e-147
8.47705911416e-147
7.09549951929e-147
6.50952769112e-147
4.69634982283e-147
6.86206358774e-147
6.41234211962e-147
5.97405424815e-148
6.49809409448e-148
8.7752854267e-148
1.67311630937e-147
3.72639970726e-147
4.3066547371e-147
3.71877730949e-147
4.81354418846e-147
6.10268221043e-147
6.45902930593e-147
7.13837550672e-147
7.36037784162e-147
6.47332130174e-147
6.05694782384e-147
6.25798856489e-147
9.64042757301e-147
8.02162084771e-147
7.8081937103e-147
8.51326550354e-147
8.47705911416e-147
7.09549951929e-147
6.50952769112e-147
4.69634982283e-147
6.86206358774e-147
6.41234211962e-147
5.97405424815e-148
6.49809409448e-148
8.7752854267e-148
1.67311630937e-147
3.72639970726e-147
4.3066547371e-147
3.71877730949e-147
4.81354418846e-147
6.10268221043e-147
6.45902930593e-147
7.13837550672e-147
7.36037784162e-147
6.47332130174e-147
6.05694782384e-147
6.25798856489e-147
9.64042757301e-147
8.02162084771e-147
7.8081937103e-147
8.51326550354e-147
8.47705911416e-147
7.09549951929e-147
6.50952769112e-147
4.69634982283e-147
6.86206358774e-147
6.41234211962e-147
5.97405424815e-148
6.49809409448e-148
8.7752854267e-148
1.67311630937e-147
3.72639970726e-147
4.3066547371e-147
3.71877730949e-147
4.81354418846e-147
6.10268221043e-147
6.45902930593e-147
7.13837550672e-147
7.36037784162e-147
6.47332130174e-147
6.05694782384e-147
6.25798856489e-147
9.64042757301e-147
8.02162084771e-147
7.8081937103e-147
8.51326550354e-147
8.47705911416e-147
7.09549951929e-147
6.50952769112e-147
4.69634982283e-147
6.86206358774e-147
6.41234211962e-147
5.97405424815e-148
6.49809409448e-148
8.7752854267e-148
1.67311630937e-147
3.72639970726e-147
4.3066547371e-147
3.71877730949e-147
4.81354418846e-147
6.10268221043e-147
6.45902930593e-147
7.13837550672e-147
7.36037784162e-147
6.47332130174e-147
6.05694782384e-147
6.25798856489e-147
9.64042757301e-147
8.02162084771e-147
7.8081937103e-147
8.51326550354e-147
8.47705911416e-147
7.09549951929e-147
6.50952769112e-147
4.69634982283e-147
6.86206358774e-147
6.41234211962e-147
5.97405424815e-148
6.49809409448e-148
8.7752854267e-148
1.67311630937e-147
3.72639970726e-147
4.3066547371e-147
3.71877730949e-147
4.81354418846e-147
6.10268221043e-147
6.45902930593e-147
7.13837550672e-147
7.36037784162e-147
6.47332130174e-147
6.05694782384e-147
6.25798856489e-147
9.64042757301e-147
8.02162084771e-147
7.8081937103e-147
8.51326550354e-147
8.47705911416e-147
7.09549951929e-147
6.50952769112e-147
4.69634982283e-147
6.86206358774e-147
6.41234211962e-147
5.97405424815e-148
6.49809409448e-148
8.7752854267e-148
1.67311630937e-147
3.72639970726e-147
4.3066547371e-147
3.71877730949e-147
4.81354418846e-147
6.10268221043e-147
6.45902930593e-147
7.13837550672e-147
7.36037784162e-147
6.47332130174e-147
6.05694782384e-147
6.25798856489e-147
9.64042757301e-147
8.02162084771e-147
7.8081937103e-147
8.51326550354e-147
8.47705911416e-147
7.09549951929e-147
6.50952769112e-147
4.69634982283e-147
6.86206358774e-147
6.41234211962e-147
5.97405424815e-148
6.49809409448e-148
8.7752854267e-148
1.67311630937e-147
3.72639970726e-147
4.3066547371e-147
3.71877730949e-147
4.81354418846e-147
6.10268221043e-147
6.45902930593e-147
7.13837550672e-147
7.36037784162e-147
6.47332130174e-147
6.05694782384e-147
6.25798856489e-147
9.64042757301e-147
8.02162084771e-147
7.8081937103e-147
8.51326550354e-147
8.47705911416e-147
7.09549951929e-147
6.50952769112e-147
4.69634982283e-147
6.86206358774e-147
6.41234211962e-147
5.97405424815e-148
6.49809409448e-148
8.7752854267e-148
1.67311630937e-147
3.72639970726e-147
4.3066547371e-147
3.71877730949e-147
4.81354418846e-147
6.10268221043e-147
6.45902930593e-147
7.13837550672e-147
7.36037784162e-147
6.47332130174e-147
6.05694782384e-147
6.25798856489e-147
9.64042757301e-147
8.02162084771e-147
7.8081937103e-147
8.51326550354e-147
8.47705911416e-147
7.09549951929e-147
6.50952769112e-147
4.69634982283e-147
6.86206358774e-147
6.41234211962e-147
5.97405424815e-148
6.49809409448e-148
8.7752854267e-148
1.67311630937e-147
3.72639970726e-147
4.3066547371e-147
3.71877730949e-147
4.81354418846e-147
6.10268221043e-147
6.45902930593e-147
7.13837550672e-147
7.36037784162e-147
6.47332130174e-147
6.05694782384e-147
6.25798856489e-147
9.64042757301e-147
8.02162084771e-147
7.8081937103e-147
8.51326550354e-147
8.47705911416e-147
7.09549951929e-147
6.50952769112e-147
4.69634982283e-147
6.86206358774e-147
6.41234211962e-147
5.97405424815e-148
6.49809409448e-148
8.7752854267e-148
1.67311630937e-147
3.72639970726e-147
4.3066547371e-147
3.71877730949e-147
4.81354418846e-147
6.10268221043e-147
6.45902930593e-147
7.13837550672e-147
7.36037784162e-147
6.47332130174e-147
6.05694782384e-147
6.25798856489e-147
9.64042757301e-147
8.02162084771e-147
7.8081937103e-147
8.51326550354e-147
8.47705911416e-147
7.09549951929e-147
6.50952769112e-147
4.69634982283e-147
6.86206358774e-147
6.41234211962e-147
5.97405424815e-148
6.49809409448e-148
8.7752854267e-148
1.67311630937e-147
3.72639970726e-147
4.3066547371e-147
3.71877730949e-147
4.81354418846e-147
6.10268221043e-147
6.45902930593e-147
7.13837550672e-147
7.36037784162e-147
6.47332130174e-147
6.05694782384e-147
6.25798856489e-147
9.64042757301e-147
8.02162084771e-147
7.8081937103e-147
8.51326550354e-147
8.47705911416e-147
7.09549951929e-147
6.50952769112e-147
4.69634982283e-147
6.86206358774e-147
6.41234211962e-147
5.97405424815e-148
6.49809409448e-148
8.7752854267e-148
1.67311630937e-147
3.72639970726e-147
4.3066547371e-147
3.71877730949e-147
4.81354418846e-147
6.10268221043e-147
6.45902930593e-147
7.13837550672e-147
7.36037784162e-147
6.47332130174e-147
6.05694782384e-147
6.25798856489e-147
9.64042757301e-147
8.02162084771e-147
7.8081937103e-147
8.51326550354e-147
8.47705911416e-147
7.09549951929e-147
6.50952769112e-147
4.69634982283e-147
6.86206358774e-147
6.41234211962e-147
5.97405424815e-148
6.49809409448e-148
8.7752854267e-148
1.67311630937e-147
3.72639970726e-147
4.3066547371e-147
3.71877730949e-147
4.81354418846e-147
6.10268221043e-147
6.45902930593e-147
7.13837550672e-147
7.36037784162e-147
6.47332130174e-147
6.05694782384e-147
6.25798856489e-147
9.64042757301e-147
8.02162084771e-147
7.8081937103e-147
8.51326550354e-147
8.47705911416e-147
7.09549951929e-147
6.50952769112e-147
4.69634982283e-147
6.86206358774e-147
6.41234211962e-147
5.97405424815e-148
6.49809409448e-148
8.7752854267e-148
1.67311630937e-147
3.72639970726e-147
4.3066547371e-147
3.71877730949e-147
4.81354418846e-147
6.10268221043e-147
6.45902930593e-147
7.13837550672e-147
7.36037784162e-147
6.47332130174e-147
6.05694782384e-147
6.25798856489e-147
9.64042757301e-147
8.02162084771e-147
7.8081937103e-147
8.51326550354e-147
8.47705911416e-147
7.09549951929e-147
6.50952769112e-147
4.69634982283e-147
6.86206358774e-147
6.41234211962e-147
5.97405424815e-148
6.49809409448e-148
8.7752854267e-148
1.67311630937e-147
3.72639970726e-147
4.3066547371e-147
3.71877730949e-147
4.81354418846e-147
6.10268221043e-147
6.45902930593e-147
7.13837550672e-147
7.36037784162e-147
6.47332130174e-147
6.05694782384e-147
6.25798856489e-147
9.64042757301e-147
8.02162084771e-147
7.8081937103e-147
8.51326550354e-147
8.47705911416e-147
7.09549951929e-147
6.50952769112e-147
4.69634982283e-147
6.86206358774e-147
6.41234211962e-147
5.97405424815e-148
6.49809409448e-148
8.7752854267e-148
1.67311630937e-147
3.72639970726e-147
4.3066547371e-147
3.71877730949e-147
4.81354418846e-147
6.10268221043e-147
6.45902930593e-147
7.13837550672e-147
7.36037784162e-147
6.47332130174e-147
6.05694782384e-147
6.25798856489e-147
9.64042757301e-147
8.02162084771e-147
7.8081937103e-147
8.51326550354e-147
8.47705911416e-147
7.09549951929e-147
6.50952769112e-147
4.69634982283e-147
6.86206358774e-147
6.41234211962e-147
5.97405424815e-148
6.49809409448e-148
8.7752854267e-148
1.67311630937e-147
3.72639970726e-147
4.3066547371e-147
3.71877730949e-147
4.81354418846e-147
6.10268221043e-147
6.45902930593e-147
7.13837550672e-147
7.36037784162e-147
6.47332130174e-147
6.05694782384e-147
6.25798856489e-147
9.64042757301e-147
8.02162084771e-147
7.8081937103e-147
8.51326550354e-147
8.47705911416e-147
7.09549951929e-147
6.50952769112e-147
4.69634982283e-147
6.86206358774e-147
6.41234211962e-147
5.97405424815e-148
6.49809409448e-148
8.7752854267e-148
1.67311630937e-147
3.72639970726e-147
4.3066547371e-147
3.71877730949e-147
4.81354418846e-147
6.10268221043e-147
6.45902930593e-147
7.13837550672e-147
7.36037784162e-147
6.47332130174e-147
6.05694782384e-147
6.25798856489e-147
9.64042757301e-147
8.02162084771e-147
7.8081937103e-147
8.51326550354e-147
8.47705911416e-147
7.09549951929e-147
6.50952769112e-147
4.69634982283e-147
6.86206358774e-147
6.41234211962e-147
5.97405424815e-148
6.49809409448e-148
8.7752854267e-148
1.67311630937e-147
3.72639970726e-147
4.3066547371e-147
3.71877730949e-147
4.81354418846e-147
6.10268221043e-147
6.45902930593e-147
7.13837550672e-147
7.36037784162e-147
6.47332130174e-147
6.05694782384e-147
6.25798856489e-147
9.64042757301e-147
8.02162084771e-147
7.8081937103e-147
8.51326550354e-147
8.47705911416e-147
7.09549951929e-147
6.50952769112e-147
4.69634982283e-147
6.86206358774e-147
6.41234211962e-147
5.97405424815e-148
6.49809409448e-148
8.7752854267e-148
1.67311630937e-147
3.72639970726e-147
4.3066547371e-147
3.71877730949e-147
4.81354418846e-147
6.10268221043e-147
6.45902930593e-147
7.13837550672e-147
7.36037784162e-147
6.47332130174e-147
6.05694782384e-147
6.25798856489e-147
9.64042757301e-147
8.02162084771e-147
7.8081937103e-147
8.51326550354e-147
8.47705911416e-147
7.09549951929e-147
6.50952769112e-147
4.69634982283e-147
6.86206358774e-147
6.41234211962e-147
5.97405424815e-148
6.49809409448e-148
8.7752854267e-148
1.67311630937e-147
3.72639970726e-147
4.3066547371e-147
3.71877730949e-147
4.81354418846e-147
6.10268221043e-147
6.45902930593e-147
7.13837550672e-147
7.36037784162e-147
6.47332130174e-147
6.05694782384e-147
6.25798856489e-147
9.64042757301e-147
8.02162084771e-147
7.8081937103e-147
8.51326550354e-147
8.47705911416e-147
7.09549951929e-147
6.50952769112e-147
4.69634982283e-147
6.86206358774e-147
6.41234211962e-147
5.97405424815e-148
6.49809409448e-148
8.7752854267e-148
1.67311630937e-147
3.72639970726e-147
4.3066547371e-147
3.71877730949e-147
4.81354418846e-147
6.10268221043e-147
6.45902930593e-147
7.13837550672e-147
7.36037784162e-147
6.47332130174e-147
6.05694782384e-147
6.25798856489e-147
9.64042757301e-147
8.02162084771e-147
7.8081937103e-147
8.51326550354e-147
8.47705911416e-147
7.09549951929e-147
6.50952769112e-147
4.69634982283e-147
6.86206358774e-147
6.41234211962e-147
5.97405424815e-148
6.49809409448e-148
8.7752854267e-148
1.67311630937e-147
3.72639970726e-147
4.3066547371e-147
3.71877730949e-147
4.81354418846e-147
6.10268221043e-147
6.45902930593e-147
7.13837550672e-147
7.36037784162e-147
6.47332130174e-147
6.05694782384e-147
6.25798856489e-147
9.64042757301e-147
8.02162084771e-147
7.8081937103e-147
8.51326550354e-147
8.47705911416e-147
7.09549951929e-147
6.50952769112e-147
4.69634982283e-147
6.86206358774e-147
6.41234211962e-147
0.665639432481
4.62298424434e-147
4.32094673291e-147
4.36953951866e-147
5.18227768033e-147
5.47859839344e-147
5.35949842836e-147
5.62723514985e-147
6.59337406654e-147
7.32417145223e-147
6.6886540386e-147
7.94634966978e-147
7.03166193801e-147
5.00124573342e-147
1.27961002476e-147
1.92751383477e-147
1.57211953899e-147
1.71408669736e-147
2.14761057023e-147
2.0675753937e-147
1.92941943421e-147
2.12379057721e-147
2.48680727076e-147
2.86030476123e-147
4.13896198628e-147
3.78166209105e-147
4.62298424434e-147
4.32094673291e-147
4.36953951866e-147
5.18227768033e-147
5.47859839344e-147
5.35949842836e-147
5.62723514985e-147
6.59337406654e-147
7.32417145223e-147
6.6886540386e-147
7.94634966978e-147
7.03166193801e-147
5.00124573342e-147
1.27961002476e-147
1.92751383477e-147
1.57211953899e-147
1.71408669736e-147
2.14761057023e-147
2.0675753937e-147
1.92941943421e-147
2.12379057721e-147
2.48680727076e-147
2.86030476123e-147
4.13896198628e-147
3.78166209105e-147
4.62298424434e-147
4.32094673291e-147
4.36953951866e-147
5.18227768033e-147
5.47859839344e-147
5.35949842836e-147
5.62723514985e-147
6.59337406654e-147
7.32417145223e-147
6.6886540386e-147
7.94634966978e-147
7.03166193801e-147
5.00124573342e-147
1.27961002476e-147
1.92751383477e-147
1.57211953899e-147
1.71408669736e-147
2.14761057023e-147
2.0675753937e-147
1.92941943421e-147
2.12379057721e-147
2.48680727076e-147
2.86030476123e-147
4.13896198628e-147
3.78166209105e-147
4.62298424434e-147
4.32094673291e-147
4.36953951866e-147
5.18227768033e-147
5.47859839344e-147
5.35949842836e-147
5.62723514985e-147
6.59337406654e-147
7.32417145223e-147
6.6886540386e-147
7.94634966978e-147
7.03166193801e-147
5.00124573342e-147
1.27961002476e-147
1.92751383477e-147
1.57211953899e-147
1.71408669736e-147
2.14761057023e-147
2.0675753937e-147
1.92941943421e-147
2.12379057721e-147
2.48680727076e-147
2.86030476123e-147
4.13896198628e-147
3.78166209105e-147
4.62298424434e-147
4.32094673291e-147
4.36953951866e-147
5.18227768033e-147
5.47859839344e-147
5.35949842836e-147
5.62723514985e-147
6.59337406654e-147
7.32417145223e-147
6.6886540386e-147
7.94634966978e-147
7.03166193801e-147
5.00124573342e-147
1.27961002476e-147
1.92751383477e-147
1.57211953899e-147
1.71408669736e-147
2.14761057023e-147
2.0675753937e-147
1.92941943421e-147
2.12379057721e-147
2.48680727076e-147
2.86030476123e-147
4.13896198628e-147
3.78166209105e-147
4.62298424434e-147
4.32094673291e-147
4.36953951866e-147
5.18227768033e-147
5.47859839344e-147
5.35949842836e-147
5.62723514985e-147
6.59337406654e-147
7.32417145223e-147
6.6886540386e-147
7.94634966978e-147
7.03166193801e-147
5.00124573342e-147
1.27961002476e-147
1.92751383477e-147
1.57211953899e-147
1.71408669736e-147
2.14761057023e-147
2.0675753937e-147
1.92941943421e-147
2.12379057721e-147
2.48680727076e-147
2.86030476123e-147
4.13896198628e-147
3.78166209105e-147
4.62298424434e-147
4.32094673291e-147
4.36953951866e-147
5.18227768033e-147
5.47859839344e-147
5.35949842836e-147
5.62723514985e-147
6.59337406654e-147
7.32417145223e-147
6.6886540386e-147
7.94634966978e-147
7.03166193801e-147
5.00124573342e-147
1.27961002476e-147
1.92751383477e-147
1.57211953899e-147
1.71408669736e-147
2.14761057023e-147
2.0675753937e-147
1.92941943421e-147
2.12379057721e-147
2.48680727076e-147
2.86030476123e-147
4.13896198628e-147
3.78166209105e-147
4.62298424434e-147
4.32094673291e-147
4.36953951866e-147
5.18227768033e-147
5.47859839344e-147
5.35949842836e-147
5.62723514985e-147
6.59337406654e-147
7.32417145223e-147
6.6886540386e-147
7.94634966978e-147
7.03166193801e-147
5.00124573342e-147
1.27961002476e-147
1.92751383477e-147
1.57211953899e-147
1.71408669736e-147
2.14761057023e-147
2.0675753937e-147
1.92941943421e-147
2.12379057721e-147
2.48680727076e-147
2.86030476123e-147
4.13896198628e-147
3.78166209105e-147
4.62298424434e-147
4.32094673291e-147
4.36953951866e-147
5.18227768033e-147
5.47859839344e-147
5.35949842836e-147
5.62723514985e-147
6.59337406654e-147
7.32417145223e-147
6.6886540386e-147
7.94634966978e-147
7.03166193801e-147
5.00124573342e-147
1.27961002476e-147
1.92751383477e-147
1.57211953899e-147
1.71408669736e-147
2.14761057023e-147
2.0675753937e-147
1.92941943421e-147
2.12379057721e-147
2.48680727076e-147
2.86030476123e-147
4.13896198628e-147
3.78166209105e-147
4.62298424434e-147
4.32094673291e-147
4.36953951866e-147
5.18227768033e-147
5.47859839344e-147
5.35949842836e-147
5.62723514985e-147
6.59337406654e-147
7.32417145223e-147
6.6886540386e-147
7.94634966978e-147
7.03166193801e-147
5.00124573342e-147
1.27961002476e-147
1.92751383477e-147
1.57211953899e-147
1.71408669736e-147
2.14761057023e-147
2.0675753937e-147
1.92941943421e-147
2.12379057721e-147
2.48680727076e-147
2.86030476123e-147
4.13896198628e-147
3.78166209105e-147
4.62298424434e-147
4.32094673291e-147
4.36953951866e-147
5.18227768033e-147
5.47859839344e-147
5.35949842836e-147
5.62723514985e-147
6.59337406654e-147
7.32417145223e-147
6.6886540386e-147
7.94634966978e-147
7.03166193801e-147
5.00124573342e-147
1.27961002476e-147
1.92751383477e-147
1.57211953899e-147
1.71408669736e-147
2.14761057023e-147
2.0675753937e-147
1.92941943421e-147
2.12379057721e-147
2.48680727076e-147
2.86030476123e-147
4.13896198628e-147
3.78166209105e-147
4.62298424434e-147
4.32094673291e-147
4.36953951866e-147
5.18227768033e-147
5.47859839344e-147
5.35949842836e-147
5.62723514985e-147
6.59337406654e-147
7.32417145223e-147
6.6886540386e-147
7.94634966978e-147
7.03166193801e-147
5.00124573342e-147
1.27961002476e-147
1.92751383477e-147
1.57211953899e-147
1.71408669736e-147
2.14761057023e-147
2.0675753937e-147
1.92941943421e-147
2.12379057721e-147
2.48680727076e-147
2.86030476123e-147
4.13896198628e-147
3.78166209105e-147
4.62298424434e-147
4.32094673291e-147
4.36953951866e-147
5.18227768033e-147
5.47859839344e-147
5.35949842836e-147
5.62723514985e-147
6.59337406654e-147
7.32417145223e-147
6.6886540386e-147
7.94634966978e-147
7.03166193801e-147
5.00124573342e-147
1.27961002476e-147
1.92751383477e-147
1.57211953899e-147
1.71408669736e-147
2.14761057023e-147
2.0675753937e-147
1.92941943421e-147
2.12379057721e-147
2.48680727076e-147
2.86030476123e-147
4.13896198628e-147
3.78166209105e-147
4.62298424434e-147
4.32094673291e-147
4.36953951866e-147
5.18227768033e-147
5.47859839344e-147
5.35949842836e-147
5.62723514985e-147
6.59337406654e-147
7.32417145223e-147
6.6886540386e-147
7.94634966978e-147
7.03166193801e-147
5.00124573342e-147
1.27961002476e-147
1.92751383477e-147
1.57211953899e-147
1.71408669736e-147
2.14761057023e-147
2.0675753937e-147
1.92941943421e-147
2.12379057721e-147
2.48680727076e-147
2.86030476123e-147
4.13896198628e-147
3.78166209105e-147
4.62298424434e-147
4.32094673291e-147
4.36953951866e-147
5.18227768033e-147
5.47859839344e-147
5.35949842836e-147
5.62723514985e-147
6.59337406654e-147
7.32417145223e-147
6.6886540386e-147
7.94634966978e-147
7.03166193801e-147
5.00124573342e-147
1.27961002476e-147
1.92751383477e-147
1.57211953899e-147
1.71408669736e-147
2.14761057023e-147
2.0675753937e-147
1.92941943421e-147
2.12379057721e-147
2.48680727076e-147
2.86030476123e-147
4.13896198628e-147
3.78166209105e-147
4.62298424434e-147
4.32094673291e-147
4.36953951866e-147
5.18227768033e-147
5.47859839344e-147
5.35949842836e-147
5.62723514985e-147
6.59337406654e-147
7.32417145223e-147
6.6886540386e-147
7.94634966978e-147
7.03166193801e-147
5.00124573342e-147
1.27961002476e-147
1.92751383477e-147
1.57211953899e-147
1.71408669736e-147
2.14761057023e-147
2.0675753937e-147
1.92941943421e-147
2.12379057721e-147
2.48680727076e-147
2.86030476123e-147
4.13896198628e-147
3.78166209105e-147
4.62298424434e-147
4.32094673291e-147
4.36953951866e-147
5.18227768033e-147
5.47859839344e-147
5.35949842836e-147
5.62723514985e-147
6.59337406654e-147
7.32417145223e-147
6.6886540386e-147
7.94634966978e-147
7.03166193801e-147
5.00124573342e-147
1.27961002476e-147
1.92751383477e-147
1.57211953899e-147
1.71408669736e-147
2.14761057023e-147
2.0675753937e-147
1.92941943421e-147
2.12379057721e-147
2.48680727076e-147
2.86030476123e-147
4.13896198628e-147
3.78166209105e-147
4.62298424434e-147
4.32094673291e-147
4.36953951866e-147
5.18227768033e-147
5.47859839344e-147
5.35949842836e-147
5.62723514985e-147
6.59337406654e-147
7.32417145223e-147
6.6886540386e-147
7.94634966978e-147
7.03166193801e-147
5.00124573342e-147
1.27961002476e-147
1.92751383477e-147
1.57211953899e-147
1.71408669736e-147
2.14761057023e-147
2.0675753937e-147
1.92941943421e-147
2.12379057721e-147
2.48680727076e-147
2.86030476123e-147
4.13896198628e-147
3.78166209105e-147
4.62298424434e-147
4.32094673291e-147
4.36953951866e-147
5.18227768033e-147
5.47859839344e-147
5.35949842836e-147
5.62723514985e-147
6.59337406654e-147
7.32417145223e-147
6.6886540386e-147
7.94634966978e-147
7.03166193801e-147
5.00124573342e-147
1.27961002476e-147
1.92751383477e-147
1.57211953899e-147
1.71408669736e-147
2.14761057023e-147
2.0675753937e-147
1.92941943421e-147
2.12379057721e-147
2.48680727076e-147
2.86030476123e-147
4.13896198628e-147
3.78166209105e-147
4.62298424434e-147
4.32094673291e-147
4.36953951866e-147
5.18227768033e-147
5.47859839344e-147
5.35949842836e-147
5.62723514985e-147
6.59337406654e-147
7.32417145223e-147
6.6886540386e-147
7.94634966978e-147
7.03166193801e-147
5.00124573342e-147
1.27961002476e-147
1.92751383477e-147
1.57211953899e-147
1.71408669736e-147
2.14761057023e-147
2.0675753937e-147
1.92941943421e-147
2.12379057721e-147
2.48680727076e-147
2.86030476123e-147
4.13896198628e-147
3.78166209105e-147
4.62298424434e-147
4.32094673291e-147
4.36953951866e-147
5.18227768033e-147
5.47859839344e-147
5.35949842836e-147
5.62723514985e-147
6.59337406654e-147
7.32417145223e-147
6.6886540386e-147
7.94634966978e-147
7.03166193801e-147
5.00124573342e-147
1.27961002476e-147
1.92751383477e-147
1.57211953899e-147
1.71408669736e-147
2.14761057023e-147
2.0675753937e-147
1.92941943421e-147
2.12379057721e-147
2.48680727076e-147
2.86030476123e-147
4.13896198628e-147
3.78166209105e-147
4.62298424434e-147
4.32094673291e-147
4.36953951866e-147
5.18227768033e-147
5.47859839344e-147
5.35949842836e-147
5.62723514985e-147
6.59337406654e-147
7.32417145223e-147
6.6886540386e-147
7.94634966978e-147
7.03166193801e-147
5.00124573342e-147
1.27961002476e-147
1.92751383477e-147
1.57211953899e-147
1.71408669736e-147
2.14761057023e-147
2.0675753937e-147
1.92941943421e-147
2.12379057721e-147
2.48680727076e-147
2.86030476123e-147
4.13896198628e-147
3.78166209105e-147
4.62298424434e-147
4.32094673291e-147
4.36953951866e-147
5.18227768033e-147
5.47859839344e-147
5.35949842836e-147
5.62723514985e-147
6.59337406654e-147
7.32417145223e-147
6.6886540386e-147
7.94634966978e-147
7.03166193801e-147
5.00124573342e-147
1.27961002476e-147
1.92751383477e-147
1.57211953899e-147
1.71408669736e-147
2.14761057023e-147
2.0675753937e-147
1.92941943421e-147
2.12379057721e-147
2.48680727076e-147
2.86030476123e-147
4.13896198628e-147
3.78166209105e-147
4.62298424434e-147
4.32094673291e-147
4.36953951866e-147
5.18227768033e-147
5.47859839344e-147
5.35949842836e-147
5.62723514985e-147
6.59337406654e-147
7.32417145223e-147
6.6886540386e-147
7.94634966978e-147
7.03166193801e-147
5.00124573342e-147
1.27961002476e-147
1.92751383477e-147
1.57211953899e-147
1.71408669736e-147
2.14761057023e-147
2.0675753937e-147
1.92941943421e-147
2.12379057721e-147
2.48680727076e-147
2.86030476123e-147
4.13896198628e-147
3.78166209105e-147
4.62298424434e-147
4.32094673291e-147
4.36953951866e-147
5.18227768033e-147
5.47859839344e-147
5.35949842836e-147
5.62723514985e-147
6.59337406654e-147
7.32417145223e-147
6.6886540386e-147
7.94634966978e-147
7.03166193801e-147
5.00124573342e-147
1.27961002476e-147
1.92751383477e-147
1.57211953899e-147
1.71408669736e-147
2.14761057023e-147
2.0675753937e-147
1.92941943421e-147
2.12379057721e-147
2.48680727076e-147
2.86030476123e-147
4.13896198628e-147
3.78166209105e-147
4.62298424434e-147
4.32094673291e-147
4.36953951866e-147
5.18227768033e-147
5.47859839344e-147
5.35949842836e-147
5.62723514985e-147
6.59337406654e-147
7.32417145223e-147
6.6886540386e-147
7.94634966978e-147
7.03166193801e-147
5.00124573342e-147
1.27961002476e-147
1.92751383477e-147
1.57211953899e-147
1.71408669736e-147
2.14761057023e-147
2.0675753937e-147
1.92941943421e-147
2.12379057721e-147
2.48680727076e-147
2.86030476123e-147
4.13896198628e-147
3.78166209105e-147
4.62298424434e-147
4.32094673291e-147
4.36953951866e-147
5.18227768033e-147
5.47859839344e-147
5.35949842836e-147
5.62723514985e-147
6.59337406654e-147
7.32417145223e-147
6.6886540386e-147
7.94634966978e-147
7.03166193801e-147
5.00124573342e-147
1.27961002476e-147
1.92751383477e-147
1.57211953899e-147
1.71408669736e-147
2.14761057023e-147
2.0675753937e-147
1.92941943421e-147
2.12379057721e-147
2.48680727076e-147
2.86030476123e-147
4.13896198628e-147
3.78166209105e-147
4.62298424434e-147
4.32094673291e-147
4.36953951866e-147
5.18227768033e-147
5.47859839344e-147
5.35949842836e-147
5.62723514985e-147
6.59337406654e-147
7.32417145223e-147
6.6886540386e-147
7.94634966978e-147
7.03166193801e-147
5.00124573342e-147
1.27961002476e-147
1.92751383477e-147
1.57211953899e-147
1.71408669736e-147
2.14761057023e-147
2.0675753937e-147
1.92941943421e-147
2.12379057721e-147
2.48680727076e-147
2.86030476123e-147
4.13896198628e-147
3.78166209105e-147
4.62298424434e-147
4.32094673291e-147
4.36953951866e-147
5.18227768033e-147
5.47859839344e-147
5.35949842836e-147
5.62723514985e-147
6.59337406654e-147
7.32417145223e-147
6.6886540386e-147
7.94634966978e-147
7.03166193801e-147
5.00124573342e-147
1.27961002476e-147
1.92751383477e-147
1.57211953899e-147
1.71408669736e-147
2.14761057023e-147
2.0675753937e-147
1.92941943421e-147
2.12379057721e-147
2.48680727076e-147
2.86030476123e-147
4.13896198628e-147
3.78166209105e-147
4.62298424434e-147
4.32094673291e-147
4.36953951866e-147
5.18227768033e-147
5.47859839344e-147
5.35949842836e-147
5.62723514985e-147
6.59337406654e-147
7.32417145223e-147
6.6886540386e-147
7.94634966978e-147
7.03166193801e-147
5.00124573342e-147
1.27961002476e-147
1.92751383477e-147
1.57211953899e-147
1.71408669736e-147
2.14761057023e-147
2.0675753937e-147
1.92941943421e-147
2.12379057721e-147
2.48680727076e-147
2.86030476123e-147
4.13896198628e-147
3.78166209105e-147
4.62298424434e-147
4.32094673291e-147
4.36953951866e-147
5.18227768033e-147
5.47859839344e-147
5.35949842836e-147
5.62723514985e-147
6.59337406654e-147
7.32417145223e-147
6.6886540386e-147
7.94634966978e-147
7.03166193801e-147
5.00124573342e-147
1.27961002476e-147
1.92751383477e-147
1.57211953899e-147
1.71408669736e-147
2.14761057023e-147
2.0675753937e-147
1.92941943421e-147
2.12379057721e-147
2.48680727076e-147
2.86030476123e-147
4.13896198628e-147
3.78166209105e-147
4.62298424434e-147
4.32094673291e-147
4.36953951866e-147
5.18227768033e-147
5.47859839344e-147
5.35949842836e-147
5.62723514985e-147
6.59337406654e-147
7.32417145223e-147
6.6886540386e-147
7.94634966978e-147
7.03166193801e-147
5.00124573342e-147
1.27961002476e-147
1.92751383477e-147
1.57211953899e-147
1.71408669736e-147
2.14761057023e-147
2.0675753937e-147
1.92941943421e-147
2.12379057721e-147
2.48680727076e-147
2.86030476123e-147
4.13896198628e-147
3.78166209105e-147
4.62298424434e-147
4.32094673291e-147
4.36953951866e-147
5.18227768033e-147
5.47859839344e-147
5.35949842836e-147
5.62723514985e-147
6.59337406654e-147
7.32417145223e-147
6.6886540386e-147
7.94634966978e-147
7.03166193801e-147
5.00124573342e-147
1.27961002476e-147
1.92751383477e-147
1.57211953899e-147
1.71408669736e-147
2.14761057023e-147
2.0675753937e-147
1.92941943421e-147
2.12379057721e-147
2.48680727076e-147
2.86030476123e-147
4.13896198628e-147
3.78166209105e-147
4.62298424434e-147
4.32094673291e-147
4.36953951866e-147
5.18227768033e-147
5.47859839344e-147
5.35949842836e-147
5.62723514985e-147
6.59337406654e-147
7.32417145223e-147
6.6886540386e-147
7.94634966978e-147
7.03166193801e-147
5.00124573342e-147
1.27961002476e-147
1.92751383477e-147
1.57211953899e-147
1.71408669736e-147
2.14761057023e-147
2.0675753937e-147
1.92941943421e-147
2.12379057721e-147
2.48680727076e-147
2.86030476123e-147
4.13896198628e-147
3.78166209105e-147
4.62298424434e-147
4.32094673291e-147
4.36953951866e-147
5.18227768033e-147
5.47859839344e-147
5.35949842836e-147
5.62723514985e-147
6.59337406654e-147
7.32417145223e-147
6.6886540386e-147
7.94634966978e-147
7.03166193801e-147
5.00124573342e-147
1.27961002476e-147
1.92751383477e-147
1.57211953899e-147
1.71408669736e-147
2.14761057023e-147
2.0675753937e-147
1.92941943421e-147
2.12379057721e-147
2.48680727076e-147
2.86030476123e-147
4.13896198628e-147
3.78166209105e-147
4.62298424434e-147
4.32094673291e-147
4.36953951866e-147
5.18227768033e-147
5.47859839344e-147
5.35949842836e-147
5.62723514985e-147
6.59337406654e-147
7.32417145223e-147
6.6886540386e-147
7.94634966978e-147
7.03166193801e-147
5.00124573342e-147
1.27961002476e-147
1.92751383477e-147
1.57211953899e-147
1.71408669736e-147
2.14761057023e-147
2.0675753937e-147
1.92941943421e-147
2.12379057721e-147
2.48680727076e-147
2.86030476123e-147
4.13896198628e-147
3.78166209105e-147
4.62298424434e-147
4.32094673291e-147
4.36953951866e-147
5.18227768033e-147
5.47859839344e-147
5.35949842836e-147
5.62723514985e-147
6.59337406654e-147
7.32417145223e-147
6.6886540386e-147
7.94634966978e-147
7.03166193801e-147
5.00124573342e-147
1.27961002476e-147
1.92751383477e-147
1.57211953899e-147
1.71408669736e-147
2.14761057023e-147
2.0675753937e-147
1.92941943421e-147
2.12379057721e-147
2.48680727076e-147
2.86030476123e-147
4.13896198628e-147
3.78166209105e-147
4.62298424434e-147
4.32094673291e-147
4.36953951866e-147
5.18227768033e-147
5.47859839344e-147
5.35949842836e-147
5.62723514985e-147
6.59337406654e-147
7.32417145223e-147
6.6886540386e-147
7.94634966978e-147
7.03166193801e-147
5.00124573342e-147
1.27961002476e-147
1.92751383477e-147
1.57211953899e-147
1.71408669736e-147
2.14761057023e-147
2.0675753937e-147
1.92941943421e-147
2.12379057721e-147
2.48680727076e-147
2.86030476123e-147
4.13896198628e-147
3.78166209105e-147
4.62298424434e-147
4.32094673291e-147
4.36953951866e-147
5.18227768033e-147
5.47859839344e-147
5.35949842836e-147
5.62723514985e-147
6.59337406654e-147
7.32417145223e-147
6.6886540386e-147
7.94634966978e-147
7.03166193801e-147
5.00124573342e-147
1.27961002476e-147
1.92751383477e-147
1.57211953899e-147
1.71408669736e-147
2.14761057023e-147
2.0675753937e-147
1.92941943421e-147
2.12379057721e-147
2.48680727076e-147
2.86030476123e-147
4.13896198628e-147
3.78166209105e-147
4.62298424434e-147
4.32094673291e-147
4.36953951866e-147
5.18227768033e-147
5.47859839344e-147
5.35949842836e-147
5.62723514985e-147
6.59337406654e-147
7.32417145223e-147
6.6886540386e-147
7.94634966978e-147
7.03166193801e-147
5.00124573342e-147
1.27961002476e-147
1.92751383477e-147
1.57211953899e-147
1.71408669736e-147
2.14761057023e-147
2.0675753937e-147
1.92941943421e-147
2.12379057721e-147
2.48680727076e-147
2.86030476123e-147
4.13896198628e-147
3.78166209105e-147
4.62298424434e-147
4.32094673291e-147
4.36953951866e-147
5.18227768033e-147
5.47859839344e-147
5.35949842836e-147
5.62723514985e-147
6.59337406654e-147
7.32417145223e-147
6.6886540386e-147
7.94634966978e-147
7.03166193801e-147
5.00124573342e-147
1.27961002476e-147
1.92751383477e-147
1.57211953899e-147
1.71408669736e-147
2.14761057023e-147
2.0675753937e-147
1.92941943421e-147
2.12379057721e-147
2.48680727076e-147
2.86030476123e-147
4.13896198628e-147
3.78166209105e-147
4.62298424434e-147
4.32094673291e-147
4.36953951866e-147
5.18227768033e-147
5.47859839344e-147
5.35949842836e-147
5.62723514985e-147
6.59337406654e-147
7.32417145223e-147
6.6886540386e-147
7.94634966978e-147
7.03166193801e-147
5.00124573342e-147
1.27961002476e-147
1.92751383477e-147
1.57211953899e-147
1.71408669736e-147
2.14761057023e-147
2.0675753937e-147
1.92941943421e-147
2.12379057721e-147
2.48680727076e-147
2.86030476123e-147
4.13896198628e-147
3.78166209105e-147
4.62298424434e-147
4.32094673291e-147
4.36953951866e-147
5.18227768033e-147
5.47859839344e-147
5.35949842836e-147
5.62723514985e-147
6.59337406654e-147
7.32417145223e-147
6.6886540386e-147
7.94634966978e-147
7.03166193801e-147
5.00124573342e-147
1.27961002476e-147
1.92751383477e-147
1.57211953899e-147
1.71408669736e-147
2.14761057023e-147
2.0675753937e-147
1.92941943421e-147
2.12379057721e-147
2.48680727076e-147
2.86030476123e-147
4.13896198628e-147
3.78166209105e-147
4.62298424434e-147
4.32094673291e-147
4.36953951866e-147
5.18227768033e-147
5.47859839344e-147
5.35949842836e-147
5.62723514985e-147
6.59337406654e-147
7.32417145223e-147
6.6886540386e-147
7.94634966978e-147
7.03166193801e-147
5.00124573342e-147
1.27961002476e-147
1.92751383477e-147
1.57211953899e-147
1.71408669736e-147
2.14761057023e-147
2.0675753937e-147
1.92941943421e-147
2.12379057721e-147
2.48680727076e-147
2.86030476123e-147
4.13896198628e-147
3.78166209105e-147
4.62298424434e-147
4.32094673291e-147
4.36953951866e-147
5.18227768033e-147
5.47859839344e-147
5.35949842836e-147
5.62723514985e-147
6.59337406654e-147
7.32417145223e-147
6.6886540386e-147
7.94634966978e-147
7.03166193801e-147
5.00124573342e-147
1.27961002476e-147
1.92751383477e-147
1.57211953899e-147
1.71408669736e-147
2.14761057023e-147
2.0675753937e-147
1.92941943421e-147
2.12379057721e-147
2.48680727076e-147
2.86030476123e-147
4.13896198628e-147
3.78166209105e-147
4.62298424434e-147
4.32094673291e-147
4.36953951866e-147
5.18227768033e-147
5.47859839344e-147
5.35949842836e-147
5.62723514985e-147
6.59337406654e-147
7.32417145223e-147
6.6886540386e-147
7.94634966978e-147
7.03166193801e-147
5.00124573342e-147
1.27961002476e-147
1.92751383477e-147
1.57211953899e-147
1.71408669736e-147
2.14761057023e-147
2.0675753937e-147
1.92941943421e-147
2.12379057721e-147
2.48680727076e-147
2.86030476123e-147
4.13896198628e-147
3.78166209105e-147
4.62298424434e-147
4.32094673291e-147
4.36953951866e-147
5.18227768033e-147
5.47859839344e-147
5.35949842836e-147
5.62723514985e-147
6.59337406654e-147
7.32417145223e-147
6.6886540386e-147
7.94634966978e-147
7.03166193801e-147
5.00124573342e-147
1.27961002476e-147
1.92751383477e-147
1.57211953899e-147
1.71408669736e-147
2.14761057023e-147
2.0675753937e-147
1.92941943421e-147
2.12379057721e-147
2.48680727076e-147
2.86030476123e-147
4.13896198628e-147
3.78166209105e-147
4.62298424434e-147
4.32094673291e-147
4.36953951866e-147
5.18227768033e-147
5.47859839344e-147
5.35949842836e-147
5.62723514985e-147
6.59337406654e-147
7.32417145223e-147
6.6886540386e-147
7.94634966978e-147
7.03166193801e-147
5.00124573342e-147
1.27961002476e-147
1.92751383477e-147
1.57211953899e-147
1.71408669736e-147
2.14761057023e-147
2.0675753937e-147
1.92941943421e-147
2.12379057721e-147
2.48680727076e-147
2.86030476123e-147
4.13896198628e-147
3.78166209105e-147
4.62298424434e-147
4.32094673291e-147
4.36953951866e-147
5.18227768033e-147
5.47859839344e-147
5.35949842836e-147
5.62723514985e-147
6.59337406654e-147
7.32417145223e-147
6.6886540386e-147
7.94634966978e-147
7.03166193801e-147
5.00124573342e-147
1.27961002476e-147
1.92751383477e-147
1.57211953899e-147
1.71408669736e-147
2.14761057023e-147
2.0675753937e-147
1.92941943421e-147
2.12379057721e-147
2.48680727076e-147
2.86030476123e-147
4.13896198628e-147
3.78166209105e-147
4.62298424434e-147
4.32094673291e-147
4.36953951866e-147
5.18227768033e-147
5.47859839344e-147
5.35949842836e-147
5.62723514985e-147
6.59337406654e-147
7.32417145223e-147
6.6886540386e-147
7.94634966978e-147
7.03166193801e-147
5.00124573342e-147
1.27961002476e-147
1.92751383477e-147
1.57211953899e-147
1.71408669736e-147
2.14761057023e-147
2.0675753937e-147
1.92941943421e-147
2.12379057721e-147
2.48680727076e-147
2.86030476123e-147
4.13896198628e-147
3.78166209105e-147
4.62298424434e-147
4.32094673291e-147
4.36953951866e-147
5.18227768033e-147
5.47859839344e-147
5.35949842836e-147
5.62723514985e-147
6.59337406654e-147
7.32417145223e-147
6.6886540386e-147
7.94634966978e-147
7.03166193801e-147
5.00124573342e-147
1.27961002476e-147
1.92751383477e-147
1.57211953899e-147
1.71408669736e-147
2.14761057023e-147
2.0675753937e-147
1.92941943421e-147
2.12379057721e-147
2.48680727076e-147
2.86030476123e-147
4.13896198628e-147
3.78166209105e-147
0
