master bdrm. : [368,313] :[170,281,566,344] :100
13 : [243,354] :[219,326,271,382] :100
’ : [267,354] :[257,326,278,382] :100
-5 : [288,354] :[267,326,309,382] :100
” : [313,354] :[299,326,330,382] :100
x11 : [351,354] :[316,326,389,382] :100
’ : [382,354] :[372,326,392,382] :100
-2 : [403,354] :[382,326,424,382] :100
” : [427,354] :[413,326,444,382] :100
dining : [1156,507] :[1063,476,1253,538] :100
ba. 2 : [809,622] :[743,590,875,653] :100
bdrm. 2 : [368,1104] :[260,1073,476,1135] :100
bdrm. 3 : [906,1111] :[799,1080,1014,1142] :100
living : [1563,1135] :[1476,1104,1653,1167] :100
kitchen : [1604,326] :[1493,295,1719,358] :100
master ba. : [854,226] :[698,198,1010,257] :100
8 : [1069,549] :[1056,521,1087,580] :100
’ : [1083,549] :[1073,521,1094,580] :100
-2 : [1104,549] :[1087,521,1125,580] :100
” : [1128,549] :[1115,521,1146,580] :100
x8 : [1156,549] :[1132,521,1184,580] :100
’ : [1177,549] :[1167,521,1188,580] :100
-0 : [1201,549] :[1181,521,1222,580] :100
” : [1222,549] :[1208,521,1240,580] :100
8 : [726,663] :[712,635,743,694] :100
’ : [743,663] :[733,635,753,694] :100
-0 : [764,663] :[743,635,785,694] :100
” : [788,663] :[774,635,806,694] :100
x5 : [816,663] :[792,635,844,694] :100
’ : [837,663] :[826,635,847,694] :100
-0 : [858,663] :[837,635,878,694] :100
” : [882,663] :[868,635,899,694] :100
13 : [264,1146] :[240,1118,292,1177] :100
’ : [288,1146] :[278,1118,299,1177] :100
-8 : [309,1146] :[288,1118,330,1177] :100
” : [333,1146] :[319,1118,351,1177] :100
x11 : [372,1146] :[337,1118,410,1177] :100
’ : [403,1146] :[392,1118,413,1177] :100
-4 : [424,1146] :[403,1118,444,1177] :100
” : [448,1146] :[434,1118,465,1177] :100
11 : [802,1153] :[778,1125,830,1184] :100
’ : [826,1153] :[816,1125,837,1184] :100
-0 : [847,1153] :[826,1125,868,1184] :100
” : [872,1153] :[858,1125,889,1184] :100
x11 : [910,1153] :[875,1125,948,1184] :100
’ : [941,1153] :[931,1125,951,1184] :100
-0 : [962,1153] :[941,1125,983,1184] :100
” : [986,1153] :[972,1125,1003,1184] :100
hvac : [1181,979] :[1142,958,1222,1000] :100
linen : [361,799] :[319,778,406,823] :100
12 : [1465,1177] :[1441,1149,1493,1208] :100
’ : [1490,1177] :[1479,1149,1500,1208] :100
-0 : [1510,1177] :[1490,1149,1531,1208] :100
” : [1535,1177] :[1521,1149,1552,1208] :100
x14 : [1573,1177] :[1538,1149,1611,1208] :100
’ : [1601,1177] :[1590,1149,1611,1208] :100
-0 : [1625,1177] :[1604,1149,1646,1208] :100
” : [1649,1177] :[1635,1149,1667,1208] :100
11 : [1500,372] :[1476,344,1528,403] :100
’ : [1524,372] :[1514,344,1535,403] :100
-4 : [1545,372] :[1524,344,1566,403] :100
” : [1569,372] :[1556,344,1587,403] :100
x9 : [1597,372] :[1573,344,1625,403] :100
’ : [1618,372] :[1608,344,1628,403] :100
-10 : [1649,372] :[1618,344,1681,403] :100
” : [1681,372] :[1667,344,1698,403] :100
8 : [747,271] :[733,243,764,299] :100
’ : [764,271] :[753,243,774,299] :100
-2 : [785,271] :[764,243,806,299] :100
” : [809,271] :[795,243,826,299] :100
x8 : [837,271] :[813,243,865,299] :100
’ : [858,271] :[847,243,868,299] :100
-0 : [878,271] :[858,243,899,299] :100
” : [903,271] :[889,243,920,299] :100
laundry : [1118,281] :[1052,260,1184,302] :100
opt. : [1083,253] :[1052,233,1115,274] :100
