ac/ : [1260,1017] :[1219,986,1306,1049] :100
wh : [1260,1066] :[1219,1035,1306,1097] :100
closet : [1326,1330] :[1260,1299,1396,1361] :100
w/d : [1288,736] :[1240,705,1337,767] :100
linen : [2010,868] :[1951,837,2069,899] :100
pan.closet : [1972,622] :[1941,458,2003,788] :100
kitchen : [2611,663] :[2531,632,2694,694] :100
ref. : [2826,517] :[2781,486,2875,552] :100
dw : [2802,847] :[2760,816,2847,878] :100
bath : [1705,698] :[1653,667,1757,729] :100
balcony : [2163,2319] :[2076,2288,2250,2351] :100
bedroom : [1778,1910] :[1681,1878,1875,1941] :100
13'-11" x 11'-3" : [1778,1958] :[1628,1927,1931,1990] :100
living room : [2472,1712] :[2340,1681,2608,1743] :100
13'-11" x 21'-7" : [2472,1757] :[2323,1726,2625,1788] :100
