25
3
1.0
3
rectangle
34
67
49
59
16.7630546142
0.0
0.0
0.0
0.0
0.0
0.0123456790123
0.0493827160494
0.0617283950617
0.0740740740741
0.0493827160494
0.0493827160494
0.0246913580247
0.0493827160494
0.0246913580247
0.0493827160494
0.0246913580247
0.0493827160494
0.0246913580247
0.0493827160494
0.0246913580247
0.0493827160494
0.0246913580247
0.0246913580247
0.123456790123
0.135802469136
0.164096576771
0.0617283950617
0.0493827160494
0.111111111111
0.0740740740741
0.0617283950617
0.0246913580247
0.0246913580247
0.0246913580247
0.0246913580247
0.0123456790123
0.0246913580247
0.0
0.0123456790123
0.0
0.0123456790123
0.0
0.0123456790123
0.0123456790123
0.0123456790123
0.0123456790123
0.0246913580247
0.037037037037
0.0617283950617
0.0123456790123
0.0246913580247
4
rectangle
34
67
61
67
16.1245154966
0.0
0.0
0.0
0.044776119403
0.0746268656716
0.0597014925373
0.0597014925373
0.0298507462687
0.0298507462687
0.0597014925373
0.0298507462687
0.0597014925373
0.0298507462687
0.0298507462687
0.0597014925373
0.044776119403
0.0149253731343
0.0597014925373
0.0597014925373
0.0
0.0597014925373
0.0597014925373
0.0
0.089552238806
0.0149253731343
0.110412422698
0.0746268656716
0.149253731343
0.089552238806
0.0597014925373
0.0298507462687
0.0149253731343
0.0298507462687
0.0149253731343
0.0149253731343
0.0149253731343
0.0
0.0
0.0149253731343
0.0
0.0
0.0
0.0149253731343
0.0
0.0149253731343
0.0
0.0149253731343
0.0298507462687
0.0298507462687
0.119402985075
0.0298507462687
2
rectangle
12
90
10
48
43.382023927
0.0
0.0
0.0
0.0
0.0
0.0
0.0
0.0
0.0
0.0
0.0701754385965
0.0964912280702
0.0614035087719
0.0526315789474
0.0350877192982
0.0526315789474
0.0350877192982
0.0350877192982
0.0350877192982
0.0438596491228
0.0350877192982
0.0657894736842
0.188596491228
0.131578947368
0.0570175438596
0.195047111582
0.0394736842105
0.0526315789474
0.0438596491228
0.0745614035088
0.0701754385965
0.0482456140351
0.0438596491228
0.0263157894737
0.030701754386
0.0219298245614
0.0219298245614
0.0175438596491
0.0175438596491
0.00877192982456
0.00877192982456
0.0131578947368
0.0131578947368
0.0131578947368
0.0219298245614
0.0219298245614
0.0350877192982
0.0350877192982
0.0263157894737
0.0219298245614
0.0175438596491
2
3
4
1
1
0.481739130435
touch
2
3
1
1
0.100912600913
floor
