Q : [1617,121] : [1596,105,1638,138] : 78
O : [1928,121] : [1908,105,1949,138] : 78
SITTING : [1391,211] : [1325,198,1458,224] : 93
M'BATH : [1776,223] : [1722,213,1831,233] : 76
Ceiling : [1454,266] : [1419,255,1490,278] : 90
BO : [1577,419] : [1550,397,1605,441] : 74
MASTER BEDROOM : [1343,576] : [1264,547,1423,606] : 87
Celllng : [1402,645] : [1366,634,1438,656] : 75
COVERED PATIO : [578,705] : [466,695,690,715] : 89
GARAGE : [1915,701] : [1841,688,1989,714] : 91
Linen : [1187,821] : [1163,813,1211,829] : 90
co : [91,1075] : [74,1067,108,1084] : 80
BREAKFAST : [503,1072] : [399,1059,608,1085] : 88
FAMILY : [889,1073] : [828,1061,950,1086] : 95
OO : [88,1108] : [70,1100,106,1117] : 89
COVERED1 PATIO : [1437,1176] : [1384,1149,1491,1203] : 87
evaer : [744,1395] : [726,1379,763,1411] : 64
PWDRO : [1288,1385] : [1231,1363,1346,1408] : 68
Pantry : [426,1424] : [397,1415,456,1434] : 83
Linen : [1162,1458] : [1138,1450,1186,1466] : 89
DINING : [684,1628] : [626,1615,743,1641] : 88
COVERED : [357,1625] : [290,1615,425,1635] : 86
eIIng : [712,1683] : [685,1674,739,1692] : 87
O : [1396,1697] : [1376,1681,1417,1714] : 74
UP : [1116,1740] : [1104,1731,1129,1750] : 72
BATH : [1450,1745] : [1415,1735,1486,1755] : 85
Shelves : [317,1810] : [281,1802,353,1818] : 77
PORTE COCHERE : [1797,1900] : [1677,1890,1918,1910] : 90
BEDROOM 2 : [1412,1950] : [1309,1938,1515,1963] : 91
GARAGE : [2179,1949] : [2105,1936,2254,1962] : 89
ce'lmg : [584,1993] : [549,1982,620,2005] : 70
Storage : [328,2031] : [293,2021,364,2041] : 67
W I C  : [1209,2030] : [1182,2023,1237,2038] : 85
PORCH : [949,2072] : [901,2062,997,2083] : 86
89,3, : [1772,80] : [1751,66,1793,95] : 61
12,,1,1, : [1392,239] : [1345,229,1440,249] : 83
,,,,,,,121, : [1351,271] : [1292,255,1410,288] : 69
12,,, : [1916,272] : [1888,253,1944,292] : 47
08 : [1964,419] : [1937,397,1992,441] : 64
1,,,,,,,,,1 : [1331,456] : [1194,448,1468,464] : 45
17,,17,,4,,,, : [1340,625] : [1270,611,1411,640] : 64
,,,,,,,12 : [1292,645] : [1232,634,1352,656] : 86
44,,1,,12,,5, : [577,729] : [493,719,662,739] : 91
1,1,1 : [257,1036] : [233,1017,282,1056] : 48
8,22 : [1265,1034] : [1245,1017,1285,1052] : 54
13, : [471,1100] : [455,1090,487,1110] : 87
19, : [536,1103] : [520,1090,552,1116] : 67
18,,9, : [856,1102] : [823,1092,889,1112] : 81
,11, : [266,1121] : [239,1102,294,1140] : 41
20,,2,,,,,,,, : [502,1124] : [432,1113,573,1136] : 85
20,,2,,,,,,,, : [887,1126] : [817,1115,958,1137] : 80
71,4, : [1401,1216] : [1375,1206,1428,1227] : 70
131,2, : [1494,1216] : [1461,1206,1528,1227] : 71
221,3935, : [228,1291] : [154,1267,303,1315] : 46
15 : [506,1969] : [493,1959,520,1980] : 86
12,,1,, : [1370,1978] : [1326,1968,1415,1989] : 79
12,11, : [1466,1981] : [1426,1968,1506,1994] : 71
10 : [523,1992] : [511,1983,535,2001] : 66
10,,,,,,,, : [1411,2002] : [1357,1991,1466,2014] : 83
n : [67,562] : [52,578,83,547] : 75
E : [89,1089] : [68,1120,111,1059] : 64
C]: : [254,1081] : [239,1099,270,1063] : 66
 xl : [540,1957] : [530,1987,550,1927] : 64
 2w  : [580,1406] : [571,1429,590,1383] : 61
D : [763,562] : [748,578,779,547] : 67
ES'I'I : [913,1890] : [900,1909,926,1871] : 62
r'vO : [937,1890] : [927,1909,947,1871] : 63
0 < : [957,1890] : [948,1909,966,1871] : 78
/0 : [1142,658] : [1135,672,1149,644] : 63
Media NiChe : [1140,1247] : [1123,1275,1158,1219] : 74
m : [1255,590] : [1247,603,1264,578] : 72
O : [1462,1711] : [1447,1729,1477,1693] : 74
D : [1510,1165] : [1502,1176,1519,1155] : 66
Linen : [1562,317] : [1555,342,1570,293] : 78
Lin : [2018,253] : [2011,266,2026,241] : 95
Lin : [2305,253] : [2298,266,2313,241] : 88
89,3, : [1772,80] : [1751,66,1793,95] : 61
12,,1,1, : [1392,239] : [1345,229,1440,249] : 83
,,,,,,,121, : [1351,271] : [1292,255,1410,288] : 69
12,,, : [1916,272] : [1888,253,1944,292] : 47
08 : [1964,419] : [1937,397,1992,441] : 64
1,,,,,,,,,1 : [1331,456] : [1194,448,1468,464] : 45
17,,17,,4,,,, : [1340,625] : [1270,611,1411,640] : 64
,,,,,,,12 : [1292,645] : [1232,634,1352,656] : 86
44,,1,,12,,5, : [577,729] : [493,719,662,739] : 91
1,1,1 : [257,1036] : [233,1017,282,1056] : 48
8,22 : [1265,1034] : [1245,1017,1285,1052] : 54
13, : [471,1100] : [455,1090,487,1110] : 87
19, : [536,1103] : [520,1090,552,1116] : 67
18,,9, : [856,1102] : [823,1092,889,1112] : 81
,11, : [266,1121] : [239,1102,294,1140] : 41
20,,2,,,,,,,, : [502,1124] : [432,1113,573,1136] : 85
20,,2,,,,,,,, : [887,1126] : [817,1115,958,1137] : 80
71,4, : [1401,1216] : [1375,1206,1428,1227] : 70
131,2, : [1494,1216] : [1461,1206,1528,1227] : 71
221,3935, : [228,1291] : [154,1267,303,1315] : 46
15 : [506,1969] : [493,1959,520,1980] : 86
12,,1,, : [1370,1978] : [1326,1968,1415,1989] : 79
12,11, : [1466,1981] : [1426,1968,1506,1994] : 71
10 : [523,1992] : [511,1983,535,2001] : 66
10,,,,,,,, : [1411,2002] : [1357,1991,1466,2014] : 83
,13 : [776,327] : [761,319,792,335] : 67
12,, : [538,1000] : [517,987,559,1014] : 61
00 : [1788,1153] : [1771,1145,1806,1161] : 56
1,,,,1,,,,1 : [1305,1226] : [1244,1213,1366,1239] : 59
,10 : [992,1258] : [964,1237,1020,1280] : 72
1,1,71 : [1141,1293] : [1114,1284,1168,1302] : 49
