25
2
1.01318657408
2
rectangle
5
64
4
62
41.0121933088
0.0
0.0
0.0
0.0
0.0
0.0
0.0
0.0
0.0
0.0
0.0
0.0
0.0
0.0
0.0
0.0
0.0
0.00107660455487
0.00159420289855
0.00175983436853
0.00103519668737
0.000993788819876
0.000952380952381
0.000828157349896
0.000786749482402
0.0
0.0
0.0
0.0
0.0
0.0
0.0
0.0
0.0
0.0
0.0
0.0
0.0
0.0
0.0
0.0
0.0
0.00107660455487
0.00159420289855
0.00175983436853
0.00103519668737
0.000993788819876
0.000952380952381
0.000828157349896
0.000786749482402
0.0259311189598
0.000289855072464
0.000331262939959
0.000331262939959
0.000331262939959
0.000455486542443
0.000434782608696
0.000434782608696
0.000455486542443
0.000372670807453
0.000331262939959
0.000331262939959
0.000331262939959
0.000165631469979
0.000165631469979
0.000165631469979
0.000165631469979
0.000165631469979
0.000248447204969
0.000207039337474
0.000207039337474
0.000227743271222
0.000165631469979
0.000165631469979
0.000165631469979
0.000124223602484
0.000289855072464
0.000331262939959
0.000331262939959
0.000331262939959
0.000455486542443
0.000434782608696
0.000434782608696
0.000455486542443
0.000372670807453
0.000331262939959
0.000331262939959
0.000331262939959
0.000165631469979
0.000165631469979
0.000165631469979
0.000165631469979
0.000165631469979
0.000248447204969
0.000207039337474
0.000207039337474
0.000227743271222
0.000165631469979
0.000165631469979
0.000165631469979
0.000124223602484
3
rectangle
8
61
6
60
35.4682957019
0.0
8.79878928659e-06
5.8658595244e-06
5.8658595244e-06
5.8658595244e-06
0.0
5.8658595244e-06
5.8658595244e-06
5.8658595244e-06
5.8658595244e-06
5.8658595244e-06
5.8658595244e-06
0.0
5.8658595244e-06
5.8658595244e-06
5.8658595244e-06
5.8658595244e-06
5.8658595244e-06
3.29954598247e-05
3.59283895869e-05
2.49299029787e-05
2.34634380976e-05
1.90640434543e-05
1.68643461326e-05
1.90640434543e-05
0.0
8.79878928659e-06
5.8658595244e-06
5.8658595244e-06
5.8658595244e-06
0.0
5.8658595244e-06
5.8658595244e-06
5.8658595244e-06
5.8658595244e-06
5.8658595244e-06
5.8658595244e-06
0.0
5.8658595244e-06
5.8658595244e-06
5.8658595244e-06
5.8658595244e-06
5.8658595244e-06
3.29954598247e-05
3.59283895869e-05
2.49299029787e-05
2.34634380976e-05
1.90640434543e-05
1.68643461326e-05
1.90640434543e-05
0.0
8.79878928659e-06
5.8658595244e-06
5.8658595244e-06
5.8658595244e-06
0.0
5.8658595244e-06
5.8658595244e-06
5.8658595244e-06
5.8658595244e-06
5.8658595244e-06
5.8658595244e-06
0.0
5.8658595244e-06
5.8658595244e-06
5.8658595244e-06
5.8658595244e-06
5.8658595244e-06
3.29954598247e-05
3.59283895869e-05
2.49299029787e-05
2.34634380976e-05
1.90640434543e-05
1.68643461326e-05
1.90640434543e-05
0.0724038965683
2.56631354192e-05
1.02652541677e-05
7.3323244055e-06
7.3323244055e-06
5.8658595244e-06
8.06555684604e-06
8.06555684604e-06
7.3323244055e-06
8.06555684604e-06
7.3323244055e-06
8.06555684604e-06
1.97972758948e-05
1.39314163704e-05
9.53202172714e-06
4.3993946433e-06
3.66616220275e-06
3.66616220275e-06
3.66616220275e-06
4.3993946433e-06
3.66616220275e-06
2.9329297622e-06
3.66616220275e-06
3.66616220275e-06
5.13262708385e-06
1.17317190488e-05
2.56631354192e-05
1.02652541677e-05
7.3323244055e-06
7.3323244055e-06
5.8658595244e-06
8.06555684604e-06
8.06555684604e-06
7.3323244055e-06
8.06555684604e-06
7.3323244055e-06
8.06555684604e-06
1.97972758948e-05
1.39314163704e-05
9.53202172714e-06
4.3993946433e-06
3.66616220275e-06
3.66616220275e-06
3.66616220275e-06
4.3993946433e-06
3.66616220275e-06
2.9329297622e-06
3.66616220275e-06
3.66616220275e-06
5.13262708385e-06
1.17317190488e-05
2.56631354192e-05
1.02652541677e-05
7.3323244055e-06
7.3323244055e-06
5.8658595244e-06
8.06555684604e-06
8.06555684604e-06
7.3323244055e-06
8.06555684604e-06
7.3323244055e-06
8.06555684604e-06
1.97972758948e-05
1.39314163704e-05
9.53202172714e-06
4.3993946433e-06
3.66616220275e-06
3.66616220275e-06
3.66616220275e-06
4.3993946433e-06
3.66616220275e-06
2.9329297622e-06
3.66616220275e-06
3.66616220275e-06
5.13262708385e-06
1.17317190488e-05
1
2
3
1
1
0.828191167574
floor
