2 car garage19'2"x 20'3" : [269,194] :[212,175,327,213] :[100] : match : 0
patio : [90,255] :[69,244,112,266] :[100] : match : 0
dining : [78,371] :[52,360,105,382] :[100] : match : 0
kitchen : [155,377] :[124,366,186,388] :[100] : match : 0
lau : [327,357] :[311,346,344,368] :[100] : match : 0
lin : [277,373] :[265,362,290,384] :[100] : match : 0
hall : [242,397] :[222,386,262,408] :[100] : match : 0
storage : [279,445] :[244,434,315,456] :[100] : match : 0
foyer : [214,465] :[188,454,240,476] :[100] : match : 0
great room14'6"x 13'4" : [111,500] :[60,481,162,519] :[100] : match : 0
porch : [228,533] :[201,522,256,544] :[100] : match : 0
up : [244,482] :[234,473,255,492] :[100] : match : 0
masterbedroom10'7"x 13'0" : [795,187] :[756,159,835,215] :[100] : match : 0
bedroom 311'7"x 11'4" : [651,361] :[605,342,698,380] :[100] : match : 0
bath2 : [761,389] :[737,378,786,400] :[100] : match : 0
bedroom 210'1"x 10'4" : [904,367] :[858,348,950,386] :[100] : match : 0
down : [817,448] :[796,439,839,458] :[100] : match : 0
master bath : [893,193] :[850,184,936,203] :[100] : match : 0
w.i.c : [918,135] :[897,124,939,146] :[100] : match : 0
first floor : [269,38] :[195,22,343,54] :[100] : match : 0
second floor : [766,38] :[673,22,860,54] :[100] : match : 0
pwdr : [335,406] :[312,395,359,417] :[100] : match : 0
©copyright protected documentwww.rentinanthem.com : [432,591] :[316,571,549,611] :[100] : match : 0
cabinets : [188,303] :[162,294,215,312] :[100] : match : 0
hw : [352,293] :[340,284,365,303] :[100] : match : 0
ws : [315,293] :[304,284,326,303] :[100] : match : 0
ac : [410,313] :[398,302,423,324] :[100] : match : 0
