25
2
0
0
unknown
0
9027
0
5774
22.8473193176
5.97405424815e-148
6.49809409448e-148
8.7752854267e-148
1.67311630937e-147
3.72639970726e-147
4.3066547371e-147
3.71877730949e-147
4.81354418846e-147
6.10268221043e-147
6.45902930593e-147
7.13837550672e-147
7.36037784162e-147
6.47332130174e-147
6.05694782384e-147
6.25798856489e-147
9.64042757301e-147
8.02162084771e-147
7.8081937103e-147
8.51326550354e-147
8.47705911416e-147
7.09549951929e-147
6.50952769112e-147
4.69634982283e-147
6.86206358774e-147
6.41234211962e-147
5.97405424815e-148
6.49809409448e-148
8.7752854267e-148
1.67311630937e-147
3.72639970726e-147
4.3066547371e-147
3.71877730949e-147
4.81354418846e-147
6.10268221043e-147
6.45902930593e-147
7.13837550672e-147
7.36037784162e-147
6.47332130174e-147
6.05694782384e-147
6.25798856489e-147
9.64042757301e-147
8.02162084771e-147
7.8081937103e-147
8.51326550354e-147
8.47705911416e-147
7.09549951929e-147
6.50952769112e-147
4.69634982283e-147
6.86206358774e-147
6.41234211962e-147
5.97405424815e-148
6.49809409448e-148
8.7752854267e-148
1.67311630937e-147
3.72639970726e-147
4.3066547371e-147
3.71877730949e-147
4.81354418846e-147
6.10268221043e-147
6.45902930593e-147
7.13837550672e-147
7.36037784162e-147
6.47332130174e-147
6.05694782384e-147
6.25798856489e-147
9.64042757301e-147
8.02162084771e-147
7.8081937103e-147
8.51326550354e-147
8.47705911416e-147
7.09549951929e-147
6.50952769112e-147
4.69634982283e-147
6.86206358774e-147
6.41234211962e-147
5.97405424815e-148
6.49809409448e-148
8.7752854267e-148
1.67311630937e-147
3.72639970726e-147
4.3066547371e-147
3.71877730949e-147
4.81354418846e-147
6.10268221043e-147
6.45902930593e-147
7.13837550672e-147
7.36037784162e-147
6.47332130174e-147
6.05694782384e-147
6.25798856489e-147
9.64042757301e-147
8.02162084771e-147
7.8081937103e-147
8.51326550354e-147
8.47705911416e-147
7.09549951929e-147
6.50952769112e-147
4.69634982283e-147
6.86206358774e-147
6.41234211962e-147
5.97405424815e-148
6.49809409448e-148
8.7752854267e-148
1.67311630937e-147
3.72639970726e-147
4.3066547371e-147
3.71877730949e-147
4.81354418846e-147
6.10268221043e-147
6.45902930593e-147
7.13837550672e-147
7.36037784162e-147
6.47332130174e-147
6.05694782384e-147
6.25798856489e-147
9.64042757301e-147
8.02162084771e-147
7.8081937103e-147
8.51326550354e-147
8.47705911416e-147
7.09549951929e-147
6.50952769112e-147
4.69634982283e-147
6.86206358774e-147
6.41234211962e-147
5.97405424815e-148
6.49809409448e-148
8.7752854267e-148
1.67311630937e-147
3.72639970726e-147
4.3066547371e-147
3.71877730949e-147
4.81354418846e-147
6.10268221043e-147
6.45902930593e-147
7.13837550672e-147
7.36037784162e-147
6.47332130174e-147
6.05694782384e-147
6.25798856489e-147
9.64042757301e-147
8.02162084771e-147
7.8081937103e-147
8.51326550354e-147
8.47705911416e-147
7.09549951929e-147
6.50952769112e-147
4.69634982283e-147
6.86206358774e-147
6.41234211962e-147
5.97405424815e-148
6.49809409448e-148
8.7752854267e-148
1.67311630937e-147
3.72639970726e-147
4.3066547371e-147
3.71877730949e-147
4.81354418846e-147
6.10268221043e-147
6.45902930593e-147
7.13837550672e-147
7.36037784162e-147
6.47332130174e-147
6.05694782384e-147
6.25798856489e-147
9.64042757301e-147
8.02162084771e-147
7.8081937103e-147
8.51326550354e-147
8.47705911416e-147
7.09549951929e-147
6.50952769112e-147
4.69634982283e-147
6.86206358774e-147
6.41234211962e-147
5.97405424815e-148
6.49809409448e-148
8.7752854267e-148
1.67311630937e-147
3.72639970726e-147
4.3066547371e-147
3.71877730949e-147
4.81354418846e-147
6.10268221043e-147
6.45902930593e-147
7.13837550672e-147
7.36037784162e-147
6.47332130174e-147
6.05694782384e-147
6.25798856489e-147
9.64042757301e-147
8.02162084771e-147
7.8081937103e-147
8.51326550354e-147
8.47705911416e-147
7.09549951929e-147
6.50952769112e-147
4.69634982283e-147
6.86206358774e-147
6.41234211962e-147
5.97405424815e-148
6.49809409448e-148
8.7752854267e-148
1.67311630937e-147
3.72639970726e-147
4.3066547371e-147
3.71877730949e-147
4.81354418846e-147
6.10268221043e-147
6.45902930593e-147
7.13837550672e-147
7.36037784162e-147
6.47332130174e-147
6.05694782384e-147
6.25798856489e-147
9.64042757301e-147
8.02162084771e-147
7.8081937103e-147
8.51326550354e-147
8.47705911416e-147
7.09549951929e-147
6.50952769112e-147
4.69634982283e-147
6.86206358774e-147
6.41234211962e-147
5.97405424815e-148
6.49809409448e-148
8.7752854267e-148
1.67311630937e-147
3.72639970726e-147
4.3066547371e-147
3.71877730949e-147
4.81354418846e-147
6.10268221043e-147
6.45902930593e-147
7.13837550672e-147
7.36037784162e-147
6.47332130174e-147
6.05694782384e-147
6.25798856489e-147
9.64042757301e-147
8.02162084771e-147
7.8081937103e-147
8.51326550354e-147
8.47705911416e-147
7.09549951929e-147
6.50952769112e-147
4.69634982283e-147
6.86206358774e-147
6.41234211962e-147
5.97405424815e-148
6.49809409448e-148
8.7752854267e-148
1.67311630937e-147
3.72639970726e-147
4.3066547371e-147
3.71877730949e-147
4.81354418846e-147
6.10268221043e-147
6.45902930593e-147
7.13837550672e-147
7.36037784162e-147
6.47332130174e-147
6.05694782384e-147
6.25798856489e-147
9.64042757301e-147
8.02162084771e-147
7.8081937103e-147
8.51326550354e-147
8.47705911416e-147
7.09549951929e-147
6.50952769112e-147
4.69634982283e-147
6.86206358774e-147
6.41234211962e-147
5.97405424815e-148
6.49809409448e-148
8.7752854267e-148
1.67311630937e-147
3.72639970726e-147
4.3066547371e-147
3.71877730949e-147
4.81354418846e-147
6.10268221043e-147
6.45902930593e-147
7.13837550672e-147
7.36037784162e-147
6.47332130174e-147
6.05694782384e-147
6.25798856489e-147
9.64042757301e-147
8.02162084771e-147
7.8081937103e-147
8.51326550354e-147
8.47705911416e-147
7.09549951929e-147
6.50952769112e-147
4.69634982283e-147
6.86206358774e-147
6.41234211962e-147
5.97405424815e-148
6.49809409448e-148
8.7752854267e-148
1.67311630937e-147
3.72639970726e-147
4.3066547371e-147
3.71877730949e-147
4.81354418846e-147
6.10268221043e-147
6.45902930593e-147
7.13837550672e-147
7.36037784162e-147
6.47332130174e-147
6.05694782384e-147
6.25798856489e-147
9.64042757301e-147
8.02162084771e-147
7.8081937103e-147
8.51326550354e-147
8.47705911416e-147
7.09549951929e-147
6.50952769112e-147
4.69634982283e-147
6.86206358774e-147
6.41234211962e-147
5.97405424815e-148
6.49809409448e-148
8.7752854267e-148
1.67311630937e-147
3.72639970726e-147
4.3066547371e-147
3.71877730949e-147
4.81354418846e-147
6.10268221043e-147
6.45902930593e-147
7.13837550672e-147
7.36037784162e-147
6.47332130174e-147
6.05694782384e-147
6.25798856489e-147
9.64042757301e-147
8.02162084771e-147
7.8081937103e-147
8.51326550354e-147
8.47705911416e-147
7.09549951929e-147
6.50952769112e-147
4.69634982283e-147
6.86206358774e-147
6.41234211962e-147
5.97405424815e-148
6.49809409448e-148
8.7752854267e-148
1.67311630937e-147
3.72639970726e-147
4.3066547371e-147
3.71877730949e-147
4.81354418846e-147
6.10268221043e-147
6.45902930593e-147
7.13837550672e-147
7.36037784162e-147
6.47332130174e-147
6.05694782384e-147
6.25798856489e-147
9.64042757301e-147
8.02162084771e-147
7.8081937103e-147
8.51326550354e-147
8.47705911416e-147
7.09549951929e-147
6.50952769112e-147
4.69634982283e-147
6.86206358774e-147
6.41234211962e-147
5.97405424815e-148
6.49809409448e-148
8.7752854267e-148
1.67311630937e-147
3.72639970726e-147
4.3066547371e-147
3.71877730949e-147
4.81354418846e-147
6.10268221043e-147
6.45902930593e-147
7.13837550672e-147
7.36037784162e-147
6.47332130174e-147
6.05694782384e-147
6.25798856489e-147
9.64042757301e-147
8.02162084771e-147
7.8081937103e-147
8.51326550354e-147
8.47705911416e-147
7.09549951929e-147
6.50952769112e-147
4.69634982283e-147
6.86206358774e-147
6.41234211962e-147
5.97405424815e-148
6.49809409448e-148
8.7752854267e-148
1.67311630937e-147
3.72639970726e-147
4.3066547371e-147
3.71877730949e-147
4.81354418846e-147
6.10268221043e-147
6.45902930593e-147
7.13837550672e-147
7.36037784162e-147
6.47332130174e-147
6.05694782384e-147
6.25798856489e-147
9.64042757301e-147
8.02162084771e-147
7.8081937103e-147
8.51326550354e-147
8.47705911416e-147
7.09549951929e-147
6.50952769112e-147
4.69634982283e-147
6.86206358774e-147
6.41234211962e-147
5.97405424815e-148
6.49809409448e-148
8.7752854267e-148
1.67311630937e-147
3.72639970726e-147
4.3066547371e-147
3.71877730949e-147
4.81354418846e-147
6.10268221043e-147
6.45902930593e-147
7.13837550672e-147
7.36037784162e-147
6.47332130174e-147
6.05694782384e-147
6.25798856489e-147
9.64042757301e-147
8.02162084771e-147
7.8081937103e-147
8.51326550354e-147
8.47705911416e-147
7.09549951929e-147
6.50952769112e-147
4.69634982283e-147
6.86206358774e-147
6.41234211962e-147
5.97405424815e-148
6.49809409448e-148
8.7752854267e-148
1.67311630937e-147
3.72639970726e-147
4.3066547371e-147
3.71877730949e-147
4.81354418846e-147
6.10268221043e-147
6.45902930593e-147
7.13837550672e-147
7.36037784162e-147
6.47332130174e-147
6.05694782384e-147
6.25798856489e-147
9.64042757301e-147
8.02162084771e-147
7.8081937103e-147
8.51326550354e-147
8.47705911416e-147
7.09549951929e-147
6.50952769112e-147
4.69634982283e-147
6.86206358774e-147
6.41234211962e-147
5.97405424815e-148
6.49809409448e-148
8.7752854267e-148
1.67311630937e-147
3.72639970726e-147
4.3066547371e-147
3.71877730949e-147
4.81354418846e-147
6.10268221043e-147
6.45902930593e-147
7.13837550672e-147
7.36037784162e-147
6.47332130174e-147
6.05694782384e-147
6.25798856489e-147
9.64042757301e-147
8.02162084771e-147
7.8081937103e-147
8.51326550354e-147
8.47705911416e-147
7.09549951929e-147
6.50952769112e-147
4.69634982283e-147
6.86206358774e-147
6.41234211962e-147
5.97405424815e-148
6.49809409448e-148
8.7752854267e-148
1.67311630937e-147
3.72639970726e-147
4.3066547371e-147
3.71877730949e-147
4.81354418846e-147
6.10268221043e-147
6.45902930593e-147
7.13837550672e-147
7.36037784162e-147
6.47332130174e-147
6.05694782384e-147
6.25798856489e-147
9.64042757301e-147
8.02162084771e-147
7.8081937103e-147
8.51326550354e-147
8.47705911416e-147
7.09549951929e-147
6.50952769112e-147
4.69634982283e-147
6.86206358774e-147
6.41234211962e-147
5.97405424815e-148
6.49809409448e-148
8.7752854267e-148
1.67311630937e-147
3.72639970726e-147
4.3066547371e-147
3.71877730949e-147
4.81354418846e-147
6.10268221043e-147
6.45902930593e-147
7.13837550672e-147
7.36037784162e-147
6.47332130174e-147
6.05694782384e-147
6.25798856489e-147
9.64042757301e-147
8.02162084771e-147
7.8081937103e-147
8.51326550354e-147
8.47705911416e-147
7.09549951929e-147
6.50952769112e-147
4.69634982283e-147
6.86206358774e-147
6.41234211962e-147
5.97405424815e-148
6.49809409448e-148
8.7752854267e-148
1.67311630937e-147
3.72639970726e-147
4.3066547371e-147
3.71877730949e-147
4.81354418846e-147
6.10268221043e-147
6.45902930593e-147
7.13837550672e-147
7.36037784162e-147
6.47332130174e-147
6.05694782384e-147
6.25798856489e-147
9.64042757301e-147
8.02162084771e-147
7.8081937103e-147
8.51326550354e-147
8.47705911416e-147
7.09549951929e-147
6.50952769112e-147
4.69634982283e-147
6.86206358774e-147
6.41234211962e-147
5.97405424815e-148
6.49809409448e-148
8.7752854267e-148
1.67311630937e-147
3.72639970726e-147
4.3066547371e-147
3.71877730949e-147
4.81354418846e-147
6.10268221043e-147
6.45902930593e-147
7.13837550672e-147
7.36037784162e-147
6.47332130174e-147
6.05694782384e-147
6.25798856489e-147
9.64042757301e-147
8.02162084771e-147
7.8081937103e-147
8.51326550354e-147
8.47705911416e-147
7.09549951929e-147
6.50952769112e-147
4.69634982283e-147
6.86206358774e-147
6.41234211962e-147
5.97405424815e-148
6.49809409448e-148
8.7752854267e-148
1.67311630937e-147
3.72639970726e-147
4.3066547371e-147
3.71877730949e-147
4.81354418846e-147
6.10268221043e-147
6.45902930593e-147
7.13837550672e-147
7.36037784162e-147
6.47332130174e-147
6.05694782384e-147
6.25798856489e-147
9.64042757301e-147
8.02162084771e-147
7.8081937103e-147
8.51326550354e-147
8.47705911416e-147
7.09549951929e-147
6.50952769112e-147
4.69634982283e-147
6.86206358774e-147
6.41234211962e-147
5.97405424815e-148
6.49809409448e-148
8.7752854267e-148
1.67311630937e-147
3.72639970726e-147
4.3066547371e-147
3.71877730949e-147
4.81354418846e-147
6.10268221043e-147
6.45902930593e-147
7.13837550672e-147
7.36037784162e-147
6.47332130174e-147
6.05694782384e-147
6.25798856489e-147
9.64042757301e-147
8.02162084771e-147
7.8081937103e-147
8.51326550354e-147
8.47705911416e-147
7.09549951929e-147
6.50952769112e-147
4.69634982283e-147
6.86206358774e-147
6.41234211962e-147
5.97405424815e-148
6.49809409448e-148
8.7752854267e-148
1.67311630937e-147
3.72639970726e-147
4.3066547371e-147
3.71877730949e-147
4.81354418846e-147
6.10268221043e-147
6.45902930593e-147
7.13837550672e-147
7.36037784162e-147
6.47332130174e-147
6.05694782384e-147
6.25798856489e-147
9.64042757301e-147
8.02162084771e-147
7.8081937103e-147
8.51326550354e-147
8.47705911416e-147
7.09549951929e-147
6.50952769112e-147
4.69634982283e-147
6.86206358774e-147
6.41234211962e-147
5.97405424815e-148
6.49809409448e-148
8.7752854267e-148
1.67311630937e-147
3.72639970726e-147
4.3066547371e-147
3.71877730949e-147
4.81354418846e-147
6.10268221043e-147
6.45902930593e-147
7.13837550672e-147
7.36037784162e-147
6.47332130174e-147
6.05694782384e-147
6.25798856489e-147
9.64042757301e-147
8.02162084771e-147
7.8081937103e-147
8.51326550354e-147
8.47705911416e-147
7.09549951929e-147
6.50952769112e-147
4.69634982283e-147
6.86206358774e-147
6.41234211962e-147
5.97405424815e-148
6.49809409448e-148
8.7752854267e-148
1.67311630937e-147
3.72639970726e-147
4.3066547371e-147
3.71877730949e-147
4.81354418846e-147
6.10268221043e-147
6.45902930593e-147
7.13837550672e-147
7.36037784162e-147
6.47332130174e-147
6.05694782384e-147
6.25798856489e-147
9.64042757301e-147
8.02162084771e-147
7.8081937103e-147
8.51326550354e-147
8.47705911416e-147
7.09549951929e-147
6.50952769112e-147
4.69634982283e-147
6.86206358774e-147
6.41234211962e-147
5.97405424815e-148
6.49809409448e-148
8.7752854267e-148
1.67311630937e-147
3.72639970726e-147
4.3066547371e-147
3.71877730949e-147
4.81354418846e-147
6.10268221043e-147
6.45902930593e-147
7.13837550672e-147
7.36037784162e-147
6.47332130174e-147
6.05694782384e-147
6.25798856489e-147
9.64042757301e-147
8.02162084771e-147
7.8081937103e-147
8.51326550354e-147
8.47705911416e-147
7.09549951929e-147
6.50952769112e-147
4.69634982283e-147
6.86206358774e-147
6.41234211962e-147
5.97405424815e-148
6.49809409448e-148
8.7752854267e-148
1.67311630937e-147
3.72639970726e-147
4.3066547371e-147
3.71877730949e-147
4.81354418846e-147
6.10268221043e-147
6.45902930593e-147
7.13837550672e-147
7.36037784162e-147
6.47332130174e-147
6.05694782384e-147
6.25798856489e-147
9.64042757301e-147
8.02162084771e-147
7.8081937103e-147
8.51326550354e-147
8.47705911416e-147
7.09549951929e-147
6.50952769112e-147
4.69634982283e-147
6.86206358774e-147
6.41234211962e-147
5.97405424815e-148
6.49809409448e-148
8.7752854267e-148
1.67311630937e-147
3.72639970726e-147
4.3066547371e-147
3.71877730949e-147
4.81354418846e-147
6.10268221043e-147
6.45902930593e-147
7.13837550672e-147
7.36037784162e-147
6.47332130174e-147
6.05694782384e-147
6.25798856489e-147
9.64042757301e-147
8.02162084771e-147
7.8081937103e-147
8.51326550354e-147
8.47705911416e-147
7.09549951929e-147
6.50952769112e-147
4.69634982283e-147
6.86206358774e-147
6.41234211962e-147
5.97405424815e-148
6.49809409448e-148
8.7752854267e-148
1.67311630937e-147
3.72639970726e-147
4.3066547371e-147
3.71877730949e-147
4.81354418846e-147
6.10268221043e-147
6.45902930593e-147
7.13837550672e-147
7.36037784162e-147
6.47332130174e-147
6.05694782384e-147
6.25798856489e-147
9.64042757301e-147
8.02162084771e-147
7.8081937103e-147
8.51326550354e-147
8.47705911416e-147
7.09549951929e-147
6.50952769112e-147
4.69634982283e-147
6.86206358774e-147
6.41234211962e-147
5.97405424815e-148
6.49809409448e-148
8.7752854267e-148
1.67311630937e-147
3.72639970726e-147
4.3066547371e-147
3.71877730949e-147
4.81354418846e-147
6.10268221043e-147
6.45902930593e-147
7.13837550672e-147
7.36037784162e-147
6.47332130174e-147
6.05694782384e-147
6.25798856489e-147
9.64042757301e-147
8.02162084771e-147
7.8081937103e-147
8.51326550354e-147
8.47705911416e-147
7.09549951929e-147
6.50952769112e-147
4.69634982283e-147
6.86206358774e-147
6.41234211962e-147
5.97405424815e-148
6.49809409448e-148
8.7752854267e-148
1.67311630937e-147
3.72639970726e-147
4.3066547371e-147
3.71877730949e-147
4.81354418846e-147
6.10268221043e-147
6.45902930593e-147
7.13837550672e-147
7.36037784162e-147
6.47332130174e-147
6.05694782384e-147
6.25798856489e-147
9.64042757301e-147
8.02162084771e-147
7.8081937103e-147
8.51326550354e-147
8.47705911416e-147
7.09549951929e-147
6.50952769112e-147
4.69634982283e-147
6.86206358774e-147
6.41234211962e-147
5.97405424815e-148
6.49809409448e-148
8.7752854267e-148
1.67311630937e-147
3.72639970726e-147
4.3066547371e-147
3.71877730949e-147
4.81354418846e-147
6.10268221043e-147
6.45902930593e-147
7.13837550672e-147
7.36037784162e-147
6.47332130174e-147
6.05694782384e-147
6.25798856489e-147
9.64042757301e-147
8.02162084771e-147
7.8081937103e-147
8.51326550354e-147
8.47705911416e-147
7.09549951929e-147
6.50952769112e-147
4.69634982283e-147
6.86206358774e-147
6.41234211962e-147
5.97405424815e-148
6.49809409448e-148
8.7752854267e-148
1.67311630937e-147
3.72639970726e-147
4.3066547371e-147
3.71877730949e-147
4.81354418846e-147
6.10268221043e-147
6.45902930593e-147
7.13837550672e-147
7.36037784162e-147
6.47332130174e-147
6.05694782384e-147
6.25798856489e-147
9.64042757301e-147
8.02162084771e-147
7.8081937103e-147
8.51326550354e-147
8.47705911416e-147
7.09549951929e-147
6.50952769112e-147
4.69634982283e-147
6.86206358774e-147
6.41234211962e-147
5.97405424815e-148
6.49809409448e-148
8.7752854267e-148
1.67311630937e-147
3.72639970726e-147
4.3066547371e-147
3.71877730949e-147
4.81354418846e-147
6.10268221043e-147
6.45902930593e-147
7.13837550672e-147
7.36037784162e-147
6.47332130174e-147
6.05694782384e-147
6.25798856489e-147
9.64042757301e-147
8.02162084771e-147
7.8081937103e-147
8.51326550354e-147
8.47705911416e-147
7.09549951929e-147
6.50952769112e-147
4.69634982283e-147
6.86206358774e-147
6.41234211962e-147
5.97405424815e-148
6.49809409448e-148
8.7752854267e-148
1.67311630937e-147
3.72639970726e-147
4.3066547371e-147
3.71877730949e-147
4.81354418846e-147
6.10268221043e-147
6.45902930593e-147
7.13837550672e-147
7.36037784162e-147
6.47332130174e-147
6.05694782384e-147
6.25798856489e-147
9.64042757301e-147
8.02162084771e-147
7.8081937103e-147
8.51326550354e-147
8.47705911416e-147
7.09549951929e-147
6.50952769112e-147
4.69634982283e-147
6.86206358774e-147
6.41234211962e-147
5.97405424815e-148
6.49809409448e-148
8.7752854267e-148
1.67311630937e-147
3.72639970726e-147
4.3066547371e-147
3.71877730949e-147
4.81354418846e-147
6.10268221043e-147
6.45902930593e-147
7.13837550672e-147
7.36037784162e-147
6.47332130174e-147
6.05694782384e-147
6.25798856489e-147
9.64042757301e-147
8.02162084771e-147
7.8081937103e-147
8.51326550354e-147
8.47705911416e-147
7.09549951929e-147
6.50952769112e-147
4.69634982283e-147
6.86206358774e-147
6.41234211962e-147
5.97405424815e-148
6.49809409448e-148
8.7752854267e-148
1.67311630937e-147
3.72639970726e-147
4.3066547371e-147
3.71877730949e-147
4.81354418846e-147
6.10268221043e-147
6.45902930593e-147
7.13837550672e-147
7.36037784162e-147
6.47332130174e-147
6.05694782384e-147
6.25798856489e-147
9.64042757301e-147
8.02162084771e-147
7.8081937103e-147
8.51326550354e-147
8.47705911416e-147
7.09549951929e-147
6.50952769112e-147
4.69634982283e-147
6.86206358774e-147
6.41234211962e-147
5.97405424815e-148
6.49809409448e-148
8.7752854267e-148
1.67311630937e-147
3.72639970726e-147
4.3066547371e-147
3.71877730949e-147
4.81354418846e-147
6.10268221043e-147
6.45902930593e-147
7.13837550672e-147
7.36037784162e-147
6.47332130174e-147
6.05694782384e-147
6.25798856489e-147
9.64042757301e-147
8.02162084771e-147
7.8081937103e-147
8.51326550354e-147
8.47705911416e-147
7.09549951929e-147
6.50952769112e-147
4.69634982283e-147
6.86206358774e-147
6.41234211962e-147
5.97405424815e-148
6.49809409448e-148
8.7752854267e-148
1.67311630937e-147
3.72639970726e-147
4.3066547371e-147
3.71877730949e-147
4.81354418846e-147
6.10268221043e-147
6.45902930593e-147
7.13837550672e-147
7.36037784162e-147
6.47332130174e-147
6.05694782384e-147
6.25798856489e-147
9.64042757301e-147
8.02162084771e-147
7.8081937103e-147
8.51326550354e-147
8.47705911416e-147
7.09549951929e-147
6.50952769112e-147
4.69634982283e-147
6.86206358774e-147
6.41234211962e-147
5.97405424815e-148
6.49809409448e-148
8.7752854267e-148
1.67311630937e-147
3.72639970726e-147
4.3066547371e-147
3.71877730949e-147
4.81354418846e-147
6.10268221043e-147
6.45902930593e-147
7.13837550672e-147
7.36037784162e-147
6.47332130174e-147
6.05694782384e-147
6.25798856489e-147
9.64042757301e-147
8.02162084771e-147
7.8081937103e-147
8.51326550354e-147
8.47705911416e-147
7.09549951929e-147
6.50952769112e-147
4.69634982283e-147
6.86206358774e-147
6.41234211962e-147
5.97405424815e-148
6.49809409448e-148
8.7752854267e-148
1.67311630937e-147
3.72639970726e-147
4.3066547371e-147
3.71877730949e-147
4.81354418846e-147
6.10268221043e-147
6.45902930593e-147
7.13837550672e-147
7.36037784162e-147
6.47332130174e-147
6.05694782384e-147
6.25798856489e-147
9.64042757301e-147
8.02162084771e-147
7.8081937103e-147
8.51326550354e-147
8.47705911416e-147
7.09549951929e-147
6.50952769112e-147
4.69634982283e-147
6.86206358774e-147
6.41234211962e-147
5.97405424815e-148
6.49809409448e-148
8.7752854267e-148
1.67311630937e-147
3.72639970726e-147
4.3066547371e-147
3.71877730949e-147
4.81354418846e-147
6.10268221043e-147
6.45902930593e-147
7.13837550672e-147
7.36037784162e-147
6.47332130174e-147
6.05694782384e-147
6.25798856489e-147
9.64042757301e-147
8.02162084771e-147
7.8081937103e-147
8.51326550354e-147
8.47705911416e-147
7.09549951929e-147
6.50952769112e-147
4.69634982283e-147
6.86206358774e-147
6.41234211962e-147
5.97405424815e-148
6.49809409448e-148
8.7752854267e-148
1.67311630937e-147
3.72639970726e-147
4.3066547371e-147
3.71877730949e-147
4.81354418846e-147
6.10268221043e-147
6.45902930593e-147
7.13837550672e-147
7.36037784162e-147
6.47332130174e-147
6.05694782384e-147
6.25798856489e-147
9.64042757301e-147
8.02162084771e-147
7.8081937103e-147
8.51326550354e-147
8.47705911416e-147
7.09549951929e-147
6.50952769112e-147
4.69634982283e-147
6.86206358774e-147
6.41234211962e-147
5.97405424815e-148
6.49809409448e-148
8.7752854267e-148
1.67311630937e-147
3.72639970726e-147
4.3066547371e-147
3.71877730949e-147
4.81354418846e-147
6.10268221043e-147
6.45902930593e-147
7.13837550672e-147
7.36037784162e-147
6.47332130174e-147
6.05694782384e-147
6.25798856489e-147
9.64042757301e-147
8.02162084771e-147
7.8081937103e-147
8.51326550354e-147
8.47705911416e-147
7.09549951929e-147
6.50952769112e-147
4.69634982283e-147
6.86206358774e-147
6.41234211962e-147
5.97405424815e-148
6.49809409448e-148
8.7752854267e-148
1.67311630937e-147
3.72639970726e-147
4.3066547371e-147
3.71877730949e-147
4.81354418846e-147
6.10268221043e-147
6.45902930593e-147
7.13837550672e-147
7.36037784162e-147
6.47332130174e-147
6.05694782384e-147
6.25798856489e-147
9.64042757301e-147
8.02162084771e-147
7.8081937103e-147
8.51326550354e-147
8.47705911416e-147
7.09549951929e-147
6.50952769112e-147
4.69634982283e-147
6.86206358774e-147
6.41234211962e-147
5.97405424815e-148
6.49809409448e-148
8.7752854267e-148
1.67311630937e-147
3.72639970726e-147
4.3066547371e-147
3.71877730949e-147
4.81354418846e-147
6.10268221043e-147
6.45902930593e-147
7.13837550672e-147
7.36037784162e-147
6.47332130174e-147
6.05694782384e-147
6.25798856489e-147
9.64042757301e-147
8.02162084771e-147
7.8081937103e-147
8.51326550354e-147
8.47705911416e-147
7.09549951929e-147
6.50952769112e-147
4.69634982283e-147
6.86206358774e-147
6.41234211962e-147
5.97405424815e-148
6.49809409448e-148
8.7752854267e-148
1.67311630937e-147
3.72639970726e-147
4.3066547371e-147
3.71877730949e-147
4.81354418846e-147
6.10268221043e-147
6.45902930593e-147
7.13837550672e-147
7.36037784162e-147
6.47332130174e-147
6.05694782384e-147
6.25798856489e-147
9.64042757301e-147
8.02162084771e-147
7.8081937103e-147
8.51326550354e-147
8.47705911416e-147
7.09549951929e-147
6.50952769112e-147
4.69634982283e-147
6.86206358774e-147
6.41234211962e-147
0.665639432481
4.62298424434e-147
4.32094673291e-147
4.36953951866e-147
5.18227768033e-147
5.47859839344e-147
5.35949842836e-147
5.62723514985e-147
6.59337406654e-147
7.32417145223e-147
6.6886540386e-147
7.94634966978e-147
7.03166193801e-147
5.00124573342e-147
1.27961002476e-147
1.92751383477e-147
1.57211953899e-147
1.71408669736e-147
2.14761057023e-147
2.0675753937e-147
1.92941943421e-147
2.12379057721e-147
2.48680727076e-147
2.86030476123e-147
4.13896198628e-147
3.78166209105e-147
4.62298424434e-147
4.32094673291e-147
4.36953951866e-147
5.18227768033e-147
5.47859839344e-147
5.35949842836e-147
5.62723514985e-147
6.59337406654e-147
7.32417145223e-147
6.6886540386e-147
7.94634966978e-147
7.03166193801e-147
5.00124573342e-147
1.27961002476e-147
1.92751383477e-147
1.57211953899e-147
1.71408669736e-147
2.14761057023e-147
2.0675753937e-147
1.92941943421e-147
2.12379057721e-147
2.48680727076e-147
2.86030476123e-147
4.13896198628e-147
3.78166209105e-147
4.62298424434e-147
4.32094673291e-147
4.36953951866e-147
5.18227768033e-147
5.47859839344e-147
5.35949842836e-147
5.62723514985e-147
6.59337406654e-147
7.32417145223e-147
6.6886540386e-147
7.94634966978e-147
7.03166193801e-147
5.00124573342e-147
1.27961002476e-147
1.92751383477e-147
1.57211953899e-147
1.71408669736e-147
2.14761057023e-147
2.0675753937e-147
1.92941943421e-147
2.12379057721e-147
2.48680727076e-147
2.86030476123e-147
4.13896198628e-147
3.78166209105e-147
4.62298424434e-147
4.32094673291e-147
4.36953951866e-147
5.18227768033e-147
5.47859839344e-147
5.35949842836e-147
5.62723514985e-147
6.59337406654e-147
7.32417145223e-147
6.6886540386e-147
7.94634966978e-147
7.03166193801e-147
5.00124573342e-147
1.27961002476e-147
1.92751383477e-147
1.57211953899e-147
1.71408669736e-147
2.14761057023e-147
2.0675753937e-147
1.92941943421e-147
2.12379057721e-147
2.48680727076e-147
2.86030476123e-147
4.13896198628e-147
3.78166209105e-147
4.62298424434e-147
4.32094673291e-147
4.36953951866e-147
5.18227768033e-147
5.47859839344e-147
5.35949842836e-147
5.62723514985e-147
6.59337406654e-147
7.32417145223e-147
6.6886540386e-147
7.94634966978e-147
7.03166193801e-147
5.00124573342e-147
1.27961002476e-147
1.92751383477e-147
1.57211953899e-147
1.71408669736e-147
2.14761057023e-147
2.0675753937e-147
1.92941943421e-147
2.12379057721e-147
2.48680727076e-147
2.86030476123e-147
4.13896198628e-147
3.78166209105e-147
4.62298424434e-147
4.32094673291e-147
4.36953951866e-147
5.18227768033e-147
5.47859839344e-147
5.35949842836e-147
5.62723514985e-147
6.59337406654e-147
7.32417145223e-147
6.6886540386e-147
7.94634966978e-147
7.03166193801e-147
5.00124573342e-147
1.27961002476e-147
1.92751383477e-147
1.57211953899e-147
1.71408669736e-147
2.14761057023e-147
2.0675753937e-147
1.92941943421e-147
2.12379057721e-147
2.48680727076e-147
2.86030476123e-147
4.13896198628e-147
3.78166209105e-147
4.62298424434e-147
4.32094673291e-147
4.36953951866e-147
5.18227768033e-147
5.47859839344e-147
5.35949842836e-147
5.62723514985e-147
6.59337406654e-147
7.32417145223e-147
6.6886540386e-147
7.94634966978e-147
7.03166193801e-147
5.00124573342e-147
1.27961002476e-147
1.92751383477e-147
1.57211953899e-147
1.71408669736e-147
2.14761057023e-147
2.0675753937e-147
1.92941943421e-147
2.12379057721e-147
2.48680727076e-147
2.86030476123e-147
4.13896198628e-147
3.78166209105e-147
4.62298424434e-147
4.32094673291e-147
4.36953951866e-147
5.18227768033e-147
5.47859839344e-147
5.35949842836e-147
5.62723514985e-147
6.59337406654e-147
7.32417145223e-147
6.6886540386e-147
7.94634966978e-147
7.03166193801e-147
5.00124573342e-147
1.27961002476e-147
1.92751383477e-147
1.57211953899e-147
1.71408669736e-147
2.14761057023e-147
2.0675753937e-147
1.92941943421e-147
2.12379057721e-147
2.48680727076e-147
2.86030476123e-147
4.13896198628e-147
3.78166209105e-147
4.62298424434e-147
4.32094673291e-147
4.36953951866e-147
5.18227768033e-147
5.47859839344e-147
5.35949842836e-147
5.62723514985e-147
6.59337406654e-147
7.32417145223e-147
6.6886540386e-147
7.94634966978e-147
7.03166193801e-147
5.00124573342e-147
1.27961002476e-147
1.92751383477e-147
1.57211953899e-147
1.71408669736e-147
2.14761057023e-147
2.0675753937e-147
1.92941943421e-147
2.12379057721e-147
2.48680727076e-147
2.86030476123e-147
4.13896198628e-147
3.78166209105e-147
4.62298424434e-147
4.32094673291e-147
4.36953951866e-147
5.18227768033e-147
5.47859839344e-147
5.35949842836e-147
5.62723514985e-147
6.59337406654e-147
7.32417145223e-147
6.6886540386e-147
7.94634966978e-147
7.03166193801e-147
5.00124573342e-147
1.27961002476e-147
1.92751383477e-147
1.57211953899e-147
1.71408669736e-147
2.14761057023e-147
2.0675753937e-147
1.92941943421e-147
2.12379057721e-147
2.48680727076e-147
2.86030476123e-147
4.13896198628e-147
3.78166209105e-147
4.62298424434e-147
4.32094673291e-147
4.36953951866e-147
5.18227768033e-147
5.47859839344e-147
5.35949842836e-147
5.62723514985e-147
6.59337406654e-147
7.32417145223e-147
6.6886540386e-147
7.94634966978e-147
7.03166193801e-147
5.00124573342e-147
1.27961002476e-147
1.92751383477e-147
1.57211953899e-147
1.71408669736e-147
2.14761057023e-147
2.0675753937e-147
1.92941943421e-147
2.12379057721e-147
2.48680727076e-147
2.86030476123e-147
4.13896198628e-147
3.78166209105e-147
4.62298424434e-147
4.32094673291e-147
4.36953951866e-147
5.18227768033e-147
5.47859839344e-147
5.35949842836e-147
5.62723514985e-147
6.59337406654e-147
7.32417145223e-147
6.6886540386e-147
7.94634966978e-147
7.03166193801e-147
5.00124573342e-147
1.27961002476e-147
1.92751383477e-147
1.57211953899e-147
1.71408669736e-147
2.14761057023e-147
2.0675753937e-147
1.92941943421e-147
2.12379057721e-147
2.48680727076e-147
2.86030476123e-147
4.13896198628e-147
3.78166209105e-147
4.62298424434e-147
4.32094673291e-147
4.36953951866e-147
5.18227768033e-147
5.47859839344e-147
5.35949842836e-147
5.62723514985e-147
6.59337406654e-147
7.32417145223e-147
6.6886540386e-147
7.94634966978e-147
7.03166193801e-147
5.00124573342e-147
1.27961002476e-147
1.92751383477e-147
1.57211953899e-147
1.71408669736e-147
2.14761057023e-147
2.0675753937e-147
1.92941943421e-147
2.12379057721e-147
2.48680727076e-147
2.86030476123e-147
4.13896198628e-147
3.78166209105e-147
4.62298424434e-147
4.32094673291e-147
4.36953951866e-147
5.18227768033e-147
5.47859839344e-147
5.35949842836e-147
5.62723514985e-147
6.59337406654e-147
7.32417145223e-147
6.6886540386e-147
7.94634966978e-147
7.03166193801e-147
5.00124573342e-147
1.27961002476e-147
1.92751383477e-147
1.57211953899e-147
1.71408669736e-147
2.14761057023e-147
2.0675753937e-147
1.92941943421e-147
2.12379057721e-147
2.48680727076e-147
2.86030476123e-147
4.13896198628e-147
3.78166209105e-147
4.62298424434e-147
4.32094673291e-147
4.36953951866e-147
5.18227768033e-147
5.47859839344e-147
5.35949842836e-147
5.62723514985e-147
6.59337406654e-147
7.32417145223e-147
6.6886540386e-147
7.94634966978e-147
7.03166193801e-147
5.00124573342e-147
1.27961002476e-147
1.92751383477e-147
1.57211953899e-147
1.71408669736e-147
2.14761057023e-147
2.0675753937e-147
1.92941943421e-147
2.12379057721e-147
2.48680727076e-147
2.86030476123e-147
4.13896198628e-147
3.78166209105e-147
4.62298424434e-147
4.32094673291e-147
4.36953951866e-147
5.18227768033e-147
5.47859839344e-147
5.35949842836e-147
5.62723514985e-147
6.59337406654e-147
7.32417145223e-147
6.6886540386e-147
7.94634966978e-147
7.03166193801e-147
5.00124573342e-147
1.27961002476e-147
1.92751383477e-147
1.57211953899e-147
1.71408669736e-147
2.14761057023e-147
2.0675753937e-147
1.92941943421e-147
2.12379057721e-147
2.48680727076e-147
2.86030476123e-147
4.13896198628e-147
3.78166209105e-147
4.62298424434e-147
4.32094673291e-147
4.36953951866e-147
5.18227768033e-147
5.47859839344e-147
5.35949842836e-147
5.62723514985e-147
6.59337406654e-147
7.32417145223e-147
6.6886540386e-147
7.94634966978e-147
7.03166193801e-147
5.00124573342e-147
1.27961002476e-147
1.92751383477e-147
1.57211953899e-147
1.71408669736e-147
2.14761057023e-147
2.0675753937e-147
1.92941943421e-147
2.12379057721e-147
2.48680727076e-147
2.86030476123e-147
4.13896198628e-147
3.78166209105e-147
4.62298424434e-147
4.32094673291e-147
4.36953951866e-147
5.18227768033e-147
5.47859839344e-147
5.35949842836e-147
5.62723514985e-147
6.59337406654e-147
7.32417145223e-147
6.6886540386e-147
7.94634966978e-147
7.03166193801e-147
5.00124573342e-147
1.27961002476e-147
1.92751383477e-147
1.57211953899e-147
1.71408669736e-147
2.14761057023e-147
2.0675753937e-147
1.92941943421e-147
2.12379057721e-147
2.48680727076e-147
2.86030476123e-147
4.13896198628e-147
3.78166209105e-147
4.62298424434e-147
4.32094673291e-147
4.36953951866e-147
5.18227768033e-147
5.47859839344e-147
5.35949842836e-147
5.62723514985e-147
6.59337406654e-147
7.32417145223e-147
6.6886540386e-147
7.94634966978e-147
7.03166193801e-147
5.00124573342e-147
1.27961002476e-147
1.92751383477e-147
1.57211953899e-147
1.71408669736e-147
2.14761057023e-147
2.0675753937e-147
1.92941943421e-147
2.12379057721e-147
2.48680727076e-147
2.86030476123e-147
4.13896198628e-147
3.78166209105e-147
4.62298424434e-147
4.32094673291e-147
4.36953951866e-147
5.18227768033e-147
5.47859839344e-147
5.35949842836e-147
5.62723514985e-147
6.59337406654e-147
7.32417145223e-147
6.6886540386e-147
7.94634966978e-147
7.03166193801e-147
5.00124573342e-147
1.27961002476e-147
1.92751383477e-147
1.57211953899e-147
1.71408669736e-147
2.14761057023e-147
2.0675753937e-147
1.92941943421e-147
2.12379057721e-147
2.48680727076e-147
2.86030476123e-147
4.13896198628e-147
3.78166209105e-147
4.62298424434e-147
4.32094673291e-147
4.36953951866e-147
5.18227768033e-147
5.47859839344e-147
5.35949842836e-147
5.62723514985e-147
6.59337406654e-147
7.32417145223e-147
6.6886540386e-147
7.94634966978e-147
7.03166193801e-147
5.00124573342e-147
1.27961002476e-147
1.92751383477e-147
1.57211953899e-147
1.71408669736e-147
2.14761057023e-147
2.0675753937e-147
1.92941943421e-147
2.12379057721e-147
2.48680727076e-147
2.86030476123e-147
4.13896198628e-147
3.78166209105e-147
4.62298424434e-147
4.32094673291e-147
4.36953951866e-147
5.18227768033e-147
5.47859839344e-147
5.35949842836e-147
5.62723514985e-147
6.59337406654e-147
7.32417145223e-147
6.6886540386e-147
7.94634966978e-147
7.03166193801e-147
5.00124573342e-147
1.27961002476e-147
1.92751383477e-147
1.57211953899e-147
1.71408669736e-147
2.14761057023e-147
2.0675753937e-147
1.92941943421e-147
2.12379057721e-147
2.48680727076e-147
2.86030476123e-147
4.13896198628e-147
3.78166209105e-147
4.62298424434e-147
4.32094673291e-147
4.36953951866e-147
5.18227768033e-147
5.47859839344e-147
5.35949842836e-147
5.62723514985e-147
6.59337406654e-147
7.32417145223e-147
6.6886540386e-147
7.94634966978e-147
7.03166193801e-147
5.00124573342e-147
1.27961002476e-147
1.92751383477e-147
1.57211953899e-147
1.71408669736e-147
2.14761057023e-147
2.0675753937e-147
1.92941943421e-147
2.12379057721e-147
2.48680727076e-147
2.86030476123e-147
4.13896198628e-147
3.78166209105e-147
4.62298424434e-147
4.32094673291e-147
4.36953951866e-147
5.18227768033e-147
5.47859839344e-147
5.35949842836e-147
5.62723514985e-147
6.59337406654e-147
7.32417145223e-147
6.6886540386e-147
7.94634966978e-147
7.03166193801e-147
5.00124573342e-147
1.27961002476e-147
1.92751383477e-147
1.57211953899e-147
1.71408669736e-147
2.14761057023e-147
2.0675753937e-147
1.92941943421e-147
2.12379057721e-147
2.48680727076e-147
2.86030476123e-147
4.13896198628e-147
3.78166209105e-147
4.62298424434e-147
4.32094673291e-147
4.36953951866e-147
5.18227768033e-147
5.47859839344e-147
5.35949842836e-147
5.62723514985e-147
6.59337406654e-147
7.32417145223e-147
6.6886540386e-147
7.94634966978e-147
7.03166193801e-147
5.00124573342e-147
1.27961002476e-147
1.92751383477e-147
1.57211953899e-147
1.71408669736e-147
2.14761057023e-147
2.0675753937e-147
1.92941943421e-147
2.12379057721e-147
2.48680727076e-147
2.86030476123e-147
4.13896198628e-147
3.78166209105e-147
4.62298424434e-147
4.32094673291e-147
4.36953951866e-147
5.18227768033e-147
5.47859839344e-147
5.35949842836e-147
5.62723514985e-147
6.59337406654e-147
7.32417145223e-147
6.6886540386e-147
7.94634966978e-147
7.03166193801e-147
5.00124573342e-147
1.27961002476e-147
1.92751383477e-147
1.57211953899e-147
1.71408669736e-147
2.14761057023e-147
2.0675753937e-147
1.92941943421e-147
2.12379057721e-147
2.48680727076e-147
2.86030476123e-147
4.13896198628e-147
3.78166209105e-147
4.62298424434e-147
4.32094673291e-147
4.36953951866e-147
5.18227768033e-147
5.47859839344e-147
5.35949842836e-147
5.62723514985e-147
6.59337406654e-147
7.32417145223e-147
6.6886540386e-147
7.94634966978e-147
7.03166193801e-147
5.00124573342e-147
1.27961002476e-147
1.92751383477e-147
1.57211953899e-147
1.71408669736e-147
2.14761057023e-147
2.0675753937e-147
1.92941943421e-147
2.12379057721e-147
2.48680727076e-147
2.86030476123e-147
4.13896198628e-147
3.78166209105e-147
4.62298424434e-147
4.32094673291e-147
4.36953951866e-147
5.18227768033e-147
5.47859839344e-147
5.35949842836e-147
5.62723514985e-147
6.59337406654e-147
7.32417145223e-147
6.6886540386e-147
7.94634966978e-147
7.03166193801e-147
5.00124573342e-147
1.27961002476e-147
1.92751383477e-147
1.57211953899e-147
1.71408669736e-147
2.14761057023e-147
2.0675753937e-147
1.92941943421e-147
2.12379057721e-147
2.48680727076e-147
2.86030476123e-147
4.13896198628e-147
3.78166209105e-147
4.62298424434e-147
4.32094673291e-147
4.36953951866e-147
5.18227768033e-147
5.47859839344e-147
5.35949842836e-147
5.62723514985e-147
6.59337406654e-147
7.32417145223e-147
6.6886540386e-147
7.94634966978e-147
7.03166193801e-147
5.00124573342e-147
1.27961002476e-147
1.92751383477e-147
1.57211953899e-147
1.71408669736e-147
2.14761057023e-147
2.0675753937e-147
1.92941943421e-147
2.12379057721e-147
2.48680727076e-147
2.86030476123e-147
4.13896198628e-147
3.78166209105e-147
4.62298424434e-147
4.32094673291e-147
4.36953951866e-147
5.18227768033e-147
5.47859839344e-147
5.35949842836e-147
5.62723514985e-147
6.59337406654e-147
7.32417145223e-147
6.6886540386e-147
7.94634966978e-147
7.03166193801e-147
5.00124573342e-147
1.27961002476e-147
1.92751383477e-147
1.57211953899e-147
1.71408669736e-147
2.14761057023e-147
2.0675753937e-147
1.92941943421e-147
2.12379057721e-147
2.48680727076e-147
2.86030476123e-147
4.13896198628e-147
3.78166209105e-147
4.62298424434e-147
4.32094673291e-147
4.36953951866e-147
5.18227768033e-147
5.47859839344e-147
5.35949842836e-147
5.62723514985e-147
6.59337406654e-147
7.32417145223e-147
6.6886540386e-147
7.94634966978e-147
7.03166193801e-147
5.00124573342e-147
1.27961002476e-147
1.92751383477e-147
1.57211953899e-147
1.71408669736e-147
2.14761057023e-147
2.0675753937e-147
1.92941943421e-147
2.12379057721e-147
2.48680727076e-147
2.86030476123e-147
4.13896198628e-147
3.78166209105e-147
4.62298424434e-147
4.32094673291e-147
4.36953951866e-147
5.18227768033e-147
5.47859839344e-147
5.35949842836e-147
5.62723514985e-147
6.59337406654e-147
7.32417145223e-147
6.6886540386e-147
7.94634966978e-147
7.03166193801e-147
5.00124573342e-147
1.27961002476e-147
1.92751383477e-147
1.57211953899e-147
1.71408669736e-147
2.14761057023e-147
2.0675753937e-147
1.92941943421e-147
2.12379057721e-147
2.48680727076e-147
2.86030476123e-147
4.13896198628e-147
3.78166209105e-147
4.62298424434e-147
4.32094673291e-147
4.36953951866e-147
5.18227768033e-147
5.47859839344e-147
5.35949842836e-147
5.62723514985e-147
6.59337406654e-147
7.32417145223e-147
6.6886540386e-147
7.94634966978e-147
7.03166193801e-147
5.00124573342e-147
1.27961002476e-147
1.92751383477e-147
1.57211953899e-147
1.71408669736e-147
2.14761057023e-147
2.0675753937e-147
1.92941943421e-147
2.12379057721e-147
2.48680727076e-147
2.86030476123e-147
4.13896198628e-147
3.78166209105e-147
4.62298424434e-147
4.32094673291e-147
4.36953951866e-147
5.18227768033e-147
5.47859839344e-147
5.35949842836e-147
5.62723514985e-147
6.59337406654e-147
7.32417145223e-147
6.6886540386e-147
7.94634966978e-147
7.03166193801e-147
5.00124573342e-147
1.27961002476e-147
1.92751383477e-147
1.57211953899e-147
1.71408669736e-147
2.14761057023e-147
2.0675753937e-147
1.92941943421e-147
2.12379057721e-147
2.48680727076e-147
2.86030476123e-147
4.13896198628e-147
3.78166209105e-147
4.62298424434e-147
4.32094673291e-147
4.36953951866e-147
5.18227768033e-147
5.47859839344e-147
5.35949842836e-147
5.62723514985e-147
6.59337406654e-147
7.32417145223e-147
6.6886540386e-147
7.94634966978e-147
7.03166193801e-147
5.00124573342e-147
1.27961002476e-147
1.92751383477e-147
1.57211953899e-147
1.71408669736e-147
2.14761057023e-147
2.0675753937e-147
1.92941943421e-147
2.12379057721e-147
2.48680727076e-147
2.86030476123e-147
4.13896198628e-147
3.78166209105e-147
4.62298424434e-147
4.32094673291e-147
4.36953951866e-147
5.18227768033e-147
5.47859839344e-147
5.35949842836e-147
5.62723514985e-147
6.59337406654e-147
7.32417145223e-147
6.6886540386e-147
7.94634966978e-147
7.03166193801e-147
5.00124573342e-147
1.27961002476e-147
1.92751383477e-147
1.57211953899e-147
1.71408669736e-147
2.14761057023e-147
2.0675753937e-147
1.92941943421e-147
2.12379057721e-147
2.48680727076e-147
2.86030476123e-147
4.13896198628e-147
3.78166209105e-147
4.62298424434e-147
4.32094673291e-147
4.36953951866e-147
5.18227768033e-147
5.47859839344e-147
5.35949842836e-147
5.62723514985e-147
6.59337406654e-147
7.32417145223e-147
6.6886540386e-147
7.94634966978e-147
7.03166193801e-147
5.00124573342e-147
1.27961002476e-147
1.92751383477e-147
1.57211953899e-147
1.71408669736e-147
2.14761057023e-147
2.0675753937e-147
1.92941943421e-147
2.12379057721e-147
2.48680727076e-147
2.86030476123e-147
4.13896198628e-147
3.78166209105e-147
4.62298424434e-147
4.32094673291e-147
4.36953951866e-147
5.18227768033e-147
5.47859839344e-147
5.35949842836e-147
5.62723514985e-147
6.59337406654e-147
7.32417145223e-147
6.6886540386e-147
7.94634966978e-147
7.03166193801e-147
5.00124573342e-147
1.27961002476e-147
1.92751383477e-147
1.57211953899e-147
1.71408669736e-147
2.14761057023e-147
2.0675753937e-147
1.92941943421e-147
2.12379057721e-147
2.48680727076e-147
2.86030476123e-147
4.13896198628e-147
3.78166209105e-147
4.62298424434e-147
4.32094673291e-147
4.36953951866e-147
5.18227768033e-147
5.47859839344e-147
5.35949842836e-147
5.62723514985e-147
6.59337406654e-147
7.32417145223e-147
6.6886540386e-147
7.94634966978e-147
7.03166193801e-147
5.00124573342e-147
1.27961002476e-147
1.92751383477e-147
1.57211953899e-147
1.71408669736e-147
2.14761057023e-147
2.0675753937e-147
1.92941943421e-147
2.12379057721e-147
2.48680727076e-147
2.86030476123e-147
4.13896198628e-147
3.78166209105e-147
4.62298424434e-147
4.32094673291e-147
4.36953951866e-147
5.18227768033e-147
5.47859839344e-147
5.35949842836e-147
5.62723514985e-147
6.59337406654e-147
7.32417145223e-147
6.6886540386e-147
7.94634966978e-147
7.03166193801e-147
5.00124573342e-147
1.27961002476e-147
1.92751383477e-147
1.57211953899e-147
1.71408669736e-147
2.14761057023e-147
2.0675753937e-147
1.92941943421e-147
2.12379057721e-147
2.48680727076e-147
2.86030476123e-147
4.13896198628e-147
3.78166209105e-147
4.62298424434e-147
4.32094673291e-147
4.36953951866e-147
5.18227768033e-147
5.47859839344e-147
5.35949842836e-147
5.62723514985e-147
6.59337406654e-147
7.32417145223e-147
6.6886540386e-147
7.94634966978e-147
7.03166193801e-147
5.00124573342e-147
1.27961002476e-147
1.92751383477e-147
1.57211953899e-147
1.71408669736e-147
2.14761057023e-147
2.0675753937e-147
1.92941943421e-147
2.12379057721e-147
2.48680727076e-147
2.86030476123e-147
4.13896198628e-147
3.78166209105e-147
4.62298424434e-147
4.32094673291e-147
4.36953951866e-147
5.18227768033e-147
5.47859839344e-147
5.35949842836e-147
5.62723514985e-147
6.59337406654e-147
7.32417145223e-147
6.6886540386e-147
7.94634966978e-147
7.03166193801e-147
5.00124573342e-147
1.27961002476e-147
1.92751383477e-147
1.57211953899e-147
1.71408669736e-147
2.14761057023e-147
2.0675753937e-147
1.92941943421e-147
2.12379057721e-147
2.48680727076e-147
2.86030476123e-147
4.13896198628e-147
3.78166209105e-147
4.62298424434e-147
4.32094673291e-147
4.36953951866e-147
5.18227768033e-147
5.47859839344e-147
5.35949842836e-147
5.62723514985e-147
6.59337406654e-147
7.32417145223e-147
6.6886540386e-147
7.94634966978e-147
7.03166193801e-147
5.00124573342e-147
1.27961002476e-147
1.92751383477e-147
1.57211953899e-147
1.71408669736e-147
2.14761057023e-147
2.0675753937e-147
1.92941943421e-147
2.12379057721e-147
2.48680727076e-147
2.86030476123e-147
4.13896198628e-147
3.78166209105e-147
4.62298424434e-147
4.32094673291e-147
4.36953951866e-147
5.18227768033e-147
5.47859839344e-147
5.35949842836e-147
5.62723514985e-147
6.59337406654e-147
7.32417145223e-147
6.6886540386e-147
7.94634966978e-147
7.03166193801e-147
5.00124573342e-147
1.27961002476e-147
1.92751383477e-147
1.57211953899e-147
1.71408669736e-147
2.14761057023e-147
2.0675753937e-147
1.92941943421e-147
2.12379057721e-147
2.48680727076e-147
2.86030476123e-147
4.13896198628e-147
3.78166209105e-147
4.62298424434e-147
4.32094673291e-147
4.36953951866e-147
5.18227768033e-147
5.47859839344e-147
5.35949842836e-147
5.62723514985e-147
6.59337406654e-147
7.32417145223e-147
6.6886540386e-147
7.94634966978e-147
7.03166193801e-147
5.00124573342e-147
1.27961002476e-147
1.92751383477e-147
1.57211953899e-147
1.71408669736e-147
2.14761057023e-147
2.0675753937e-147
1.92941943421e-147
2.12379057721e-147
2.48680727076e-147
2.86030476123e-147
4.13896198628e-147
3.78166209105e-147
4.62298424434e-147
4.32094673291e-147
4.36953951866e-147
5.18227768033e-147
5.47859839344e-147
5.35949842836e-147
5.62723514985e-147
6.59337406654e-147
7.32417145223e-147
6.6886540386e-147
7.94634966978e-147
7.03166193801e-147
5.00124573342e-147
1.27961002476e-147
1.92751383477e-147
1.57211953899e-147
1.71408669736e-147
2.14761057023e-147
2.0675753937e-147
1.92941943421e-147
2.12379057721e-147
2.48680727076e-147
2.86030476123e-147
4.13896198628e-147
3.78166209105e-147
4.62298424434e-147
4.32094673291e-147
4.36953951866e-147
5.18227768033e-147
5.47859839344e-147
5.35949842836e-147
5.62723514985e-147
6.59337406654e-147
7.32417145223e-147
6.6886540386e-147
7.94634966978e-147
7.03166193801e-147
5.00124573342e-147
1.27961002476e-147
1.92751383477e-147
1.57211953899e-147
1.71408669736e-147
2.14761057023e-147
2.0675753937e-147
1.92941943421e-147
2.12379057721e-147
2.48680727076e-147
2.86030476123e-147
4.13896198628e-147
3.78166209105e-147
4.62298424434e-147
4.32094673291e-147
4.36953951866e-147
5.18227768033e-147
5.47859839344e-147
5.35949842836e-147
5.62723514985e-147
6.59337406654e-147
7.32417145223e-147
6.6886540386e-147
7.94634966978e-147
7.03166193801e-147
5.00124573342e-147
1.27961002476e-147
1.92751383477e-147
1.57211953899e-147
1.71408669736e-147
2.14761057023e-147
2.0675753937e-147
1.92941943421e-147
2.12379057721e-147
2.48680727076e-147
2.86030476123e-147
4.13896198628e-147
3.78166209105e-147
4.62298424434e-147
4.32094673291e-147
4.36953951866e-147
5.18227768033e-147
5.47859839344e-147
5.35949842836e-147
5.62723514985e-147
6.59337406654e-147
7.32417145223e-147
6.6886540386e-147
7.94634966978e-147
7.03166193801e-147
5.00124573342e-147
1.27961002476e-147
1.92751383477e-147
1.57211953899e-147
1.71408669736e-147
2.14761057023e-147
2.0675753937e-147
1.92941943421e-147
2.12379057721e-147
2.48680727076e-147
2.86030476123e-147
4.13896198628e-147
3.78166209105e-147
4.62298424434e-147
4.32094673291e-147
4.36953951866e-147
5.18227768033e-147
5.47859839344e-147
5.35949842836e-147
5.62723514985e-147
6.59337406654e-147
7.32417145223e-147
6.6886540386e-147
7.94634966978e-147
7.03166193801e-147
5.00124573342e-147
1.27961002476e-147
1.92751383477e-147
1.57211953899e-147
1.71408669736e-147
2.14761057023e-147
2.0675753937e-147
1.92941943421e-147
2.12379057721e-147
2.48680727076e-147
2.86030476123e-147
4.13896198628e-147
3.78166209105e-147
4.62298424434e-147
4.32094673291e-147
4.36953951866e-147
5.18227768033e-147
5.47859839344e-147
5.35949842836e-147
5.62723514985e-147
6.59337406654e-147
7.32417145223e-147
6.6886540386e-147
7.94634966978e-147
7.03166193801e-147
5.00124573342e-147
1.27961002476e-147
1.92751383477e-147
1.57211953899e-147
1.71408669736e-147
2.14761057023e-147
2.0675753937e-147
1.92941943421e-147
2.12379057721e-147
2.48680727076e-147
2.86030476123e-147
4.13896198628e-147
3.78166209105e-147
22
unknown
8179
8568
2309
2406
196.621463732
0.0
0.0
0.0
0.0
0.0579896907216
0.0309278350515
0.0257731958763
0.136597938144
0.0734536082474
0.0489690721649
0.0489690721649
0.0438144329897
0.0463917525773
0.0412371134021
0.0412371134021
0.0412371134021
0.0412371134021
0.0412371134021
0.0412371134021
0.0412371134021
0.0412371134021
0.0386597938144
0.0412371134021
0.0386597938144
0.0360824742268
0.0688534751448
0.090206185567
0.139175257732
0.0734536082474
0.0425257731959
0.0296391752577
0.0231958762887
0.0180412371134
0.0167525773196
0.0154639175258
0.014175257732
0.014175257732
0.0154639175258
0.0103092783505
0.00515463917526
0.00515463917526
0.00644329896907
0.00644329896907
0.00773195876289
0.0103092783505
0.0128865979381
0.0180412371134
0.0283505154639
0.0567010309278
0.117268041237
0.0541237113402
0
