kitchen : [287,232] : [207,219,368,245] : confidence,dict,original_word,difference : [87,DM,None,0]
mech : [624,310] : [575,297,674,323] : confidence,dict,original_word,difference : [92,DM,None,0]
wd : [624,463] : [588,450,660,476] : confidence,dict,original_word,difference : [96,DM,None,0]
bath : [788,597] : [744,585,832,610] : confidence,dict,original_word,difference : [89,DM,None,0]
closet : [651,742] : [582,730,720,755] : confidence,dict,original_word,difference : [81,DM,None,0]
livingroom : [286,819] : [161,807,412,832] : confidence,dict,original_word,difference : [87,DM,None,0]
balcony : [251,1373] : [168,1360,335,1386] : confidence,dict,original_word,difference : [84,DM,None,0]
No Text Detected
