n - : [791,180] : [768,179,814,182] : [82] : none : -1
:: w : [104,208] : [81,197,127,219] : [77] : none : -1
[I - : [102,245] : [81,232,123,259] : [82] : none : -1
I] I : [110,322] : [81,301,140,343] : [85] : none : -1
I . : [789,505] : [763,492,815,519] : [87] : none : -1
I I : [821,615] : [792,605,851,626] : [69] : none : -1
pli : [533,829] : [506,820,560,839] : [76] : none : -1
r : [66,123] : [53,117,79,130] : [69] : none : -1
== : [726,146] : [713,143,740,150] : [70] : none : -1
======== : [856,146] : [782,143,931,149] : [66] : none : -1
U : [88,507] : [76,499,101,516] : [67] : none : -1
..,' : [498,608] : [471,598,526,619] : [64] : none : -1
. r : [487,626] : [471,623,504,630] : [70] : none : -1
' I : [515,896] : [492,891,538,901] : [83] : none : -1
I : [26,997] : [0,990,53,1005] : [84] : none : -1
l : [538,995] : [488,986,588,1004] : [67] : none : -1
if : [575,979] : [564,972,586,986] : [57] : none : -1
No Text Detected
