Bed : [2262,789] : [2189,756,2335,823] : 88
room : [2454,799] : [2347,775,2562,823] : 96
Bedroom : [985,1117] : [799,1084,1172,1151] : 89
m : [822,1744] : [799,1776,846,1713] : 69
(D : [875,1753] : [854,1777,897,1729] : 80
Q : [924,1743] : [903,1777,946,1710] : 72
Na : [999,1801] : [963,1873,1035,1729] : 72
'T' : [1601,1079] : [1589,1098,1614,1061] : 65
a : [2021,1891] : [2003,1911,2039,1871] : 71
3' : [2051,1498] : [2033,1517,2070,1479] : 75
w : [2372,885] : [2352,918,2393,853] : 69
O : [2507,1753] : [2484,1777,2530,1729] : 78
O : [2562,1753] : [2539,1777,2585,1729] : 77
00 : [296,1621] : [278,1607,315,1635] : 75
No Text Detected
