25
3
1.0
2
rectangle
53
94
21
184
83.4326075345
0.0
0.0
0.0
0.0
0.0
4.500450045e-05
0.0010801080108
0.0004500450045
0.0004500450045
0.0003600360036
0.0003600360036
0.0003600360036
0.0003600360036
0.0003600360036
0.0002700270027
0.0003600360036
0.0003600360036
0.0002700270027
0.0003600360036
0.0002700270027
0.000787578757876
0.000877587758776
0.000855085508551
0.000832583258326
0.00236273627363
0.0
0.0
0.0
0.0
0.0
4.500450045e-05
0.0010801080108
0.0004500450045
0.0004500450045
0.0003600360036
0.0003600360036
0.0003600360036
0.0003600360036
0.0003600360036
0.0002700270027
0.0003600360036
0.0003600360036
0.0002700270027
0.0003600360036
0.0002700270027
0.000787578757876
0.000877587758776
0.000855085508551
0.000832583258326
0.00236273627363
0.0959073486552
0.00022502250225
0.00022502250225
0.0001800180018
0.000247524752475
0.0002700270027
0.000292529252925
0.000337533753375
0.00040504050405
0.000585058505851
0.000945094509451
0.00119261926193
0.000562556255626
0.0004500450045
0.0002700270027
0.000607560756076
0.000472547254725
0.000292529252925
0.000202520252025
0.0001800180018
0.00013501350135
0.00013501350135
0.000112511251125
9.00090009001e-05
0.000112511251125
9.00090009001e-05
0.00022502250225
0.00022502250225
0.0001800180018
0.000247524752475
0.0002700270027
0.000292529252925
0.000337533753375
0.00040504050405
0.000585058505851
0.000945094509451
0.00119261926193
0.000562556255626
0.0004500450045
0.0002700270027
0.000607560756076
0.000472547254725
0.000292529252925
0.000202520252025
0.0001800180018
0.00013501350135
0.00013501350135
0.000112511251125
9.00090009001e-05
0.000112511251125
9.00090009001e-05
4
unknown
57
68
49
82
17.4642491966
0.0
0.0
0.0
0.0
0.0882352941176
0.0588235294118
0.0735294117647
0.0735294117647
0.0294117647059
0.0588235294118
0.0588235294118
0.0294117647059
0.0588235294118
0.0294117647059
0.0588235294118
0.0294117647059
0.0294117647059
0.0588235294118
0.0294117647059
0.0294117647059
0.0588235294118
0.0147058823529
0.0588235294118
0.0441176470588
0.0147058823529
0.0976353570048
0.0147058823529
0.0
0.0294117647059
0.0
0.0294117647059
0.0
0.0294117647059
0.0294117647059
0.0588235294118
0.161764705882
0.235294117647
0.0882352941176
0.0294117647059
0.0441176470588
0.0
0.0294117647059
0.0147058823529
0.0
0.0147058823529
0.0
0.0147058823529
0.0
0.0147058823529
0.0
0.0
6
ellipse
65
85
50
82
16.0312195419
0.0
0.0
0.0
0.0
0.0
0.0
0.0
0.0
0.0
0.0
0.0
0.0
0.0641025641026
0.0512820512821
0.025641025641
0.025641025641
0.025641025641
0.128205128205
0.0897435897436
0.115384615385
0.025641025641
0.102564102564
0.115384615385
0.166666666667
0.0384615384615
0.235586285235
0.0384615384615
0.025641025641
0.0512820512821
0.0384615384615
0.0384615384615
0.025641025641
0.0384615384615
0.0512820512821
0.025641025641
0.0512820512821
0.0512820512821
0.0384615384615
0.025641025641
0.025641025641
0.025641025641
0.025641025641
0.0128205128205
0.025641025641
0.025641025641
0.025641025641
0.0128205128205
0.0128205128205
0.0128205128205
0.0128205128205
0.0128205128205
2
2
4
1
1
0.0186728395062
floor
4
6
1
1
0.245436105477
touch
