optdoors : [196,288] : [151,281,241,295] : confidence,dict,original_word,difference : [77,DM,None,0]
masterbedroom : [854,556] : [781,529,927,583] : confidence,dict,original_word,difference : [79,DM,None,0]
greatroom : [493,581] : [443,554,544,608] : confidence,dict,original_word,difference : [86,DM,None,0]
es : [87,803] : [71,789,104,818] : confidence,dict,original_word,difference : [69,SG,ej,1]
kitchen : [224,845] : [156,833,292,857] : confidence,dict,original_word,difference : [91,DM,None,0]
mbath : [894,899] : [872,878,917,920] : confidence,dict,original_word,difference : [79,DM,None,0]
pantry : [372,934] : [346,925,399,943] : confidence,dict,original_word,difference : [83,SG,panlry,1]
util : [581,1109] : [554,1099,608,1119] : confidence,dict,original_word,difference : [95,DM,None,0]
bedroom 4 : [860,1176] : [766,1165,955,1188] : confidence,dict,original_word,difference : [90,DM,None,0]
linen : [220,1244] : [198,1238,242,1251] : confidence,dict,original_word,difference : [88,DM,None,0]
wh : [565,1295] : [550,1282,580,1309] : confidence,dict,original_word,difference : [67,DM,None,0]
foyer : [442,1419] : [399,1409,485,1429] : confidence,dict,original_word,difference : [81,DM,None,0]
garage : [773,1574] : [705,1563,842,1586] : confidence,dict,original_word,difference : [82,DM,None,0]
porch : [442,1638] : [398,1628,486,1648] : confidence,dict,original_word,difference : [88,DM,None,0]
No Text Detected
