livingroom : [2363,513] : [2245,432,2482,594] : [89] : match : 0
diningarea : [1501,1153] : [1390,1072,1613,1235] : [80] : match : 0
utility : [1963,1082] : [1892,1056,2035,1108] : [87] : match : 0
garage : [887,1479] : [739,1437,1036,1521] : [88] : match : 0
kitchen : [1550,1751] : [1399,1718,1702,1785] : [88] : match : 0
hall : [2052,1697] : [2006,1677,2098,1717] : [52] : match : 0
study : [2519,1877] : [2399,1834,2640,1920] : [88] : match : 0
cl : [1006,1628] : [973,1614,1040,1642] : [66] : match : 1
cloaks : [2435,1559] : [2358,1539,2513,1579] : [89] : none : -1
No Text Detected
