Wall : 442,1169,778,1215
Wall : 443,461,485,1215
Wall : 1573,1359,1615,2095
Wall : 1572,1921,1899,1960
Wall : 1800,825,1839,1194
Wall : 1345,2056,1616,2095
Wall : 1760,1156,2016,1194
Wall : 2099,815,2334,855
Wall : 2297,781,2333,1947
Wall : 1565,797,1602,1229
Wall : 1568,461,1604,646
Wall : 2151,1117,2187,1194
Wall : 2251,626,2328,664
Wall : 2035,1913,2334,1947
Wall : 1444,962,1840,998
Wall : 745,1398,779,1895
Wall : 1778,820,1983,854
Wall : 442,461,2279,494
Wall : 2150,1160,2334,1194
Wall : 2150,815,2182,888
Wall : 1919,461,1945,854
Wall : 1444,822,1491,850
Wall : 2252,461,2278,661
Wall : 1564,1165,1642,1193
Wall : 1145,2076,1177,2099
Wall : 1444,822,1466,997
Wall : 747,1897,775,2095
Wall : 744,2054,993,2095
Wall : 1546,818,1628,847
Wall : 2291,627,2327,687
Wall : 743,1172,778,1234
Wall : 442,1169,778,1215
Wall : 443,461,485,1215
Wall : 1573,1359,1615,2095
Wall : 1572,1921,1899,1960
Wall : 1800,825,1839,1194
Wall : 1345,2056,1616,2095
Wall : 1760,1156,2016,1194
Wall : 2099,815,2334,855
Wall : 2297,781,2333,1947
Wall : 1565,797,1602,1229
Wall : 1568,461,1604,646
Wall : 2151,1117,2187,1194
Wall : 2251,626,2328,664
Wall : 2035,1913,2334,1947
Wall : 1444,962,1840,998
Wall : 745,1398,779,1895
Wall : 1778,820,1983,854
Wall : 442,461,2279,494
Wall : 2150,1160,2334,1194
Wall : 2150,815,2182,888
Wall : 1919,461,1945,854
Wall : 1444,822,1491,850
Wall : 2252,461,2278,661
Wall : 1564,1165,1642,1193
Wall : 1145,2076,1177,2099
Wall : 1444,822,1466,997
Wall : 747,1897,775,2095
Wall : 744,2054,993,2095
Wall : 1546,818,1628,847
Wall : 2291,627,2327,687
Wall : 743,1172,778,1234
Wall : 1345,2085,2330,2090
Wall : 1572,1932,2334,1938
Wall : 1147,2079,1616,2087
Wall : 1564,1053,1840,1058
Wall : 2309,627,2315,1947
Wall : 1546,844,1603,855
Wall : 2154,1009,2160,1194
