25
4
1.42504457341
72
unknown
541
669
1021
1178
112.614386292
0.0
0.0
0.0
0.0
0.0
0.0
0.0
0.0
0.0
0.0319634703196
0.0197869101979
0.0152207001522
0.0578386605784
0.0547945205479
0.0700152207002
0.153729071537
0.117199391172
0.0882800608828
0.0867579908676
0.0821917808219
0.0776255707763
0.0563165905632
0.041095890411
0.027397260274
0.0182648401826
0.0986834429675
0.0258751902588
0.027397260274
0.0365296803653
0.0715372907154
0.0654490106545
0.076103500761
0.0867579908676
0.0578386605784
0.0228310502283
0.0228310502283
0.0197869101979
0.027397260274
0.0258751902588
0.0121765601218
0.013698630137
0.0152207001522
0.0167427701674
0.0197869101979
0.0228310502283
0.0182648401826
0.0152207001522
0.013698630137
0.0121765601218
0.0106544901065
0.0106544901065
95
unknown
596
661
1114
1180
45.2216762184
0.0
0.0
0.0
0.0
0.0
0.0
0.0
0.0
0.0
0.0
0.0
0.0
0.0
0.0182648401826
0.146118721461
0.150684931507
0.123287671233
0.0958904109589
0.0913242009132
0.0867579908676
0.0730593607306
0.0776255707763
0.0593607305936
0.0502283105023
0.0228310502283
0.188729259485
0.0319634703196
0.027397260274
0.0365296803653
0.0365296803653
0.0365296803653
0.0593607305936
0.0821917808219
0.0639269406393
0.0502283105023
0.041095890411
0.041095890411
0.0365296803653
0.0228310502283
0.0182648401826
0.013698630137
0.013698630137
0.00913242009132
0.013698630137
0.00913242009132
0.013698630137
0.00913242009132
0.013698630137
0.013698630137
0.013698630137
0.013698630137
0
unknown
0
1274
0
1847
9.43398113206
0.0
6.17783308366e-25
5.18937979028e-23
4.01559150438e-23
7.89218176438e-23
6.98095138454e-23
6.59483681681e-23
2.0494961255e-22
1.5877031025e-22
1.45796860774e-22
9.57564127968e-23
8.95785797131e-23
1.0038978761e-22
1.34831207051e-22
2.14988591311e-22
2.73369113952e-22
2.42634394361e-22
1.77149363674e-22
1.60314768521e-22
1.90277258977e-22
2.38927694511e-22
2.00316237738e-22
1.15988816146e-22
9.25130504278e-23
7.16628637705e-23
0.0
6.17783308366e-25
5.18937979028e-23
4.01559150438e-23
7.89218176438e-23
6.98095138454e-23
6.59483681681e-23
2.0494961255e-22
1.5877031025e-22
1.45796860774e-22
9.57564127968e-23
8.95785797131e-23
1.0038978761e-22
1.34831207051e-22
2.14988591311e-22
2.73369113952e-22
2.42634394361e-22
1.77149363674e-22
1.60314768521e-22
1.90277258977e-22
2.38927694511e-22
2.00316237738e-22
1.15988816146e-22
9.25130504278e-23
7.16628637705e-23
0.0
6.17783308366e-25
5.18937979028e-23
4.01559150438e-23
7.89218176438e-23
6.98095138454e-23
6.59483681681e-23
2.0494961255e-22
1.5877031025e-22
1.45796860774e-22
9.57564127968e-23
8.95785797131e-23
1.0038978761e-22
1.34831207051e-22
2.14988591311e-22
2.73369113952e-22
2.42634394361e-22
1.77149363674e-22
1.60314768521e-22
1.90277258977e-22
2.38927694511e-22
2.00316237738e-22
1.15988816146e-22
9.25130504278e-23
7.16628637705e-23
0.0
6.17783308366e-25
5.18937979028e-23
4.01559150438e-23
7.89218176438e-23
6.98095138454e-23
6.59483681681e-23
2.0494961255e-22
1.5877031025e-22
1.45796860774e-22
9.57564127968e-23
8.95785797131e-23
1.0038978761e-22
1.34831207051e-22
2.14988591311e-22
2.73369113952e-22
2.42634394361e-22
1.77149363674e-22
1.60314768521e-22
1.90277258977e-22
2.38927694511e-22
2.00316237738e-22
1.15988816146e-22
9.25130504278e-23
7.16628637705e-23
0.0
6.17783308366e-25
5.18937979028e-23
4.01559150438e-23
7.89218176438e-23
6.98095138454e-23
6.59483681681e-23
2.0494961255e-22
1.5877031025e-22
1.45796860774e-22
9.57564127968e-23
8.95785797131e-23
1.0038978761e-22
1.34831207051e-22
2.14988591311e-22
2.73369113952e-22
2.42634394361e-22
1.77149363674e-22
1.60314768521e-22
1.90277258977e-22
2.38927694511e-22
2.00316237738e-22
1.15988816146e-22
9.25130504278e-23
7.16628637705e-23
0.0
6.17783308366e-25
5.18937979028e-23
4.01559150438e-23
7.89218176438e-23
6.98095138454e-23
6.59483681681e-23
2.0494961255e-22
1.5877031025e-22
1.45796860774e-22
9.57564127968e-23
8.95785797131e-23
1.0038978761e-22
1.34831207051e-22
2.14988591311e-22
2.73369113952e-22
2.42634394361e-22
1.77149363674e-22
1.60314768521e-22
1.90277258977e-22
2.38927694511e-22
2.00316237738e-22
1.15988816146e-22
9.25130504278e-23
7.16628637705e-23
0.0
6.17783308366e-25
5.18937979028e-23
4.01559150438e-23
7.89218176438e-23
6.98095138454e-23
6.59483681681e-23
2.0494961255e-22
1.5877031025e-22
1.45796860774e-22
9.57564127968e-23
8.95785797131e-23
1.0038978761e-22
1.34831207051e-22
2.14988591311e-22
2.73369113952e-22
2.42634394361e-22
1.77149363674e-22
1.60314768521e-22
1.90277258977e-22
2.38927694511e-22
2.00316237738e-22
1.15988816146e-22
9.25130504278e-23
7.16628637705e-23
0.0
6.17783308366e-25
5.18937979028e-23
4.01559150438e-23
7.89218176438e-23
6.98095138454e-23
6.59483681681e-23
2.0494961255e-22
1.5877031025e-22
1.45796860774e-22
9.57564127968e-23
8.95785797131e-23
1.0038978761e-22
1.34831207051e-22
2.14988591311e-22
2.73369113952e-22
2.42634394361e-22
1.77149363674e-22
1.60314768521e-22
1.90277258977e-22
2.38927694511e-22
2.00316237738e-22
1.15988816146e-22
9.25130504278e-23
7.16628637705e-23
0.0
6.17783308366e-25
5.18937979028e-23
4.01559150438e-23
7.89218176438e-23
6.98095138454e-23
6.59483681681e-23
2.0494961255e-22
1.5877031025e-22
1.45796860774e-22
9.57564127968e-23
8.95785797131e-23
1.0038978761e-22
1.34831207051e-22
2.14988591311e-22
2.73369113952e-22
2.42634394361e-22
1.77149363674e-22
1.60314768521e-22
1.90277258977e-22
2.38927694511e-22
2.00316237738e-22
1.15988816146e-22
9.25130504278e-23
7.16628637705e-23
0.443851884245
5.09671229402e-23
6.36316807617e-23
6.59483681681e-23
7.01184054996e-23
7.28984303872e-23
7.76862510271e-23
8.13929508772e-23
1.04868716595e-22
1.30197832238e-22
1.31587844682e-22
8.32463008023e-23
7.90762634709e-23
1.09193199754e-22
5.05037854589e-23
1.26645578215e-23
1.71434868072e-23
2.56380072972e-23
2.59468989514e-23
4.09281441793e-23
6.71839347848e-23
5.79171851593e-23
6.16238850095e-23
6.93461763641e-23
7.10450804621e-23
1.69272626492e-22
5.09671229402e-23
6.36316807617e-23
6.59483681681e-23
7.01184054996e-23
7.28984303872e-23
7.76862510271e-23
8.13929508772e-23
1.04868716595e-22
1.30197832238e-22
1.31587844682e-22
8.32463008023e-23
7.90762634709e-23
1.09193199754e-22
5.05037854589e-23
1.26645578215e-23
1.71434868072e-23
2.56380072972e-23
2.59468989514e-23
4.09281441793e-23
6.71839347848e-23
5.79171851593e-23
6.16238850095e-23
6.93461763641e-23
7.10450804621e-23
1.69272626492e-22
5.09671229402e-23
6.36316807617e-23
6.59483681681e-23
7.01184054996e-23
7.28984303872e-23
7.76862510271e-23
8.13929508772e-23
1.04868716595e-22
1.30197832238e-22
1.31587844682e-22
8.32463008023e-23
7.90762634709e-23
1.09193199754e-22
5.05037854589e-23
1.26645578215e-23
1.71434868072e-23
2.56380072972e-23
2.59468989514e-23
4.09281441793e-23
6.71839347848e-23
5.79171851593e-23
6.16238850095e-23
6.93461763641e-23
7.10450804621e-23
1.69272626492e-22
5.09671229402e-23
6.36316807617e-23
6.59483681681e-23
7.01184054996e-23
7.28984303872e-23
7.76862510271e-23
8.13929508772e-23
1.04868716595e-22
1.30197832238e-22
1.31587844682e-22
8.32463008023e-23
7.90762634709e-23
1.09193199754e-22
5.05037854589e-23
1.26645578215e-23
1.71434868072e-23
2.56380072972e-23
2.59468989514e-23
4.09281441793e-23
6.71839347848e-23
5.79171851593e-23
6.16238850095e-23
6.93461763641e-23
7.10450804621e-23
1.69272626492e-22
5.09671229402e-23
6.36316807617e-23
6.59483681681e-23
7.01184054996e-23
7.28984303872e-23
7.76862510271e-23
8.13929508772e-23
1.04868716595e-22
1.30197832238e-22
1.31587844682e-22
8.32463008023e-23
7.90762634709e-23
1.09193199754e-22
5.05037854589e-23
1.26645578215e-23
1.71434868072e-23
2.56380072972e-23
2.59468989514e-23
4.09281441793e-23
6.71839347848e-23
5.79171851593e-23
6.16238850095e-23
6.93461763641e-23
7.10450804621e-23
1.69272626492e-22
5.09671229402e-23
6.36316807617e-23
6.59483681681e-23
7.01184054996e-23
7.28984303872e-23
7.76862510271e-23
8.13929508772e-23
1.04868716595e-22
1.30197832238e-22
1.31587844682e-22
8.32463008023e-23
7.90762634709e-23
1.09193199754e-22
5.05037854589e-23
1.26645578215e-23
1.71434868072e-23
2.56380072972e-23
2.59468989514e-23
4.09281441793e-23
6.71839347848e-23
5.79171851593e-23
6.16238850095e-23
6.93461763641e-23
7.10450804621e-23
1.69272626492e-22
5.09671229402e-23
6.36316807617e-23
6.59483681681e-23
7.01184054996e-23
7.28984303872e-23
7.76862510271e-23
8.13929508772e-23
1.04868716595e-22
1.30197832238e-22
1.31587844682e-22
8.32463008023e-23
7.90762634709e-23
1.09193199754e-22
5.05037854589e-23
1.26645578215e-23
1.71434868072e-23
2.56380072972e-23
2.59468989514e-23
4.09281441793e-23
6.71839347848e-23
5.79171851593e-23
6.16238850095e-23
6.93461763641e-23
7.10450804621e-23
1.69272626492e-22
5.09671229402e-23
6.36316807617e-23
6.59483681681e-23
7.01184054996e-23
7.28984303872e-23
7.76862510271e-23
8.13929508772e-23
1.04868716595e-22
1.30197832238e-22
1.31587844682e-22
8.32463008023e-23
7.90762634709e-23
1.09193199754e-22
5.05037854589e-23
1.26645578215e-23
1.71434868072e-23
2.56380072972e-23
2.59468989514e-23
4.09281441793e-23
6.71839347848e-23
5.79171851593e-23
6.16238850095e-23
6.93461763641e-23
7.10450804621e-23
1.69272626492e-22
5.09671229402e-23
6.36316807617e-23
6.59483681681e-23
7.01184054996e-23
7.28984303872e-23
7.76862510271e-23
8.13929508772e-23
1.04868716595e-22
1.30197832238e-22
1.31587844682e-22
8.32463008023e-23
7.90762634709e-23
1.09193199754e-22
5.05037854589e-23
1.26645578215e-23
1.71434868072e-23
2.56380072972e-23
2.59468989514e-23
4.09281441793e-23
6.71839347848e-23
5.79171851593e-23
6.16238850095e-23
6.93461763641e-23
7.10450804621e-23
1.69272626492e-22
96
rectangle
658
661
1114
1178
32.0156211872
0.0232558139535
0.0387596899225
0.046511627907
0.046511627907
0.046511627907
0.031007751938
0.031007751938
0.062015503876
0.031007751938
0.031007751938
0.046511627907
0.046511627907
0.031007751938
0.031007751938
0.062015503876
0.031007751938
0.031007751938
0.046511627907
0.046511627907
0.031007751938
0.031007751938
0.062015503876
0.031007751938
0.031007751938
0.046511627907
0.0412102492104
0.015503875969
0.0
0.0
0.015503875969
0.0
0.0
0.015503875969
0.015503875969
0.015503875969
0.031007751938
0.062015503876
0.325581395349
0.263565891473
0.0
0.0
0.0
0.0
0.0
0.0
0.0
0.0
0.0
0.0
0.0
0.0
3
72
95
1
1
0.19231124665
floor
72
96
1
1
0.00773187937036
floor
95
96
1
1
0.0402050296332
touch
