1 : [255,255,0] : [FFFF00] : [bedroom,masterbedroom] 
2 : [0,236,255] : [00ECFF] : [toilet] 
3 : [180,0,255] : [B400FF] : [bath,ensuite]
4 : [0,255,139] : [00FF8B] : [cellar] 
5 : [255,0,170] : [FF00AA] : [dining] 
6 : [0,131,255] : [FF8300] : [living] 
7 : [127,156,245] : [F59C7F] : [kitchen] 
8 : [250,223,187] : [B6DFF9] : [corridor] 
9 : [160,189,136] : [A0BD88] : [garage] 
10 : [42,158,1] : [2A9E01] : [entry] 
11 : [153,116,111] : [99746F] : [office]
12 : [181,227,9] : [B5E309] : [terrace] 
13 : [106,1,158] : [6A019E] : [closet] 
14 : [218,247,166] : [DAF7A6] : [dressing room]
15 : [229,207,135] : [E5CF87] : [shed] 
16 : [117,225,251] : [75E1FB] : [storage]
17 : [200,250,149] : [C8FA95] : [porch] 
