cargarage : [1229,541] : [1145,498,1314,585] : [76] : match : 0
bath 3 : [1432,1122] : [1349,1104,1515,1140] : [85] : match : 0
bedroom 4 : [838,1197] : [693,1178,983,1217] : [84] : match : 0
kitchen : [1354,1698] : [1244,1680,1464,1717] : [85] : match : 0
livingroom : [917,1840] : [837,1798,997,1883] : [84] : match : 0
diningroom : [1289,2181] : [1208,2138,1371,2224] : [87] : match : 0
porch : [827,2267] : [760,2253,895,2282] : [84] : match : 0
cl : [1300,432] : [1268,400,1333,464] : [64] : match : 0
| a : [1315,1924] : [1282,1913,1349,1936] : [73] : none : -1
=- : [652,2139] : [608,2118,696,2161] : [69] : none : -1
= : [830,2153] : [819,2145,842,2161] : [81] : none : -1
utilitystorage : [534,333] : [468,304,600,362] : [73] : none : -1
tankless : [885,565] : [813,554,957,576] : [87] : none : -1
waterheater : [881,600] : [767,589,995,611] : [82] : none : -1
coats : [1338,1278] : [1290,1261,1386,1295] : [83] : none : -1
coats : [1028,1456] : [981,1433,1076,1479] : [71] : none : -1
micro : [1295,1572] : [1254,1562,1337,1583] : [89] : none : -1
reei : [1430,1555] : [1388,1535,1473,1575] : [47] : none : -1
sfacej : [1422,1604] : [1372,1582,1473,1627] : [61] : none : -1
mw : [1327,1818] : [1282,1783,1373,1854] : [44] : none : -1
on : [1496,2147] : [1451,2112,1541,2182] : [54] : none : -1
cab : [1495,2212] : [1451,2190,1540,2234] : [56] : none : -1
firstfloor : [1037,2609] : [831,2585,1244,2634] : [84] : none : -1
D : [418,431] : [386,399,451,463] : [71] : none : -1
'3 : [710,421] : [678,399,743,443] : [71] : none : -1
'3 : [1008,421] : [976,400,1041,443] : [71] : none : -1
O : [2189,1128] : [2171,1112,2207,1145] : [76] : none : -1
L.) : [598,1381] : [580,1372,616,1390] : [62] : none : -1
A : [1472,1442] : [1457,1431,1487,1453] : [69] : none : -1
No Text Detected
