retreat : [2173,277] : [1683,164,2663,390] : confidence,dict,original_word,difference : [69,SG,retrert,1]
thirdfloor : [4103,801] : [3692,738,4515,864] : confidence,dict,original_word,difference : [80,DM,None,0]
terrace : [3518,1770] : [3247,1711,3790,1829] : confidence,dict,original_word,difference : [61,DM,None,0]
patiodoor : [3574,2776] : [3431,2752,3718,2801] : confidence,dict,original_word,difference : [86,DM,None,0]
dn : [433,4032] : [387,4017,479,4048] : confidence,dict,original_word,difference : [69,SG,di,1]
uo : [5431,6036] : [5387,6003,5475,6070] : confidence,dict,original_word,difference : [67,SG,no,1]
bdrm 2 : [1912,6484] : [1560,6426,2264,6543] : confidence,dict,original_word,difference : [76,SG,edrm 2,1]
ensuite : [4258,6883] : [4001,6825,4515,6942] : confidence,dict,original_word,difference : [76,SG,ensuhte,1]
No Text Detected
