DINING : [463,176] : [421,167,506,185] : 87
DEN/ BEDROOM : [710,261] : [650,240,770,283] : 83
FAMILY ROOM : [203,282] : [120,273,286,291] : 84
0PT  : [617,273] : [592,264,643,283] : 84
KITCHEN : [443,409] : [391,400,495,418] : 80
u, : [659,431] : [647,425,671,437] : 72
BA : [711,445] : [696,436,727,454] : 89
OPTIONAL : [852,479] : [815,473,890,485] : 76
PANTRY : [509,514] : [462,505,557,523] : 83
ENTRY : [337,644] : [298,636,376,653] : 84
___j : [818,637] : [796,621,840,653] : 67
OPTIONAL : [897,687] : [859,681,935,693] : 67
LIVING ROOM : [148,723] : [69,714,228,732] : 85
CAR GARAGE : [619,764] : [542,755,697,773] : 83
"""'"""'I : [883,766] : [812,756,954,777] : 63
PORCH : [117,904] : [77,895,158,913] : 82
II? : [67,958] : [53,948,81,968] : 62
a: : [279,958] : [265,948,294,968] : 64
Cl : [418,958] : [404,948,433,968] : 77
5273,3,, : [853,505] : [815,491,892,520] : 47
313,, : [891,714] : [859,699,924,729] : 46
[BE] : [452,330] : [436,373,469,287] : 64
on : [547,300] : [542,317,552,284] : 63
II : [730,337] : [723,350,738,324] : 78
L_  _  _  : [806,839] : [797,902,815,776] : 68
5273,3,, : [853,505] : [815,491,892,520] : 47
313,, : [891,714] : [859,699,924,729] : 46
,,,,,,,,,,,,,,,3,,,3, : [736,33] : [648,21,825,46] : 44
29,5 : [722,559] : [705,551,739,567] : 53
,22222, : [267,966] : [122,951,413,981] : 46
No Text Detected
