<svg enable-background="new 0 0 612 792" height="792px" id="Layer_1" version="1.0" viewBox="0 0 612 792" width="612px" x="0px" y="0px" xml:space="preserve">
  <g id="_x33_60int">
	<g id="LINE">
		
			<line fill="none" id="n_id_0" stroke="#000000" stroke-linecap="round" stroke-linejoin="round" stroke-miterlimit="10" stroke-width="0.15" x1="227.2" x2="323" y1="410.4" y2="410.4"/></g><g id="LINE_2_">
		
			<line fill="none" id="n_id_1" stroke="#000000" stroke-linecap="round" stroke-linejoin="round" stroke-miterlimit="10" stroke-width="0.15" x1="377.3" x2="419.9" y1="411.5" y2="411.5"/></g><g id="LINE_3_">
		
			<line fill="none" id="n_id_2" stroke="#000000" stroke-linecap="round" stroke-linejoin="round" stroke-miterlimit="10" stroke-width="0.15" x1="422.1" x2="423.8" y1="411.5" y2="411.5"/></g><g id="LINE_4_">
		
			<line fill="none" id="n_id_3" stroke="#000000" stroke-linecap="round" stroke-linejoin="round" stroke-miterlimit="10" stroke-width="0.15" x1="377.3" x2="419.9" y1="400.3" y2="400.3"/></g><g id="LINE_5_">
		
			<line fill="none" id="n_id_4" stroke="#000000" stroke-linecap="round" stroke-linejoin="round" stroke-miterlimit="10" stroke-width="0.15" x1="422.1" x2="423.8" y1="400.3" y2="400.3"/></g><g id="LINE_6_">
		
			<line fill="none" id="n_id_5" stroke="#000000" stroke-linecap="round" stroke-linejoin="round" stroke-miterlimit="10" stroke-width="0.15" x1="377.3" x2="419.9" y1="389.1" y2="389.1"/></g><g id="LINE_7_">
		
			<line fill="none" id="n_id_6" stroke="#000000" stroke-linecap="round" stroke-linejoin="round" stroke-miterlimit="10" stroke-width="0.15" x1="422.1" x2="423.8" y1="389.1" y2="389.1"/></g><g id="LINE_8_">
		
			<line fill="none" id="n_id_7" stroke="#000000" stroke-linecap="round" stroke-linejoin="round" stroke-miterlimit="10" stroke-width="0.15" x1="377.3" x2="419.9" y1="344.3" y2="344.3"/></g><g id="LINE_9_">
		
			<line fill="none" id="n_id_8" stroke="#000000" stroke-linecap="round" stroke-linejoin="round" stroke-miterlimit="10" stroke-width="0.15" x1="422.1" x2="423.8" y1="344.3" y2="344.3"/></g><g id="LINE_10_">
		
			<line fill="none" id="n_id_9" stroke="#000000" stroke-linecap="round" stroke-linejoin="round" stroke-miterlimit="10" stroke-width="0.15" x1="377.3" x2="419.9" y1="333.1" y2="333.1"/></g><g id="LINE_11_">
		
			<line fill="none" id="n_id_10" stroke="#000000" stroke-linecap="round" stroke-linejoin="round" stroke-miterlimit="10" stroke-width="0.15" x1="422.1" x2="423.8" y1="333.1" y2="333.1"/></g><g id="LINE_12_">
		
			<line fill="none" id="n_id_11" stroke="#000000" stroke-linecap="round" stroke-linejoin="round" stroke-miterlimit="10" stroke-width="0.15" x1="377.3" x2="419.9" y1="321.9" y2="321.9"/></g><g id="LINE_13_">
		
			<line fill="none" id="n_id_12" stroke="#000000" stroke-linecap="round" stroke-linejoin="round" stroke-miterlimit="10" stroke-width="0.15" x1="422.1" x2="423.8" y1="321.9" y2="321.9"/></g><g id="LINE_14_">
		
			<line fill="none" id="n_id_13" stroke="#000000" stroke-linecap="round" stroke-linejoin="round" stroke-miterlimit="10" stroke-width="0.15" x1="377.3" x2="419.9" y1="310.7" y2="310.7"/></g><g id="LINE_15_">
		
			<line fill="none" id="n_id_14" stroke="#000000" stroke-linecap="round" stroke-linejoin="round" stroke-miterlimit="10" stroke-width="0.15" x1="422.1" x2="423.8" y1="310.7" y2="310.7"/></g><g id="LINE_16_">
		
			<line fill="none" id="n_id_15" stroke="#000000" stroke-linecap="round" stroke-linejoin="round" stroke-miterlimit="10" stroke-width="0.15" x1="377.3" x2="419.9" y1="299.5" y2="299.5"/></g><g id="LINE_17_">
		
			<line fill="none" id="n_id_16" stroke="#000000" stroke-linecap="round" stroke-linejoin="round" stroke-miterlimit="10" stroke-width="0.15" x1="422.1" x2="423.8" y1="299.5" y2="299.5"/></g><g id="LINE_18_">
		
			<line fill="none" id="n_id_17" stroke="#000000" stroke-linecap="round" stroke-linejoin="round" stroke-miterlimit="10" stroke-width="0.15" x1="377.3" x2="419.9" y1="288.3" y2="288.3"/></g><g id="LINE_19_">
		
			<line fill="none" id="n_id_18" stroke="#000000" stroke-linecap="round" stroke-linejoin="round" stroke-miterlimit="10" stroke-width="0.15" x1="422.1" x2="423.8" y1="288.3" y2="288.3"/></g><g id="LINE_20_">
		
			<line fill="none" id="n_id_19" stroke="#000000" stroke-linecap="round" stroke-linejoin="round" stroke-miterlimit="10" stroke-width="0.15" x1="377.3" x2="419.9" y1="277.1" y2="277.1"/></g><g id="LINE_21_">
		
			<line fill="none" id="n_id_20" stroke="#000000" stroke-linecap="round" stroke-linejoin="round" stroke-miterlimit="10" stroke-width="0.15" x1="422.1" x2="423.8" y1="277.1" y2="277.1"/></g><g id="LWPOLYLINE">
		
			<polyline fill="none" id="n_id_21" points="    419.9,419.9 419.9,270.4 423.8,270.4   " stroke="#000000" stroke-linecap="round" stroke-linejoin="round" stroke-miterlimit="10" stroke-width="0.15"/></g><g id="LWPOLYLINE_1_">
		
			<polyline fill="none" id="n_id_22" points="    422.1,419.9 422.1,272.6 423.8,272.6   " stroke="#000000" stroke-linecap="round" stroke-linejoin="round" stroke-miterlimit="10" stroke-width="0.15"/></g><g id="LINE_22_">
		
			<line fill="none" id="n_id_23" stroke="#000000" stroke-linecap="round" stroke-linejoin="round" stroke-miterlimit="10" stroke-width="0.15" x1="377.3" x2="377.3" y1="299.5" y2="272.6"/></g><g id="LINE_23_">
		
			<line fill="none" id="n_id_24" stroke="#000000" stroke-linecap="round" stroke-linejoin="round" stroke-miterlimit="10" stroke-width="0.15" x1="377.3" x2="373.4" y1="272.6" y2="272.6"/></g><g id="LINE_24_">
		
			<line fill="none" id="n_id_25" stroke="#000000" stroke-linecap="round" stroke-linejoin="round" stroke-miterlimit="10" stroke-width="0.15" x1="373.4" x2="373.4" y1="272.6" y2="299.5"/></g><g id="LINE_27_">
		
			<line fill="none" id="n_id_26" stroke="#000000" stroke-linecap="round" stroke-linejoin="round" stroke-miterlimit="10" stroke-width="0.15" x1="376.2" x2="376.2" y1="272.6" y2="225.5"/></g><g id="ARC">
		
			<path d="    M335.3,339.2c19-1.1,33.9-16.8,33.9-35.8" fill="none" id="n_id_27" stroke="#000000" stroke-linecap="round" stroke-linejoin="round" stroke-miterlimit="10" stroke-width="0.15"/></g><g id="LINE_28_">
		
			<line fill="none" id="n_id_28" stroke="#000000" stroke-linecap="round" stroke-linejoin="round" stroke-miterlimit="10" stroke-width="0.15" x1="333.3" x2="333.3" y1="303.4" y2="339.2"/></g><g id="LINE_29_">
		
			<line fill="none" id="n_id_29" stroke="#000000" stroke-linecap="round" stroke-linejoin="round" stroke-miterlimit="10" stroke-width="0.15" x1="335.3" x2="335.3" y1="303.4" y2="339.2"/></g><g id="LINE_30_">
		
			<line fill="none" id="n_id_30" stroke="#000000" stroke-linecap="round" stroke-linejoin="round" stroke-miterlimit="10" stroke-width="0.15" x1="335.3" x2="333.3" y1="339.2" y2="339.2"/></g><g id="LINE_31_">
		
			<line fill="none" id="n_id_31" stroke="#000000" stroke-linecap="round" stroke-linejoin="round" stroke-miterlimit="10" stroke-width="0.15" x1="335.3" x2="333.3" y1="303.4" y2="303.4"/></g><g id="ARC_1_">
		
			<path d="    M367.2,185.8c-19,1.1-33.9,16.8-33.9,35.8" fill="none" id="n_id_32" stroke="#000000" stroke-linecap="round" stroke-linejoin="round" stroke-miterlimit="10" stroke-width="0.15"/></g><g id="LINE_32_">
		
			<line fill="none" id="n_id_33" stroke="#000000" stroke-linecap="round" stroke-linejoin="round" stroke-miterlimit="10" stroke-width="0.15" x1="369.2" x2="369.2" y1="221.6" y2="185.8"/></g><g id="LINE_33_">
		
			<line fill="none" id="n_id_34" stroke="#000000" stroke-linecap="round" stroke-linejoin="round" stroke-miterlimit="10" stroke-width="0.15" x1="367.2" x2="367.2" y1="221.6" y2="185.8"/></g><g id="LINE_34_">
		
			<line fill="none" id="n_id_35" stroke="#000000" stroke-linecap="round" stroke-linejoin="round" stroke-miterlimit="10" stroke-width="0.15" x1="367.2" x2="369.2" y1="185.8" y2="185.8"/></g><g id="LINE_35_">
		
			<line fill="none" id="n_id_36" stroke="#000000" stroke-linecap="round" stroke-linejoin="round" stroke-miterlimit="10" stroke-width="0.15" x1="367.2" x2="369.2" y1="221.6" y2="221.6"/></g><g id="LWPOLYLINE_2_">
		
			<path d="    M303.7,426c0.7-0.1,1.4-0.2,2.1-0.4c0.8-0.2,1.6-0.6,2.3-1.1c0.7-0.5,1.3-1.1,1.7-1.8c0.3-0.6,0.5-1.3,0.5-1.9    c0-0.7-0.2-1.3-0.5-1.9c-0.4-0.7-1-1.3-1.7-1.8s-1.5-0.9-2.3-1.1c-1-0.3-2-0.4-3-0.4" fill="none" id="n_id_37" stroke="#000000" stroke-linecap="round" stroke-linejoin="round" stroke-miterlimit="10" stroke-width="0.15"/></g><g id="LWPOLYLINE_3_">
		
			<path d="    M302.8,413.7c-1.3,0-2.7,0.2-3.9,0.7c-1.2,0.4-2.2,1-3.2,1.8c-0.9,0.8-1.7,1.7-2.2,2.8c-0.5,1-0.7,2-0.7,3.1s0.3,2.2,0.7,3.1    c0.5,1.1,1.3,2,2.2,2.8c0.9,0.8,2,1.4,3.2,1.8c1.3,0.4,2.6,0.7,3.9,0.7s2.7-0.2,3.9-0.7c1.2-0.4,2.2-1,3.2-1.8    c0.9-0.8,1.7-1.7,2.2-2.8c0.5-1,0.7-2,0.7-3.1s-0.3-2.2-0.7-3.1c-0.5-1.1-1.3-2-2.2-2.8c-0.9-0.8-2-1.4-3.2-1.8    C305.5,414,304.1,413.7,302.8,413.7z" fill="none" id="n_id_38" stroke="#000000" stroke-linecap="round" stroke-linejoin="round" stroke-miterlimit="10" stroke-width="0.15"/></g><g id="ARC_2_">
		
			<path d="    M301.8,427.6c-0.1,0.5,0.3,1.1,0.8,1.1c0.5,0.1,1.1-0.3,1.1-0.8c0-0.1,0-0.2,0-0.3" fill="none" id="n_id_39" stroke="#000000" stroke-linecap="round" stroke-linejoin="round" stroke-miterlimit="10" stroke-width="0.15"/></g><g id="CIRCLE">
		
			<path d="    M305,427.7c0-0.3,0.3-0.6,0.6-0.6c0.3,0,0.6,0.3,0.6,0.6s-0.3,0.6-0.6,0.6C305.3,428.3,305,428,305,427.7L305,427.7z" fill="none" id="n_id_40" stroke="#000000" stroke-linecap="round" stroke-linejoin="round" stroke-miterlimit="10" stroke-width="0.15"/></g><g id="CIRCLE_1_">
		
			<path d="    M299.4,427.7c0-0.3,0.3-0.6,0.6-0.6s0.6,0.3,0.6,0.6s-0.3,0.6-0.6,0.6S299.4,428,299.4,427.7L299.4,427.7z" fill="none" id="n_id_41" stroke="#000000" stroke-linecap="round" stroke-linejoin="round" stroke-miterlimit="10" stroke-width="0.15"/></g><g id="LWPOLYLINE_4_">
		
			<path d="    M302.8,415.4c-1,0-2,0.1-3,0.4c-0.8,0.2-1.6,0.6-2.3,1.1c-0.7,0.5-1.3,1.1-1.7,1.8c-0.3,0.6-0.5,1.3-0.5,1.9    c0,0.7,0.2,1.3,0.5,1.9c0.4,0.7,1,1.3,1.7,1.8s1.5,0.9,2.3,1.1c0.7,0.2,1.4,0.3,2.1,0.4" fill="none" id="n_id_42" stroke="#000000" stroke-linecap="round" stroke-linejoin="round" stroke-miterlimit="10" stroke-width="0.15"/></g><g id="ARC_3_">
		
			<path d="    M303.4,422.6c0-0.3-0.3-0.5-0.6-0.5" fill="none" id="n_id_43" stroke="#000000" stroke-linecap="round" stroke-linejoin="round" stroke-miterlimit="10" stroke-width="0.15"/></g><g id="ARC_4_">
		
			<path d="    M302.8,422.1c-0.3,0-0.5,0.2-0.6,0.5" fill="none" id="n_id_44" stroke="#000000" stroke-linecap="round" stroke-linejoin="round" stroke-miterlimit="10" stroke-width="0.15"/></g><g id="LINE_36_">
		
			<line fill="none" id="n_id_45" stroke="#000000" stroke-linecap="round" stroke-linejoin="round" stroke-miterlimit="10" stroke-width="0.15" x1="302.8" x2="302.8" y1="422.1" y2="422.1"/></g><g id="LINE_37_">
		
			<line fill="none" id="n_id_46" stroke="#000000" stroke-linecap="round" stroke-linejoin="round" stroke-miterlimit="10" stroke-width="0.15" x1="301.8" x2="302.2" y1="427.7" y2="422.6"/></g><g id="LINE_38_">
		
			<line fill="none" id="n_id_47" stroke="#000000" stroke-linecap="round" stroke-linejoin="round" stroke-miterlimit="10" stroke-width="0.15" x1="303.8" x2="303.4" y1="427.7" y2="422.6"/></g><g id="LWPOLYLINE_5_">
		
			<polygon fill="none" id="n_id_48" points="    217.1,424 217.1,432.8 193.6,432.8 193.6,424 196.5,424 198.5,424.9 212.2,424.9 214.2,424   " stroke="#000000" stroke-linecap="round" stroke-linejoin="round" stroke-miterlimit="10" stroke-width="0.15"/></g><g id="ELLIPSE">
		
			<path d="    M200.7,421.4c-0.6-0.6-1.1-1.3-1.6-2c-2.6-4.4-1.9-10.7,1.6-14c3.4-3.3,8.3-2.4,10.8,2c2.6,4.4,1.9,10.7-1.6,14" fill="none" id="n_id_49" stroke="#000000" stroke-linecap="round" stroke-linejoin="round" stroke-miterlimit="10" stroke-width="0.15"/></g><g id="LWPOLYLINE_6_">
		
			<polyline fill="none" id="n_id_50" points="    210,421.4 210,423.4 200.7,423.4 200.7,421.4   " stroke="#000000" stroke-linecap="round" stroke-linejoin="round" stroke-miterlimit="10" stroke-width="0.15"/></g><g id="LINE_39_">
		
			<line fill="none" id="n_id_51" stroke="#000000" stroke-linecap="round" stroke-linejoin="round" stroke-miterlimit="10" stroke-width="0.15" x1="377.3" x2="419.9" y1="355.5" y2="355.5"/></g><g id="LINE_40_">
		
			<line fill="none" id="n_id_52" stroke="#000000" stroke-linecap="round" stroke-linejoin="round" stroke-miterlimit="10" stroke-width="0.15" x1="422.1" x2="423.8" y1="355.5" y2="355.5"/></g><g id="LINE_42_">
		
			<line fill="none" id="n_id_53" stroke="#000000" stroke-linecap="round" stroke-linejoin="round" stroke-miterlimit="10" stroke-width="0.15" x1="292.3" x2="292.3" y1="261.1" y2="230.9"/></g><g id="LWPOLYLINE_7_">
		
			<rect fill="none" height="23.5" id="n_id_54" stroke="#000000" stroke-linecap="round" stroke-linejoin="round" stroke-miterlimit="10" stroke-width="0.15" width="17.3" x="297.9" y="267.3"/></g><g id="LWPOLYLINE_8_">
		
			<rect fill="none" height="30.2" id="n_id_55" stroke="#000000" stroke-linecap="round" stroke-linejoin="round" stroke-miterlimit="10" stroke-width="0.15" width="30.2" x="289.4" y="263.9"/></g><g id="LINE_43_">
		
			<line fill="none" id="n_id_56" stroke="#000000" stroke-linecap="round" stroke-linejoin="round" stroke-miterlimit="10" stroke-width="0.15" x1="292.3" x2="292.3" y1="294.2" y2="263.9"/></g><g id="LWPOLYLINE_9_">
		
			<rect fill="none" height="30.2" id="n_id_57" stroke="#000000" stroke-linecap="round" stroke-linejoin="round" stroke-miterlimit="10" stroke-width="0.15" width="30.2" x="289.4" y="230.9"/></g><g id="LWPOLYLINE_10_">
		
			<path d="    M246.5,426c-0.7-0.1-1.4-0.2-2.1-0.4c-0.8-0.2-1.6-0.6-2.3-1.1s-1.3-1.1-1.7-1.8c-0.3-0.6-0.5-1.3-0.5-1.9c0-0.7,0.2-1.3,0.5-1.9    c0.4-0.7,1-1.3,1.7-1.8s1.5-0.9,2.3-1.1c1-0.3,2-0.4,3-0.4" fill="none" id="n_id_58" stroke="#000000" stroke-linecap="round" stroke-linejoin="round" stroke-miterlimit="10" stroke-width="0.15"/></g><g id="LWPOLYLINE_11_">
		
			<path d="    M247.4,413.7c1.3,0,2.7,0.2,3.9,0.7c1.2,0.4,2.2,1,3.2,1.8c0.9,0.8,1.7,1.7,2.2,2.8c0.5,1,0.7,2,0.7,3.1s-0.3,2.2-0.7,3.1    c-0.5,1.1-1.3,2-2.2,2.8s-2,1.4-3.2,1.8c-1.3,0.4-2.6,0.7-3.9,0.7c-1.3,0-2.7-0.2-3.9-0.7c-1.2-0.4-2.2-1-3.2-1.8    c-0.9-0.8-1.7-1.7-2.2-2.8c-0.5-1-0.7-2-0.7-3.1s0.3-2.2,0.7-3.1c0.5-1.1,1.3-2,2.2-2.8s2-1.4,3.2-1.8    C244.7,414,246,413.7,247.4,413.7z" fill="none" id="n_id_59" stroke="#000000" stroke-linecap="round" stroke-linejoin="round" stroke-miterlimit="10" stroke-width="0.15"/></g><g id="ARC_5_">
		
			<path d="    M246.4,427.6c-0.1,0.5,0.3,1.1,0.8,1.1s1.1-0.3,1.1-0.8c0-0.1,0-0.2,0-0.3" fill="none" id="n_id_60" stroke="#000000" stroke-linecap="round" stroke-linejoin="round" stroke-miterlimit="10" stroke-width="0.15"/></g><g id="CIRCLE_2_">
		
			<path d="    M244,427.7c0-0.3,0.3-0.6,0.6-0.6s0.6,0.3,0.6,0.6s-0.3,0.6-0.6,0.6S244,428,244,427.7L244,427.7z" fill="none" id="n_id_61" stroke="#000000" stroke-linecap="round" stroke-linejoin="round" stroke-miterlimit="10" stroke-width="0.15"/></g><g id="CIRCLE_3_">
		
			<path d="    M249.6,427.7c0-0.3,0.3-0.6,0.6-0.6s0.6,0.3,0.6,0.6s-0.3,0.6-0.6,0.6C249.8,428.3,249.6,428,249.6,427.7L249.6,427.7z" fill="none" id="n_id_62" stroke="#000000" stroke-linecap="round" stroke-linejoin="round" stroke-miterlimit="10" stroke-width="0.15"/></g><g id="LWPOLYLINE_12_">
		
			<path d="    M247.4,415.4c1,0,2,0.1,3,0.4c0.8,0.2,1.6,0.6,2.3,1.1s1.3,1.1,1.7,1.8c0.3,0.6,0.5,1.3,0.5,1.9c0,0.7-0.2,1.3-0.5,1.9    c-0.4,0.7-1,1.3-1.7,1.8s-1.5,0.9-2.3,1.1c-0.7,0.2-1.4,0.3-2.1,0.4" fill="none" id="n_id_63" stroke="#000000" stroke-linecap="round" stroke-linejoin="round" stroke-miterlimit="10" stroke-width="0.15"/></g><g id="ARC_6_">
		
			<path d="    M247.3,422.1c-0.3,0-0.5,0.2-0.6,0.5" fill="none" id="n_id_64" stroke="#000000" stroke-linecap="round" stroke-linejoin="round" stroke-miterlimit="10" stroke-width="0.15"/></g><g id="ARC_7_">
		
			<path d="    M248,422.6c0-0.3-0.3-0.5-0.6-0.5" fill="none" id="n_id_65" stroke="#000000" stroke-linecap="round" stroke-linejoin="round" stroke-miterlimit="10" stroke-width="0.15"/></g><g id="LINE_44_">
		
			<line fill="none" id="n_id_66" stroke="#000000" stroke-linecap="round" stroke-linejoin="round" stroke-miterlimit="10" stroke-width="0.15" x1="247.3" x2="247.4" y1="422.1" y2="422.1"/></g><g id="LINE_45_">
		
			<line fill="none" id="n_id_67" stroke="#000000" stroke-linecap="round" stroke-linejoin="round" stroke-miterlimit="10" stroke-width="0.15" x1="248.4" x2="248" y1="427.7" y2="422.6"/></g><g id="LINE_46_">
		
			<line fill="none" id="n_id_68" stroke="#000000" stroke-linecap="round" stroke-linejoin="round" stroke-miterlimit="10" stroke-width="0.15" x1="246.4" x2="246.8" y1="427.7" y2="422.6"/></g><g id="LINE_47_">
		
			<line fill="none" id="n_id_69" stroke="#000000" stroke-linecap="round" stroke-linejoin="round" stroke-miterlimit="10" stroke-width="0.15" x1="328" x2="351.7" y1="295" y2="271.2"/></g><g id="LINE_48_">
		
			<line fill="none" id="n_id_70" stroke="#000000" stroke-linecap="round" stroke-linejoin="round" stroke-miterlimit="10" stroke-width="0.15" x1="329.1" x2="352.9" y1="296.1" y2="272.4"/></g><g id="LINE_49_">
		
			<line fill="none" id="n_id_71" stroke="#000000" stroke-linecap="round" stroke-linejoin="round" stroke-miterlimit="10" stroke-width="0.15" x1="328" x2="329.1" y1="295" y2="296.1"/></g><g id="LINE_50_">
		
			<line fill="none" id="n_id_72" stroke="#000000" stroke-linecap="round" stroke-linejoin="round" stroke-miterlimit="10" stroke-width="0.15" x1="328" x2="351.7" y1="230.1" y2="253.8"/></g><g id="LINE_51_">
		
			<line fill="none" id="n_id_73" stroke="#000000" stroke-linecap="round" stroke-linejoin="round" stroke-miterlimit="10" stroke-width="0.15" x1="329.1" x2="352.9" y1="228.9" y2="252.7"/></g><g id="ARC_8_">
		
			<path d="    M329.1,262.5c8.3-0.1,16.3-3.2,22.5-8.8" fill="none" id="n_id_74" stroke="#000000" stroke-linecap="round" stroke-linejoin="round" stroke-miterlimit="10" stroke-width="0.15"/></g><g id="ARC_9_">
		
			<path d="    M351.6,271.3c-6.2-5.6-14.2-8.7-22.5-8.8" fill="none" id="n_id_75" stroke="#000000" stroke-linecap="round" stroke-linejoin="round" stroke-miterlimit="10" stroke-width="0.15"/></g><g id="LINE_52_">
		
			<line fill="none" id="n_id_76" stroke="#000000" stroke-linecap="round" stroke-linejoin="round" stroke-miterlimit="10" stroke-width="0.15" x1="351.7" x2="352.9" y1="271.2" y2="272.4"/></g><g id="LINE_53_">
		
			<line fill="none" id="n_id_77" stroke="#000000" stroke-linecap="round" stroke-linejoin="round" stroke-miterlimit="10" stroke-width="0.15" x1="351.7" x2="352.9" y1="253.8" y2="252.7"/></g><g id="LINE_54_">
		
			<line fill="none" id="n_id_78" stroke="#000000" stroke-linecap="round" stroke-linejoin="round" stroke-miterlimit="10" stroke-width="0.15" x1="328" x2="329.1" y1="230.1" y2="228.9"/></g><g id="LINE_57_">
		
			<line fill="none" id="n_id_79" stroke="#000000" stroke-linecap="round" stroke-linejoin="round" stroke-miterlimit="10" stroke-width="0.15" x1="375.6" x2="375.6" y1="479" y2="510.3"/></g><g id="LINE_58_">
		
			<line fill="none" id="n_id_80" stroke="#000000" stroke-linecap="round" stroke-linejoin="round" stroke-miterlimit="10" stroke-width="0.15" x1="377.3" x2="377.3" y1="479" y2="510.3"/></g><g id="LINE_59_">
		
			<line fill="none" id="n_id_81" stroke="#000000" stroke-linecap="round" stroke-linejoin="round" stroke-miterlimit="10" stroke-width="0.15" x1="373.4" x2="373.4" y1="481.2" y2="449.9"/></g><g id="LINE_60_">
		
			<line fill="none" id="n_id_82" stroke="#000000" stroke-linecap="round" stroke-linejoin="round" stroke-miterlimit="10" stroke-width="0.15" x1="375" x2="375" y1="481.2" y2="449.9"/></g><g id="LINE_61_">
		
			<line fill="none" id="n_id_83" stroke="#000000" stroke-linecap="round" stroke-linejoin="round" stroke-miterlimit="10" stroke-width="0.15" x1="377.3" x2="375.6" y1="479" y2="479"/></g><g id="LINE_62_">
		
			<line fill="none" id="n_id_84" stroke="#000000" stroke-linecap="round" stroke-linejoin="round" stroke-miterlimit="10" stroke-width="0.15" x1="373.4" x2="375" y1="481.2" y2="481.2"/></g><g id="ARC_10_">
		
			<path d="    M291.6,445.4c1.1,17.8,15.8,31.6,33.6,31.6" fill="none" id="n_id_85" stroke="#000000" stroke-linecap="round" stroke-linejoin="round" stroke-miterlimit="10" stroke-width="0.15"/></g><g id="LINE_63_">
		
			<line fill="none" id="n_id_86" stroke="#000000" stroke-linecap="round" stroke-linejoin="round" stroke-miterlimit="10" stroke-width="0.15" x1="325.2" x2="291.6" y1="445.4" y2="445.4"/></g><g id="LINE_64_">
		
			<line fill="none" id="n_id_87" stroke="#000000" stroke-linecap="round" stroke-linejoin="round" stroke-miterlimit="10" stroke-width="0.15" x1="325.2" x2="291.6" y1="443.4" y2="443.4"/></g><g id="LINE_65_">
		
			<line fill="none" id="n_id_88" stroke="#000000" stroke-linecap="round" stroke-linejoin="round" stroke-miterlimit="10" stroke-width="0.15" x1="291.6" x2="291.6" y1="445.4" y2="443.4"/></g><g id="LINE_66_">
		
			<line fill="none" id="n_id_89" stroke="#000000" stroke-linecap="round" stroke-linejoin="round" stroke-miterlimit="10" stroke-width="0.15" x1="325.2" x2="325.2" y1="445.4" y2="443.4"/></g><g id="LINE_69_">
		
			<line fill="none" id="n_id_90" stroke="#000000" stroke-linecap="round" stroke-linejoin="round" stroke-miterlimit="10" stroke-width="0.15" x1="377.3" x2="419.9" y1="377.9" y2="377.9"/></g><g id="LINE_70_">
		
			<line fill="none" id="n_id_91" stroke="#000000" stroke-linecap="round" stroke-linejoin="round" stroke-miterlimit="10" stroke-width="0.15" x1="422.1" x2="423.8" y1="377.9" y2="377.9"/></g><g id="LINE_71_">
		
			<line fill="none" id="n_id_92" stroke="#000000" stroke-linecap="round" stroke-linejoin="round" stroke-miterlimit="10" stroke-width="0.15" x1="377.3" x2="419.9" y1="366.7" y2="366.7"/></g><g id="LINE_72_">
		
			<line fill="none" id="n_id_93" stroke="#000000" stroke-linecap="round" stroke-linejoin="round" stroke-miterlimit="10" stroke-width="0.15" x1="422.1" x2="423.8" y1="366.7" y2="366.7"/></g><g id="LINE_73_">
		
			<line fill="none" id="n_id_94" stroke="#000000" stroke-linecap="round" stroke-linejoin="round" stroke-miterlimit="10" stroke-width="0.15" x1="311.2" x2="292.2" y1="350.4" y2="370.6"/></g><g id="ARC_11_">
		
			<path d="    M284.3,350.4c0,7.5,2.8,14.7,7.9,20.1" fill="none" id="n_id_95" stroke="#000000" stroke-linecap="round" stroke-linejoin="round" stroke-miterlimit="10" stroke-width="0.15"/></g><g id="CIRCLE_4_">
		
			<path d="    M297.8,325c0-1.2,1-2.2,2.2-2.2s2.2,1,2.2,2.2s-1,2.2-2.2,2.2S297.8,326.2,297.8,325L297.8,325z" fill="none" id="n_id_96" stroke="#000000" stroke-linecap="round" stroke-linejoin="round" stroke-miterlimit="10" stroke-width="0.15"/></g><g id="LWPOLYLINE_13_">
		
			<polygon fill="none" id="n_id_97" points="    317.3,323 320.6,325 317.3,326.9   " stroke="#000000" stroke-linecap="round" stroke-linejoin="round" stroke-miterlimit="10" stroke-width="0.15"/></g><g id="LINE_74_">
		
			<line fill="none" id="n_id_98" stroke="#000000" stroke-linecap="round" stroke-linejoin="round" stroke-miterlimit="10" stroke-width="0.15" x1="323" x2="320.6" y1="325" y2="325"/></g><g id="LINE_75_">
		
			<line fill="none" id="n_id_99" stroke="#000000" stroke-linecap="round" stroke-linejoin="round" stroke-miterlimit="10" stroke-width="0.15" x1="323" x2="311.2" y1="350.4" y2="350.4"/></g><g id="LINE_76_">
		
			<line fill="none" id="n_id_100" stroke="#000000" stroke-linecap="round" stroke-linejoin="round" stroke-miterlimit="10" stroke-width="0.15" x1="284.3" x2="277" y1="350.4" y2="350.4"/></g><g id="LINE_77_">
		
			<line fill="none" id="n_id_101" stroke="#000000" stroke-linecap="round" stroke-linejoin="round" stroke-miterlimit="10" stroke-width="0.15" x1="323" x2="311.2" y1="348.2" y2="348.2"/></g><g id="LINE_78_">
		
			<line fill="none" id="n_id_102" stroke="#000000" stroke-linecap="round" stroke-linejoin="round" stroke-miterlimit="10" stroke-width="0.15" x1="284.3" x2="277" y1="348.2" y2="348.2"/></g><g id="LINE_79_">
		
			<line fill="none" id="n_id_103" stroke="#000000" stroke-linecap="round" stroke-linejoin="round" stroke-miterlimit="10" stroke-width="0.15" x1="323" x2="277" y1="346.5" y2="346.5"/></g><g id="LINE_80_">
		
			<line fill="none" id="n_id_104" stroke="#000000" stroke-linecap="round" stroke-linejoin="round" stroke-miterlimit="10" stroke-width="0.15" x1="284.3" x2="284.3" y1="348.2" y2="350.4"/></g><g id="LINE_81_">
		
			<line fill="none" id="n_id_105" stroke="#000000" stroke-linecap="round" stroke-linejoin="round" stroke-miterlimit="10" stroke-width="0.15" x1="311.2" x2="311.2" y1="348.2" y2="350.4"/></g><g id="LINE_82_">
		
			<line fill="none" id="n_id_106" stroke="#000000" stroke-linecap="round" stroke-linejoin="round" stroke-miterlimit="10" stroke-width="0.15" x1="323" x2="301.6" y1="346.5" y2="326.5"/></g><g id="LINE_83_">
		
			<line fill="none" id="n_id_107" stroke="#000000" stroke-linecap="round" stroke-linejoin="round" stroke-miterlimit="10" stroke-width="0.15" x1="277.6" x2="298.4" y1="346.5" y2="326.5"/></g><g id="LINE_84_">
		
			<line fill="none" id="n_id_108" stroke="#000000" stroke-linecap="round" stroke-linejoin="round" stroke-miterlimit="10" stroke-width="0.15" x1="298.4" x2="277.6" y1="323.4" y2="303.4"/></g><g id="LINE_85_">
		
			<line fill="none" id="n_id_109" stroke="#000000" stroke-linecap="round" stroke-linejoin="round" stroke-miterlimit="10" stroke-width="0.15" x1="301.6" x2="323" y1="323.4" y2="303.4"/></g><g id="LINE_86_">
		
			<line fill="none" id="n_id_110" stroke="#000000" stroke-linecap="round" stroke-linejoin="round" stroke-miterlimit="10" stroke-width="0.15" x1="272.6" x2="277" y1="350.4" y2="350.4"/></g><g id="LINE_87_">
		
			<line fill="none" id="n_id_111" stroke="#000000" stroke-linecap="round" stroke-linejoin="round" stroke-miterlimit="10" stroke-width="0.15" x1="277" x2="277" y1="303.4" y2="350.4"/></g><g id="LINE_88_">
		
			<line fill="none" id="n_id_112" stroke="#000000" stroke-linecap="round" stroke-linejoin="round" stroke-miterlimit="10" stroke-width="0.15" x1="272.6" x2="272.6" y1="350.4" y2="303.4"/></g><g id="LINE_89_">
		
			<line fill="none" id="n_id_113" stroke="#000000" stroke-linecap="round" stroke-linejoin="round" stroke-miterlimit="10" stroke-width="0.15" x1="272.6" x2="272.6" y1="350.4" y2="303.4"/></g><g id="LINE_90_">
		
			<line fill="none" id="n_id_114" stroke="#000000" stroke-linecap="round" stroke-linejoin="round" stroke-miterlimit="10" stroke-width="0.15" x1="272.6" x2="206.5" y1="350.4" y2="350.4"/></g><g id="CIRCLE_5_">
		
			<path d="    M215.2,326.9c0-0.9,0.7-1.6,1.6-1.6s1.6,0.7,1.6,1.6s-0.7,1.6-1.6,1.6S215.2,327.8,215.2,326.9L215.2,326.9z" fill="none" id="n_id_115" stroke="#000000" stroke-linecap="round" stroke-linejoin="round" stroke-miterlimit="10" stroke-width="0.15"/></g><g id="LINE_91_">
		
			<line fill="none" id="n_id_116" stroke="#000000" stroke-linecap="round" stroke-linejoin="round" stroke-miterlimit="10" stroke-width="0.15" x1="227.8" x2="227.8" y1="104" y2="184.7"/></g><g id="ARC_12_">
		
			<path d="    M268.9,66.5c-17.8,1.1-31.6,15.8-31.6,33.6" fill="none" id="n_id_117" stroke="#000000" stroke-linecap="round" stroke-linejoin="round" stroke-miterlimit="10" stroke-width="0.15"/></g><g id="LINE_92_">
		
			<line fill="none" id="n_id_118" stroke="#000000" stroke-linecap="round" stroke-linejoin="round" stroke-miterlimit="10" stroke-width="0.15" x1="268.9" x2="268.9" y1="100.1" y2="66.5"/></g><g id="LINE_93_">
		
			<line fill="none" id="n_id_119" stroke="#000000" stroke-linecap="round" stroke-linejoin="round" stroke-miterlimit="10" stroke-width="0.15" x1="270.9" x2="270.9" y1="100.1" y2="66.5"/></g><g id="LINE_94_">
		
			<line fill="none" id="n_id_120" stroke="#000000" stroke-linecap="round" stroke-linejoin="round" stroke-miterlimit="10" stroke-width="0.15" x1="268.9" x2="270.9" y1="66.5" y2="66.5"/></g><g id="LINE_95_">
		
			<line fill="none" id="n_id_121" stroke="#000000" stroke-linecap="round" stroke-linejoin="round" stroke-miterlimit="10" stroke-width="0.15" x1="268.9" x2="270.9" y1="100.1" y2="100.1"/></g><g id="LWPOLYLINE_14_">
		
			<path d="    M212.1,168.4c0.1,0.7,0.2,1.4,0.4,2.1c0.2,0.8,0.6,1.6,1.1,2.3s1.1,1.3,1.8,1.7c0.6,0.3,1.3,0.5,1.9,0.5s1.3-0.2,1.9-0.5    c0.7-0.4,1.3-1,1.8-1.7s0.9-1.5,1.1-2.3c0.3-1,0.4-2,0.4-3" fill="none" id="n_id_122" stroke="#000000" stroke-linecap="round" stroke-linejoin="round" stroke-miterlimit="10" stroke-width="0.15"/></g><g id="LWPOLYLINE_15_">
		
			<path d="    M224.4,167.6c0-1.3-0.2-2.7-0.7-3.9c-0.4-1.2-1-2.2-1.8-3.2c-0.8-0.9-1.7-1.7-2.8-2.2c-1-0.5-2-0.7-3.1-0.7s-2.2,0.3-3.1,0.7    c-1.1,0.5-2,1.3-2.8,2.2s-1.4,2-1.8,3.2c-0.4,1.3-0.7,2.6-0.7,3.9c0,1.3,0.2,2.7,0.7,3.9c0.4,1.2,1,2.2,1.8,3.2    c0.8,0.9,1.7,1.7,2.8,2.2c1,0.5,2,0.7,3.1,0.7s2.2-0.3,3.1-0.7c1.1-0.5,2-1.3,2.8-2.2s1.4-2,1.8-3.2    C224.2,170.3,224.4,168.9,224.4,167.6z" fill="none" id="n_id_123" stroke="#000000" stroke-linecap="round" stroke-linejoin="round" stroke-miterlimit="10" stroke-width="0.15"/></g><g id="ARC_13_">
		
			<path d="    M210.5,166.6c-0.5-0.1-1.1,0.3-1.1,0.8c-0.1,0.5,0.3,1.1,0.8,1.1c0.1,0,0.2,0,0.3,0" fill="none" id="n_id_124" stroke="#000000" stroke-linecap="round" stroke-linejoin="round" stroke-miterlimit="10" stroke-width="0.15"/></g><g id="CIRCLE_6_">
		
			<path d="    M209.8,170.4c0-0.3,0.3-0.6,0.6-0.6s0.6,0.3,0.6,0.6s-0.3,0.6-0.6,0.6S209.8,170.7,209.8,170.4L209.8,170.4z" fill="none" id="n_id_125" stroke="#000000" stroke-linecap="round" stroke-linejoin="round" stroke-miterlimit="10" stroke-width="0.15"/></g><g id="CIRCLE_7_">
		
			<path d="    M209.8,164.8c0-0.3,0.3-0.6,0.6-0.6s0.6,0.3,0.6,0.6s-0.3,0.6-0.6,0.6S209.8,165.1,209.8,164.8L209.8,164.8z" fill="none" id="n_id_126" stroke="#000000" stroke-linecap="round" stroke-linejoin="round" stroke-miterlimit="10" stroke-width="0.15"/></g><g id="LWPOLYLINE_16_">
		
			<path d="    M222.7,167.6c0-1-0.1-2-0.4-3c-0.2-0.8-0.6-1.6-1.1-2.3s-1.1-1.3-1.8-1.7c-0.6-0.3-1.3-0.5-1.9-0.5s-1.3,0.2-1.9,0.5    c-0.7,0.4-1.3,1-1.8,1.7s-0.9,1.5-1.1,2.3c-0.2,0.7-0.3,1.4-0.4,2.1" fill="none" id="n_id_127" stroke="#000000" stroke-linecap="round" stroke-linejoin="round" stroke-miterlimit="10" stroke-width="0.15"/></g><g id="ARC_14_">
		
			<path d="    M215.5,168.2c0.3,0,0.5-0.3,0.5-0.6" fill="none" id="n_id_128" stroke="#000000" stroke-linecap="round" stroke-linejoin="round" stroke-miterlimit="10" stroke-width="0.15"/></g><g id="ARC_15_">
		
			<path d="    M216,167.5c0-0.3-0.2-0.5-0.5-0.6" fill="none" id="n_id_129" stroke="#000000" stroke-linecap="round" stroke-linejoin="round" stroke-miterlimit="10" stroke-width="0.15"/></g><g id="LINE_96_">
		
			<line fill="none" id="n_id_130" stroke="#000000" stroke-linecap="round" stroke-linejoin="round" stroke-miterlimit="10" stroke-width="0.15" x1="216" x2="216" y1="167.6" y2="167.5"/></g><g id="LINE_97_">
		
			<line fill="none" id="n_id_131" stroke="#000000" stroke-linecap="round" stroke-linejoin="round" stroke-miterlimit="10" stroke-width="0.15" x1="210.4" x2="215.5" y1="166.6" y2="167"/></g><g id="LINE_98_">
		
			<line fill="none" id="n_id_132" stroke="#000000" stroke-linecap="round" stroke-linejoin="round" stroke-miterlimit="10" stroke-width="0.15" x1="210.4" x2="215.5" y1="168.6" y2="168.2"/></g><g id="LWPOLYLINE_17_">
		
			<path d="    M212.1,120.2c0.1-0.7,0.2-1.4,0.4-2.1c0.2-0.8,0.6-1.6,1.1-2.3c0.5-0.7,1.1-1.3,1.8-1.7c0.6-0.3,1.3-0.5,1.9-0.5s1.3,0.2,1.9,0.5    c0.7,0.4,1.3,1,1.8,1.7s0.9,1.5,1.1,2.3c0.3,1,0.4,2,0.4,3" fill="none" id="n_id_133" stroke="#000000" stroke-linecap="round" stroke-linejoin="round" stroke-miterlimit="10" stroke-width="0.15"/></g><g id="LWPOLYLINE_18_">
		
			<path d="    M224.4,121.1c0,1.3-0.2,2.7-0.7,3.9c-0.4,1.2-1,2.2-1.8,3.2c-0.8,0.9-1.7,1.7-2.8,2.2c-1,0.5-2,0.7-3.1,0.7s-2.2-0.3-3.1-0.7    c-1.1-0.5-2-1.3-2.8-2.2c-0.8-0.9-1.4-2-1.8-3.2c-0.4-1.3-0.7-2.6-0.7-3.9s0.2-2.7,0.7-3.9c0.4-1.2,1-2.2,1.8-3.2    c0.8-0.9,1.7-1.7,2.8-2.2c1-0.5,2-0.7,3.1-0.7s2.2,0.3,3.1,0.7c1.1,0.5,2,1.3,2.8,2.2c0.8,0.9,1.4,2,1.8,3.2    C224.2,118.4,224.4,119.8,224.4,121.1z" fill="none" id="n_id_134" stroke="#000000" stroke-linecap="round" stroke-linejoin="round" stroke-miterlimit="10" stroke-width="0.15"/></g><g id="ARC_16_">
		
			<path d="    M210.5,120.1c-0.5-0.1-1.1,0.3-1.1,0.8c-0.1,0.5,0.3,1.1,0.8,1.1c0.1,0,0.2,0,0.3,0" fill="none" id="n_id_135" stroke="#000000" stroke-linecap="round" stroke-linejoin="round" stroke-miterlimit="10" stroke-width="0.15"/></g><g id="CIRCLE_8_">
		
			<path d="    M209.8,118.3c0-0.3,0.3-0.6,0.6-0.6s0.6,0.3,0.6,0.6c0,0.3-0.3,0.6-0.6,0.6S209.8,118.6,209.8,118.3L209.8,118.3z" fill="none" id="n_id_136" stroke="#000000" stroke-linecap="round" stroke-linejoin="round" stroke-miterlimit="10" stroke-width="0.15"/></g><g id="CIRCLE_9_">
		
			<path d="    M209.8,123.9c0-0.3,0.3-0.6,0.6-0.6s0.6,0.3,0.6,0.6c0,0.3-0.3,0.6-0.6,0.6S209.8,124.2,209.8,123.9L209.8,123.9z" fill="none" id="n_id_137" stroke="#000000" stroke-linecap="round" stroke-linejoin="round" stroke-miterlimit="10" stroke-width="0.15"/></g><g id="LWPOLYLINE_19_">
		
			<path d="    M222.7,121.1c0,1-0.1,2-0.4,3c-0.2,0.8-0.6,1.6-1.1,2.3c-0.5,0.7-1.1,1.3-1.8,1.7c-0.6,0.3-1.3,0.5-1.9,0.5s-1.3-0.2-1.9-0.5    c-0.7-0.4-1.3-1-1.8-1.7s-0.9-1.5-1.1-2.3c-0.2-0.7-0.3-1.4-0.4-2.1" fill="none" id="n_id_138" stroke="#000000" stroke-linecap="round" stroke-linejoin="round" stroke-miterlimit="10" stroke-width="0.15"/></g><g id="ARC_17_">
		
			<path d="    M216,121.1c0-0.3-0.2-0.5-0.5-0.6" fill="none" id="n_id_139" stroke="#000000" stroke-linecap="round" stroke-linejoin="round" stroke-miterlimit="10" stroke-width="0.15"/></g><g id="ARC_18_">
		
			<path d="    M215.5,121.7c0.3,0,0.5-0.3,0.5-0.6" fill="none" id="n_id_140" stroke="#000000" stroke-linecap="round" stroke-linejoin="round" stroke-miterlimit="10" stroke-width="0.15"/></g><g id="LINE_99_">
		
			<line fill="none" id="n_id_141" stroke="#000000" stroke-linecap="round" stroke-linejoin="round" stroke-miterlimit="10" stroke-width="0.15" x1="216" x2="216" y1="121.1" y2="121.1"/></g><g id="LINE_100_">
		
			<line fill="none" id="n_id_142" stroke="#000000" stroke-linecap="round" stroke-linejoin="round" stroke-miterlimit="10" stroke-width="0.15" x1="210.4" x2="215.5" y1="122.1" y2="121.7"/></g><g id="LINE_101_">
		
			<line fill="none" id="n_id_143" stroke="#000000" stroke-linecap="round" stroke-linejoin="round" stroke-miterlimit="10" stroke-width="0.15" x1="210.4" x2="215.5" y1="120.1" y2="120.5"/></g><g id="ARC_19_">
		
			<path d="    M237.3,188.6c0,17.8,13.9,32.5,31.6,33.6" fill="none" id="n_id_144" stroke="#000000" stroke-linecap="round" stroke-linejoin="round" stroke-miterlimit="10" stroke-width="0.15"/></g><g id="LINE_104_">
		
			<line fill="none" id="n_id_145" stroke="#000000" stroke-linecap="round" stroke-linejoin="round" stroke-miterlimit="10" stroke-width="0.15" x1="268.9" x2="268.9" y1="188.6" y2="222.2"/></g><g id="LINE_105_">
		
			<line fill="none" id="n_id_146" stroke="#000000" stroke-linecap="round" stroke-linejoin="round" stroke-miterlimit="10" stroke-width="0.15" x1="270.9" x2="270.9" y1="188.6" y2="222.2"/></g><g id="LINE_106_">
		
			<line fill="none" id="n_id_147" stroke="#000000" stroke-linecap="round" stroke-linejoin="round" stroke-miterlimit="10" stroke-width="0.15" x1="268.9" x2="270.9" y1="222.2" y2="222.2"/></g><g id="LINE_107_">
		
			<line fill="none" id="n_id_148" stroke="#000000" stroke-linecap="round" stroke-linejoin="round" stroke-miterlimit="10" stroke-width="0.15" x1="268.9" x2="270.9" y1="188.6" y2="188.6"/></g><g id="LINE_110_">
		
			<line fill="none" id="n_id_149" stroke="#000000" stroke-linecap="round" stroke-linejoin="round" stroke-miterlimit="10" stroke-width="0.15" x1="210.4" x2="277.6" y1="59.8" y2="59.8"/></g><g id="LINE_111_">
		
			<line fill="none" id="n_id_150" stroke="#000000" stroke-linecap="round" stroke-linejoin="round" stroke-miterlimit="10" stroke-width="0.15" x1="271.6" x2="223.9" y1="28.5" y2="28.5"/></g><g id="LINE_112_">
		
			<line fill="none" id="n_id_151" stroke="#000000" stroke-linecap="round" stroke-linejoin="round" stroke-miterlimit="10" stroke-width="0.15" x1="224" x2="271.6" y1="57.6" y2="57.6"/></g><g id="LWPOLYLINE_20_">
		
			<path d="    M224.8,57.6c-0.1,0-0.3,0-0.4,0c-1.4,0-2.9-0.4-4.1-1c-1.5-0.8-2.8-1.9-3.8-3.2c-1.1-1.4-1.9-2.9-2.4-4.6    c-0.6-1.9-0.9-3.8-0.9-5.7s0.3-3.9,0.9-5.7c0.5-1.6,1.3-3.2,2.4-4.6c1-1.3,2.3-2.4,3.8-3.2c1.3-0.7,2.7-1,4.1-1" fill="none" id="n_id_152" stroke="#000000" stroke-linecap="round" stroke-linejoin="round" stroke-miterlimit="10" stroke-width="0.15"/></g><g id="LWPOLYLINE_21_">
		
			<path d="    M224.5,28.5c0.2,0,0.3,0,0.5,0" fill="none" id="n_id_153" stroke="#000000" stroke-linecap="round" stroke-linejoin="round" stroke-miterlimit="10" stroke-width="0.15"/></g><g id="LINE_113_">
		
			<line fill="none" id="n_id_154" stroke="#000000" stroke-linecap="round" stroke-linejoin="round" stroke-miterlimit="10" stroke-width="0.15" x1="273.7" x2="273.7" y1="55.4" y2="30.6"/></g><g id="ARC_20_">
		
			<path d="    M271.5,57.6c1.2,0,2.2-1,2.2-2.2" fill="none" id="n_id_155" stroke="#000000" stroke-linecap="round" stroke-linejoin="round" stroke-miterlimit="10" stroke-width="0.15"/></g><g id="CIRCLE_10_">
		
			<path d="    M268.8,43c0-0.9,0.7-1.6,1.6-1.6s1.6,0.7,1.6,1.6s-0.7,1.6-1.6,1.6S268.8,43.9,268.8,43L268.8,43z" fill="none" id="n_id_156" stroke="#000000" stroke-linecap="round" stroke-linejoin="round" stroke-miterlimit="10" stroke-width="0.15"/></g><g id="ARC_21_">
		
			<path d="    M273.7,30.7c0-1.2-1-2.2-2.2-2.2" fill="none" id="n_id_157" stroke="#000000" stroke-linecap="round" stroke-linejoin="round" stroke-miterlimit="10" stroke-width="0.15"/></g><g id="LWPOLYLINE_22_">
		
			<polygon fill="none" id="n_id_158" points="    214.7,69.3 205.9,69.3 205.9,92.8 214.7,92.8 214.7,89.9 213.8,87.9 213.8,74.2 214.7,72.2   " stroke="#000000" stroke-linecap="round" stroke-linejoin="round" stroke-miterlimit="10" stroke-width="0.15"/></g><g id="ELLIPSE_1_">
		
			<path d="    M217.2,85.7c3.3,3.4,9.6,4.1,14,1.6s5.3-7.4,2-10.8s-9.6-4.1-14-1.6c-0.8,0.4-1.4,1-2,1.6" fill="none" id="n_id_159" stroke="#000000" stroke-linecap="round" stroke-linejoin="round" stroke-miterlimit="10" stroke-width="0.15"/></g><g id="LWPOLYLINE_23_">
		
			<polyline fill="none" id="n_id_160" points="    217.2,76.4 215.2,76.4 215.2,85.7 217.2,85.7   " stroke="#000000" stroke-linecap="round" stroke-linejoin="round" stroke-miterlimit="10" stroke-width="0.15"/></g><g id="ARC_22_">
		
			<path d="    M189.7,366.4c1.1,17.8,15.8,31.6,33.6,31.6" fill="none" id="n_id_161" stroke="#000000" stroke-linecap="round" stroke-linejoin="round" stroke-miterlimit="10" stroke-width="0.15"/></g><g id="LINE_114_">
		
			<line fill="none" id="n_id_162" stroke="#000000" stroke-linecap="round" stroke-linejoin="round" stroke-miterlimit="10" stroke-width="0.15" x1="223.3" x2="189.7" y1="366.4" y2="366.4"/></g><g id="LINE_115_">
		
			<line fill="none" id="n_id_163" stroke="#000000" stroke-linecap="round" stroke-linejoin="round" stroke-miterlimit="10" stroke-width="0.15" x1="223.3" x2="189.7" y1="364.4" y2="364.4"/></g><g id="LINE_116_">
		
			<line fill="none" id="n_id_164" stroke="#000000" stroke-linecap="round" stroke-linejoin="round" stroke-miterlimit="10" stroke-width="0.15" x1="189.7" x2="189.7" y1="366.4" y2="364.4"/></g><g id="LINE_117_">
		
			<line fill="none" id="n_id_165" stroke="#000000" stroke-linecap="round" stroke-linejoin="round" stroke-miterlimit="10" stroke-width="0.15" x1="223.3" x2="223.3" y1="366.4" y2="364.4"/></g><g id="CIRCLE_11_">
		
			<path d="    M375,249.1c0-0.6,0.5-1.1,1.1-1.1s1.1,0.5,1.1,1.1s-0.5,1.1-1.1,1.1S375,249.7,375,249.1L375,249.1z" fill="none" id="n_id_166" stroke="#000000" stroke-linecap="round" stroke-linejoin="round" stroke-miterlimit="10" stroke-width="0.15"/></g><g id="LWPOLYLINE_26_">
		
			<polygon fill="none" id="n_id_167" points="    402.3,405 390.4,405 396.3,407.9   " stroke="#000000" stroke-linecap="round" stroke-linejoin="round" stroke-miterlimit="10" stroke-width="0.15"/></g><g id="LWPOLYLINE_27_">
		
			<polyline fill="none" id="n_id_168" points="    377.3,249.1 396.3,249.1 396.3,405   " stroke="#000000" stroke-linecap="round" stroke-linejoin="round" stroke-miterlimit="10" stroke-width="0.15"/></g><g id="LWPOLYLINE_48_">
		
			<path d="    M267,346h-53.9c-1.2,0-2.2-1-2.2-2.2v-33.7c0-1.2,1-2.2,2.2-2.2H267c1.2,0,2.2,1,2.2,2.2v33.7C269.2,345,268.2,346,267,346z" fill="none" id="n_id_169" stroke="#000000" stroke-linecap="round" stroke-linejoin="round" stroke-miterlimit="10" stroke-width="0.15"/></g></g>
  <g id="_x33_60dash">
	<g id="LINE_1_">
		
			<line fill="none" id="n_id_170" stroke="#000000" stroke-dasharray="4.9981,2.499" stroke-linecap="round" stroke-linejoin="round" stroke-miterlimit="10" stroke-width="0.15" x1="408.1" x2="408.1" y1="423.8" y2="515.7"/></g><g id="LINE_25_">
		
			<line fill="none" id="n_id_171" stroke="#000000" stroke-dasharray="4.9981,2.499" stroke-linecap="round" stroke-linejoin="round" stroke-miterlimit="10" stroke-width="0.15" x1="333.3" x2="369.2" y1="438.9" y2="438.9"/></g><g id="LINE_26_">
		
			<line fill="none" id="n_id_172" stroke="#000000" stroke-dasharray="4.9981,2.499" stroke-linecap="round" stroke-linejoin="round" stroke-miterlimit="10" stroke-width="0.15" x1="369.2" x2="333.3" y1="432.8" y2="432.8"/></g><g id="LINE_41_">
		
			<line fill="none" id="n_id_173" stroke="#000000" stroke-dasharray="4.9981,2.499" stroke-linecap="round" stroke-linejoin="round" stroke-miterlimit="10" stroke-width="0.15" x1="297.2" x2="297.2" y1="225.5" y2="299.5"/></g><g id="LINE_55_">
		
			<line fill="none" id="n_id_174" stroke="#000000" stroke-dasharray="4.9981,2.499" stroke-linecap="round" stroke-linejoin="round" stroke-miterlimit="10" stroke-width="0.15" x1="329.1" x2="329.1" y1="363.5" y2="403.7"/></g><g id="LINE_56_">
		
			<line fill="none" id="n_id_175" stroke="#000000" stroke-dasharray="4.9981,2.499" stroke-linecap="round" stroke-linejoin="round" stroke-miterlimit="10" stroke-width="0.15" x1="323" x2="323" y1="363.3" y2="403.7"/></g><g id="LINE_67_">
		
			<line fill="none" id="n_id_176" stroke="#000000" stroke-dasharray="4.9981,2.499" stroke-linecap="round" stroke-linejoin="round" stroke-miterlimit="10" stroke-width="0.15" x1="203.1" x2="307.8" y1="500" y2="500"/></g><g id="LINE_68_">
		
			<line fill="none" id="n_id_177" stroke="#000000" stroke-dasharray="4.9981,2.499" stroke-linecap="round" stroke-linejoin="round" stroke-miterlimit="10" stroke-width="0.15" x1="198.6" x2="198.6" y1="480.9" y2="438.9"/></g><g id="LINE_102_">
		
			<line fill="none" id="n_id_178" stroke="#000000" stroke-dasharray="4.9981,2.499" stroke-linecap="round" stroke-linejoin="round" stroke-miterlimit="10" stroke-width="0.15" x1="275.4" x2="275.4" y1="173.5" y2="137.6"/></g><g id="LINE_103_">
		
			<line fill="none" id="n_id_179" stroke="#000000" stroke-dasharray="4.9981,2.499" stroke-linecap="round" stroke-linejoin="round" stroke-miterlimit="10" stroke-width="0.15" x1="281.5" x2="281.5" y1="137.6" y2="173.5"/></g><g id="LINE_108_">
		
			<line fill="none" id="n_id_180" stroke="#000000" stroke-dasharray="4.9981,2.499" stroke-linecap="round" stroke-linejoin="round" stroke-miterlimit="10" stroke-width="0.15" x1="218.8" x2="218.8" y1="188.6" y2="283.8"/></g><g id="LINE_109_">
		
			<line fill="none" id="n_id_181" stroke="#000000" stroke-dasharray="4.9981,2.499" stroke-linecap="round" stroke-linejoin="round" stroke-miterlimit="10" stroke-width="0.15" x1="218.8" x2="277.6" y1="283.8" y2="283.8"/></g></g>
  <g id="_x33_60text">
	<g id="MTEXT_3_">
		</g><g id="MTEXT_10_">
		<g id="n_id_261">
			<path d="M303.5,282.5l-1.7-6.7h0.9l0.8,3.4c0.2,0.8,0.4,1.7,0.5,2.3l0,0c0.1-0.7,0.3-1.5,0.5-2.3l0.9-3.4h0.9l0.8,3.4     c0.2,0.8,0.4,1.6,0.5,2.3l0,0c0.1-0.7,0.3-1.5,0.5-2.3l0.9-3.4h0.9l-1.9,6.7h-0.9l-0.8-3.5c-0.2-0.8-0.3-1.5-0.4-2.2l0,0     c-0.1,0.7-0.3,1.3-0.5,2.2l-0.9,3.5H303.5z" id="n_id_262"/></g></g><g id="MTEXT_11_">
		<g id="n_id_263">
			<path d="M302.5,242.9c0.5-0.1,1.1-0.1,1.8-0.1c1.2,0,2.1,0.3,2.7,0.8s0.9,1.3,0.9,2.4c0,1.1-0.3,2-1,2.6c-0.6,0.6-1.6,1-2.9,1     c-0.6,0-1.1,0-1.6-0.1v-6.6H302.5z M303.3,248.8c0.2,0,0.5,0,0.9,0c1.8,0,2.8-1,2.8-2.8c0-1.6-0.9-2.6-2.7-2.6     c-0.4,0-0.8,0-1,0.1L303.3,248.8L303.3,248.8z" id="n_id_264"/></g></g></g>
  <g id="_x33_60hatch">
	<g id="HATCH">
		<polygon id="n_id_280" points="307.8,498.3 307.8,515.7 203.1,515.7 203.1,480.9 182.9,480.9 182.9,438.9 325.2,438.9 325.2,443.4 329.1,443.4     329.1,438.9 333.3,438.9 333.3,432.8 329.1,432.8 329.1,403.7 323,403.7 323,435 227.2,435 227.2,398 223.4,398 223.4,435     182.9,435 182.9,412.1 179,412.1 179,484.9 199.2,484.9 199.2,646.2 203.1,646.2 203.1,519.6 329.1,519.6 329.1,477 325.2,477     325.2,498.3   "/></g><g id="HATCH_1_">
		<polygon id="n_id_281" points="203.1,702.7 203.1,682 199.2,682 199.2,706.6 244,706.6 244,702.7   "/></g><g id="HATCH_2_">
		<polygon id="n_id_282" points="423.8,26.2 423.8,204.3 373.6,204.3 373.6,221.6 369.2,221.6 369.2,225.5 423.8,225.5 423.8,419.9 377.3,419.9     377.3,299.5 369.2,299.5 369.2,303.4 373.4,303.4 373.4,432.8 369.2,432.8 369.2,438.9 373.4,438.9 373.4,449.9 377.3,449.9     377.3,423.8 423.8,423.8 423.8,515.7 377.3,515.7 377.3,510.3 373.4,510.3 373.4,519.6 423.8,519.6 423.8,702.7 306.7,702.7     306.7,706.6 427.7,706.6 427.7,22.2 379.5,22.2 379.5,26.2   "/></g><g id="HATCH_3_">
		<polygon id="n_id_283" points="206.5,344.8 203.1,344.8 203.1,342.6 199.2,342.6 199.2,357.2 179,357.2 179,382.9 182.9,382.9 182.9,361.1     223.3,361.1 223.3,364.4 227.2,364.4 227.2,357.2 206.5,357.2   "/></g><g id="HATCH_4_">
		<polygon id="n_id_284" points="206.5,303.4 323,303.4 323,363.3 329.1,363.3 329.1,303.4 333.3,303.4 333.3,299.5 329.1,299.5 329.1,296.1     325.2,296.1 325.2,299.5 283.8,299.5 283.8,225.5 325.2,225.5 325.2,228.9 329.1,228.9 329.1,225.5 333.3,225.5 333.3,221.6     281.5,221.6 281.5,173.5 275.4,173.5 275.4,184.7 270.9,184.7 270.9,188.6 277.6,188.6 277.6,299.5 203.1,299.5 203.1,188.6     237.3,188.6 237.3,184.7 203.1,184.7 203.1,104 237.3,104 237.3,100.1 205.3,100.1 205.3,93.9 203.1,93.9 203.1,91.7 199.2,91.7     199.2,313.5 203.1,313.5 203.1,311.2 206.5,311.2   "/></g><g id="HATCH_5_">
		<polygon id="n_id_285" points="199.2,69.3 203.1,69.3 203.1,67.1 205.3,67.1 205.3,60.9 210.4,60.9 210.4,26.2 277.6,26.2 277.6,100.1     270.9,100.1 270.9,104 275.4,104 275.4,137.6 281.5,137.6 281.5,26.2 316.8,26.2 316.8,22.2 199.2,22.2   "/></g></g>
  <g id="_x33_60walls">
	<g id="LWPOLYLINE_28_">
		
			<polygon fill="none" id="n_id_286" points="    199.2,646.2 203.1,646.2 203.1,519.6 329.1,519.6 329.1,477 325.2,477 325.2,498.3 307.8,498.3 307.8,515.7 203.1,515.7     203.1,480.9 182.9,480.9 182.9,438.9 325.2,438.9 325.2,443.4 329.1,443.4 329.1,438.9 333.3,438.9 333.3,432.8 329.1,432.8     329.1,403.7 323,403.7 323,435 227.2,435 227.2,398 223.4,398 223.4,435 182.9,435 182.9,412.1 179,412.1 179,484.9 199.2,484.9       " stroke="#000000" stroke-linecap="round" stroke-linejoin="round" stroke-miterlimit="10" stroke-width="0.15"/></g><g id="LWPOLYLINE_29_">
		
			<polygon fill="none" id="n_id_287" points="    199.2,682 203.1,682 203.1,702.7 244,702.7 244,706.6 199.2,706.6   " stroke="#000000" stroke-linecap="round" stroke-linejoin="round" stroke-miterlimit="10" stroke-width="0.15"/></g><g id="LWPOLYLINE_30_">
		
			<polygon fill="none" id="n_id_288" points="    306.7,706.6 306.7,702.7 423.8,702.7 423.8,519.6 373.4,519.6 373.4,510.3 377.3,510.3 377.3,515.7 423.8,515.7 423.8,423.8     377.3,423.8 377.3,449.9 373.4,449.9 373.4,438.9 369.2,438.9 369.2,432.8 373.4,432.8 373.4,303.4 369.2,303.4 369.2,299.5     377.3,299.5 377.3,419.9 423.8,419.9 423.8,225.5 369.2,225.5 369.2,221.6 373.6,221.6 373.6,204.3 423.8,204.3 423.8,26.2     379.5,26.2 379.5,22.2 427.7,22.2 427.7,706.6   " stroke="#000000" stroke-linecap="round" stroke-linejoin="round" stroke-miterlimit="10" stroke-width="0.15"/></g><g id="LWPOLYLINE_31_">
		
			<polygon fill="none" id="n_id_289" points="    179,357.2 179,382.9 182.9,382.9 182.9,361.1 223.3,361.1 223.3,364.4 227.2,364.4 227.2,357.2 206.5,357.2 206.5,344.8     203.1,344.8 203.1,342.6 199.2,342.6 199.2,357.2   " stroke="#000000" stroke-linecap="round" stroke-linejoin="round" stroke-miterlimit="10" stroke-width="0.15"/></g><g id="LWPOLYLINE_32_">
		
			<polygon fill="none" id="n_id_290" points="    199.2,313.5 203.1,313.5 203.1,311.2 206.5,311.2 206.5,303.4 323,303.4 323,363.3 329.1,363.3 329.1,303.4 333.3,303.4     333.3,299.5 329.1,299.5 329.1,296.1 325.2,296.1 325.2,299.5 283.8,299.5 283.8,225.5 325.2,225.5 325.2,228.9 329.1,228.9     329.1,225.5 333.3,225.5 333.3,221.6 281.5,221.6 281.5,173.5 275.4,173.5 275.4,184.7 270.9,184.7 270.9,188.6 277.6,188.6     277.6,299.5 203.1,299.5 203.1,188.6 237.3,188.6 237.3,184.7 203.1,184.7 203.1,104 237.3,104 237.3,100.1 205.3,100.1     205.3,93.9 203.1,93.9 203.1,91.7 199.2,91.7   " stroke="#000000" stroke-linecap="round" stroke-linejoin="round" stroke-miterlimit="10" stroke-width="0.15"/></g><g id="LWPOLYLINE_33_">
		
			<polygon fill="none" id="n_id_291" points="    199.2,69.3 203.1,69.3 203.1,67.1 205.3,67.1 205.3,60.9 210.4,60.9 210.4,26.2 277.6,26.2 277.6,100.1 270.9,100.1 270.9,104     275.4,104 275.4,137.6 281.5,137.6 281.5,26.2 316.8,26.2 316.8,22.2 199.2,22.2   " stroke="#000000" stroke-linecap="round" stroke-linejoin="round" stroke-miterlimit="10" stroke-width="0.15"/></g><g id="LWPOLYLINE_34_">
		
			<line fill="none" id="n_id_292" stroke="#000000" stroke-linecap="round" stroke-linejoin="round" stroke-miterlimit="10" stroke-width="0.15" x1="199.2" x2="199.2" y1="646.2" y2="682"/></g><g id="LWPOLYLINE_35_">
		
			<line fill="none" id="n_id_293" stroke="#000000" stroke-linecap="round" stroke-linejoin="round" stroke-miterlimit="10" stroke-width="0.15" x1="203.1" x2="203.1" y1="682" y2="646.2"/></g><g id="LWPOLYLINE_36_">
		
			<line fill="none" id="n_id_294" stroke="#000000" stroke-linecap="round" stroke-linejoin="round" stroke-miterlimit="10" stroke-width="0.15" x1="244" x2="306.7" y1="706.6" y2="706.6"/></g><g id="LWPOLYLINE_37_">
		
			<line fill="none" id="n_id_295" stroke="#000000" stroke-linecap="round" stroke-linejoin="round" stroke-miterlimit="10" stroke-width="0.15" x1="306.7" x2="244" y1="702.7" y2="702.7"/></g><g id="LWPOLYLINE_38_">
		
			<line fill="none" id="n_id_296" stroke="#000000" stroke-linecap="round" stroke-linejoin="round" stroke-miterlimit="10" stroke-width="0.15" x1="182.9" x2="182.9" y1="382.9" y2="412.1"/></g><g id="LWPOLYLINE_39_">
		
			<line fill="none" id="n_id_297" stroke="#000000" stroke-linecap="round" stroke-linejoin="round" stroke-miterlimit="10" stroke-width="0.15" x1="179" x2="179" y1="382.9" y2="412.1"/></g><g id="LWPOLYLINE_40_">
		
			<line fill="none" id="n_id_298" stroke="#000000" stroke-linecap="round" stroke-linejoin="round" stroke-miterlimit="10" stroke-width="0.15" x1="199.2" x2="199.2" y1="313.5" y2="342.6"/></g><g id="LWPOLYLINE_41_">
		
			<line fill="none" id="n_id_299" stroke="#000000" stroke-linecap="round" stroke-linejoin="round" stroke-miterlimit="10" stroke-width="0.15" x1="203.1" x2="203.1" y1="342.6" y2="313.5"/></g><g id="LWPOLYLINE_42_">
		
			<line fill="none" id="n_id_300" stroke="#000000" stroke-linecap="round" stroke-linejoin="round" stroke-miterlimit="10" stroke-width="0.15" x1="206.5" x2="206.5" y1="311.2" y2="344.8"/></g><g id="LWPOLYLINE_43_">
		
			<line fill="none" id="n_id_301" stroke="#000000" stroke-linecap="round" stroke-linejoin="round" stroke-miterlimit="10" stroke-width="0.15" x1="205.3" x2="205.3" y1="67.1" y2="93.9"/></g><g id="LWPOLYLINE_44_">
		
			<line fill="none" id="n_id_302" stroke="#000000" stroke-linecap="round" stroke-linejoin="round" stroke-miterlimit="10" stroke-width="0.15" x1="203.1" x2="203.1" y1="91.7" y2="69.3"/></g><g id="LWPOLYLINE_45_">
		
			<line fill="none" id="n_id_303" stroke="#000000" stroke-linecap="round" stroke-linejoin="round" stroke-miterlimit="10" stroke-width="0.15" x1="199.2" x2="199.2" y1="69.3" y2="91.7"/></g><g id="LWPOLYLINE_46_">
		
			<line fill="none" id="n_id_304" stroke="#000000" stroke-linecap="round" stroke-linejoin="round" stroke-miterlimit="10" stroke-width="0.15" x1="316.8" x2="379.5" y1="26.2" y2="26.2"/></g><g id="LWPOLYLINE_47_">
		
			<line fill="none" id="n_id_305" stroke="#000000" stroke-linecap="round" stroke-linejoin="round" stroke-miterlimit="10" stroke-width="0.15" x1="379.5" x2="316.8" y1="22.2" y2="22.2"/></g></g>
</svg>