25
3
3.37222831894
2
rectangle
46
144
32
213
102.883429181
0.0
0.0
0.0
0.0
0.0
0.0
0.0
0.0
3.24373379398e-09
1.94624027639e-08
9.73120138194e-09
2.14086430403e-07
3.69785652514e-07
2.40036300755e-07
1.75161624875e-07
1.68674157287e-07
1.62186689699e-07
1.45968020729e-07
1.39480553141e-07
1.42724286935e-07
1.36236819347e-07
3.08154710428e-07
6.32528089826e-07
4.11954191836e-07
2.82204840076e-07
0.0
0.0
0.0
0.0
0.0
0.0
0.0
0.0
3.24373379398e-09
1.94624027639e-08
9.73120138194e-09
2.14086430403e-07
3.69785652514e-07
2.40036300755e-07
1.75161624875e-07
1.68674157287e-07
1.62186689699e-07
1.45968020729e-07
1.39480553141e-07
1.42724286935e-07
1.36236819347e-07
3.08154710428e-07
6.32528089826e-07
4.11954191836e-07
2.82204840076e-07
0.0
0.0
0.0
0.0
0.0
0.0
0.0
0.0
3.24373379398e-09
1.94624027639e-08
9.73120138194e-09
2.14086430403e-07
3.69785652514e-07
2.40036300755e-07
1.75161624875e-07
1.68674157287e-07
1.62186689699e-07
1.45968020729e-07
1.39480553141e-07
1.42724286935e-07
1.36236819347e-07
3.08154710428e-07
6.32528089826e-07
4.11954191836e-07
2.82204840076e-07
0.0
0.0
0.0
0.0
0.0
0.0
0.0
0.0
3.24373379398e-09
1.94624027639e-08
9.73120138194e-09
2.14086430403e-07
3.69785652514e-07
2.40036300755e-07
1.75161624875e-07
1.68674157287e-07
1.62186689699e-07
1.45968020729e-07
1.39480553141e-07
1.42724286935e-07
1.36236819347e-07
3.08154710428e-07
6.32528089826e-07
4.11954191836e-07
2.82204840076e-07
0.0234458024178
9.08245462315e-08
8.75808124375e-08
9.40682800255e-08
1.13530682789e-07
1.10286948995e-07
1.42724286935e-07
1.68674157287e-07
2.33548833167e-07
2.23817631785e-07
1.68674157287e-07
1.52455488317e-07
1.39480553141e-07
1.10286948995e-07
6.81184096736e-08
7.13621434676e-08
8.75808124375e-08
1.10286948995e-07
1.10286948995e-07
8.43370786435e-08
6.48746758796e-08
5.18997407037e-08
5.83872082917e-08
4.54122731157e-08
4.21685393218e-08
3.56810717338e-08
9.08245462315e-08
8.75808124375e-08
9.40682800255e-08
1.13530682789e-07
1.10286948995e-07
1.42724286935e-07
1.68674157287e-07
2.33548833167e-07
2.23817631785e-07
1.68674157287e-07
1.52455488317e-07
1.39480553141e-07
1.10286948995e-07
6.81184096736e-08
7.13621434676e-08
8.75808124375e-08
1.10286948995e-07
1.10286948995e-07
8.43370786435e-08
6.48746758796e-08
5.18997407037e-08
5.83872082917e-08
4.54122731157e-08
4.21685393218e-08
3.56810717338e-08
9.08245462315e-08
8.75808124375e-08
9.40682800255e-08
1.13530682789e-07
1.10286948995e-07
1.42724286935e-07
1.68674157287e-07
2.33548833167e-07
2.23817631785e-07
1.68674157287e-07
1.52455488317e-07
1.39480553141e-07
1.10286948995e-07
6.81184096736e-08
7.13621434676e-08
8.75808124375e-08
1.10286948995e-07
1.10286948995e-07
8.43370786435e-08
6.48746758796e-08
5.18997407037e-08
5.83872082917e-08
4.54122731157e-08
4.21685393218e-08
3.56810717338e-08
9.08245462315e-08
8.75808124375e-08
9.40682800255e-08
1.13530682789e-07
1.10286948995e-07
1.42724286935e-07
1.68674157287e-07
2.33548833167e-07
2.23817631785e-07
1.68674157287e-07
1.52455488317e-07
1.39480553141e-07
1.10286948995e-07
6.81184096736e-08
7.13621434676e-08
8.75808124375e-08
1.10286948995e-07
1.10286948995e-07
8.43370786435e-08
6.48746758796e-08
5.18997407037e-08
5.83872082917e-08
4.54122731157e-08
4.21685393218e-08
3.56810717338e-08
4
circle
61
129
123
192
35.3553390593
0.0
0.0
0.0
0.0
0.0
0.0
0.0
0.0
0.0
0.0
0.0
0.0
0.0
0.0
0.0
0.0
0.0
0.0
0.0
0.0
0.0
0.0
0.000399068839375
0.00538742933156
0.00568673096109
0.0
0.0
0.0
0.0
0.0
0.0
0.0
0.0
0.0
0.0
0.0
0.0
0.0
0.0
0.0
0.0
0.0
0.0
0.0
0.0
0.0
0.0
0.000399068839375
0.00538742933156
0.00568673096109
0.0569029184415
0.000532091785833
0.000465580312604
0.000532091785833
0.000465580312604
0.000399068839375
0.000432324575989
0.00036581310276
0.000465580312604
0.000399068839375
0.000532091785833
0.000498836049218
0.000498836049218
0.00036581310276
0.000232790156302
0.000266045892917
0.000232790156302
0.000199534419687
0.000199534419687
0.000199534419687
0.000199534419687
0.000232790156302
0.000199534419687
0.000232790156302
0.000232790156302
0.000232790156302
0.000532091785833
0.000465580312604
0.000532091785833
0.000465580312604
0.000399068839375
0.000432324575989
0.00036581310276
0.000465580312604
0.000399068839375
0.000532091785833
0.000498836049218
0.000498836049218
0.00036581310276
0.000232790156302
0.000266045892917
0.000232790156302
0.000199534419687
0.000199534419687
0.000199534419687
0.000199534419687
0.000232790156302
0.000199534419687
0.000232790156302
0.000232790156302
0.000232790156302
3
rectangle
55
136
48
205
87.2066511225
0.0
0.0
0.0
0.0
0.0
0.0
0.0
0.0
0.0
0.0
0.0
3.15145886073e-06
2.26905037973e-06
1.76481696201e-06
1.26058354429e-06
1.26058354429e-06
1.26058354429e-06
1.26058354429e-06
1.00846683543e-06
1.26058354429e-06
1.00846683543e-06
1.00846683543e-06
5.67262594931e-06
1.35512731011e-05
1.66397027847e-05
0.0
0.0
0.0
0.0
0.0
0.0
0.0
0.0
0.0
0.0
0.0
3.15145886073e-06
2.26905037973e-06
1.76481696201e-06
1.26058354429e-06
1.26058354429e-06
1.26058354429e-06
1.26058354429e-06
1.00846683543e-06
1.26058354429e-06
1.00846683543e-06
1.00846683543e-06
5.67262594931e-06
1.35512731011e-05
1.66397027847e-05
0.0
0.0
0.0
0.0
0.0
0.0
0.0
0.0
0.0
0.0
0.0
3.15145886073e-06
2.26905037973e-06
1.76481696201e-06
1.26058354429e-06
1.26058354429e-06
1.26058354429e-06
1.26058354429e-06
1.00846683543e-06
1.26058354429e-06
1.00846683543e-06
1.00846683543e-06
5.67262594931e-06
1.35512731011e-05
1.66397027847e-05
0.0443323169901
1.70178778479e-06
1.70178778479e-06
1.63875860758e-06
1.70178778479e-06
1.89087531644e-06
1.76481696201e-06
2.07996284808e-06
2.77328379744e-06
3.0254005063e-06
2.26905037973e-06
2.52116708858e-06
2.26905037973e-06
1.51270025315e-06
1.13452518986e-06
1.26058354429e-06
1.13452518986e-06
1.51270025315e-06
1.32361272151e-06
1.07149601265e-06
9.45437658219e-07
8.82408481004e-07
8.82408481004e-07
8.1937930379e-07
8.1937930379e-07
7.56350126575e-07
1.70178778479e-06
1.70178778479e-06
1.63875860758e-06
1.70178778479e-06
1.89087531644e-06
1.76481696201e-06
2.07996284808e-06
2.77328379744e-06
3.0254005063e-06
2.26905037973e-06
2.52116708858e-06
2.26905037973e-06
1.51270025315e-06
1.13452518986e-06
1.26058354429e-06
1.13452518986e-06
1.51270025315e-06
1.32361272151e-06
1.07149601265e-06
9.45437658219e-07
8.82408481004e-07
8.82408481004e-07
8.1937930379e-07
8.1937930379e-07
7.56350126575e-07
1.70178778479e-06
1.70178778479e-06
1.63875860758e-06
1.70178778479e-06
1.89087531644e-06
1.76481696201e-06
2.07996284808e-06
2.77328379744e-06
3.0254005063e-06
2.26905037973e-06
2.52116708858e-06
2.26905037973e-06
1.51270025315e-06
1.13452518986e-06
1.26058354429e-06
1.13452518986e-06
1.51270025315e-06
1.32361272151e-06
1.07149601265e-06
9.45437658219e-07
8.82408481004e-07
8.82408481004e-07
8.1937930379e-07
8.1937930379e-07
7.56350126575e-07
2
2
3
1
1
0.714805373357
floor
3
4
1
1
0.291713415611
touch
