MASTER : [207,214] : [117,191,298,238] : 80
GUEST : [579,214] : [507,191,652,238] : 73
INFORMAL DINING : [1502,258] : [1429,193,1575,324] : 86
FORMAL : [2243,222] : [2129,193,2357,251] : 90
KITCHEN : [994,241] : [874,212,1114,270] : 88
ROOM : [1685,295] : [1605,266,1766,324] : 96
DINING ROOM : [2241,295] : [2047,266,2436,324] : 90
CLOSET : [209,631] : [124,608,295,655] : 81
CLOSET : [526,734] : [441,711,612,758] : 80
CLOSET : [1192,872] : [1107,849,1278,896] : 87
CLOSET : [1458,872] : [1373,849,1544,896] : 88
ENTRY : [2212,839] : [2123,811,2302,868] : 75
CLOSET : [1325,1044] : [1240,1021,1411,1068] : 81
CLOSET : [2435,1054] : [2350,1031,2521,1078] : 91
MASTER BEDROOM : [449,1550] : [324,1485,574,1616] : 89
BEDROOM : [1224,1514] : [1085,1485,1364,1543] : 90
LIVING ROOM : [2094,1514] : [1906,1485,2283,1543] : 91
PATIO/BALCONY : [2187,2237] : [1959,2208,2415,2266] : 91
7,3 : [994,314] : [945,285,1044,343] : 75
8,9 : [1572,369] : [1522,340,1622,398] : 89
9,10 : [2241,369] : [2172,340,2310,398] : 87
14,11 : [1221,1586] : [1141,1558,1302,1615] : 86
14,20 : [2096,1587] : [2011,1558,2181,1616] : 81
12,18 : [436,1660] : [351,1631,521,1689] : 87
4,10 : [2183,2310] : [2114,2281,2253,2339] : 83
a: : [163,272] : [151,295,176,249] : 72
U1 CI":I: : [215,302] : [167,355,264,249] : 72
W : [309,1585] : [295,1613,324,1557] : 64
moo : [533,302] : [521,356,546,249] : 69
a: : [622,302] : [610,355,634,249] : 69
a : [1392,293] : [1377,321,1407,265] : 65
:0 : [1588,220] : [1576,248,1600,192] : 69
g : [1628,220] : [1608,248,1648,192] : 67
F : [1706,220] : [1694,248,1719,192] : 64
7,3 : [994,314] : [945,285,1044,343] : 75
8,9 : [1572,369] : [1522,340,1622,398] : 89
9,10 : [2241,369] : [2172,340,2310,398] : 87
14,11 : [1221,1586] : [1141,1558,1302,1615] : 86
14,20 : [2096,1587] : [2011,1558,2181,1616] : 81
12,18 : [436,1660] : [351,1631,521,1689] : 87
4,10 : [2183,2310] : [2114,2281,2253,2339] : 83
No Text Detected
