BEDROOM 2 : [870,311] : [775,298,965,324] : 90
DEN : [1291,384] : [1259,371,1323,398] : 88
LINEN : [872,675] : [838,665,906,685] : 83
BATH : [726,749] : [687,736,766,762] : 87
FAQ : [999,910] : [967,900,1032,921] : 62
PANTRY : [1415,982] : [1366,972,1464,993] : 84
MICRO : [824,1008] : [781,997,867,1019] : 65
REF : [937,1036] : [915,1026,960,1047] : 84
KITCHEN : [988,1284] : [922,1271,1054,1298] : 86
DN : [1411,1296] : [1398,1288,1425,1304] : 72
1le : [887,1448] : [794,1416,981,1480] : 62
DINING : [991,1679] : [935,1666,1048,1693] : 90
UP : [1415,1847] : [1403,1839,1428,1855] : 92
LIVING : [989,2012] : [937,1999,1041,2025] : 91
fi' : [1112,2206] : [1088,2194,1137,2219] : 62
DECK : [1075,2301] : [1033,2288,1117,2315] : 90
OPTIONAL U SHAPED : [1070,2479] : [848,2461,1293,2498] : 90
KITCHEN : [1074,2538] : [987,2521,1161,2556] : 93
SECOND FLOOR : [1056,2631] : [893,2613,1219,2649] : 88
,,,,65,,, : [735,586] : [675,569,796,604] : 62
,,15, : [730,668] : [699,642,762,695] : 53
11111 : [1212,675] : [1147,665,1278,686] : 98
11111 : [1003,879] : [946,876,1061,883] : 52
1,3 : [713,945] : [677,931,750,959] : 53
11111 : [1212,985] : [1147,975,1278,996] : 94
63,, : [696,1185] : [679,1171,714,1199] : 51
O : [713,894] : [689,926,737,863] : 63
N : [731,789] : [723,802,739,776] : 79
w : [808,1038] : [802,1049,815,1028] : 64
o : [826,1038] : [817,1049,836,1028] : 91
I'I'I : [862,1038] : [856,1049,868,1028] : 85
PANTRV : [1042,1023] : [1036,1053,1049,993] : 77
BASE CABINET : [1294,1415] : [1267,1455,1321,1375] : 85
,,,,65,,, : [735,586] : [675,569,796,604] : 62
,,15, : [730,668] : [699,642,762,695] : 53
11111 : [1212,675] : [1147,665,1278,686] : 98
11111 : [1003,879] : [946,876,1061,883] : 52
1,3 : [713,945] : [677,931,750,959] : 53
11111 : [1212,985] : [1147,975,1278,996] : 94
63,, : [696,1185] : [679,1171,714,1199] : 51
No Text Detected
