Augusta Bedroom/ : [1281,135] : [1172,37,1390,234] : 73
One : [1001,195] : [937,171,1065,220] : 85
One Bathroom Pt  : [1473,229] : [1395,171,1552,288] : 83
Sq  : [1407,270] : [1365,239,1450,302] : 88
OO : [1189,581] : [1142,562,1236,601] : 88
IDE: : [1691,591] : [1607,560,1776,623] : 71
W : [1843,574] : [1815,554,1872,595] : 90
Kitchen : [1205,723] : [1099,700,1311,747] : 86
Utility : [1752,739] : [1661,710,1844,769] : 67
0|] : [2222,742] : [2161,698,2284,787] : 66
Dining Room : [756,838] : [573,817,939,860] : 85
804 : [1286,264] : [1233,239,1340,289] : 87
00 : [1185,532] : [1138,511,1233,553] : 82
5: : [1105,193] : [1087,217,1124,170] : 62
0m : [1128,1653] : [1114,1674,1142,1633] : 66
(D : [1144,201] : [1130,218,1159,184] : 74
a  : [1168,201] : [1164,217,1172,186] : 69
O : [1250,1648] : [1236,1663,1264,1633] : 84
II : [1557,1185] : [1551,1201,1564,1170] : 61
I' __lI : [1652,598] : [1607,645,1697,552] : 76
o : [1732,201] : [1716,218,1748,184] : 67
o : [1770,201] : [1754,218,1786,184] : 86
('f : [1876,2018] : [1867,2036,1886,2001] : 64
O : [1885,1003] : [1854,1043,1917,964] : 80
H : [1956,1583] : [1945,1598,1967,1569] : 66
804 : [1286,264] : [1233,239,1340,289] : 87
00 : [1185,532] : [1138,511,1233,553] : 82
11,, : [1118,2054] : [1057,2031,1179,2078] : 64
No Text Detected
