<svg xmlns:ns0="http://sodipodi.sourceforge.net/DTD/sodipodi-0.dtd" xmlns:ns1="http://www.inkscape.org/namespaces/inkscape" xmlns:rdf="http://www.w3.org/1999/02/22-rdf-syntax-ns#" height="7in" id="svg2" style="fill:none;stroke-linecap:round;stroke-linejoin:round" version="1.1" viewBox="-12 -396 332.7998 448" width="5.1999998in" ns0:docname="572apt.svg" ns1:version="0.91 r13725">
  <metadata id="metadata384">
    <RDF id="n_id_0">
      <Work id="n_id_1" rdf:about="">
        <format id="n_id_2">image/svg+xml</format>
        <type id="n_id_3" rdf:resource="http://purl.org/dc/dcmitype/StillImage"/>
        <title id="n_id_4"/>
      </Work>
    </RDF>
  </metadata>
  <defs id="defs382"/>
  <namedview bordercolor="#666666" borderopacity="1" gridtolerance="10" guidetolerance="10" id="namedview380" objecttolerance="10" pagecolor="#ffffff" showgrid="false" ns1:current-layer="svg2" ns1:cx="233.99999" ns1:cy="315" ns1:document-units="in" ns1:pageopacity="0" ns1:pageshadow="2" ns1:window-height="1050" ns1:window-maximized="0" ns1:window-width="1680" ns1:window-x="0" ns1:window-y="0" ns1:zoom="1.3095238"/>
  <path d="m 11.639283,-117.90742 112.499997,0" id="path6" style="stroke:#000000;stroke-width:0.62992102;stroke-linecap:round;stroke-linejoin:round;stroke-opacity:1" ns1:connector-curvature="0"/>
  <path d="m -0.36071718,38.59258 2.45865998,0 m 3.77953,0 7.5590502,0 m 3.77953,0 7.559027,0 m 3.7796,0 7.559,0 m 3.7795,0 7.5591,0 m 3.7795,0 7.5591,0 m 3.7795,0 7.5591,0 m 3.7795,0 7.559,0 m 3.7796,0 7.559,0 m 3.7796,0 7.559,0 m 3.7795,0 7.5586,0 m 3.78,0 7.559,0 m 3.78,0 7.559,0 m 3.779,0 7.559,0 m 3.78,0 7.559,0 m 3.779,0 7.559,0 m 3.78,0 7.559,0 m 3.78,0 7.559,0 m 3.779,0 7.559,0 m 3.78,0 7.559,0 m 3.779,0 7.559,0 m 3.78,0 7.559,0 m 3.779,0 7.559,0 m 3.78,0 7.559,0 m 3.78,0 7.559,0 m 3.779,0 7.559,0 m 3.78,0 7.559,0 m 3.779,0 2.459,0" id="path8" style="stroke:#000000;stroke-width:0.62992102;stroke-linecap:round;stroke-linejoin:round;stroke-opacity:1" ns1:connector-curvature="0"/>
  <path d="m 303.13928,-369.40742 0,3.685 m 0,3.78 0,7.559 m 0,3.779 0,7.559 m 0,3.78 0,7.559 m 0,3.779 0,7.559 m 0,3.78 0,7.559 m 0,3.779 0,7.56 m 0,3.779 0,7.559 m 0,3.78 0,7.559 m 0,3.779 0,7.559 m 0,3.78 0,7.559 m 0,3.779 0,7.559 m 0,3.78 0,7.559 m 0,3.78 0,7.559 m 0,3.779 0,7.559 m 0,3.78 0,7.559 m 0,3.779 0,7.559 m 0,3.78 0,7.559 m 0,3.779 0,7.56 m 0,3.779 0,7.559 m 0,3.78 0,7.559 m 0,3.779 0,7.559 m 0,3.78 0,7.559 m 0,3.779 0,7.559 m 0,3.78 0,7.559 m 0,3.78 0,7.559 m 0,3.779 0,7.5592 m 0,3.7795 0,7.5591 m 0,3.7795 0,7.5591 m 0,3.7795 0,7.559 m 0,3.7796 0,7.559 m 0,3.7795 0,7.5591 m 0,3.7795 0,7.5591 m 0,3.7795 0,7.5591 m 0,3.7795 0,7.55905 m 0,3.77953 0,7.55905 m 0,3.77953 0,3.68504" id="path10" style="stroke:#000000;stroke-width:0.62992102;stroke-linecap:round;stroke-linejoin:round;stroke-opacity:1" ns1:connector-curvature="0"/>
  <path d="m -0.36071718,-369.40742 0,3.685 m 0,3.78 0,7.559 m 0,3.779 0,7.559 m 0,3.78 0,7.559 m 0,3.779 0,7.559 m 0,3.78 0,7.559 m 0,3.779 0,7.56 m 0,3.779 0,7.559 m 0,3.78 0,7.559 m 0,3.779 0,7.559 m 0,3.78 0,7.559 m 0,3.779 0,7.559 m 0,3.78 0,7.559 m 0,3.78 0,7.559 m 0,3.779 0,7.559 m 0,3.78 0,7.559 m 0,3.779 0,7.559 m 0,3.78 0,7.559 m 0,3.779 0,7.56 m 0,3.779 0,7.559 m 0,3.78 0,7.559 m 0,3.779 0,7.559 m 0,3.78 0,7.559 m 0,3.779 0,7.559 m 0,3.78 0,7.559 m 0,3.78 0,7.559 m 0,3.779 0,7.5592 m 0,3.7795 0,7.5591 m 0,3.7795 0,7.5591 m 0,3.7795 0,7.559 m 0,3.7796 0,7.559 m 0,3.7795 0,7.5591 m 0,3.7795 0,7.5591 m 0,3.7795 0,7.5591 m 0,3.7795 0,7.55905 m 0,3.77953 0,7.55905 m 0,3.77953 0,3.68504" id="path12" style="stroke:#000000;stroke-width:0.62992102;stroke-linecap:round;stroke-linejoin:round;stroke-opacity:1" ns1:connector-curvature="0"/>
  <path d="m 303.13928,-369.40742 -2.459,0 m -3.779,0 -7.559,0 m -3.78,0 -7.559,0 m -3.779,0 -7.559,0 m -3.78,0 -7.559,0 m -3.78,0 -7.559,0 m -3.779,0 -7.559,0 m -3.78,0 -7.559,0 m -3.779,0 -7.559,0 m -3.78,0 -7.559,0 m -3.779,0 -7.559,0 m -3.78,0 -7.559,0 m -3.78,0 -7.559,0 m -3.779,0 -7.559,0 m -3.78,0 -7.559,0 m -3.779,0 -7.559,0 m -3.78,0 -7.559,0 m -3.78,0 -7.5586,0 m -3.7795,0 -7.559,0 m -3.7796,0 -7.559,0 m -3.7796,0 -7.559,0 m -3.7795,0 -7.5591,0 m -3.7795,0 -7.5591,0 m -3.7795,0 -7.5591,0 m -3.7795,0 -7.559,0 m -3.7796,0 -7.559027,0 m -3.77953,0 -7.5590502,0 m -3.77953,0 -2.45865998,0" id="path14" style="stroke:#000000;stroke-width:0.62992102;stroke-linecap:round;stroke-linejoin:round;stroke-opacity:1" ns1:connector-curvature="0"/>
  <g id="g16" transform="matrix(1,0,0,-1,0,6)"/>
  <path d="m 11.639283,-119.20742 -6.0000002,0" id="path42" style="stroke:#000000;stroke-width:0.62992102;stroke-linecap:round;stroke-linejoin:round;stroke-opacity:1" ns1:connector-curvature="0"/>
  <path d="m 11.639283,-155.20742 -6.0000002,0" id="path44" style="stroke:#000000;stroke-width:0.62992102;stroke-linecap:round;stroke-linejoin:round;stroke-opacity:1" ns1:connector-curvature="0"/>
  <path d="m 52.63928,-153.40742 0,35.5" id="path46" style="stroke:#000000;stroke-width:0.62992102;stroke-linecap:round;stroke-linejoin:round;stroke-opacity:1" ns1:connector-curvature="0"/>
  <path d="m 47.13928,-153.40742 0,-22" id="path48" style="stroke:#000000;stroke-width:0.62992102;stroke-linecap:round;stroke-linejoin:round;stroke-opacity:1" ns1:connector-curvature="0"/>
  <path d="m 11.639283,-119.20742 9.317487,-34.773" id="path50" style="stroke:#000000;stroke-width:0.62992102;stroke-linecap:round;stroke-linejoin:round;stroke-opacity:1" ns1:connector-curvature="0"/>
  <path d="m 11.639283,-119.20742 -1.9318502,-0.518" id="path52" style="stroke:#000000;stroke-width:0.62992102;stroke-linecap:round;stroke-linejoin:round;stroke-opacity:1" ns1:connector-curvature="0"/>
  <path d="m 20.95677,-153.98042 -1.93186,-0.518" id="path54" style="stroke:#000000;stroke-width:0.62992102;stroke-linecap:round;stroke-linejoin:round;stroke-opacity:1" ns1:connector-curvature="0"/>
  <path d="m 9.7074328,-119.72542 9.3174772,-34.773" id="path56" style="stroke:#000000;stroke-width:0.62992102;stroke-linecap:round;stroke-linejoin:round;stroke-opacity:1" ns1:connector-curvature="0"/>
  <path d="m 59.18098,-153.40742 0,35.5" id="path58" style="stroke:#000000;stroke-width:0.62992102;stroke-linecap:round;stroke-linejoin:round;stroke-opacity:1" ns1:connector-curvature="0"/>
  <path d="m 65.72258,-153.40742 0,35.5" id="path60" style="stroke:#000000;stroke-width:0.62992102;stroke-linecap:round;stroke-linejoin:round;stroke-opacity:1" ns1:connector-curvature="0"/>
  <path d="m 72.26428,-153.40742 0,35.5" id="path62" style="stroke:#000000;stroke-width:0.62992102;stroke-linecap:round;stroke-linejoin:round;stroke-opacity:1" ns1:connector-curvature="0"/>
  <path d="m 78.80598,-153.40742 0,35.5" id="path64" style="stroke:#000000;stroke-width:0.62992102;stroke-linecap:round;stroke-linejoin:round;stroke-opacity:1" ns1:connector-curvature="0"/>
  <path d="m 85.34758,-153.40742 0,35.5" id="path66" style="stroke:#000000;stroke-width:0.62992102;stroke-linecap:round;stroke-linejoin:round;stroke-opacity:1" ns1:connector-curvature="0"/>
  <path d="m 91.88928,-153.40742 0,35.5" id="path68" style="stroke:#000000;stroke-width:0.62992102;stroke-linecap:round;stroke-linejoin:round;stroke-opacity:1" ns1:connector-curvature="0"/>
  <path d="m 98.43098,-153.40742 0,35.5" id="path70" style="stroke:#000000;stroke-width:0.62992102;stroke-linecap:round;stroke-linejoin:round;stroke-opacity:1" ns1:connector-curvature="0"/>
  <path d="m 104.97258,-153.40742 0,35.5" id="path72" style="stroke:#000000;stroke-width:0.62992102;stroke-linecap:round;stroke-linejoin:round;stroke-opacity:1" ns1:connector-curvature="0"/>
  <path d="m 108.19808,-153.40742 -61.0588,0" id="path74" style="stroke:#000000;stroke-width:0.62992102;stroke-linecap:round;stroke-linejoin:round;stroke-opacity:1" ns1:connector-curvature="0"/>
  <path d="m 44.38928,-175.40742 2.75,0" id="path76" style="stroke:#000000;stroke-width:0.62992102;stroke-linecap:round;stroke-linejoin:round;stroke-opacity:1" ns1:connector-curvature="0"/>
  <path d="m 14.389283,-175.40742 0,-1" id="path78" style="stroke:#000000;stroke-width:0.62992102;stroke-linecap:round;stroke-linejoin:round;stroke-opacity:1" ns1:connector-curvature="0"/>
  <path d="m 44.38928,-175.40742 0,-1" id="path80" style="stroke:#000000;stroke-width:0.62992102;stroke-linecap:round;stroke-linejoin:round;stroke-opacity:1" ns1:connector-curvature="0"/>
  <path d="m 11.639283,-155.20742 0,-20.2" id="path82" style="stroke:#000000;stroke-width:0.62992102;stroke-linecap:round;stroke-linejoin:round;stroke-opacity:1" ns1:connector-curvature="0"/>
  <path d="m 14.389283,-175.40742 -2.75,0" id="path84" style="stroke:#000000;stroke-width:0.62992102;stroke-linecap:round;stroke-linejoin:round;stroke-opacity:1" ns1:connector-curvature="0"/>
  <g id="g86" transform="matrix(1,0,0,-1,0,6)"/>
  <path d="m 69.63928,-158.90742 0,-198.5" id="path88" style="stroke:#000000;stroke-width:0.88189;stroke-linecap:round;stroke-linejoin:round;stroke-opacity:1" ns1:connector-curvature="0"/>
  <path d="m 203.13928,-311.60742 24,0" id="path90" style="stroke:#000000;stroke-width:0.88189;stroke-linecap:round;stroke-linejoin:round;stroke-opacity:1" ns1:connector-curvature="0"/>
  <path d="m 203.13928,-311.60742 0,-45.8" id="path92" style="stroke:#000000;stroke-width:0.88189;stroke-linecap:round;stroke-linejoin:round;stroke-opacity:1" ns1:connector-curvature="0"/>
  <path d="m 203.13928,-357.40742 -133.5,0" id="path94" style="stroke:#000000;stroke-width:0.88189;stroke-linecap:round;stroke-linejoin:round;stroke-opacity:1" ns1:connector-curvature="0"/>
  <path d="m 191.13928,-344.40742 0,-2.72 m 0,-1.89 0,-3.78 m 0,-1.89 0,-2.72" id="path96" style="stroke:#000000;stroke-width:0.62992102;stroke-linecap:round;stroke-linejoin:round;stroke-opacity:1" ns1:connector-curvature="0"/>
  <path d="m 191.13928,-344.40742 2.22,0 m 1.89,0 3.78,0 m 1.89,0 2.22,0" id="path98" style="stroke:#000000;stroke-width:0.62992102;stroke-linecap:round;stroke-linejoin:round;stroke-opacity:1" ns1:connector-curvature="0"/>
  <path d="m 203.13928,-311.60742 88,0" id="path100" style="stroke:#000000;stroke-width:0.88189;stroke-linecap:round;stroke-linejoin:round;stroke-opacity:1" ns1:connector-curvature="0"/>
  <path d="m 207.63928,-340.10742 83.5,0" id="path102" style="stroke:#000000;stroke-width:0.88189;stroke-linecap:round;stroke-linejoin:round;stroke-opacity:1" ns1:connector-curvature="0"/>
  <path d="m 291.13928,-340.10742 0,24" id="path104" style="stroke:#000000;stroke-width:0.88189;stroke-linecap:round;stroke-linejoin:round;stroke-opacity:1" ns1:connector-curvature="0"/>
  <path d="m 203.13928,-178.90742 -3.5,0" id="path106" style="stroke:#000000;stroke-width:0.88189;stroke-linecap:round;stroke-linejoin:round;stroke-opacity:1" ns1:connector-curvature="0"/>
  <path d="m 291.13928,-283.10742 12,0" id="path108" style="stroke:#000000;stroke-width:0.88189;stroke-linecap:round;stroke-linejoin:round;stroke-opacity:1" ns1:connector-curvature="0"/>
  <path d="m 291.13928,-251.10742 12,0" id="path110" style="stroke:#000000;stroke-width:0.88189;stroke-linecap:round;stroke-linejoin:round;stroke-opacity:1" ns1:connector-curvature="0"/>
  <path d="m 207.93928,-156.30742 60.2,0" id="path112" style="stroke:#000000;stroke-width:0.88189;stroke-linecap:round;stroke-linejoin:round;stroke-opacity:1" ns1:connector-curvature="0"/>
  <path d="m 268.13928,-188.30742 -60.2,0" id="path114" style="stroke:#000000;stroke-width:0.88189;stroke-linecap:round;stroke-linejoin:round;stroke-opacity:1" ns1:connector-curvature="0"/>
  <path d="m 268.13928,-156.30742 0,-32" id="path116" style="stroke:#000000;stroke-width:0.88189;stroke-linecap:round;stroke-linejoin:round;stroke-opacity:1" ns1:connector-curvature="0"/>
  <path d="m 207.93928,-188.30742 0,32" id="path118" style="stroke:#000000;stroke-width:0.88189;stroke-linecap:round;stroke-linejoin:round;stroke-opacity:1" ns1:connector-curvature="0"/>
  <path d="m 199.63928,-178.90742 0,4.8" id="path120" style="stroke:#000000;stroke-width:0.88189;stroke-linecap:round;stroke-linejoin:round;stroke-opacity:1" ns1:connector-curvature="0"/>
  <path d="m 199.63928,-174.10742 3.5,0" id="path122" style="stroke:#000000;stroke-width:0.88189;stroke-linecap:round;stroke-linejoin:round;stroke-opacity:1" ns1:connector-curvature="0"/>
  <path d="m 167.13928,-119.40742 -97.5,0" id="path124" style="stroke:#000000;stroke-width:0.88189;stroke-linecap:round;stroke-linejoin:round;stroke-opacity:1" ns1:connector-curvature="0"/>
  <path d="m 291.13928,-188.30742 0,95" id="path126" style="stroke:#000000;stroke-width:0.88189;stroke-linecap:round;stroke-linejoin:round;stroke-opacity:1" ns1:connector-curvature="0"/>
  <path d="m 291.13928,-93.30742 -83.2,0" id="path128" style="stroke:#000000;stroke-width:0.88189;stroke-linecap:round;stroke-linejoin:round;stroke-opacity:1" ns1:connector-curvature="0"/>
  <path d="m 291.13928,-188.30742 -18,0" id="path130" style="stroke:#000000;stroke-width:0.88189;stroke-linecap:round;stroke-linejoin:round;stroke-opacity:1" ns1:connector-curvature="0"/>
  <path d="m 256.93928,-93.30742 0,-22" id="path132" style="stroke:#000000;stroke-width:0.88189;stroke-linecap:round;stroke-linejoin:round;stroke-opacity:1" ns1:connector-curvature="0"/>
  <path d="m 207.93928,-115.30742 49,0" id="path134" style="stroke:#000000;stroke-width:0.88189;stroke-linecap:round;stroke-linejoin:round;stroke-opacity:1" ns1:connector-curvature="0"/>
  <path d="m 223.63928,-104.30742 0.011,0.314 m 0,0 0.033,0.314 m 0,0 0.055,0.312 m 0,0 0.076,0.309 m 0,0 0.099,0.307 m 0,0 0.119,0.302 m 0,0 0.141,0.298 m 0,0 0.161,0.293 m 0,0 0.181,0.286 m 0,0 0.201,0.28 m 0,0 0.221,0.272 m 0,0 0.239,0.264 m 0,0 0.257,0.255 m 0,0 0.275,0.245 m 0,0 0.292,0.236 m 0,0 0.308,0.224 m 0,0 0.323,0.214 m 0,0 0.338,0.201 m 0,0 0.351,0.189 m 0,0 0.364,0.177 m 0,0 0.376,0.163 m 0,0 0.387,0.149 m 0,0 0.397,0.136 m 0,0 0.406,0.121 m 0,0 0.414,0.107 m 0,0 0.421,0.091 m 0,0 0.427,0.077 m 0,0 0.431,0.061 m 0,0 0.436,0.046 m 0,0 0.438,0.03 m 0,0 0.439,0.014 m 0,0 0.44,-0.001 m 0,0 0.439,-0.017 m 0,0 0.438,-0.033 m 0,0 0.435,-0.048 m 0,0 0.43,-0.064 m 0,0 0.426,-0.079 m 0,0 0.42,-0.094 m 0,0 0.413,-0.109 m 0,0 0.404,-0.124 m 0,0 0.395,-0.138 m 0,0 0.386,-0.152 m 0,0 0.374,-0.165 m 0,0 0.362,-0.179 m 0,0 0.349,-0.191 m 0,0 0.335,-0.204 m 0,0 0.321,-0.215 m 0,0 0.305,-0.226 m 0,0 0.289,-0.237 m 0,0 0.272,-0.247 m 0,0 0.254,-0.257 m 0,0 0.237,-0.265 m 0,0 0.217,-0.274 m 0,0 0.198,-0.28 m 0,0 0.178,-0.288 m 0,0 0.158,-0.293 m 0,0 0.137,-0.299 m 0,0 0.115,-0.303 m 0,0 0.095,-0.308 m 0,0 0.073,-0.31 m 0,0 0.051,-0.312 m 0,0 0.029,-0.314 m 0,0 0.008,-0.314 m 0,0 -0.015,-0.314 m 0,0 -0.037,-0.313 m 0,0 -0.058,-0.312 m 0,0 -0.08,-0.309 m 0,0 -0.102,-0.306 m 0,0 -0.123,-0.302 m 0,0 -0.144,-0.297 m 0,0 -0.165,-0.292 m 0,0 -0.185,-0.285 m 0,0 -0.204,-0.278 m 0,0 -0.224,-0.271 m 0,0 -0.242,-0.262 m 0,0 -0.26,-0.254 m 0,0 -0.278,-0.244 m 0,0 -0.295,-0.233 m 0,0 -0.31,-0.223 m 0,0 -0.326,-0.211 m 0,0 -0.34,-0.2 m 0,0 -0.354,-0.187 m 0,0 -0.366,-0.174 m 0,0 -0.378,-0.161 m 0,0 -0.388,-0.147 m 0,0 -0.399,-0.133 m 0,0 -0.407,-0.119 m 0,0 -0.415,-0.104 m 0,0 -0.422,-0.089 m 0,0 -0.428,-0.074 m 0,0 -0.432,-0.059 m 0,0 -0.436,-0.043 m 0,0 -0.438,-0.027 m 0,0 -0.44,-0.012 m 0,0 -0.44,0.004 m 0,0 -0.439,0.02 m 0,0 -0.437,0.035 m 0,0 -0.434,0.051 m 0,0 -0.43,0.066 m 0,0 -0.425,0.082 m 0,0 -0.419,0.096 m 0,0 -0.411,0.112 m 0,0 -0.403,0.126 m 0,0 -0.394,0.14 m 0,0 -0.383,0.154 m 0,0 -0.372,0.168 m 0,0 -0.36,0.181 m 0,0 -0.347,0.193 m 0,0 -0.333,0.206 m 0,0 -0.318,0.217 m 0,0 -0.303,0.228 m 0,0 -0.286,0.239 m 0,0 -0.269,0.249 m 0,0 -0.251,0.258 m 0,0 -0.233,0.267 m 0,0 -0.215,0.274 m 0,0 -0.194,0.282 m 0,0 -0.175,0.289 m 0,0 -0.154,0.294 m 0,0 -0.133,0.3 m 0,0 -0.113,0.304 m 0,0 -0.091,0.307 m 0,0 -0.069,0.311 m 0,0 -0.048,0.312 m 0,0 -0.025,0.314 m 0,0 -0.005,0.209" id="path136" style="stroke:#000000;stroke-width:0.88189;stroke-linecap:round;stroke-linejoin:round;stroke-opacity:1" ns1:connector-curvature="0"/>
  <path d="m 291.13928,-93.30742 12,0" id="path138" style="stroke:#000000;stroke-width:0.88189;stroke-linecap:round;stroke-linejoin:round;stroke-opacity:1" ns1:connector-curvature="0"/>
  <path d="m 291.13928,-119.30742 12,0" id="path140" style="stroke:#000000;stroke-width:0.88189;stroke-linecap:round;stroke-linejoin:round;stroke-opacity:1" ns1:connector-curvature="0"/>
  <path d="m 291.13928,-151.30742 12,0" id="path142" style="stroke:#000000;stroke-width:0.88189;stroke-linecap:round;stroke-linejoin:round;stroke-opacity:1" ns1:connector-curvature="0"/>
  <path d="m 203.13928,-174.10742 0,23" id="path144" style="stroke:#000000;stroke-width:0.88189;stroke-linecap:round;stroke-linejoin:round;stroke-opacity:1" ns1:connector-curvature="0"/>
  <path d="m 203.13928,-151.10742 4.8,0" id="path146" style="stroke:#000000;stroke-width:0.88189;stroke-linecap:round;stroke-linejoin:round;stroke-opacity:1" ns1:connector-curvature="0"/>
  <path d="m 203.13928,-121.10742 4.8,0" id="path148" style="stroke:#000000;stroke-width:0.88189;stroke-linecap:round;stroke-linejoin:round;stroke-opacity:1" ns1:connector-curvature="0"/>
  <path d="m 207.93928,-93.30742 0,-27.8" id="path150" style="stroke:#000000;stroke-width:0.88189;stroke-linecap:round;stroke-linejoin:round;stroke-opacity:1" ns1:connector-curvature="0"/>
  <path d="m 134.21028,-357.40742 0,-12" id="path152" style="stroke:#000000;stroke-width:0.88189;stroke-linecap:round;stroke-linejoin:round;stroke-opacity:1" ns1:connector-curvature="0"/>
  <path d="m 166.21028,-357.40742 0,-12" id="path154" style="stroke:#000000;stroke-width:0.88189;stroke-linecap:round;stroke-linejoin:round;stroke-opacity:1" ns1:connector-curvature="0"/>
  <path d="m 167.13928,-119.40742 0,20" id="path156" style="stroke:#000000;stroke-width:0.88189;stroke-linecap:round;stroke-linejoin:round;stroke-opacity:1" ns1:connector-curvature="0"/>
  <path d="m 203.13928,-121.10742 0,21.7" id="path158" style="stroke:#000000;stroke-width:0.88189;stroke-linecap:round;stroke-linejoin:round;stroke-opacity:1" ns1:connector-curvature="0"/>
  <path d="m 200.13928,-99.40742 3,0" id="path160" style="stroke:#000000;stroke-width:0.88189;stroke-linecap:round;stroke-linejoin:round;stroke-opacity:1" ns1:connector-curvature="0"/>
  <path d="m 167.13928,-99.40742 3,0" id="path162" style="stroke:#000000;stroke-width:0.88189;stroke-linecap:round;stroke-linejoin:round;stroke-opacity:1" ns1:connector-curvature="0"/>
  <path d="m 170.13928,-94.60742 -6,0" id="path164" style="stroke:#000000;stroke-width:0.88189;stroke-linecap:round;stroke-linejoin:round;stroke-opacity:1" ns1:connector-curvature="0"/>
  <path d="m 200.13928,-99.40742 0,4.8" id="path166" style="stroke:#000000;stroke-width:0.88189;stroke-linecap:round;stroke-linejoin:round;stroke-opacity:1" ns1:connector-curvature="0"/>
  <path d="m 170.13928,-99.40742 0,4.8" id="path168" style="stroke:#000000;stroke-width:0.88189;stroke-linecap:round;stroke-linejoin:round;stroke-opacity:1" ns1:connector-curvature="0"/>
  <path d="m 203.13928,-94.60742 -3,0" id="path170" style="stroke:#000000;stroke-width:0.88189;stroke-linecap:round;stroke-linejoin:round;stroke-opacity:1" ns1:connector-curvature="0"/>
  <path d="m 112.13928,-158.90742 0,-4.006 m 0,-2.721 0,-5.443 m 0,-2.721 0,-5.442 m 0,-2.722 0,-5.442 m 0,-2.722 0,-5.442 m 0,-2.721 0,-5.443 m 0,-2.721 0,-5.443 m 0,-2.721 0,-5.442 m 0,-2.722 0,-5.442 m 0,-2.721 0,-5.443 m 0,-2.721 0,-5.443 m 0,-2.721 0,-5.442 m 0,-2.722 0,-5.442 m 0,-2.722 0,-5.442 m 0,-2.721 0,-5.443 m 0,-2.721 0,-5.443 m 0,-2.721 0,-5.442 m 0,-2.722 0,-5.442 m 0,-2.721 0,-5.443 m 0,-2.721 0,-5.443 m 0,-2.721 0,-5.442 m 0,-2.722 0,-5.442 m 0,-2.722 0,-5.442 m 0,-2.721 0,-5.443 m 0,-2.721 0,-4.006" id="path172" style="stroke:#000000;stroke-width:0.45354301;stroke-linecap:round;stroke-linejoin:round;stroke-opacity:1" ns1:connector-curvature="0"/>
  <path d="m 112.13928,-114.90742 0,5.329 m 0,2.721 0,5.443 m 0,2.721 0,5.443 m 0,2.721 0,5.442 m 0,2.722 0,5.442 m 0,2.722 0,5.442 m 0,2.7213 0,5.4425 m 0,2.7213 0,5.4425 m 0,2.7213 0,5.4425 m 0,2.7212 0,5.4425 m 0,2.7213 0,5.4425 m 0,2.7213 0,5.4425 m 0,2.7213 0,5.4425 m 0,2.7212 0,5.4426 m 0,2.7212 0,5.4425 m 0,2.7213 0,5.4425 m 0,2.7213 0,5.44251 m 0,2.72126 0,5.32913" id="path174" style="stroke:#000000;stroke-width:0.45354301;stroke-linecap:round;stroke-linejoin:round;stroke-opacity:1" ns1:connector-curvature="0"/>
  <path d="m 143.13928,-153.40742 0,34" id="path176" style="stroke:#000000;stroke-width:0.88189;stroke-linecap:round;stroke-linejoin:round;stroke-opacity:1" ns1:connector-curvature="0"/>
  <path d="m 136.59728,-153.40742 0,34" id="path178" style="stroke:#000000;stroke-width:0.88189;stroke-linecap:round;stroke-linejoin:round;stroke-opacity:1" ns1:connector-curvature="0"/>
  <path d="m 130.05628,-153.40742 0,34" id="path180" style="stroke:#000000;stroke-width:0.88189;stroke-linecap:round;stroke-linejoin:round;stroke-opacity:1" ns1:connector-curvature="0"/>
  <path d="m 123.51428,-153.40742 0,34" id="path182" style="stroke:#000000;stroke-width:0.88189;stroke-linecap:round;stroke-linejoin:round;stroke-opacity:1" ns1:connector-curvature="0"/>
  <path d="m 228.63928,-218.40742 0,25.3" id="path184" style="stroke:#000000;stroke-width:0.88189;stroke-linecap:round;stroke-linejoin:round;stroke-opacity:1" ns1:connector-curvature="0"/>
  <path d="m 169.63928,-178.90742 0,4.8" id="path186" style="stroke:#000000;stroke-width:0.88189;stroke-linecap:round;stroke-linejoin:round;stroke-opacity:1" ns1:connector-curvature="0"/>
  <path d="m 169.63928,-174.10742 -3.5,0" id="path188" style="stroke:#000000;stroke-width:0.88189;stroke-linecap:round;stroke-linejoin:round;stroke-opacity:1" ns1:connector-curvature="0"/>
  <path d="m 166.13928,-174.10742 0,20.7" id="path190" style="stroke:#000000;stroke-width:0.88189;stroke-linecap:round;stroke-linejoin:round;stroke-opacity:1" ns1:connector-curvature="0"/>
  <path d="m 129.63928,-178.90742 0,20" id="path192" style="stroke:#000000;stroke-width:0.88189;stroke-linecap:round;stroke-linejoin:round;stroke-opacity:1" ns1:connector-curvature="0"/>
  <path d="m 129.63928,-158.90742 -60,0" id="path194" style="stroke:#000000;stroke-width:0.88189;stroke-linecap:round;stroke-linejoin:round;stroke-opacity:1" ns1:connector-curvature="0"/>
  <path d="m 169.63928,-178.90742 -40,0" id="path196" style="stroke:#000000;stroke-width:0.88189;stroke-linecap:round;stroke-linejoin:round;stroke-opacity:1" ns1:connector-curvature="0"/>
  <path d="m 166.13928,-153.40742 -61.1667,0" id="path198" style="stroke:#000000;stroke-width:0.88189;stroke-linecap:round;stroke-linejoin:round;stroke-opacity:1" ns1:connector-curvature="0"/>
  <path d="m 134.21028,-363.40742 32,0" id="path200" style="stroke:#000000;stroke-width:0.88189;stroke-linecap:round;stroke-linejoin:round;stroke-opacity:1" ns1:connector-curvature="0"/>
  <path d="m 297.13928,-283.10742 0,32" id="path202" style="stroke:#000000;stroke-width:0.88189;stroke-linecap:round;stroke-linejoin:round;stroke-opacity:1" ns1:connector-curvature="0"/>
  <path d="m 207.63928,-340.10742 0,28.5" id="path204" style="stroke:#000000;stroke-width:0.88189;stroke-linecap:round;stroke-linejoin:round;stroke-opacity:1" ns1:connector-curvature="0"/>
  <path d="m 297.13928,-151.30742 0,32" id="path206" style="stroke:#000000;stroke-width:0.88189;stroke-linecap:round;stroke-linejoin:round;stroke-opacity:1" ns1:connector-curvature="0"/>
  <circle cx="263.63928" cy="172.30742" id="circle208" r="1" style="stroke:#000000;stroke-width:0.88189;stroke-linecap:round;stroke-linejoin:round;stroke-opacity:1" transform="scale(1,-1)"/>
  <path d="m 203.13928,-178.90742 0,-37" id="path210" style="stroke:#000000;stroke-width:0.88189;stroke-linecap:round;stroke-linejoin:round;stroke-opacity:1" ns1:connector-curvature="0"/>
  <path d="m 291.13928,-193.10742 0,-118.5" id="path212" style="stroke:#000000;stroke-width:0.88189;stroke-linecap:round;stroke-linejoin:round;stroke-opacity:1" ns1:connector-curvature="0"/>
  <path d="m 203.88928,-215.90742 0,22.8" id="path214" style="stroke:#000000;stroke-width:0.88189;stroke-linecap:round;stroke-linejoin:round;stroke-opacity:1" ns1:connector-curvature="0"/>
  <path d="m 203.13928,-215.90742 0.75,0" id="path216" style="stroke:#000000;stroke-width:0.88189;stroke-linecap:round;stroke-linejoin:round;stroke-opacity:1" ns1:connector-curvature="0"/>
  <path d="m 203.88928,-193.10742 87.25,0" id="path218" style="stroke:#000000;stroke-width:0.88189;stroke-linecap:round;stroke-linejoin:round;stroke-opacity:1" ns1:connector-curvature="0"/>
  <path d="m 228.63928,-218.40742 42,0" id="path220" style="stroke:#000000;stroke-width:0.88189;stroke-linecap:round;stroke-linejoin:round;stroke-opacity:1" ns1:connector-curvature="0"/>
  <path d="m 270.63928,-218.40742 0,25.3" id="path222" style="stroke:#000000;stroke-width:0.88189;stroke-linecap:round;stroke-linejoin:round;stroke-opacity:1" ns1:connector-curvature="0"/>
  <g id="g224" transform="matrix(1,0,0,-1,0,6)">
    
    
    
    
    
    
    
    
    
    
    
    
    
    
    
    
  </g>
  <g id="g226" transform="matrix(1,0,0,-1,0,6)">
    
    
    
    
    
  </g>
  <g id="g228" transform="matrix(1,0,0,-1,0,6)">
    
    
    
    
    
    
    
    
  </g>
  <circle cx="247.65091" cy="264.31384" id="circle230" r="2" style="stroke:#000000;stroke-width:0.88189;stroke-linecap:round;stroke-linejoin:round;stroke-opacity:1" transform="scale(1,-1)"/>
  <path d="m 69.63928,29.09258 0,-144" id="path232" style="stroke:#000000;stroke-width:0.88189;stroke-linecap:round;stroke-linejoin:round;stroke-opacity:1" ns1:connector-curvature="0"/>
  <path d="m 69.63928,-114.90742 60,0" id="path234" style="stroke:#000000;stroke-width:0.88189;stroke-linecap:round;stroke-linejoin:round;stroke-opacity:1" ns1:connector-curvature="0"/>
  <path d="m 69.63928,29.09258 221.5,0" id="path236" style="stroke:#000000;stroke-width:0.88189;stroke-linecap:round;stroke-linejoin:round;stroke-opacity:1" ns1:connector-curvature="0"/>
  <g id="g238" style="stroke:#000000;stroke-linecap:round;stroke-linejoin:round;stroke-opacity:1" transform="matrix(1,0,0,-1,11.639283,26.59258)">
    <path d="m 11.4897,266.773 0.0011,10e-4 c -0.6011,0.306 -1.2812,0.478 -2.00145,0.478 -0.73638,0 -1.33333,-0.597 -1.33333,-1.333 0,-0.519 0.29579,-0.968 0.72768,-1.188 m -3.5e-4,0 1.87865,-0.958 m -0.606,-2.521 c 0.7364,0 1.3334,0.597 1.3334,1.333 0,0.519 -0.2957,0.968 -0.7273,1.188 M 8.15776,261.73 8.15667,261.729 c 0.60059,-0.305 1.27988,-0.477 1.99933,-0.477" id="path240" style="stroke:#000000;stroke-width:0.88189;stroke-linecap:round;stroke-linejoin:round;stroke-opacity:1" ns1:connector-curvature="0"/>
    <path d="m 13.4908,265.252 2,0 m -1.3334,2 0,-6" id="path242" style="stroke:#000000;stroke-width:0.88189;stroke-linecap:round;stroke-linejoin:round;stroke-opacity:1" ns1:connector-curvature="0"/>
    <path d="m 17.4908,263.919 0,-1.334 c 0,-0.736 0.5969,-1.333 1.3333,-1.333 0.7364,0 1.3333,0.597 1.3333,1.333 l 0,1.334 c 0,0.736 -0.5969,1.333 -1.3333,1.333 -0.7364,0 -1.3333,-0.597 -1.3333,-1.333" id="path244" style="stroke:#000000;stroke-width:0.88189;stroke-linecap:round;stroke-linejoin:round;stroke-opacity:1" ns1:connector-curvature="0"/>
    <path d="m 22.1574,261.252 0,4 1.3334,0 m 0.6666,-0.667 c 0,0.369 -0.2985,0.667 -0.6666,0.667" id="path246" style="stroke:#000000;stroke-width:0.88189;stroke-linecap:round;stroke-linejoin:round;stroke-opacity:1" ns1:connector-curvature="0"/>
    <path d="m 26.4908,265.252 1.3333,0 m 1,-1 c 0,0.552 -0.4477,1 -1,1 m 1,-1 0,-3 -1.6667,0 m 0,2 c -0.5523,0 -1,-0.448 -1,-1 0,-0.552 0.4477,-1 1,-1 m 0,2 1.6667,0" id="path248" style="stroke:#000000;stroke-width:0.88189;stroke-linecap:round;stroke-linejoin:round;stroke-opacity:1" ns1:connector-curvature="0"/>
    <path d="m 30.8241,259.252 1.6667,0 c 0.5522,0 1,0.448 1,1 l 0,5 -1.6667,0 c -0.5523,0 -1,-0.448 -1,-1 l 0,-2 c 0,-0.552 0.4477,-1 1,-1 l 1.6667,0" id="path250" style="stroke:#000000;stroke-width:0.88189;stroke-linecap:round;stroke-linejoin:round;stroke-opacity:1" ns1:connector-curvature="0"/>
    <path d="m 35.4908,263.252 2.6666,0 0,0.667 c 0,0.736 -0.5969,1.333 -1.3333,1.333 -0.7364,0 -1.3333,-0.597 -1.3333,-1.333 l 0,-1.667 c 0,-0.552 0.4477,-1 1,-1 l 1.6666,0" id="path252" style="stroke:#000000;stroke-width:0.88189;stroke-linecap:round;stroke-linejoin:round;stroke-opacity:1" ns1:connector-curvature="0"/>
    <path d="m 15.4901,256.612 1.3333,0 m 1,-1 c 0,0.552 -0.4477,1 -1,1 m 1,-1 0,-3 -1.6667,0 m 0,2 c -0.5523,0 -1,-0.448 -1,-1 0,-0.552 0.4477,-1 1,-1 m 0,2 1.6667,0" id="path254" style="stroke:#000000;stroke-width:0.88189;stroke-linecap:round;stroke-linejoin:round;stroke-opacity:1" ns1:connector-curvature="0"/>
    <path d="m 19.8234,252.612 0,4 1.3333,0 m 0.6667,-0.667 c 0,0.369 -0.2985,0.667 -0.6667,0.667" id="path256" style="stroke:#000000;stroke-width:0.88189;stroke-linecap:round;stroke-linejoin:round;stroke-opacity:1" ns1:connector-curvature="0"/>
    <path d="m 23.8234,254.612 2.6667,0 0,0.667 c 0,0.736 -0.597,1.333 -1.3334,1.333 -0.7364,0 -1.3333,-0.597 -1.3333,-1.333 l 0,-1.667 c 0,-0.552 0.4477,-1 1,-1 l 1.6667,0" id="path258" style="stroke:#000000;stroke-width:0.88189;stroke-linecap:round;stroke-linejoin:round;stroke-opacity:1" ns1:connector-curvature="0"/>
    <path d="m 28.8234,256.612 1.3333,0 m 1,-1 c 0,0.552 -0.4477,1 -1,1 m 1,-1 0,-3 -1.6666,0 m 0,2 c -0.5523,0 -1,-0.448 -1,-1 0,-0.552 0.4477,-1 1,-1 m 0,2 1.6666,0" id="path260" style="stroke:#000000;stroke-width:0.88189;stroke-linecap:round;stroke-linejoin:round;stroke-opacity:1" ns1:connector-curvature="0"/>
  </g>
  <path d="m 203.13928,-61.60742 0,-33" id="path262" style="stroke:#000000;stroke-width:0.88189;stroke-linecap:round;stroke-linejoin:round;stroke-opacity:1" ns1:connector-curvature="0"/>
  <path d="m 203.13928,-61.60742 9.5,0" id="path264" style="stroke:#000000;stroke-width:0.88189;stroke-linecap:round;stroke-linejoin:round;stroke-opacity:1" ns1:connector-curvature="0"/>
  <path d="m 212.63928,-61.60742 0,-4.5" id="path266" style="stroke:#000000;stroke-width:0.88189;stroke-linecap:round;stroke-linejoin:round;stroke-opacity:1" ns1:connector-curvature="0"/>
  <path d="m 291.13928,29.09258 0,-90.7" id="path268" style="stroke:#000000;stroke-width:0.88189;stroke-linecap:round;stroke-linejoin:round;stroke-opacity:1" ns1:connector-curvature="0"/>
  <path d="m 207.93928,-66.10742 4.7,0" id="path270" style="stroke:#000000;stroke-width:0.88189;stroke-linecap:round;stroke-linejoin:round;stroke-opacity:1" ns1:connector-curvature="0"/>
  <path d="m 291.13928,-66.10742 0,-22.7" id="path272" style="stroke:#000000;stroke-width:0.88189;stroke-linecap:round;stroke-linejoin:round;stroke-opacity:1" ns1:connector-curvature="0"/>
  <path d="m 284.13928,-66.10742 7,0" id="path274" style="stroke:#000000;stroke-width:0.88189;stroke-linecap:round;stroke-linejoin:round;stroke-opacity:1" ns1:connector-curvature="0"/>
  <path d="m 284.13928,-61.60742 7,0" id="path276" style="stroke:#000000;stroke-width:0.88189;stroke-linecap:round;stroke-linejoin:round;stroke-opacity:1" ns1:connector-curvature="0"/>
  <path d="m 284.13928,-66.10742 0,4.5" id="path278" style="stroke:#000000;stroke-width:0.88189;stroke-linecap:round;stroke-linejoin:round;stroke-opacity:1" ns1:connector-curvature="0"/>
  <path d="m 207.93928,-66.10742 0,-22.7" id="path280" style="stroke:#000000;stroke-width:0.88189;stroke-linecap:round;stroke-linejoin:round;stroke-opacity:1" ns1:connector-curvature="0"/>
  <path d="m 207.93928,-88.80742 83.2,0" id="path282" style="stroke:#000000;stroke-width:0.88189;stroke-linecap:round;stroke-linejoin:round;stroke-opacity:1" ns1:connector-curvature="0"/>
  <g id="g284" style="stroke:#000000;stroke-linecap:round;stroke-linejoin:round;stroke-opacity:1" transform="matrix(1,0,0,-1,11.639283,26.59258)">
    <path d="m 11.2559,97.9342 0.0011,5e-4 c -0.6011,0.306 -1.28116,0.4784 -2.00145,0.4784 -0.73638,0 -1.33333,-0.597 -1.33333,-1.3333 0,-0.5184 0.29579,-0.9677 0.72769,-1.1882 m -3.6e-4,2e-4 1.87865,-0.9574 M 9.92222,92.4131 c 0.73638,0 1.33338,0.597 1.33338,1.3333 0,0.5182 -0.2957,0.9674 -0.7273,1.188 M 7.92397,92.891 7.92288,92.8905 c 0.60059,-0.3054 1.27987,-0.4774 1.99934,-0.4774" id="path286" style="stroke:#000000;stroke-width:0.88189;stroke-linecap:round;stroke-linejoin:round;stroke-opacity:1" ns1:connector-curvature="0"/>
    <path d="m 13.257,96.4131 2,0 m -1.3334,2 0,-6" id="path288" style="stroke:#000000;stroke-width:0.88189;stroke-linecap:round;stroke-linejoin:round;stroke-opacity:1" ns1:connector-curvature="0"/>
    <path d="m 17.257,95.0798 0,-1.3334 c 0,-0.7363 0.5969,-1.3333 1.3333,-1.3333 0.7364,0 1.3333,0.597 1.3333,1.3333 l 0,1.3334 c 0,0.7363 -0.5969,1.3333 -1.3333,1.3333 -0.7364,0 -1.3333,-0.597 -1.3333,-1.3333" id="path290" style="stroke:#000000;stroke-width:0.88189;stroke-linecap:round;stroke-linejoin:round;stroke-opacity:1" ns1:connector-curvature="0"/>
    <path d="m 21.9236,92.4131 0,4 1.3334,0 m 0.6666,-0.6667 c 0,0.3682 -0.2985,0.6667 -0.6666,0.6667" id="path292" style="stroke:#000000;stroke-width:0.88189;stroke-linecap:round;stroke-linejoin:round;stroke-opacity:1" ns1:connector-curvature="0"/>
    <path d="m 26.257,96.4131 1.3333,0 m 1,-1 c 0,0.5523 -0.4477,1 -1,1 m 1,-1 0,-3 -1.6667,0 m 0,2 c -0.5523,0 -1,-0.4477 -1,-1 0,-0.5523 0.4477,-1 1,-1 m 0,2 1.6667,0" id="path294" style="stroke:#000000;stroke-width:0.88189;stroke-linecap:round;stroke-linejoin:round;stroke-opacity:1" ns1:connector-curvature="0"/>
    <path d="m 30.5903,90.4131 1.6667,0 c 0.5522,0 1,0.4477 1,1 l 0,5 -1.6667,0 c -0.5523,0 -1,-0.4477 -1,-1 l 0,-2 c 0,-0.5523 0.4477,-1 1,-1 l 1.6667,0" id="path296" style="stroke:#000000;stroke-width:0.88189;stroke-linecap:round;stroke-linejoin:round;stroke-opacity:1" ns1:connector-curvature="0"/>
    <path d="m 35.257,94.4131 2.6666,0 0,0.6667 c 0,0.7363 -0.5969,1.3333 -1.3333,1.3333 -0.7364,0 -1.3333,-0.597 -1.3333,-1.3333 l 0,-1.6667 c 0,-0.5523 0.4477,-1 1,-1 l 1.6666,0" id="path298" style="stroke:#000000;stroke-width:0.88189;stroke-linecap:round;stroke-linejoin:round;stroke-opacity:1" ns1:connector-curvature="0"/>
    <path d="m 15.2563,87.7731 1.3333,0 m 1,-1 c 0,0.5523 -0.4477,1 -1,1 m 1,-1 0,-3 -1.6667,0 m 0,2 c -0.5523,0 -1,-0.4477 -1,-1 0,-0.5523 0.4477,-1 1,-1 m 0,2 1.6667,0" id="path300" style="stroke:#000000;stroke-width:0.88189;stroke-linecap:round;stroke-linejoin:round;stroke-opacity:1" ns1:connector-curvature="0"/>
    <path d="m 19.5896,83.7731 0,4 1.3333,0 m 0.6667,-0.6667 c 0,0.3682 -0.2985,0.6667 -0.6667,0.6667" id="path302" style="stroke:#000000;stroke-width:0.88189;stroke-linecap:round;stroke-linejoin:round;stroke-opacity:1" ns1:connector-curvature="0"/>
    <path d="m 23.5896,85.7731 2.6667,0 0,0.6667 c 0,0.7363 -0.597,1.3333 -1.3334,1.3333 -0.7364,0 -1.3333,-0.597 -1.3333,-1.3333 l 0,-1.6667 c 0,-0.5523 0.4477,-1 1,-1 l 1.6667,0" id="path304" style="stroke:#000000;stroke-width:0.88189;stroke-linecap:round;stroke-linejoin:round;stroke-opacity:1" ns1:connector-curvature="0"/>
    <path d="m 28.5896,87.7731 1.3333,0 m 1,-1 c 0,0.5523 -0.4477,1 -1,1 m 1,-1 0,-3 -1.6666,0 m 0,2 c -0.5523,0 -1,-0.4477 -1,-1 0,-0.5523 0.4477,-1 1,-1 m 0,2 1.6666,0" id="path306" style="stroke:#000000;stroke-width:0.88189;stroke-linecap:round;stroke-linejoin:round;stroke-opacity:1" ns1:connector-curvature="0"/>
  </g>
  <path d="m 291.13928,-37.60742 12,0" id="path308" style="stroke:#000000;stroke-width:0.88189;stroke-linecap:round;stroke-linejoin:round;stroke-opacity:1" ns1:connector-curvature="0"/>
  <path d="m 291.13928,-5.60742 12,0" id="path310" style="stroke:#000000;stroke-width:0.88189;stroke-linecap:round;stroke-linejoin:round;stroke-opacity:1" ns1:connector-curvature="0"/>
  <path d="m 134.21028,38.59258 0,-9.5" id="path312" style="stroke:#000000;stroke-width:0.88189;stroke-linecap:round;stroke-linejoin:round;stroke-opacity:1" ns1:connector-curvature="0"/>
  <path d="m 166.21028,38.59258 0,-9.5" id="path314" style="stroke:#000000;stroke-width:0.88189;stroke-linecap:round;stroke-linejoin:round;stroke-opacity:1" ns1:connector-curvature="0"/>
  <g id="g316" style="stroke:#000000;stroke-linecap:round;stroke-linejoin:round;stroke-opacity:1" transform="matrix(1,0,0,-1,11.639283,26.59258)">
    <path d="m 169.158,49.0008 0,6 1.667,0 m 0,-2.6667 c 0.736,0 1.333,0.597 1.333,1.3333 0,0.7364 -0.597,1.3334 -1.333,1.3334 m -1.667,-2.6667 1.734,0 m 1.6,-1.6 c 0,0.8837 -0.717,1.6 -1.6,1.6 m 1.6,-1.6 0,-0.1333 m -1.6,-1.6 c 0.883,0 1.6,0.7163 1.6,1.6 m -1.6,-1.6 -1.734,0" id="path318" style="stroke:#000000;stroke-width:0.88189;stroke-linecap:round;stroke-linejoin:round;stroke-opacity:1" ns1:connector-curvature="0"/>
    <path d="m 174.492,51.0008 2.666,0 0,0.6666 c 0,0.7364 -0.597,1.3334 -1.333,1.3334 -0.736,0 -1.333,-0.597 -1.333,-1.3334 l 0,-1.6666 c 0,-0.5523 0.447,-1 1,-1 l 1.666,0" id="path320" style="stroke:#000000;stroke-width:0.88189;stroke-linecap:round;stroke-linejoin:round;stroke-opacity:1" ns1:connector-curvature="0"/>
    <path d="m 181.825,55.0008 0,-6 -1.667,0 m -1,1 c 0,-0.5523 0.448,-1 1,-1 m -1,1 0,2 m 1,1 c -0.552,0 -1,-0.4478 -1,-1 m 1,1 1.667,0" id="path322" style="stroke:#000000;stroke-width:0.88189;stroke-linecap:round;stroke-linejoin:round;stroke-opacity:1" ns1:connector-curvature="0"/>
    <path d="m 183.825,49.0008 0,4 1.333,0 m 0.667,-0.6667 c 0,0.3682 -0.299,0.6667 -0.667,0.6667" id="path324" style="stroke:#000000;stroke-width:0.88189;stroke-linecap:round;stroke-linejoin:round;stroke-opacity:1" ns1:connector-curvature="0"/>
    <path d="m 187.825,51.6674 0,-1.3333 c 0,-0.7364 0.597,-1.3333 1.333,-1.3333 0.737,0 1.334,0.5969 1.334,1.3333 l 0,1.3333 c 0,0.7364 -0.597,1.3334 -1.334,1.3334 -0.736,0 -1.333,-0.597 -1.333,-1.3334" id="path326" style="stroke:#000000;stroke-width:0.88189;stroke-linecap:round;stroke-linejoin:round;stroke-opacity:1" ns1:connector-curvature="0"/>
    <path d="m 192.492,51.6674 0,-1.3333 c 0,-0.7364 0.597,-1.3333 1.333,-1.3333 0.736,0 1.333,0.5969 1.333,1.3333 l 0,1.3333 c 0,0.7364 -0.597,1.3334 -1.333,1.3334 -0.736,0 -1.333,-0.597 -1.333,-1.3334" id="path328" style="stroke:#000000;stroke-width:0.88189;stroke-linecap:round;stroke-linejoin:round;stroke-opacity:1" ns1:connector-curvature="0"/>
    <path d="m 197.158,49.0008 0,4 3,0 m 1,-1 c 0,0.5522 -0.447,1 -1,1 m 1,-1 0,-3 m -2,4 0,-4" id="path330" style="stroke:#000000;stroke-width:0.88189;stroke-linecap:round;stroke-linejoin:round;stroke-opacity:1" ns1:connector-curvature="0"/>
  </g>
  <g id="g332" style="stroke:#000000;stroke-linecap:round;stroke-linejoin:round;stroke-opacity:1" transform="matrix(1,0,0,-1,11.639283,26.59258)">
    <path d="m 155.184,295.021 0,-6 2.667,0" id="path334" style="stroke:#000000;stroke-width:0.88189;stroke-linecap:round;stroke-linejoin:round;stroke-opacity:1" ns1:connector-curvature="0"/>
    <path d="m 159.851,289.021 0,4 m 0,1.667 0,0.333" id="path336" style="stroke:#000000;stroke-width:0.88189;stroke-linecap:round;stroke-linejoin:round;stroke-opacity:1" ns1:connector-curvature="0"/>
    <path d="m 161.851,293.021 1.333,-4 1.334,4" id="path338" style="stroke:#000000;stroke-width:0.88189;stroke-linecap:round;stroke-linejoin:round;stroke-opacity:1" ns1:connector-curvature="0"/>
    <path d="m 166.518,289.021 0,4 m 0,1.667 0,0.333" id="path340" style="stroke:#000000;stroke-width:0.88189;stroke-linecap:round;stroke-linejoin:round;stroke-opacity:1" ns1:connector-curvature="0"/>
    <path d="m 168.518,289.021 0,4 1.666,0 m 1,-1 c 0,0.552 -0.447,1 -1,1 m 1,-1 0,-3" id="path342" style="stroke:#000000;stroke-width:0.88189;stroke-linecap:round;stroke-linejoin:round;stroke-opacity:1" ns1:connector-curvature="0"/>
    <path d="m 173.184,287.021 1.667,0 c 0.552,0 1,0.448 1,1 l 0,5 -1.667,0 c -0.552,0 -1,-0.448 -1,-1 l 0,-2 c 0,-0.552 0.448,-1 1,-1 l 1.667,0" id="path344" style="stroke:#000000;stroke-width:0.88189;stroke-linecap:round;stroke-linejoin:round;stroke-opacity:1" ns1:connector-curvature="0"/>
    <path d="m 180.684,293.021 1.334,0 m 1,-1 c 0,0.552 -0.448,1 -1,1 m 1,-1 0,-3 -1.667,0 m 0,2 c -0.552,0 -1,-0.448 -1,-1 0,-0.552 0.448,-1 1,-1 m 0,2 1.667,0" id="path346" style="stroke:#000000;stroke-width:0.88189;stroke-linecap:round;stroke-linejoin:round;stroke-opacity:1" ns1:connector-curvature="0"/>
    <path d="m 185.018,289.021 0,4 1.333,0 m 0.667,-0.667 c 0,0.368 -0.299,0.667 -0.667,0.667" id="path348" style="stroke:#000000;stroke-width:0.88189;stroke-linecap:round;stroke-linejoin:round;stroke-opacity:1" ns1:connector-curvature="0"/>
    <path d="m 189.018,291.021 2.666,0 0,0.667 c 0,0.736 -0.596,1.333 -1.333,1.333 -0.736,0 -1.333,-0.597 -1.333,-1.333 l 0,-1.667 c 0,-0.552 0.448,-1 1,-1 l 1.666,0" id="path350" style="stroke:#000000;stroke-width:0.88189;stroke-linecap:round;stroke-linejoin:round;stroke-opacity:1" ns1:connector-curvature="0"/>
    <path d="m 194.018,293.021 1.333,0 m 1,-1 c 0,0.552 -0.448,1 -1,1 m 1,-1 0,-3 -1.667,0 m 0,2 c -0.552,0 -1,-0.448 -1,-1 0,-0.552 0.448,-1 1,-1 m 0,2 1.667,0" id="path352" style="stroke:#000000;stroke-width:0.88189;stroke-linecap:round;stroke-linejoin:round;stroke-opacity:1" ns1:connector-curvature="0"/>
  </g>
  <path d="m 149.68128,-153.40742 0,34" id="path354" style="stroke:#000000;stroke-width:0.88189;stroke-linecap:round;stroke-linejoin:round;stroke-opacity:1" ns1:connector-curvature="0"/>
  <path d="m 156.22328,-153.40742 0,34" id="path356" style="stroke:#000000;stroke-width:0.88189;stroke-linecap:round;stroke-linejoin:round;stroke-opacity:1" ns1:connector-curvature="0"/>
  <path d="m 162.76528,-153.40742 0,34" id="path358" style="stroke:#000000;stroke-width:0.88189;stroke-linecap:round;stroke-linejoin:round;stroke-opacity:1" ns1:connector-curvature="0"/>
  <path d="m 116.97228,-153.40742 0,34" id="path360" style="stroke:#000000;stroke-width:0.88189;stroke-linecap:round;stroke-linejoin:round;stroke-opacity:1" ns1:connector-curvature="0"/>
  <path d="m 110.43028,-153.40742 0,34" id="path362" style="stroke:#000000;stroke-width:0.88189;stroke-linecap:round;stroke-linejoin:round;stroke-opacity:1" ns1:connector-curvature="0"/>
  <g id="g364" transform="matrix(1,0,0,-1,0,6)"/>
  <g id="g366" transform="matrix(1,0,0,-1,0,6)"/>
  <g id="g368" transform="matrix(1,0,0,-1,0,6)"/>
  <g id="g370" transform="matrix(1,0,0,-1,0,6)"/>
  <g id="g372" transform="matrix(1,0,0,-1,0,6)"/>
  <g id="g374" transform="matrix(1,0,0,-1,0,6)"/>
  <g id="g376" transform="matrix(1,0,0,-1,0,6)"/>
  <path d="m 14.389283,-176.40742 29.999997,0" id="path378" style="stroke:#000000;stroke-width:0.62992102;stroke-linecap:round;stroke-linejoin:round;stroke-opacity:1" ns1:connector-curvature="0"/>
</svg>
