25
8
1.19566332122
2
rectangle
57
185
32
67
64.3816744113
0.0
0.0
0.0
0.0
0.0
0.0
0.0733333333333
0.08
0.0533333333333
0.0533333333333
0.04
0.04
0.04
0.04
0.04
0.04
0.04
0.04
0.0266666666667
0.04
0.04
0.04
0.0333333333333
0.0366666666667
0.196666666667
0.129086925109
0.05
0.0533333333333
0.116666666667
0.08
0.0466666666667
0.0333333333333
0.0266666666667
0.0266666666667
0.02
0.0133333333333
0.0133333333333
0.0133333333333
0.0133333333333
0.00666666666667
0.00666666666667
0.00666666666667
0.01
0.0133333333333
0.0133333333333
0.0166666666667
0.0233333333333
0.04
0.0533333333333
0.0266666666667
0.0233333333333
7
rectangle
316
444
63
268
125.936491931
0.0
0.0
0.0
0.0
0.0
0.0
0.0
0.0
0.0
0.0
0.0335877862595
0.0641221374046
0.0671755725191
0.0732824427481
0.0595419847328
0.0488549618321
0.0473282442748
0.0381679389313
0.0427480916031
0.151145038168
0.170992366412
0.103816793893
0.0488549618321
0.0335877862595
0.0152671755725
0.179801413989
0.0396946564885
0.0229007633588
0.024427480916
0.0290076335878
0.0320610687023
0.036641221374
0.0473282442748
0.0854961832061
0.0717557251908
0.0458015267176
0.0396946564885
0.0381679389313
0.0290076335878
0.0198473282443
0.0198473282443
0.0229007633588
0.036641221374
0.0320610687023
0.024427480916
0.0198473282443
0.0152671755725
0.0137404580153
0.012213740458
0.012213740458
0.0106870229008
8
rectangle
39
74
77
168
47.0744091838
0.0
0.0
0.0
0.0
0.0
0.0
0.0
0.0
0.0
0.151785714286
0.0535714285714
0.0535714285714
0.0535714285714
0.0535714285714
0.0357142857143
0.0357142857143
0.0535714285714
0.0357142857143
0.0357142857143
0.0357142857143
0.0446428571429
0.0446428571429
0.0357142857143
0.147321428571
0.125
0.167224505593
0.0223214285714
0.0178571428571
0.0178571428571
0.0267857142857
0.0267857142857
0.0267857142857
0.0446428571429
0.0535714285714
0.0848214285714
0.0580357142857
0.0446428571429
0.0535714285714
0.03125
0.0267857142857
0.0223214285714
0.0267857142857
0.0401785714286
0.0267857142857
0.0223214285714
0.0133928571429
0.0133928571429
0.0133928571429
0.00892857142857
0.00892857142857
0.00892857142857
6
rectangle
186
314
63
162
81.215762017
0.0
0.0
0.0
0.0
0.0
0.0
0.0
0.0
0.0
0.0
0.0
0.0
0.0
0.0543735224586
0.0827423167849
0.0851063829787
0.0661938534279
0.0520094562648
0.0472813238771
0.170212765957
0.184397163121
0.13475177305
0.0472813238771
0.0401891252955
0.0330969267139
0.214846258571
0.0401891252955
0.0378250591017
0.0425531914894
0.0449172576832
0.0425531914894
0.0732860520095
0.0449172576832
0.0425531914894
0.0354609929078
0.0307328605201
0.0283687943262
0.0283687943262
0.0189125295508
0.0141843971631
0.0141843971631
0.0141843971631
0.016548463357
0.0212765957447
0.0236406619385
0.0496453900709
0.0260047281324
0.0236406619385
0.0189125295508
0.0212765957447
0.016548463357
3
rectangle
186
314
32
67
64.7765389628
0.0
0.0
0.0
0.0
0.0
0.0
0.0863787375415
0.0664451827243
0.0531561461794
0.0531561461794
0.0398671096346
0.0531561461794
0.0398671096346
0.0398671096346
0.0265780730897
0.0398671096346
0.0398671096346
0.0398671096346
0.0398671096346
0.0265780730897
0.0398671096346
0.0398671096346
0.0398671096346
0.0431893687708
0.189368770764
0.12833677097
0.0564784053156
0.0531561461794
0.116279069767
0.0797342192691
0.046511627907
0.0332225913621
0.0265780730897
0.0265780730897
0.0199335548173
0.0132890365449
0.0132890365449
0.0132890365449
0.0132890365449
0.00664451827243
0.00664451827243
0.00664451827243
0.00996677740864
0.0132890365449
0.0132890365449
0.0166112956811
0.0232558139535
0.0398671096346
0.0531561461794
0.0265780730897
0.0232558139535
5
unknown
57
185
63
163
86.8389313615
0.0
0.0
0.0
0.0
0.0
0.0
0.0
0.0
0.0
0.0
0.0
0.0
0.0487238979118
0.0556844547564
0.113689095128
0.146171693735
0.187935034803
0.134570765661
0.109048723898
0.0626450116009
0.0487238979118
0.0324825986079
0.0185614849188
0.0185614849188
0.0208816705336
0.190551396072
0.0348027842227
0.0324825986079
0.0371229698376
0.0371229698376
0.0394431554524
0.0626450116009
0.0394431554524
0.0394431554524
0.0348027842227
0.030162412993
0.0278422273782
0.0278422273782
0.0185614849188
0.0139211136891
0.0139211136891
0.0139211136891
0.0162412993039
0.0208816705336
0.0232018561485
0.0324825986079
0.0951276102088
0.0278422273782
0.0162412993039
0.0162412993039
0.0139211136891
4
rectangle
316
443
32
67
64.1326749793
0.0
0.0
0.0
0.0
0.0
0.0
0.0733333333333
0.08
0.0533333333333
0.0533333333333
0.04
0.04
0.04
0.04
0.04
0.04
0.04
0.0266666666667
0.04
0.04
0.04
0.0266666666667
0.04
0.04
0.203333333333
0.129851010615
0.05
0.0533333333333
0.116666666667
0.08
0.0466666666667
0.0333333333333
0.0266666666667
0.0266666666667
0.02
0.0133333333333
0.0133333333333
0.0133333333333
0.0133333333333
0.00666666666667
0.00666666666667
0.00666666666667
0.01
0.0133333333333
0.0133333333333
0.0166666666667
0.0233333333333
0.04
0.0533333333333
0.0266666666667
0.0233333333333
9
rectangle
428
462
77
168
47.0744091838
0.0
0.0
0.0
0.0
0.0
0.0
0.0
0.0
0.0486725663717
0.110619469027
0.0619469026549
0.0442477876106
0.0530973451327
0.0442477876106
0.0442477876106
0.0353982300885
0.0442477876106
0.0353982300885
0.0353982300885
0.0442477876106
0.0353982300885
0.0353982300885
0.0398230088496
0.150442477876
0.132743362832
0.16478259749
0.0221238938053
0.0176991150442
0.0176991150442
0.0265486725664
0.0265486725664
0.0265486725664
0.0442477876106
0.0530973451327
0.0884955752212
0.0575221238938
0.0486725663717
0.0530973451327
0.0309734513274
0.0265486725664
0.0221238938053
0.0309734513274
0.0398230088496
0.0265486725664
0.0176991150442
0.0176991150442
0.0132743362832
0.00884955752212
0.00884955752212
0.00884955752212
0.00884955752212
12
2
3
1
1
0.998938303645
touch
2
5
1
1
0.419436326713
touch
6
7
1
1
0.492082590293
floor
4
7
1
1
0.181423629762
floor
7
9
1
1
0.124744859592
floor
5
8
1
1
0.293724305315
touch
3
6
1
1
0.370126184343
touch
5
6
1
1
0.881500240143
touch
3
5
1
1
0.419882114022
touch
3
4
1
1
0.996107113366
touch
4
9
1
1
0.687588820464
floor
4
6
1
1
0.368685325067
floor
