25
7
1.0
4
rectangle
9
40
15
44
20.5182845287
0.0
0.0
0.0
0.0
0.0
0.0
0.0
0.0
0.0
0.0
0.0
0.0
0.0
0.0
0.0
0.0
0.0
0.155172413793
0.224137931034
0.137931034483
0.137931034483
0.103448275862
0.0689655172414
0.0689655172414
0.0689655172414
0.268080704595
0.0258620689655
0.0344827586207
0.0344827586207
0.051724137931
0.0344827586207
0.0689655172414
0.051724137931
0.051724137931
0.0344827586207
0.0344827586207
0.0344827586207
0.0344827586207
0.00862068965517
0.0172413793103
0.0172413793103
0.0172413793103
0.0172413793103
0.0258620689655
0.0258620689655
0.0344827586207
0.0172413793103
0.0258620689655
0.0172413793103
0.0172413793103
0.00862068965517
8
rectangle
9
40
136
141
15.1327459504
0.0
0.0
0.0
0.089552238806
0.0597014925373
0.0597014925373
0.0
0.0597014925373
0.0597014925373
0.0
0.0597014925373
0.0
0.0597014925373
0.0597014925373
0.0
0.0597014925373
0.0597014925373
0.0
0.0597014925373
0.0
0.0597014925373
0.0597014925373
0.0
0.0597014925373
0.089552238806
0.114141394624
0.044776119403
0.238805970149
0.0597014925373
0.0597014925373
0.0298507462687
0.0
0.0298507462687
0.0
0.0298507462687
0.0
0.0
0.0
0.0149253731343
0.0
0.0
0.0
0.0149253731343
0.0
0.0149253731343
0.0
0.0149253731343
0.0298507462687
0.0298507462687
0.10447761194
0.0149253731343
3
rectangle
41
47
8
141
66.0681466366
0.010989010989
0.0549450549451
0.043956043956
0.043956043956
0.03663003663
0.03663003663
0.043956043956
0.03663003663
0.03663003663
0.043956043956
0.03663003663
0.03663003663
0.043956043956
0.029304029304
0.043956043956
0.043956043956
0.029304029304
0.043956043956
0.043956043956
0.029304029304
0.043956043956
0.043956043956
0.029304029304
0.043956043956
0.0659340659341
0.0299489256665
0.003663003663
0.0
0.00732600732601
0.0
0.00732600732601
0.0
0.00732600732601
0.00732600732601
0.014652014652
0.021978021978
0.043956043956
0.234432234432
0.285714285714
0.0769230769231
0.014652014652
0.00732600732601
0.003663003663
0.003663003663
0.003663003663
0.0
0.0
0.003663003663
0.0
0.0
0.0
2
unknown
9
40
8
14
16.1245154966
0.0
0.0
0.0
0.089552238806
0.0597014925373
0.0597014925373
0.0597014925373
0.0
0.0597014925373
0.0597014925373
0.0
0.0597014925373
0.0597014925373
0.0
0.0597014925373
0.0597014925373
0.0
0.0597014925373
0.0597014925373
0.0
0.0597014925373
0.089552238806
0.0
0.0298507462687
0.044776119403
0.106829916566
0.0746268656716
0.238805970149
0.0597014925373
0.0597014925373
0.0298507462687
0.0
0.0298507462687
0.0
0.0298507462687
0.0
0.0
0.0
0.0149253731343
0.0
0.0
0.0
0.0149253731343
0.0
0.0149253731343
0.0
0.0149253731343
0.0298507462687
0.0298507462687
0.089552238806
0.0149253731343
7
rectangle
9
40
106
135
20.5182845287
0.0
0.0
0.0
0.0
0.0
0.0
0.0
0.0
0.0
0.0
0.0
0.0
0.0
0.0
0.0
0.0
0.0
0.155172413793
0.224137931034
0.137931034483
0.137931034483
0.103448275862
0.0689655172414
0.0689655172414
0.0689655172414
0.268080704595
0.0258620689655
0.0344827586207
0.0344827586207
0.051724137931
0.0344827586207
0.0689655172414
0.051724137931
0.051724137931
0.0344827586207
0.0344827586207
0.0344827586207
0.0344827586207
0.00862068965517
0.0172413793103
0.0172413793103
0.0172413793103
0.0172413793103
0.0258620689655
0.0258620689655
0.0344827586207
0.0172413793103
0.0258620689655
0.0172413793103
0.0172413793103
0.00862068965517
6
rectangle
9
40
75
105
21.2132034356
0.0
0.0
0.0
0.0
0.0
0.0
0.0
0.0
0.0
0.0
0.0
0.0
0.0
0.0
0.0
0.0
0.0593220338983
0.177966101695
0.169491525424
0.135593220339
0.135593220339
0.118644067797
0.0677966101695
0.0677966101695
0.0508474576271
0.263581022378
0.0254237288136
0.0338983050847
0.0338983050847
0.0508474576271
0.0338983050847
0.0677966101695
0.0508474576271
0.0508474576271
0.0338983050847
0.0423728813559
0.0338983050847
0.0338983050847
0.00847457627119
0.0169491525424
0.0169491525424
0.0169491525424
0.0169491525424
0.0254237288136
0.0254237288136
0.0338983050847
0.0169491525424
0.0254237288136
0.0169491525424
0.0169491525424
0.00847457627119
5
rectangle
9
40
45
74
20.5182845287
0.0
0.0
0.0
0.0
0.0
0.0
0.0
0.0
0.0
0.0
0.0
0.0
0.0
0.0
0.0
0.0
0.0
0.155172413793
0.224137931034
0.137931034483
0.137931034483
0.103448275862
0.0689655172414
0.0689655172414
0.0689655172414
0.268080704595
0.0258620689655
0.0344827586207
0.0344827586207
0.051724137931
0.0344827586207
0.0689655172414
0.051724137931
0.051724137931
0.0344827586207
0.0344827586207
0.0344827586207
0.0344827586207
0.00862068965517
0.0172413793103
0.0172413793103
0.0172413793103
0.0172413793103
0.0258620689655
0.0258620689655
0.0344827586207
0.0172413793103
0.0258620689655
0.0172413793103
0.0172413793103
0.00862068965517
11
3
4
1
1
0.785119047619
touch
2
4
1
1
0.143452380952
touch
4
5
1
1
1.0
touch
3
8
1
1
0.18119787718
touch
7
8
1
1
0.142261904762
touch
2
3
1
1
0.182714177407
touch
3
7
1
1
0.785119047619
touch
3
6
1
1
0.758045977011
floor
3
5
1
1
0.785119047619
touch
6
7
1
1
0.965517241379
floor
5
6
1
1
0.965517241379
floor
