25
3
1.25274072825
2
rectangle
51
98
17
123
58.6941223633
0.0
0.0
0.0
0.0
0.0
0.0
0.0
0.0
0.0
0.0666666666667
0.0933333333333
0.0666666666667
0.0533333333333
0.04
0.04
0.04
0.04
0.04
0.0333333333333
0.0333333333333
0.04
0.0866666666667
0.166666666667
0.113333333333
0.0433333333333
0.175104524984
0.02
0.02
0.0233333333333
0.0233333333333
0.0233333333333
0.0333333333333
0.04
0.06
0.09
0.06
0.0466666666667
0.0433333333333
0.0333333333333
0.02
0.0233333333333
0.0333333333333
0.04
0.0266666666667
0.02
0.0166666666667
0.01
0.0133333333333
0.01
0.01
0.00666666666667
14
ellipse
16
46
84
113
15.6524758425
0.0
0.0
0.0
0.0
0.0
0.0
0.0
0.0
0.0
0.0
0.0
0.0
0.0
0.0
0.0
0.0
0.0
0.0
0.0
0.0
0.109756097561
0.231707317073
0.19512195122
0.231707317073
0.219512195122
0.267500158217
0.0365853658537
0.0487804878049
0.0487804878049
0.0487804878049
0.0243902439024
0.0365853658537
0.0365853658537
0.0365853658537
0.0487804878049
0.0365853658537
0.0487804878049
0.0487804878049
0.0121951219512
0.0243902439024
0.0243902439024
0.0121951219512
0.0121951219512
0.0243902439024
0.0121951219512
0.0243902439024
0.0121951219512
0.0243902439024
0.0121951219512
0.0243902439024
0.0121951219512
3
ellipse
16
46
26
56
15.2970585408
0.0
0.0
0.0
0.0
0.0
0.0
0.0
0.0
0.0
0.0
0.0
0.0
0.0
0.0
0.0
0.0
0.0
0.0
0.0
0.0
0.0
0.148148148148
0.246913580247
0.320987654321
0.271604938272
0.270578375797
0.037037037037
0.0493827160494
0.0493827160494
0.0493827160494
0.0246913580247
0.037037037037
0.037037037037
0.0493827160494
0.0246913580247
0.0493827160494
0.0493827160494
0.0493827160494
0.0123456790123
0.0246913580247
0.0246913580247
0.0123456790123
0.0246913580247
0.0123456790123
0.0123456790123
0.0246913580247
0.0123456790123
0.0246913580247
0.0123456790123
0.0246913580247
0.0123456790123
0
