25
2
2.283155862
3
rectangle
138
270
19
131
87.2066511225
0.0
0.0
0.0
0.0
0.0
0.0
0.0
0.0
0.0
0.0
0.0
0.0
0.0415019762846
0.0335968379447
0.0138339920949
0.0731225296443
0.0533596837945
0.0612648221344
0.126482213439
0.166007905138
0.110671936759
0.098814229249
0.0909090909091
0.0790513833992
0.0494071146245
0.211851218168
0.0335968379447
0.0316205533597
0.0395256916996
0.0395256916996
0.0434782608696
0.0592885375494
0.0513833992095
0.0415019762846
0.0375494071146
0.0612648221344
0.0256916996047
0.0256916996047
0.0158102766798
0.0118577075099
0.0118577075099
0.0454545454545
0.0197628458498
0.0217391304348
0.0256916996047
0.0276679841897
0.0237154150198
0.0197628458498
0.0177865612648
0.0158102766798
0.0158102766798
2
rectangle
12
277
12
138
146.263460919
0.0
6.71228696851e-12
9.29393580256e-12
7.22861673532e-12
6.19595720171e-12
8.26127626894e-12
7.22861673532e-12
6.19595720171e-12
6.19595720171e-12
6.19595720171e-12
2.22021799728e-11
2.27185097396e-11
1.85878716051e-11
1.60062227711e-11
1.75552120715e-11
1.54898930043e-11
2.83981371745e-11
2.73654776409e-11
2.22021799728e-11
4.28553706451e-11
3.14961157753e-11
2.73654776409e-11
5.31819659813e-11
4.75023385464e-11
4.23390408783e-11
0.0
6.71228696851e-12
9.29393580256e-12
7.22861673532e-12
6.19595720171e-12
8.26127626894e-12
7.22861673532e-12
6.19595720171e-12
6.19595720171e-12
6.19595720171e-12
2.22021799728e-11
2.27185097396e-11
1.85878716051e-11
1.60062227711e-11
1.75552120715e-11
1.54898930043e-11
2.83981371745e-11
2.73654776409e-11
2.22021799728e-11
4.28553706451e-11
3.14961157753e-11
2.73654776409e-11
5.31819659813e-11
4.75023385464e-11
4.23390408783e-11
0.0
6.71228696851e-12
9.29393580256e-12
7.22861673532e-12
6.19595720171e-12
8.26127626894e-12
7.22861673532e-12
6.19595720171e-12
6.19595720171e-12
6.19595720171e-12
2.22021799728e-11
2.27185097396e-11
1.85878716051e-11
1.60062227711e-11
1.75552120715e-11
1.54898930043e-11
2.83981371745e-11
2.73654776409e-11
2.22021799728e-11
4.28553706451e-11
3.14961157753e-11
2.73654776409e-11
5.31819659813e-11
4.75023385464e-11
4.23390408783e-11
0.0
6.71228696851e-12
9.29393580256e-12
7.22861673532e-12
6.19595720171e-12
8.26127626894e-12
7.22861673532e-12
6.19595720171e-12
6.19595720171e-12
6.19595720171e-12
2.22021799728e-11
2.27185097396e-11
1.85878716051e-11
1.60062227711e-11
1.75552120715e-11
1.54898930043e-11
2.83981371745e-11
2.73654776409e-11
2.22021799728e-11
4.28553706451e-11
3.14961157753e-11
2.73654776409e-11
5.31819659813e-11
4.75023385464e-11
4.23390408783e-11
0.0
6.71228696851e-12
9.29393580256e-12
7.22861673532e-12
6.19595720171e-12
8.26127626894e-12
7.22861673532e-12
6.19595720171e-12
6.19595720171e-12
6.19595720171e-12
2.22021799728e-11
2.27185097396e-11
1.85878716051e-11
1.60062227711e-11
1.75552120715e-11
1.54898930043e-11
2.83981371745e-11
2.73654776409e-11
2.22021799728e-11
4.28553706451e-11
3.14961157753e-11
2.73654776409e-11
5.31819659813e-11
4.75023385464e-11
4.23390408783e-11
0.0509947036507
5.52472850485e-11
3.40777646094e-11
2.1685850206e-11
2.45256639234e-11
2.2976674623e-11
1.78133769549e-11
1.70388823047e-11
1.44572334706e-11
1.0842925103e-11
1.03265953362e-11
9.29393580256e-12
8.77760603575e-12
5.9377923183e-12
4.13063813447e-12
4.64696790128e-12
5.42146255149e-12
5.16329766809e-12
6.97045185192e-12
8.51944115235e-12
9.03577091915e-12
1.11010899864e-11
1.18755846366e-11
1.05847602196e-11
1.60062227711e-11
2.81399722911e-11
5.52472850485e-11
3.40777646094e-11
2.1685850206e-11
2.45256639234e-11
2.2976674623e-11
1.78133769549e-11
1.70388823047e-11
1.44572334706e-11
1.0842925103e-11
1.03265953362e-11
9.29393580256e-12
8.77760603575e-12
5.9377923183e-12
4.13063813447e-12
4.64696790128e-12
5.42146255149e-12
5.16329766809e-12
6.97045185192e-12
8.51944115235e-12
9.03577091915e-12
1.11010899864e-11
1.18755846366e-11
1.05847602196e-11
1.60062227711e-11
2.81399722911e-11
5.52472850485e-11
3.40777646094e-11
2.1685850206e-11
2.45256639234e-11
2.2976674623e-11
1.78133769549e-11
1.70388823047e-11
1.44572334706e-11
1.0842925103e-11
1.03265953362e-11
9.29393580256e-12
8.77760603575e-12
5.9377923183e-12
4.13063813447e-12
4.64696790128e-12
5.42146255149e-12
5.16329766809e-12
6.97045185192e-12
8.51944115235e-12
9.03577091915e-12
1.11010899864e-11
1.18755846366e-11
1.05847602196e-11
1.60062227711e-11
2.81399722911e-11
5.52472850485e-11
3.40777646094e-11
2.1685850206e-11
2.45256639234e-11
2.2976674623e-11
1.78133769549e-11
1.70388823047e-11
1.44572334706e-11
1.0842925103e-11
1.03265953362e-11
9.29393580256e-12
8.77760603575e-12
5.9377923183e-12
4.13063813447e-12
4.64696790128e-12
5.42146255149e-12
5.16329766809e-12
6.97045185192e-12
8.51944115235e-12
9.03577091915e-12
1.11010899864e-11
1.18755846366e-11
1.05847602196e-11
1.60062227711e-11
2.81399722911e-11
5.52472850485e-11
3.40777646094e-11
2.1685850206e-11
2.45256639234e-11
2.2976674623e-11
1.78133769549e-11
1.70388823047e-11
1.44572334706e-11
1.0842925103e-11
1.03265953362e-11
9.29393580256e-12
8.77760603575e-12
5.9377923183e-12
4.13063813447e-12
4.64696790128e-12
5.42146255149e-12
5.16329766809e-12
6.97045185192e-12
8.51944115235e-12
9.03577091915e-12
1.11010899864e-11
1.18755846366e-11
1.05847602196e-11
1.60062227711e-11
2.81399722911e-11
1
2
3
1
1
0.424606060606
floor
