bedroom : [1661,389] : [1576,361,1747,417] : confidence,dict,original_word,difference : [100,DM,None,0]
coveredterrace : [1441,180] : [1292,153,1590,208] : confidence,dict,original_word,difference : [100,DM,None,0]
coveredterrace : [389,1057] : [236,1010,542,1104] : confidence,dict,original_word,difference : [100,DM,None,0]
bedroom : [328,845] : [240,806,417,885] : confidence,dict,original_word,difference : [100,DM,None,0]
bthrm : [677,930] : [611,892,743,969] : confidence,dict,original_word,difference : [100,DM,None,0]
bedroom : [418,470] : [330,431,507,510] : confidence,dict,original_word,difference : [100,DM,None,0]
bedroom : [685,416] : [597,375,774,458] : confidence,dict,original_word,difference : [100,DM,None,0]
lounge : [1231,387] : [1156,358,1306,417] : confidence,dict,original_word,difference : [100,DM,None,0]
kitchen : [1432,802] : [1354,774,1510,830] : confidence,dict,original_word,difference : [100,DM,None,0]
utility : [1724,796] : [1663,767,1785,826] : confidence,dict,original_word,difference : [100,DM,None,0]
bbq : [1995,925] : [1948,896,2042,955] : confidence,dict,original_word,difference : [100,DM,None,0]
ensuite : [1597,473] : [1521,444,1674,503] : confidence,dict,original_word,difference : [100,DM,None,0]
ensuite : [363,568] : [299,535,427,601] : confidence,dict,original_word,difference : [100,DM,None,0]
ensuite : [635,528] : [573,497,698,559] : confidence,dict,original_word,difference : [100,DM,None,0]
No Text Detected
