Wind0a " : [1135,182] : [1086,169,1184,196] : 79
Bed : [838,426] : [815,414,861,438] : 85
Desk : [1357,378] : [1327,365,1387,391] : 81
o : [1475,535] : [1464,527,1487,543] : 62
Wardrobe : [1223,603] : [1164,587,1283,619] : 72
Bathroom : [848,792] : [788,777,908,808] : 69
1,4, : [837,995] : [803,985,872,1005] : 90
1,9, : [1225,995] : [1191,985,1260,1006] : 82
2aTM : [520,142] : [509,154,531,131] : 61
3 m : [1475,530] : [1465,566,1486,495] : 86
1,4, : [837,995] : [803,985,872,1005] : 90
1,9, : [1225,995] : [1191,985,1260,1006] : 82
0,7, : [163,594] : [128,584,199,605] : 86
No Text Detected
