<svg enable-background="new 0 0 612 792" height="792px" id="Layer_1" version="1.0" viewBox="0 0 612 792" width="612px" x="0px" y="0px" xml:space="preserve">
  <g id="_x33_60dash">
	<g id="LINE">
		
			<line fill="none" id="n_id_0" stroke="#000000" stroke-dasharray="4.9981,2.499" stroke-linecap="round" stroke-linejoin="round" stroke-miterlimit="10" stroke-width="0.15" x1="260.1" x2="260.1" y1="404.7" y2="427.3"/></g><g id="LINE_4_">
		
			<line fill="none" id="n_id_1" stroke="#000000" stroke-dasharray="4.9981,2.499" stroke-linecap="round" stroke-linejoin="round" stroke-miterlimit="10" stroke-width="0.15" x1="260.1" x2="281.8" y1="427.3" y2="427.3"/></g><g id="LINE_8_">
		
			<line fill="none" id="n_id_2" stroke="#000000" stroke-dasharray="4.9981,2.499" stroke-linecap="round" stroke-linejoin="round" stroke-miterlimit="10" stroke-width="0.15" x1="281.8" x2="281.8" y1="427.3" y2="404.7"/></g><g id="LWPOLYLINE">
		
			<rect fill="none" height="19.7" id="n_id_3" stroke="#000000" stroke-dasharray="4.9981,2.499" stroke-linecap="round" stroke-linejoin="round" stroke-miterlimit="10" stroke-width="0.15" width="32.9" x="271.8" y="251.8"/></g><g id="LINE_36_">
		
			<line fill="none" id="n_id_4" stroke="#000000" stroke-dasharray="4.9981,2.499" stroke-linecap="round" stroke-linejoin="round" stroke-miterlimit="10" stroke-width="0.15" x1="412.2" x2="412.2" y1="194.6" y2="266.6"/></g><g id="LINE_77_">
		
			<line fill="none" id="n_id_6" stroke="#000000" stroke-dasharray="4.9981,2.499" stroke-linecap="round" stroke-linejoin="round" stroke-miterlimit="10" stroke-width="0.15" x1="224.1" x2="204.6" y1="294.7" y2="294.7"/></g><g id="LINE_78_">
		
			<line fill="none" id="n_id_7" stroke="#000000" stroke-dasharray="4.9981,2.499" stroke-linecap="round" stroke-linejoin="round" stroke-miterlimit="10" stroke-width="0.15" x1="312.8" x2="312.8" y1="200.5" y2="236"/></g><g id="LINE_79_">
		
			<line fill="none" id="n_id_8" stroke="#000000" stroke-dasharray="4.9981,2.499" stroke-linecap="round" stroke-linejoin="round" stroke-miterlimit="10" stroke-width="0.15" x1="307.4" x2="307.4" y1="236" y2="200.5"/></g><g id="LINE_109_">
		
			<line fill="none" id="n_id_11" stroke="#000000" stroke-dasharray="4.9981,2.499" stroke-linecap="round" stroke-linejoin="round" stroke-miterlimit="10" stroke-width="0.15" x1="224.1" x2="224.1" y1="306.5" y2="282.9"/></g><g id="LINE_126_">
		
			<line fill="none" id="n_id_12" stroke="#000000" stroke-dasharray="4.9981,2.499" stroke-linecap="round" stroke-linejoin="round" stroke-miterlimit="10" stroke-width="0.15" x1="254.6" x2="254.6" y1="182.3" y2="152.7"/></g><g id="LINE_141_">
		
			<line fill="none" id="n_id_13" stroke="#000000" stroke-dasharray="4.9981,2.499" stroke-linecap="round" stroke-linejoin="round" stroke-miterlimit="10" stroke-width="0.15" x1="204.6" x2="204.6" y1="294.7" y2="438.7"/></g><g id="LINE_150_">
		
			<line fill="none" id="n_id_14" stroke="#000000" stroke-dasharray="4.9981,2.499" stroke-linecap="round" stroke-linejoin="round" stroke-miterlimit="10" stroke-width="0.15" x1="207.1" x2="207.1" y1="333.2" y2="362.7"/></g></g>
  <g id="_x33_60int">
	<g id="LINE_1_">
		
			<line fill="none" id="n_id_17" stroke="#000000" stroke-linecap="round" stroke-linejoin="round" stroke-miterlimit="10" stroke-width="0.15" x1="260.1" x2="260.1" y1="403.7" y2="404.7"/></g><g id="LINE_2_">
		
			<line fill="none" id="n_id_18" stroke="#000000" stroke-linecap="round" stroke-linejoin="round" stroke-miterlimit="10" stroke-width="0.15" x1="281.8" x2="260.1" y1="403.7" y2="403.7"/></g><g id="LINE_3_">
		
			<line fill="none" id="n_id_19" stroke="#000000" stroke-linecap="round" stroke-linejoin="round" stroke-miterlimit="10" stroke-width="0.15" x1="259.1" x2="282.7" y1="428.3" y2="428.3"/></g><g id="LINE_5_">
		
			<line fill="none" id="n_id_20" stroke="#000000" stroke-linecap="round" stroke-linejoin="round" stroke-miterlimit="10" stroke-width="0.15" x1="259.1" x2="259.1" y1="404.7" y2="428.3"/></g><g id="LINE_6_">
		
			<line fill="none" id="n_id_21" stroke="#000000" stroke-linecap="round" stroke-linejoin="round" stroke-miterlimit="10" stroke-width="0.15" x1="281.8" x2="281.8" y1="403.7" y2="404.7"/></g><g id="LINE_7_">
		
			<line fill="none" id="n_id_22" stroke="#000000" stroke-linecap="round" stroke-linejoin="round" stroke-miterlimit="10" stroke-width="0.15" x1="282.7" x2="282.7" y1="404.7" y2="428.3"/></g><g id="ARC">
		
			<path d="    M244,420.9c0,0.5,0.4,1,1,1" fill="none" id="n_id_23" stroke="#000000" stroke-linecap="round" stroke-linejoin="round" stroke-miterlimit="10" stroke-width="0.15"/></g><g id="ARC_1_">
		
			<path d="    M245,409.6c-0.5,0-1,0.4-1,1" fill="none" id="n_id_24" stroke="#000000" stroke-linecap="round" stroke-linejoin="round" stroke-miterlimit="10" stroke-width="0.15"/></g><g id="LINE_9_">
		
			<line fill="none" id="n_id_25" stroke="#000000" stroke-linecap="round" stroke-linejoin="round" stroke-miterlimit="10" stroke-width="0.15" x1="243.5" x2="249" y1="422.7" y2="422.7"/></g><g id="LINE_10_">
		
			<line fill="none" id="n_id_26" stroke="#000000" stroke-linecap="round" stroke-linejoin="round" stroke-miterlimit="10" stroke-width="0.15" x1="249" x2="237.1" y1="424.6" y2="424.6"/></g><g id="LINE_11_">
		
			<line fill="none" id="n_id_27" stroke="#000000" stroke-linecap="round" stroke-linejoin="round" stroke-miterlimit="10" stroke-width="0.15" x1="229.7" x2="256.4" y1="425.4" y2="425.4"/></g><g id="LINE_12_">
		
			<line fill="none" id="n_id_28" stroke="#000000" stroke-linecap="round" stroke-linejoin="round" stroke-miterlimit="10" stroke-width="0.15" x1="256.4" x2="229.7" y1="407.6" y2="407.6"/></g><g id="LINE_13_">
		
			<line fill="none" id="n_id_29" stroke="#000000" stroke-linecap="round" stroke-linejoin="round" stroke-miterlimit="10" stroke-width="0.15" x1="228.3" x2="228.3" y1="423.9" y2="409.1"/></g><g id="LINE_14_">
		
			<line fill="none" id="n_id_30" stroke="#000000" stroke-linecap="round" stroke-linejoin="round" stroke-miterlimit="10" stroke-width="0.15" x1="230.2" x2="230.2" y1="410.6" y2="420.9"/></g><g id="LINE_15_">
		
			<line fill="none" id="n_id_31" stroke="#000000" stroke-linecap="round" stroke-linejoin="round" stroke-miterlimit="10" stroke-width="0.15" x1="242.1" x2="242.1" y1="420.9" y2="410.6"/></g><g id="LINE_16_">
		
			<line fill="none" id="n_id_32" stroke="#000000" stroke-linecap="round" stroke-linejoin="round" stroke-miterlimit="10" stroke-width="0.15" x1="244" x2="244" y1="410.6" y2="420.9"/></g><g id="LINE_17_">
		
			<line fill="none" id="n_id_33" stroke="#000000" stroke-linecap="round" stroke-linejoin="round" stroke-miterlimit="10" stroke-width="0.15" x1="242.6" x2="242.6" y1="418.2" y2="423.6"/></g><g id="LINE_18_">
		
			<line fill="none" id="n_id_34" stroke="#000000" stroke-linecap="round" stroke-linejoin="round" stroke-miterlimit="10" stroke-width="0.15" x1="243.5" x2="243.5" y1="423.6" y2="418.2"/></g><g id="ARC_2_">
		
			<path d="    M231.2,409.6c-0.5,0-1,0.4-1,1" fill="none" id="n_id_36" stroke="#000000" stroke-linecap="round" stroke-linejoin="round" stroke-miterlimit="10" stroke-width="0.15"/></g><g id="ARC_3_">
		
			<path d="    M229.7,407.6c-0.8,0-1.5,0.7-1.5,1.5" fill="none" id="n_id_37" stroke="#000000" stroke-linecap="round" stroke-linejoin="round" stroke-miterlimit="10" stroke-width="0.15"/></g><g id="ARC_4_">
		
			<path d="    M243.5,418.2c0-0.3-0.2-0.5-0.5-0.5s-0.5,0.2-0.5,0.5" fill="none" id="n_id_38" stroke="#000000" stroke-linecap="round" stroke-linejoin="round" stroke-miterlimit="10" stroke-width="0.15"/></g><g id="ARC_5_">
		
			<path d="    M242.1,410.6c0-0.5-0.4-1-1-1" fill="none" id="n_id_39" stroke="#000000" stroke-linecap="round" stroke-linejoin="round" stroke-miterlimit="10" stroke-width="0.15"/></g><g id="LINE_19_">
		
			<line fill="none" id="n_id_40" stroke="#000000" stroke-linecap="round" stroke-linejoin="round" stroke-miterlimit="10" stroke-width="0.15" x1="241.1" x2="231.2" y1="409.6" y2="409.6"/></g><g id="ARC_6_">
		
			<path d="    M228.3,423.9c0,0.8,0.7,1.5,1.5,1.5" fill="none" id="n_id_41" stroke="#000000" stroke-linecap="round" stroke-linejoin="round" stroke-miterlimit="10" stroke-width="0.15"/></g><g id="ARC_7_">
		
			<path d="    M230.2,420.9c0,0.5,0.4,1,1,1" fill="none" id="n_id_42" stroke="#000000" stroke-linecap="round" stroke-linejoin="round" stroke-miterlimit="10" stroke-width="0.15"/></g><g id="ARC_8_">
		
			<path d="    M242.6,423.6c0,0.3,0.2,0.5,0.5,0.5s0.5-0.2,0.5-0.5" fill="none" id="n_id_43" stroke="#000000" stroke-linecap="round" stroke-linejoin="round" stroke-miterlimit="10" stroke-width="0.15"/></g><g id="CIRCLE_1_">
		
			<path d="    M238.6,423.6c0-0.3,0.2-0.5,0.5-0.5s0.5,0.2,0.5,0.5s-0.2,0.5-0.5,0.5S238.6,423.9,238.6,423.6L238.6,423.6z" fill="none" id="n_id_44" stroke="#000000" stroke-linecap="round" stroke-linejoin="round" stroke-miterlimit="10" stroke-width="0.15"/></g><g id="ARC_9_">
		
			<path d="    M241.1,421.9c0.5,0,1-0.4,1-1" fill="none" id="n_id_45" stroke="#000000" stroke-linecap="round" stroke-linejoin="round" stroke-miterlimit="10" stroke-width="0.15"/></g><g id="LINE_20_">
		
			<line fill="none" id="n_id_46" stroke="#000000" stroke-linecap="round" stroke-linejoin="round" stroke-miterlimit="10" stroke-width="0.15" x1="237.1" x2="237.1" y1="424.6" y2="422.7"/></g><g id="LINE_21_">
		
			<line fill="none" id="n_id_47" stroke="#000000" stroke-linecap="round" stroke-linejoin="round" stroke-miterlimit="10" stroke-width="0.15" x1="237.1" x2="242.6" y1="422.7" y2="422.7"/></g><g id="LINE_22_">
		
			<line fill="none" id="n_id_48" stroke="#000000" stroke-linecap="round" stroke-linejoin="round" stroke-miterlimit="10" stroke-width="0.15" x1="231.2" x2="241.1" y1="421.9" y2="421.9"/></g><g id="LINE_23_">
		
			<line fill="none" id="n_id_50" stroke="#000000" stroke-linecap="round" stroke-linejoin="round" stroke-miterlimit="10" stroke-width="0.15" x1="257.8" x2="257.8" y1="423.9" y2="409.1"/></g><g id="LINE_24_">
		
			<line fill="none" id="n_id_51" stroke="#000000" stroke-linecap="round" stroke-linejoin="round" stroke-miterlimit="10" stroke-width="0.15" x1="255.9" x2="255.9" y1="420.9" y2="410.6"/></g><g id="ARC_10_">
		
			<path d="    M255.9,410.6c0-0.5-0.4-1-1-1" fill="none" id="n_id_52" stroke="#000000" stroke-linecap="round" stroke-linejoin="round" stroke-miterlimit="10" stroke-width="0.15"/></g><g id="LINE_25_">
		
			<line fill="none" id="n_id_53" stroke="#000000" stroke-linecap="round" stroke-linejoin="round" stroke-miterlimit="10" stroke-width="0.15" x1="254.9" x2="245" y1="409.6" y2="409.6"/></g><g id="ARC_11_">
		
			<path d="    M257.8,409.1c0-0.8-0.7-1.5-1.5-1.5" fill="none" id="n_id_54" stroke="#000000" stroke-linecap="round" stroke-linejoin="round" stroke-miterlimit="10" stroke-width="0.15"/></g><g id="CIRCLE_3_">
		
			<path d="    M246.5,423.6c0-0.3,0.2-0.5,0.5-0.5s0.5,0.2,0.5,0.5s-0.2,0.5-0.5,0.5S246.5,423.9,246.5,423.6L246.5,423.6z" fill="none" id="n_id_55" stroke="#000000" stroke-linecap="round" stroke-linejoin="round" stroke-miterlimit="10" stroke-width="0.15"/></g><g id="LINE_26_">
		
			<line fill="none" id="n_id_56" stroke="#000000" stroke-linecap="round" stroke-linejoin="round" stroke-miterlimit="10" stroke-width="0.15" x1="249" x2="249" y1="422.7" y2="424.6"/></g><g id="ARC_12_">
		
			<path d="    M256.4,425.4c0.8,0,1.5-0.7,1.5-1.5" fill="none" id="n_id_57" stroke="#000000" stroke-linecap="round" stroke-linejoin="round" stroke-miterlimit="10" stroke-width="0.15"/></g><g id="ARC_13_">
		
			<path d="    M254.9,421.9c0.5,0,1-0.4,1-1" fill="none" id="n_id_58" stroke="#000000" stroke-linecap="round" stroke-linejoin="round" stroke-miterlimit="10" stroke-width="0.15"/></g><g id="LINE_27_">
		
			<line fill="none" id="n_id_59" stroke="#000000" stroke-linecap="round" stroke-linejoin="round" stroke-miterlimit="10" stroke-width="0.15" x1="245" x2="254.9" y1="421.9" y2="421.9"/></g><g id="LINE_28_">
		
			<line fill="none" id="n_id_60" stroke="#000000" stroke-linecap="round" stroke-linejoin="round" stroke-miterlimit="10" stroke-width="0.15" x1="192.8" x2="312.8" y1="426.8" y2="426.8"/></g><g id="LINE_29_">
		
			<line fill="none" id="n_id_61" stroke="#000000" stroke-linecap="round" stroke-linejoin="round" stroke-miterlimit="10" stroke-width="0.15" x1="192.8" x2="312.8" y1="438.7" y2="438.7"/></g><g id="LINE_30_">
		
			<line fill="none" id="n_id_62" stroke="#000000" stroke-linecap="round" stroke-linejoin="round" stroke-miterlimit="10" stroke-width="0.15" x1="216.4" x2="312.8" y1="404.7" y2="404.7"/></g><g id="LINE_31_">
		
			<line fill="none" id="n_id_63" stroke="#000000" stroke-linecap="round" stroke-linejoin="round" stroke-miterlimit="10" stroke-width="0.15" x1="312.8" x2="312.8" y1="404.7" y2="428.3"/></g><g id="LINE_32_">
		
			<line fill="none" id="n_id_64" stroke="#000000" stroke-linecap="round" stroke-linejoin="round" stroke-miterlimit="10" stroke-width="0.15" x1="312.8" x2="312.8" y1="438.7" y2="426.8"/></g><g id="CIRCLE_4_">
		
			<path d="    M406.4,526c0-0.6,0.5-1.1,1.1-1.1s1.1,0.5,1.1,1.1s-0.5,1.1-1.1,1.1S406.4,526.6,406.4,526L406.4,526z" fill="none" id="n_id_65" stroke="#000000" stroke-linecap="round" stroke-linejoin="round" stroke-miterlimit="10" stroke-width="0.15"/></g><g id="LWPOLYLINE_1_">
		
			<polygon fill="none" id="n_id_66" points="    413.3,471.4 401.6,471.4 407.5,468.5   " stroke="#000000" stroke-linecap="round" stroke-linejoin="round" stroke-miterlimit="10" stroke-width="0.15"/></g><g id="CIRCLE_5_">
		
			<path d="    M404.7,378c0-0.6,0.5-1.1,1.1-1.1s1.1,0.5,1.1,1.1s-0.5,1.1-1.1,1.1S404.7,378.6,404.7,378L404.7,378z" fill="none" id="n_id_67" stroke="#000000" stroke-linecap="round" stroke-linejoin="round" stroke-miterlimit="10" stroke-width="0.15"/></g><g id="LWPOLYLINE_4_">
		
			<polygon fill="none" id="n_id_68" points="    411.6,421.6 399.9,421.6 405.8,424.5   " stroke="#000000" stroke-linecap="round" stroke-linejoin="round" stroke-miterlimit="10" stroke-width="0.15"/></g><g id="LINE_34_">
		
			<line fill="none" id="n_id_69" stroke="#000000" stroke-linecap="round" stroke-linejoin="round" stroke-miterlimit="10" stroke-width="0.15" x1="405.8" x2="405.8" y1="379.1" y2="421.6"/></g><g id="ARC_14_">
		
			<path d="    M387.3,368.2c18.9,0,34.5-14.9,35.5-33.8" fill="none" id="n_id_70" stroke="#000000" stroke-linecap="round" stroke-linejoin="round" stroke-miterlimit="10" stroke-width="0.15"/></g><g id="LINE_37_">
		
			<line fill="none" id="n_id_71" stroke="#000000" stroke-linecap="round" stroke-linejoin="round" stroke-miterlimit="10" stroke-width="0.15" x1="387.3" x2="422.8" y1="332.7" y2="332.7"/></g><g id="LINE_38_">
		
			<line fill="none" id="n_id_72" stroke="#000000" stroke-linecap="round" stroke-linejoin="round" stroke-miterlimit="10" stroke-width="0.15" x1="387.3" x2="422.8" y1="334.4" y2="334.4"/></g><g id="LINE_39_">
		
			<line fill="none" id="n_id_73" stroke="#000000" stroke-linecap="round" stroke-linejoin="round" stroke-miterlimit="10" stroke-width="0.15" x1="387.3" x2="387.3" y1="334.4" y2="332.7"/></g><g id="LINE_40_">
		
			<line fill="none" id="n_id_74" stroke="#000000" stroke-linecap="round" stroke-linejoin="round" stroke-miterlimit="10" stroke-width="0.15" x1="422.8" x2="422.8" y1="334.4" y2="332.7"/></g><g id="LINE_41_">
		
			<line fill="none" id="n_id_75" stroke="#000000" stroke-linecap="round" stroke-linejoin="round" stroke-miterlimit="10" stroke-width="0.15" x1="309.4" x2="308.4" y1="306.5" y2="306.5"/></g><g id="LINE_42_">
		
			<line fill="none" id="n_id_76" stroke="#000000" stroke-linecap="round" stroke-linejoin="round" stroke-miterlimit="10" stroke-width="0.15" x1="250.7" x2="216.4" y1="306.5" y2="306.5"/></g><g id="LINE_43_">
		
			<line fill="none" id="n_id_77" stroke="#000000" stroke-linecap="round" stroke-linejoin="round" stroke-miterlimit="10" stroke-width="0.15" x1="289.2" x2="289.2" y1="306.5" y2="282.9"/></g><g id="LINE_44_">
		
			<line fill="none" id="n_id_78" stroke="#000000" stroke-linecap="round" stroke-linejoin="round" stroke-miterlimit="10" stroke-width="0.15" x1="307.4" x2="307.4" y1="306.2" y2="305.6"/></g><g id="LINE_45_">
		
			<line fill="none" id="n_id_79" stroke="#000000" stroke-linecap="round" stroke-linejoin="round" stroke-miterlimit="10" stroke-width="0.15" x1="308.4" x2="307.4" y1="305.6" y2="305.6"/></g><g id="LINE_46_">
		
			<line fill="none" id="n_id_80" stroke="#000000" stroke-linecap="round" stroke-linejoin="round" stroke-miterlimit="10" stroke-width="0.15" x1="291.1" x2="290.1" y1="305.6" y2="305.6"/></g><g id="LINE_47_">
		
			<line fill="none" id="n_id_81" stroke="#000000" stroke-linecap="round" stroke-linejoin="round" stroke-miterlimit="10" stroke-width="0.15" x1="290.1" x2="290.1" y1="305.6" y2="282.9"/></g><g id="LINE_48_">
		
			<line fill="none" id="n_id_82" stroke="#000000" stroke-linecap="round" stroke-linejoin="round" stroke-miterlimit="10" stroke-width="0.15" x1="291.1" x2="291.1" y1="305.6" y2="306.5"/></g><g id="LINE_50_">
		
			<line fill="none" id="n_id_83" stroke="#000000" stroke-linecap="round" stroke-linejoin="round" stroke-miterlimit="10" stroke-width="0.15" x1="186.1" x2="237.4" y1="202.5" y2="202.5"/></g><g id="ARC_16_">
		
			<path d="    M209,191.7c0,0.3,0.2,0.5,0.5,0.5" fill="none" id="n_id_90" stroke="#000000" stroke-linecap="round" stroke-linejoin="round" stroke-miterlimit="10" stroke-width="0.15"/></g><g id="ARC_17_">
		
			<path d="    M209.6,192.1c0.3,0,0.5-0.2,0.5-0.5" fill="none" id="n_id_91" stroke="#000000" stroke-linecap="round" stroke-linejoin="round" stroke-miterlimit="10" stroke-width="0.15"/></g><g id="LINE_51_">
		
			<line fill="none" id="n_id_92" stroke="#000000" stroke-linecap="round" stroke-linejoin="round" stroke-miterlimit="10" stroke-width="0.15" x1="209.5" x2="209.6" y1="192.1" y2="192.1"/></g><g id="LWPOLYLINE_9_">
		
			<polyline fill="none" id="n_id_97" points="    208.7,265.5 208.7,267.3 200.5,267.3 200.5,265.5   " stroke="#000000" stroke-linecap="round" stroke-linejoin="round" stroke-miterlimit="10" stroke-width="0.15"/></g><g id="LINE_54_">
		
			<line fill="none" id="n_id_98" stroke="#000000" stroke-linecap="round" stroke-linejoin="round" stroke-miterlimit="10" stroke-width="0.15" x1="264.5" x2="257.4" y1="240.5" y2="240.5"/></g><g id="LINE_55_">
		
			<line fill="none" id="n_id_99" stroke="#000000" stroke-linecap="round" stroke-linejoin="round" stroke-miterlimit="10" stroke-width="0.15" x1="233.7" x2="226.5" y1="240.5" y2="240.5"/></g><g id="LINE_56_">
		
			<line fill="none" id="n_id_100" stroke="#000000" stroke-linecap="round" stroke-linejoin="round" stroke-miterlimit="10" stroke-width="0.15" x1="264.5" x2="226.5" y1="243.9" y2="243.9"/></g><g id="LINE_57_">
		
			<line fill="none" id="n_id_101" stroke="#000000" stroke-linecap="round" stroke-linejoin="round" stroke-miterlimit="10" stroke-width="0.15" x1="264.5" x2="257.4" y1="242.4" y2="242.4"/></g><g id="LINE_58_">
		
			<line fill="none" id="n_id_102" stroke="#000000" stroke-linecap="round" stroke-linejoin="round" stroke-miterlimit="10" stroke-width="0.15" x1="257.4" x2="257.4" y1="242.4" y2="240.5"/></g><g id="LINE_59_">
		
			<line fill="none" id="n_id_103" stroke="#000000" stroke-linecap="round" stroke-linejoin="round" stroke-miterlimit="10" stroke-width="0.15" x1="233.7" x2="233.7" y1="242.4" y2="240.5"/></g><g id="LINE_60_">
		
			<line fill="none" id="n_id_104" stroke="#000000" stroke-linecap="round" stroke-linejoin="round" stroke-miterlimit="10" stroke-width="0.15" x1="233.7" x2="226.5" y1="242.4" y2="242.4"/></g><g id="LINE_61_">
		
			<line fill="none" id="n_id_105" stroke="#000000" stroke-linecap="round" stroke-linejoin="round" stroke-miterlimit="10" stroke-width="0.15" x1="257.4" x2="240.6" y1="240.5" y2="223.7"/></g><g id="ARC_18_">
		
			<path d="    M240.6,223.7c-4.4,4.4-6.9,10.5-6.9,16.7" fill="none" id="n_id_106" stroke="#000000" stroke-linecap="round" stroke-linejoin="round" stroke-miterlimit="10" stroke-width="0.15"/></g><g id="CIRCLE_8_">
		
			<path d="    M243.5,261.7c0-1.1,0.9-2,2-2s2,0.9,2,2s-0.9,2-2,2S243.5,262.8,243.5,261.7L243.5,261.7z" fill="none" id="n_id_107" stroke="#000000" stroke-linecap="round" stroke-linejoin="round" stroke-miterlimit="10" stroke-width="0.15"/></g><g id="LWPOLYLINE_10_">
		
			<polygon fill="none" id="n_id_108" points="    259.5,260 262.4,261.7 259.5,263.4   " stroke="#000000" stroke-linecap="round" stroke-linejoin="round" stroke-miterlimit="10" stroke-width="0.15"/></g><g id="LINE_62_">
		
			<line fill="none" id="n_id_109" stroke="#000000" stroke-linecap="round" stroke-linejoin="round" stroke-miterlimit="10" stroke-width="0.15" x1="264.5" x2="262.4" y1="261.7" y2="261.7"/></g><g id="LINE_63_">
		
			<line fill="none" id="n_id_110" stroke="#000000" stroke-linecap="round" stroke-linejoin="round" stroke-miterlimit="10" stroke-width="0.15" x1="244.6" x2="265.5" y1="214.1" y2="235"/></g><g id="LINE_64_">
		
			<line fill="none" id="n_id_111" stroke="#000000" stroke-linecap="round" stroke-linejoin="round" stroke-miterlimit="10" stroke-width="0.15" x1="265.5" x2="264.5" y1="235" y2="236"/></g><g id="ARC_19_">
		
			<path d="    M264.5,206.4c-7.3,0.1-14.4,2.8-19.9,7.6" fill="none" id="n_id_112" stroke="#000000" stroke-linecap="round" stroke-linejoin="round" stroke-miterlimit="10" stroke-width="0.15"/></g><g id="LINE_65_">
		
			<line fill="none" id="n_id_113" stroke="#000000" stroke-linecap="round" stroke-linejoin="round" stroke-miterlimit="10" stroke-width="0.15" x1="264.5" x2="243.6" y1="236" y2="215.1"/></g><g id="LINE_66_">
		
			<line fill="none" id="n_id_114" stroke="#000000" stroke-linecap="round" stroke-linejoin="round" stroke-miterlimit="10" stroke-width="0.15" x1="244.6" x2="243.6" y1="214.1" y2="215.1"/></g><g id="LINE_67_">
		
			<line fill="none" id="n_id_115" stroke="#000000" stroke-linecap="round" stroke-linejoin="round" stroke-miterlimit="10" stroke-width="0.15" x1="238.4" x2="239.6" y1="201.5" y2="201.5"/></g><g id="LINE_68_">
		
			<line fill="none" id="n_id_116" stroke="#000000" stroke-linecap="round" stroke-linejoin="round" stroke-miterlimit="10" stroke-width="0.15" x1="239.6" x2="239.6" y1="202.5" y2="201.5"/></g><g id="LINE_69_">
		
			<line fill="none" id="n_id_117" stroke="#000000" stroke-linecap="round" stroke-linejoin="round" stroke-miterlimit="10" stroke-width="0.15" x1="263.3" x2="264.5" y1="201.5" y2="201.5"/></g><g id="LINE_70_">
		
			<line fill="none" id="n_id_118" stroke="#000000" stroke-linecap="round" stroke-linejoin="round" stroke-miterlimit="10" stroke-width="0.15" x1="263.3" x2="263.3" y1="202.5" y2="201.5"/></g><g id="LINE_71_">
		
			<line fill="none" id="n_id_119" stroke="#000000" stroke-linecap="round" stroke-linejoin="round" stroke-miterlimit="10" stroke-width="0.15" x1="239.6" x2="263.3" y1="201.5" y2="201.5"/></g><g id="ARC_20_">
		
			<path d="    M301.7,117.7c-16.7,1-29.8,14.8-29.8,31.6" fill="none" id="n_id_120" stroke="#000000" stroke-linecap="round" stroke-linejoin="round" stroke-miterlimit="10" stroke-width="0.15"/></g><g id="LINE_72_">
		
			<line fill="none" id="n_id_121" stroke="#000000" stroke-linecap="round" stroke-linejoin="round" stroke-miterlimit="10" stroke-width="0.15" x1="303.5" x2="303.5" y1="149.3" y2="117.7"/></g><g id="LINE_73_">
		
			<line fill="none" id="n_id_122" stroke="#000000" stroke-linecap="round" stroke-linejoin="round" stroke-miterlimit="10" stroke-width="0.15" x1="301.7" x2="301.7" y1="149.3" y2="117.7"/></g><g id="LINE_74_">
		
			<line fill="none" id="n_id_123" stroke="#000000" stroke-linecap="round" stroke-linejoin="round" stroke-miterlimit="10" stroke-width="0.15" x1="301.7" x2="303.5" y1="117.7" y2="117.7"/></g><g id="LINE_75_">
		
			<line fill="none" id="n_id_124" stroke="#000000" stroke-linecap="round" stroke-linejoin="round" stroke-miterlimit="10" stroke-width="0.15" x1="301.7" x2="303.5" y1="149.3" y2="149.3"/></g><g id="LINE_76_">
		
			<line fill="none" id="n_id_125" stroke="#000000" stroke-linecap="round" stroke-linejoin="round" stroke-miterlimit="10" stroke-width="0.15" x1="307.1" x2="291.1" y1="306.5" y2="306.5"/></g><g id="LINE_82_">
		
			<line fill="none" id="n_id_126" stroke="#000000" stroke-linecap="round" stroke-linejoin="round" stroke-miterlimit="10" stroke-width="0.15" x1="421.1" x2="394.4" y1="227.6" y2="227.6"/></g><g id="LINE_83_">
		
			<line fill="none" id="n_id_127" stroke="#000000" stroke-linecap="round" stroke-linejoin="round" stroke-miterlimit="10" stroke-width="0.15" x1="394.4" x2="421.1" y1="201" y2="201"/></g><g id="LINE_84_">
		
			<line fill="none" id="n_id_128" stroke="#000000" stroke-linecap="round" stroke-linejoin="round" stroke-miterlimit="10" stroke-width="0.15" x1="394.4" x2="394.4" y1="227.6" y2="201"/></g><g id="LINE_85_">
		
			<line fill="none" id="n_id_129" stroke="#000000" stroke-linecap="round" stroke-linejoin="round" stroke-miterlimit="10" stroke-width="0.15" x1="421.1" x2="421.1" y1="201" y2="227.6"/></g><g id="LINE_86_">
		
			<line fill="none" id="n_id_130" stroke="#000000" stroke-linecap="round" stroke-linejoin="round" stroke-miterlimit="10" stroke-width="0.15" x1="418.5" x2="418.5" y1="227.6" y2="201"/></g><g id="LINE_87_">
		
			<line fill="none" id="n_id_131" stroke="#000000" stroke-linecap="round" stroke-linejoin="round" stroke-miterlimit="10" stroke-width="0.15" x1="252.2" x2="252.2" y1="284.8" y2="312.9"/></g><g id="LINE_88_">
		
			<line fill="none" id="n_id_132" stroke="#000000" stroke-linecap="round" stroke-linejoin="round" stroke-miterlimit="10" stroke-width="0.15" x1="287.7" x2="287.7" y1="284.8" y2="312.9"/></g><g id="LINE_89_">
		
			<line fill="none" id="n_id_133" stroke="#000000" stroke-linecap="round" stroke-linejoin="round" stroke-miterlimit="10" stroke-width="0.15" x1="287.7" x2="252.2" y1="284.8" y2="284.8"/></g><g id="LINE_90_">
		
			<line fill="none" id="n_id_134" stroke="#000000" stroke-linecap="round" stroke-linejoin="round" stroke-miterlimit="10" stroke-width="0.15" x1="287.7" x2="252.2" y1="311" y2="311"/></g><g id="LINE_91_">
		
			<line fill="none" id="n_id_135" stroke="#000000" stroke-linecap="round" stroke-linejoin="round" stroke-miterlimit="10" stroke-width="0.15" x1="274.6" x2="252.2" y1="312.9" y2="312.9"/></g><g id="LINE_92_">
		
			<line fill="none" id="n_id_136" stroke="#000000" stroke-linecap="round" stroke-linejoin="round" stroke-miterlimit="10" stroke-width="0.15" x1="287.7" x2="275.1" y1="312.9" y2="312.9"/></g><g id="LINE_93_">
		
			<line fill="none" id="n_id_137" stroke="#000000" stroke-linecap="round" stroke-linejoin="round" stroke-miterlimit="10" stroke-width="0.15" x1="275.1" x2="275.1" y1="311" y2="312.9"/></g><g id="LINE_94_">
		
			<line fill="none" id="n_id_138" stroke="#000000" stroke-linecap="round" stroke-linejoin="round" stroke-miterlimit="10" stroke-width="0.15" x1="274.6" x2="274.6" y1="311" y2="312.9"/></g><g id="LINE_95_">
		
			<line fill="none" id="n_id_139" stroke="#000000" stroke-linecap="round" stroke-linejoin="round" stroke-miterlimit="10" stroke-width="0.15" x1="290.1" x2="290.1" y1="305.6" y2="306.5"/></g><g id="LINE_96_">
		
			<line fill="none" id="n_id_140" stroke="#000000" stroke-linecap="round" stroke-linejoin="round" stroke-miterlimit="10" stroke-width="0.15" x1="264.5" x2="247" y1="243.9" y2="260.3"/></g><g id="LINE_97_">
		
			<line fill="none" id="n_id_141" stroke="#000000" stroke-linecap="round" stroke-linejoin="round" stroke-miterlimit="10" stroke-width="0.15" x1="237.4" x2="264.5" y1="202.5" y2="202.5"/></g><g id="LINE_98_">
		
			<line fill="none" id="n_id_142" stroke="#000000" stroke-linecap="round" stroke-linejoin="round" stroke-miterlimit="10" stroke-width="0.15" x1="308.4" x2="308.4" y1="305.6" y2="282.9"/></g><g id="LINE_99_">
		
			<line fill="none" id="n_id_143" stroke="#000000" stroke-linecap="round" stroke-linejoin="round" stroke-miterlimit="10" stroke-width="0.15" x1="308.4" x2="308.4" y1="305.6" y2="306.5"/></g><g id="LINE_100_">
		
			<line fill="none" id="n_id_144" stroke="#000000" stroke-linecap="round" stroke-linejoin="round" stroke-miterlimit="10" stroke-width="0.15" x1="226.5" x2="244.1" y1="243.9" y2="260.3"/></g><g id="LINE_101_">
		
			<line fill="none" id="n_id_145" stroke="#000000" stroke-linecap="round" stroke-linejoin="round" stroke-miterlimit="10" stroke-width="0.15" x1="247" x2="264.5" y1="263" y2="279.4"/></g><g id="LINE_102_">
		
			<line fill="none" id="n_id_146" stroke="#000000" stroke-linecap="round" stroke-linejoin="round" stroke-miterlimit="10" stroke-width="0.15" x1="244.1" x2="226.5" y1="263" y2="279.4"/></g><g id="LINE_103_">
		
			<line fill="none" id="n_id_147" stroke="#000000" stroke-linecap="round" stroke-linejoin="round" stroke-miterlimit="10" stroke-width="0.15" x1="294.8" x2="307.7" y1="318.8" y2="305.9"/></g><g id="LINE_104_">
		
			<line fill="none" id="n_id_148" stroke="#000000" stroke-linecap="round" stroke-linejoin="round" stroke-miterlimit="10" stroke-width="0.15" x1="307.7" x2="308.4" y1="305.9" y2="306.5"/></g><g id="ARC_21_">
		
			<path d="    M290.1,306.5c0.1,4.5,1.7,8.9,4.7,12.3" fill="none" id="n_id_149" stroke="#000000" stroke-linecap="round" stroke-linejoin="round" stroke-miterlimit="10" stroke-width="0.15"/></g><g id="LINE_105_">
		
			<line fill="none" id="n_id_150" stroke="#000000" stroke-linecap="round" stroke-linejoin="round" stroke-miterlimit="10" stroke-width="0.15" x1="308.4" x2="295.5" y1="306.5" y2="319.4"/></g><g id="LINE_106_">
		
			<line fill="none" id="n_id_151" stroke="#000000" stroke-linecap="round" stroke-linejoin="round" stroke-miterlimit="10" stroke-width="0.15" x1="294.8" x2="295.5" y1="318.8" y2="319.4"/></g><g id="LINE_107_">
		
			<line fill="none" id="n_id_152" stroke="#000000" stroke-linecap="round" stroke-linejoin="round" stroke-miterlimit="10" stroke-width="0.15" x1="289.2" x2="290.1" y1="306.5" y2="306.5"/></g><g id="LINE_108_">
		
			<line fill="none" id="n_id_153" stroke="#000000" stroke-linecap="round" stroke-linejoin="round" stroke-miterlimit="10" stroke-width="0.15" x1="250.7" x2="250.7" y1="306.5" y2="282.9"/></g><g id="LINE_110_">
		
			<line fill="none" id="n_id_154" stroke="#000000" stroke-linecap="round" stroke-linejoin="round" stroke-miterlimit="10" stroke-width="0.15" x1="360.2" x2="360.2" y1="381" y2="440.2"/></g><g id="LINE_111_">
		
			<line fill="none" id="n_id_155" stroke="#000000" stroke-linecap="round" stroke-linejoin="round" stroke-miterlimit="10" stroke-width="0.15" x1="360.2" x2="383.8" y1="381" y2="381"/></g><g id="LINE_112_">
		
			<line fill="none" id="n_id_156" stroke="#000000" stroke-linecap="round" stroke-linejoin="round" stroke-miterlimit="10" stroke-width="0.15" x1="360.2" x2="383.8" y1="440.2" y2="440.2"/></g><g id="LINE_113_">
		
			<line fill="none" id="n_id_157" stroke="#000000" stroke-linecap="round" stroke-linejoin="round" stroke-miterlimit="10" stroke-width="0.15" x1="384.8" x2="363.9" y1="201.5" y2="222.5"/></g><g id="LINE_114_">
		
			<line fill="none" id="n_id_158" stroke="#000000" stroke-linecap="round" stroke-linejoin="round" stroke-miterlimit="10" stroke-width="0.15" x1="383.8" x2="362.9" y1="200.5" y2="221.4"/></g><g id="LINE_115_">
		
			<line fill="none" id="n_id_159" stroke="#000000" stroke-linecap="round" stroke-linejoin="round" stroke-miterlimit="10" stroke-width="0.15" x1="384.8" x2="383.8" y1="201.5" y2="200.5"/></g><g id="LINE_116_">
		
			<line fill="none" id="n_id_160" stroke="#000000" stroke-linecap="round" stroke-linejoin="round" stroke-miterlimit="10" stroke-width="0.15" x1="384.8" x2="363.9" y1="258.7" y2="237.8"/></g><g id="LINE_117_">
		
			<line fill="none" id="n_id_161" stroke="#000000" stroke-linecap="round" stroke-linejoin="round" stroke-miterlimit="10" stroke-width="0.15" x1="383.8" x2="362.9" y1="259.7" y2="238.8"/></g><g id="ARC_22_">
		
			<path d="    M383.8,230.1c-7.3,0.1-14.4,2.8-19.8,7.7" fill="none" id="n_id_162" stroke="#000000" stroke-linecap="round" stroke-linejoin="round" stroke-miterlimit="10" stroke-width="0.15"/></g><g id="ARC_23_">
		
			<path d="    M364,222.4c5.4,4.9,12.5,7.7,19.8,7.7" fill="none" id="n_id_163" stroke="#000000" stroke-linecap="round" stroke-linejoin="round" stroke-miterlimit="10" stroke-width="0.15"/></g><g id="LINE_118_">
		
			<line fill="none" id="n_id_164" stroke="#000000" stroke-linecap="round" stroke-linejoin="round" stroke-miterlimit="10" stroke-width="0.15" x1="363.9" x2="362.9" y1="222.5" y2="221.4"/></g><g id="LINE_119_">
		
			<line fill="none" id="n_id_165" stroke="#000000" stroke-linecap="round" stroke-linejoin="round" stroke-miterlimit="10" stroke-width="0.15" x1="363.9" x2="362.9" y1="237.8" y2="238.8"/></g><g id="LINE_120_">
		
			<line fill="none" id="n_id_166" stroke="#000000" stroke-linecap="round" stroke-linejoin="round" stroke-miterlimit="10" stroke-width="0.15" x1="384.8" x2="383.8" y1="258.7" y2="259.7"/></g><g id="LINE_121_">
		
			<line fill="none" id="n_id_167" stroke="#000000" stroke-linecap="round" stroke-linejoin="round" stroke-miterlimit="10" stroke-width="0.15" x1="421.1" x2="394.4" y1="232.6" y2="232.6"/></g><g id="LINE_122_">
		
			<line fill="none" id="n_id_168" stroke="#000000" stroke-linecap="round" stroke-linejoin="round" stroke-miterlimit="10" stroke-width="0.15" x1="394.4" x2="421.1" y1="259.2" y2="259.2"/></g><g id="LINE_123_">
		
			<line fill="none" id="n_id_169" stroke="#000000" stroke-linecap="round" stroke-linejoin="round" stroke-miterlimit="10" stroke-width="0.15" x1="394.4" x2="394.4" y1="232.6" y2="259.2"/></g><g id="LINE_124_">
		
			<line fill="none" id="n_id_170" stroke="#000000" stroke-linecap="round" stroke-linejoin="round" stroke-miterlimit="10" stroke-width="0.15" x1="421.1" x2="421.1" y1="259.2" y2="232.6"/></g><g id="LINE_125_">
		
			<line fill="none" id="n_id_171" stroke="#000000" stroke-linecap="round" stroke-linejoin="round" stroke-miterlimit="10" stroke-width="0.15" x1="418.5" x2="418.5" y1="232.6" y2="259.2"/></g><g id="ARC_24_">
		
			<path d="    M226.3,149.3c0-7.8-2.8-15.3-8-21.1" fill="none" id="n_id_172" stroke="#000000" stroke-linecap="round" stroke-linejoin="round" stroke-miterlimit="10" stroke-width="0.15"/></g><g id="LINE_127_">
		
			<line fill="none" id="n_id_173" stroke="#000000" stroke-linecap="round" stroke-linejoin="round" stroke-miterlimit="10" stroke-width="0.15" x1="194.7" x2="217" y1="149.3" y2="126.9"/></g><g id="LINE_128_">
		
			<line fill="none" id="n_id_174" stroke="#000000" stroke-linecap="round" stroke-linejoin="round" stroke-miterlimit="10" stroke-width="0.15" x1="196" x2="218.3" y1="150.5" y2="128.2"/></g><g id="LINE_129_">
		
			<line fill="none" id="n_id_175" stroke="#000000" stroke-linecap="round" stroke-linejoin="round" stroke-miterlimit="10" stroke-width="0.15" x1="218.3" x2="217" y1="128.2" y2="126.9"/></g><g id="LINE_130_">
		
			<line fill="none" id="n_id_176" stroke="#000000" stroke-linecap="round" stroke-linejoin="round" stroke-miterlimit="10" stroke-width="0.15" x1="196" x2="194.7" y1="150.5" y2="149.3"/></g><g id="LINE_131_">
		
			<line fill="none" id="n_id_177" stroke="#000000" stroke-linecap="round" stroke-linejoin="round" stroke-miterlimit="10" stroke-width="0.15" x1="328.7" x2="312" y1="267.4" y2="250.7"/></g><g id="LINE_132_">
		
			<line fill="none" id="n_id_178" stroke="#000000" stroke-linecap="round" stroke-linejoin="round" stroke-miterlimit="10" stroke-width="0.15" x1="312" x2="312.8" y1="250.7" y2="249.8"/></g><g id="ARC_25_">
		
			<path d="    M312.8,273.5c5.9-0.1,11.5-2.2,15.9-6.1" fill="none" id="n_id_179" stroke="#000000" stroke-linecap="round" stroke-linejoin="round" stroke-miterlimit="10" stroke-width="0.15"/></g><g id="LINE_133_">
		
			<line fill="none" id="n_id_180" stroke="#000000" stroke-linecap="round" stroke-linejoin="round" stroke-miterlimit="10" stroke-width="0.15" x1="312.8" x2="329.6" y1="249.8" y2="266.6"/></g><g id="LINE_134_">
		
			<line fill="none" id="n_id_181" stroke="#000000" stroke-linecap="round" stroke-linejoin="round" stroke-miterlimit="10" stroke-width="0.15" x1="328.7" x2="329.6" y1="267.4" y2="266.6"/></g><g id="LINE_135_">
		
			<line fill="none" id="n_id_182" stroke="#000000" stroke-linecap="round" stroke-linejoin="round" stroke-miterlimit="10" stroke-width="0.15" x1="283.9" x2="267.1" y1="173.2" y2="156.5"/></g><g id="LINE_136_">
		
			<line fill="none" id="n_id_183" stroke="#000000" stroke-linecap="round" stroke-linejoin="round" stroke-miterlimit="10" stroke-width="0.15" x1="267.1" x2="268" y1="156.5" y2="155.7"/></g><g id="ARC_26_">
		
			<path d="    M268,179.3c5.9-0.1,11.5-2.2,15.9-6.1" fill="none" id="n_id_184" stroke="#000000" stroke-linecap="round" stroke-linejoin="round" stroke-miterlimit="10" stroke-width="0.15"/></g><g id="LINE_137_">
		
			<line fill="none" id="n_id_185" stroke="#000000" stroke-linecap="round" stroke-linejoin="round" stroke-miterlimit="10" stroke-width="0.15" x1="268" x2="284.7" y1="155.7" y2="172.4"/></g><g id="LINE_138_">
		
			<line fill="none" id="n_id_186" stroke="#000000" stroke-linecap="round" stroke-linejoin="round" stroke-miterlimit="10" stroke-width="0.15" x1="283.9" x2="284.7" y1="173.2" y2="172.4"/></g><g id="LINE_139_">
		
			<line fill="none" id="n_id_187" stroke="#000000" stroke-linecap="round" stroke-linejoin="round" stroke-miterlimit="10" stroke-width="0.15" x1="237.4" x2="237.4" y1="185.7" y2="202.5"/></g><g id="LINE_140_">
		
			<line fill="none" id="n_id_188" stroke="#000000" stroke-linecap="round" stroke-linejoin="round" stroke-miterlimit="10" stroke-width="0.15" x1="238.4" x2="238.4" y1="185.7" y2="201.5"/></g><g id="LINE_142_">
		
			<line fill="none" id="n_id_189" stroke="#000000" stroke-linecap="round" stroke-linejoin="round" stroke-miterlimit="10" stroke-width="0.15" x1="216.4" x2="216.4" y1="306.5" y2="332.2"/></g><g id="LINE_143_">
		
			<line fill="none" id="n_id_190" stroke="#000000" stroke-linecap="round" stroke-linejoin="round" stroke-miterlimit="10" stroke-width="0.15" x1="216.4" x2="192.8" y1="332.2" y2="332.2"/></g><g id="LINE_144_">
		
			<line fill="none" id="n_id_191" stroke="#000000" stroke-linecap="round" stroke-linejoin="round" stroke-miterlimit="10" stroke-width="0.15" x1="200.4" x2="203.9" y1="355.3" y2="355.3"/></g><g id="LINE_146_">
		
			<line fill="none" id="n_id_193" stroke="#000000" stroke-linecap="round" stroke-linejoin="round" stroke-miterlimit="10" stroke-width="0.15" x1="217.4" x2="193.7" y1="362.7" y2="362.7"/></g><g id="LINE_147_">
		
			<line fill="none" id="n_id_194" stroke="#000000" stroke-linecap="round" stroke-linejoin="round" stroke-miterlimit="10" stroke-width="0.15" x1="217.4" x2="193.7" y1="333.2" y2="333.2"/></g><g id="LINE_148_">
		
			<line fill="none" id="n_id_195" stroke="#000000" stroke-linecap="round" stroke-linejoin="round" stroke-miterlimit="10" stroke-width="0.15" x1="217.4" x2="217.4" y1="333.2" y2="362.7"/></g><g id="LINE_149_">
		
			<line fill="none" id="n_id_196" stroke="#000000" stroke-linecap="round" stroke-linejoin="round" stroke-miterlimit="10" stroke-width="0.15" x1="215.7" x2="215.7" y1="333.2" y2="362.7"/></g><g id="LINE_151_">
		
			<line fill="none" id="n_id_197" stroke="#000000" stroke-linecap="round" stroke-linejoin="round" stroke-miterlimit="10" stroke-width="0.15" x1="207.6" x2="209.3" y1="336.8" y2="339.8"/></g><g id="LINE_152_">
		
			<line fill="none" id="n_id_198" stroke="#000000" stroke-linecap="round" stroke-linejoin="round" stroke-miterlimit="10" stroke-width="0.15" x1="212" x2="210.3" y1="336.8" y2="339.8"/></g><g id="CIRCLE_9_">
		
			<path d="    M205.8,340.6c0-2.2,1.8-3.9,3.9-3.9c2.2,0,3.9,1.8,3.9,3.9s-1.8,3.9-3.9,3.9C207.6,344.6,205.8,342.8,205.8,340.6L205.8,340.6z" fill="none" id="n_id_199" stroke="#000000" stroke-linecap="round" stroke-linejoin="round" stroke-miterlimit="10" stroke-width="0.15"/></g><g id="CIRCLE_10_">
		
			<path d="    M205.8,355.3c0-2.2,1.8-3.9,3.9-3.9c2.2,0,3.9,1.8,3.9,3.9c0,2.2-1.8,3.9-3.9,3.9C207.6,359.2,205.8,357.5,205.8,355.3    L205.8,355.3z" fill="none" id="n_id_200" stroke="#000000" stroke-linecap="round" stroke-linejoin="round" stroke-miterlimit="10" stroke-width="0.15"/></g><g id="LINE_153_">
		
			<line fill="none" id="n_id_201" stroke="#000000" stroke-linecap="round" stroke-linejoin="round" stroke-miterlimit="10" stroke-width="0.15" x1="209.3" x2="207.6" y1="356.1" y2="359.1"/></g><g id="LINE_154_">
		
			<line fill="none" id="n_id_202" stroke="#000000" stroke-linecap="round" stroke-linejoin="round" stroke-miterlimit="10" stroke-width="0.15" x1="210.3" x2="212" y1="356.1" y2="359.1"/></g><g id="LINE_155_">
		
			<line fill="none" id="n_id_203" stroke="#000000" stroke-linecap="round" stroke-linejoin="round" stroke-miterlimit="10" stroke-width="0.15" x1="207.6" x2="209.3" y1="351.4" y2="354.4"/></g><g id="LINE_156_">
		
			<line fill="none" id="n_id_204" stroke="#000000" stroke-linecap="round" stroke-linejoin="round" stroke-miterlimit="10" stroke-width="0.15" x1="209.3" x2="207.6" y1="341.5" y2="344.5"/></g><g id="LINE_157_">
		
			<line fill="none" id="n_id_205" stroke="#000000" stroke-linecap="round" stroke-linejoin="round" stroke-miterlimit="10" stroke-width="0.15" x1="212" x2="210.3" y1="351.4" y2="354.4"/></g><g id="LINE_158_">
		
			<line fill="none" id="n_id_206" stroke="#000000" stroke-linecap="round" stroke-linejoin="round" stroke-miterlimit="10" stroke-width="0.15" x1="210.8" x2="214.2" y1="355.3" y2="355.3"/></g><g id="LINE_159_">
		
			<line fill="none" id="n_id_207" stroke="#000000" stroke-linecap="round" stroke-linejoin="round" stroke-miterlimit="10" stroke-width="0.15" x1="210.3" x2="212" y1="341.5" y2="344.5"/></g><g id="LINE_160_">
		
			<line fill="none" id="n_id_208" stroke="#000000" stroke-linecap="round" stroke-linejoin="round" stroke-miterlimit="10" stroke-width="0.15" x1="210.8" x2="214.2" y1="340.6" y2="340.6"/></g><g id="LINE_161_">
		
			<line fill="none" id="n_id_209" stroke="#000000" stroke-linecap="round" stroke-linejoin="round" stroke-miterlimit="10" stroke-width="0.15" x1="205.4" x2="208.8" y1="355.3" y2="355.3"/></g><g id="LINE_162_">
		
			<line fill="none" id="n_id_210" stroke="#000000" stroke-linecap="round" stroke-linejoin="round" stroke-miterlimit="10" stroke-width="0.15" x1="205.4" x2="208.8" y1="340.6" y2="340.6"/></g><g id="LINE_165_">
		
			<line fill="none" id="n_id_214" stroke="#000000" stroke-linecap="round" stroke-linejoin="round" stroke-miterlimit="10" stroke-width="0.15" x1="193.7" x2="193.7" y1="362.7" y2="333.2"/></g><g id="CIRCLE_12_">
		
			<path d="    M195.5,355.3c0-2.2,1.8-3.9,3.9-3.9c2.2,0,3.9,1.8,3.9,3.9c0,2.2-1.8,3.9-3.9,3.9C197.3,359.2,195.5,357.5,195.5,355.3    L195.5,355.3z" fill="none" id="n_id_215" stroke="#000000" stroke-linecap="round" stroke-linejoin="round" stroke-miterlimit="10" stroke-width="0.15"/></g><g id="LINE_166_">
		
			<line fill="none" id="n_id_216" stroke="#000000" stroke-linecap="round" stroke-linejoin="round" stroke-miterlimit="10" stroke-width="0.15" x1="198.9" x2="197.2" y1="356.1" y2="359.1"/></g><g id="LINE_167_">
		
			<line fill="none" id="n_id_217" stroke="#000000" stroke-linecap="round" stroke-linejoin="round" stroke-miterlimit="10" stroke-width="0.15" x1="199.9" x2="201.7" y1="356.1" y2="359.1"/></g><g id="LINE_168_">
		
			<line fill="none" id="n_id_218" stroke="#000000" stroke-linecap="round" stroke-linejoin="round" stroke-miterlimit="10" stroke-width="0.15" x1="197.2" x2="198.9" y1="351.4" y2="354.4"/></g><g id="LINE_169_">
		
			<line fill="none" id="n_id_219" stroke="#000000" stroke-linecap="round" stroke-linejoin="round" stroke-miterlimit="10" stroke-width="0.15" x1="195" x2="198.5" y1="355.3" y2="355.3"/></g><g id="LINE_172_">
		
			<line fill="none" id="n_id_222" stroke="#000000" stroke-linecap="round" stroke-linejoin="round" stroke-miterlimit="10" stroke-width="0.15" x1="201.7" x2="199.9" y1="351.4" y2="354.4"/></g><g id="LINE_174_">
		
			<line fill="none" id="n_id_224" stroke="#000000" stroke-linecap="round" stroke-linejoin="round" stroke-miterlimit="10" stroke-width="0.15" x1="216.4" x2="216.4" y1="363.7" y2="404.7"/></g><g id="LINE_175_">
		
			<line fill="none" id="n_id_225" stroke="#000000" stroke-linecap="round" stroke-linejoin="round" stroke-miterlimit="10" stroke-width="0.15" x1="216.4" x2="192.8" y1="363.7" y2="363.7"/></g><g id="LINE_176_">
		
			<line fill="none" id="n_id_226" stroke="#000000" stroke-linecap="round" stroke-linejoin="round" stroke-miterlimit="10" stroke-width="0.15" x1="365.3" x2="384.8" y1="313.2" y2="293.7"/></g><g id="LINE_177_">
		
			<line fill="none" id="n_id_227" stroke="#000000" stroke-linecap="round" stroke-linejoin="round" stroke-miterlimit="10" stroke-width="0.15" x1="384.8" x2="383.8" y1="293.7" y2="292.7"/></g><g id="ARC_27_">
		
			<path d="    M365.3,313.2c5.1,4.5,11.7,7,18.6,7.1" fill="none" id="n_id_228" stroke="#000000" stroke-linecap="round" stroke-linejoin="round" stroke-miterlimit="10" stroke-width="0.15"/></g><g id="LINE_178_">
		
			<line fill="none" id="n_id_229" stroke="#000000" stroke-linecap="round" stroke-linejoin="round" stroke-miterlimit="10" stroke-width="0.15" x1="383.8" x2="364.3" y1="292.7" y2="312.3"/></g><g id="LINE_179_">
		
			<line fill="none" id="n_id_230" stroke="#000000" stroke-linecap="round" stroke-linejoin="round" stroke-miterlimit="10" stroke-width="0.15" x1="365.3" x2="364.3" y1="313.2" y2="312.3"/></g><g id="LINE_180_">
		
			<line fill="none" id="n_id_231" stroke="#000000" stroke-linecap="round" stroke-linejoin="round" stroke-miterlimit="10" stroke-width="0.15" x1="406" x2="406" y1="291.7" y2="326.3"/></g><g id="LINE_181_">
		
			<line fill="none" id="n_id_232" stroke="#000000" stroke-linecap="round" stroke-linejoin="round" stroke-miterlimit="10" stroke-width="0.15" x1="383.8" x2="383.8" y1="322.3" y2="320.4"/></g><g id="LINE_182_">
		
			<line fill="none" id="n_id_233" stroke="#000000" stroke-linecap="round" stroke-linejoin="round" stroke-miterlimit="10" stroke-width="0.15" x1="383.8" x2="383.8" y1="292.7" y2="290.8"/></g><g id="LINE_183_">
		
			<line fill="none" id="n_id_234" stroke="#000000" stroke-linecap="round" stroke-linejoin="round" stroke-miterlimit="10" stroke-width="0.15" x1="384.8" x2="384.8" y1="292.7" y2="290.8"/></g><g id="LINE_184_">
		
			<line fill="none" id="n_id_235" stroke="#000000" stroke-linecap="round" stroke-linejoin="round" stroke-miterlimit="10" stroke-width="0.15" x1="384.8" x2="384.8" y1="320.3" y2="322.3"/></g><g id="LINE_185_">
		
			<line fill="none" id="n_id_236" stroke="#000000" stroke-linecap="round" stroke-linejoin="round" stroke-miterlimit="10" stroke-width="0.15" x1="406" x2="384.8" y1="291.7" y2="291.7"/></g><g id="LINE_186_">
		
			<line fill="none" id="n_id_237" stroke="#000000" stroke-linecap="round" stroke-linejoin="round" stroke-miterlimit="10" stroke-width="0.15" x1="384.8" x2="383.8" y1="292.7" y2="292.7"/></g><g id="LINE_187_">
		
			<line fill="none" id="n_id_238" stroke="#000000" stroke-linecap="round" stroke-linejoin="round" stroke-miterlimit="10" stroke-width="0.15" x1="383.8" x2="384.8" y1="320.3" y2="320.3"/></g><g id="LWPOLYLINE_18_">
		
			<polyline fill="none" id="n_id_239" points="    313.3,634.9 313.3,636.4 254.1,636.4 254.1,634.9   " stroke="#000000" stroke-linecap="round" stroke-linejoin="round" stroke-miterlimit="10" stroke-width="0.15"/></g><g id="LINE_200_">
		
			<line fill="none" id="n_id_240" stroke="#000000" stroke-linecap="round" stroke-linejoin="round" stroke-miterlimit="10" stroke-width="0.15" x1="322.7" x2="322.7" y1="640.3" y2="638.4"/></g><g id="LINE_201_">
		
			<line fill="none" id="n_id_241" stroke="#000000" stroke-linecap="round" stroke-linejoin="round" stroke-miterlimit="10" stroke-width="0.15" x1="365.1" x2="322.7" y1="640.3" y2="640.3"/></g><g id="LWPOLYLINE_29_">
		
			<line fill="none" id="n_id_242" stroke="#000000" stroke-linecap="round" stroke-linejoin="round" stroke-miterlimit="10" stroke-width="0.15" x1="426.2" x2="427.7" y1="378" y2="378"/></g><g id="ELLIPSE_1_">
		
			<path d="    M409.5,453.9c0,1.2-0.4,2.3-1,2.5c-0.5,0.2-1-0.6-1-1.8" fill="none" id="n_id_243" stroke="#000000" stroke-linecap="round" stroke-linejoin="round" stroke-miterlimit="10" stroke-width="0.15"/></g><g id="LINE_202_">
		
			<line fill="none" id="n_id_244" stroke="#000000" stroke-linecap="round" stroke-linejoin="round" stroke-miterlimit="10" stroke-width="0.15" x1="407.4" x2="407.7" y1="454.3" y2="451.5"/></g><g id="LINE_203_">
		
			<line fill="none" id="n_id_245" stroke="#000000" stroke-linecap="round" stroke-linejoin="round" stroke-miterlimit="10" stroke-width="0.15" x1="387.3" x2="427.7" y1="496.4" y2="496.4"/></g><g id="LINE_204_">
		
			<line fill="none" id="n_id_246" stroke="#000000" stroke-linecap="round" stroke-linejoin="round" stroke-miterlimit="10" stroke-width="0.15" x1="387.3" x2="427.7" y1="486.5" y2="486.5"/></g><g id="LINE_205_">
		
			<line fill="none" id="n_id_247" stroke="#000000" stroke-linecap="round" stroke-linejoin="round" stroke-miterlimit="10" stroke-width="0.15" x1="387.3" x2="427.7" y1="506.2" y2="506.2"/></g><g id="LINE_206_">
		
			<line fill="none" id="n_id_248" stroke="#000000" stroke-linecap="round" stroke-linejoin="round" stroke-miterlimit="10" stroke-width="0.15" x1="387.3" x2="427.7" y1="526" y2="526"/></g><g id="LWPOLYLINE_30_">
		
			<line fill="none" id="n_id_249" stroke="#000000" stroke-linecap="round" stroke-linejoin="round" stroke-miterlimit="10" stroke-width="0.15" x1="424.3" x2="424.3" y1="374.1" y2="447.2"/></g><g id="LWPOLYLINE_31_">
		
			<line fill="none" id="n_id_250" stroke="#000000" stroke-linecap="round" stroke-linejoin="round" stroke-miterlimit="10" stroke-width="0.15" x1="426.2" x2="426.2" y1="447.7" y2="374.1"/></g><g id="LINE_207_">
		
			<line fill="none" id="n_id_251" stroke="#000000" stroke-linecap="round" stroke-linejoin="round" stroke-miterlimit="10" stroke-width="0.15" x1="387.3" x2="424.3" y1="437.2" y2="437.2"/></g><g id="LWPOLYLINE_32_">
		
			<line fill="none" id="n_id_252" stroke="#000000" stroke-linecap="round" stroke-linejoin="round" stroke-miterlimit="10" stroke-width="0.15" x1="426.2" x2="427.7" y1="437.2" y2="437.2"/></g><g id="LINE_208_">
		
			<line fill="none" id="n_id_253" stroke="#000000" stroke-linecap="round" stroke-linejoin="round" stroke-miterlimit="10" stroke-width="0.15" x1="387.3" x2="424.3" y1="427.3" y2="427.3"/></g><g id="LWPOLYLINE_33_">
		
			<line fill="none" id="n_id_254" stroke="#000000" stroke-linecap="round" stroke-linejoin="round" stroke-miterlimit="10" stroke-width="0.15" x1="426.2" x2="427.7" y1="427.3" y2="427.3"/></g><g id="LINE_209_">
		
			<line fill="none" id="n_id_255" stroke="#000000" stroke-linecap="round" stroke-linejoin="round" stroke-miterlimit="10" stroke-width="0.15" x1="387.3" x2="424.3" y1="417.5" y2="417.5"/></g><g id="LWPOLYLINE_34_">
		
			<line fill="none" id="n_id_256" stroke="#000000" stroke-linecap="round" stroke-linejoin="round" stroke-miterlimit="10" stroke-width="0.15" x1="426.2" x2="427.7" y1="417.5" y2="417.5"/></g><g id="LINE_210_">
		
			<line fill="none" id="n_id_257" stroke="#000000" stroke-linecap="round" stroke-linejoin="round" stroke-miterlimit="10" stroke-width="0.15" x1="387.3" x2="424.3" y1="378" y2="378"/></g><g id="LINE_211_">
		
			<line fill="none" id="n_id_258" stroke="#000000" stroke-linecap="round" stroke-linejoin="round" stroke-miterlimit="10" stroke-width="0.15" x1="424.3" x2="426.2" y1="374.1" y2="374.1"/></g><g id="ELLIPSE_2_">
		
			<path d="    M400.5,451.3c-0.7,4.4,0.3,8.8,2.2,9.8c1.9,1,3.9-1.8,4.6-6.2c0-0.2,0.1-0.4,0.1-0.6" fill="none" id="n_id_259" stroke="#000000" stroke-linecap="round" stroke-linejoin="round" stroke-miterlimit="10" stroke-width="0.15"/></g><g id="LINE_212_">
		
			<line fill="none" id="n_id_260" stroke="#000000" stroke-linecap="round" stroke-linejoin="round" stroke-miterlimit="10" stroke-width="0.15" x1="407.7" x2="407.5" y1="451.5" y2="454.6"/></g><g id="LINE_213_">
		
			<line fill="none" id="n_id_261" stroke="#000000" stroke-linecap="round" stroke-linejoin="round" stroke-miterlimit="10" stroke-width="0.15" x1="409.5" x2="409.6" y1="453.9" y2="452.1"/></g><g id="LINE_214_">
		
			<line fill="none" id="n_id_262" stroke="#000000" stroke-linecap="round" stroke-linejoin="round" stroke-miterlimit="10" stroke-width="0.15" x1="409.6" x2="409.9" y1="452.1" y2="456"/></g><g id="ARC_28_">
		
			<path d="    M409.9,456c0,0.2,0.2,0.3,0.3,0.3h0.1" fill="none" id="n_id_263" stroke="#000000" stroke-linecap="round" stroke-linejoin="round" stroke-miterlimit="10" stroke-width="0.15"/></g><g id="ARC_29_">
		
			<path d="    M410.3,456.2c0.1-0.1,0.2-0.2,0.2-0.3" fill="none" id="n_id_264" stroke="#000000" stroke-linecap="round" stroke-linejoin="round" stroke-miterlimit="10" stroke-width="0.15"/></g><g id="ARC_30_">
		
			<path d="    M410.5,455.9c0.4-1.2,0.7-2.5,0.7-3.8" fill="none" id="n_id_265" stroke="#000000" stroke-linecap="round" stroke-linejoin="round" stroke-miterlimit="10" stroke-width="0.15"/></g><g id="LINE_215_">
		
			<line fill="none" id="n_id_266" stroke="#000000" stroke-linecap="round" stroke-linejoin="round" stroke-miterlimit="10" stroke-width="0.15" x1="411.3" x2="411.4" y1="452.1" y2="455.6"/></g><g id="ARC_31_">
		
			<path d="    M411.4,455.6c0,0.2,0.2,0.3,0.4,0.3c0.1,0,0.2-0.1,0.2-0.1" fill="none" id="n_id_267" stroke="#000000" stroke-linecap="round" stroke-linejoin="round" stroke-miterlimit="10" stroke-width="0.15"/></g><g id="ARC_32_">
		
			<path d="    M412,455.8c0.1-0.1,0.2-0.2,0.2-0.4" fill="none" id="n_id_268" stroke="#000000" stroke-linecap="round" stroke-linejoin="round" stroke-miterlimit="10" stroke-width="0.15"/></g><g id="ARC_33_">
		
			<path d="    M412.2,455.4c0.3-0.9,0.4-1.8,0.6-2.7" fill="none" id="n_id_269" stroke="#000000" stroke-linecap="round" stroke-linejoin="round" stroke-miterlimit="10" stroke-width="0.15"/></g><g id="ARC_34_">
		
			<path d="    M413.1,452.6c-0.1-0.1-0.2-0.1-0.3-0.1l-0.1,0.1" fill="none" id="n_id_270" stroke="#000000" stroke-linecap="round" stroke-linejoin="round" stroke-miterlimit="10" stroke-width="0.15"/></g><g id="ARC_35_">
		
			<path d="    M414.2,454.6c-0.1-0.8-0.5-1.5-1.1-2" fill="none" id="n_id_271" stroke="#000000" stroke-linecap="round" stroke-linejoin="round" stroke-miterlimit="10" stroke-width="0.15"/></g><g id="LWPOLYLINE_35_">
		
			<line fill="none" id="n_id_272" stroke="#000000" stroke-linecap="round" stroke-linejoin="round" stroke-miterlimit="10" stroke-width="0.15" x1="383.8" x2="400.5" y1="447.2" y2="451.3"/></g><g id="LWPOLYLINE_36_">
		
			<line fill="none" id="n_id_273" stroke="#000000" stroke-linecap="round" stroke-linejoin="round" stroke-miterlimit="10" stroke-width="0.15" x1="414.2" x2="427.7" y1="454.6" y2="457.9"/></g><g id="ELLIPSE_3_">
		
			<path d="    M400.5,441.4c-0.7,4.4,0.3,8.8,2.2,9.8c1.9,1,3.9-1.8,4.6-6.2c0-0.2,0.1-0.4,0.1-0.6" fill="none" id="n_id_274" stroke="#000000" stroke-linecap="round" stroke-linejoin="round" stroke-miterlimit="10" stroke-width="0.15"/></g><g id="ELLIPSE_4_">
		
			<path d="    M409.5,444c0,1.2-0.4,2.3-1,2.5c-0.5,0.2-1-0.6-1-1.8" fill="none" id="n_id_275" stroke="#000000" stroke-linecap="round" stroke-linejoin="round" stroke-miterlimit="10" stroke-width="0.15"/></g><g id="LINE_216_">
		
			<line fill="none" id="n_id_276" stroke="#000000" stroke-linecap="round" stroke-linejoin="round" stroke-miterlimit="10" stroke-width="0.15" x1="407.4" x2="407.7" y1="444.4" y2="441.7"/></g><g id="LINE_217_">
		
			<line fill="none" id="n_id_277" stroke="#000000" stroke-linecap="round" stroke-linejoin="round" stroke-miterlimit="10" stroke-width="0.15" x1="407.7" x2="407.5" y1="441.7" y2="444.7"/></g><g id="LINE_218_">
		
			<line fill="none" id="n_id_278" stroke="#000000" stroke-linecap="round" stroke-linejoin="round" stroke-miterlimit="10" stroke-width="0.15" x1="409.5" x2="409.6" y1="444" y2="442.2"/></g><g id="LINE_219_">
		
			<line fill="none" id="n_id_279" stroke="#000000" stroke-linecap="round" stroke-linejoin="round" stroke-miterlimit="10" stroke-width="0.15" x1="409.6" x2="409.9" y1="442.2" y2="446.1"/></g><g id="ARC_36_">
		
			<path d="    M409.9,446.1c0,0.2,0.2,0.3,0.3,0.3h0.1" fill="none" id="n_id_280" stroke="#000000" stroke-linecap="round" stroke-linejoin="round" stroke-miterlimit="10" stroke-width="0.15"/></g><g id="ARC_37_">
		
			<path d="    M410.3,446.4c0.1-0.1,0.2-0.2,0.2-0.3" fill="none" id="n_id_281" stroke="#000000" stroke-linecap="round" stroke-linejoin="round" stroke-miterlimit="10" stroke-width="0.15"/></g><g id="ARC_38_">
		
			<path d="    M410.5,446.1c0.4-1.2,0.7-2.5,0.7-3.8" fill="none" id="n_id_282" stroke="#000000" stroke-linecap="round" stroke-linejoin="round" stroke-miterlimit="10" stroke-width="0.15"/></g><g id="LINE_220_">
		
			<line fill="none" id="n_id_283" stroke="#000000" stroke-linecap="round" stroke-linejoin="round" stroke-miterlimit="10" stroke-width="0.15" x1="411.3" x2="411.4" y1="442.2" y2="445.8"/></g><g id="ARC_39_">
		
			<path d="    M411.4,445.8c0,0.2,0.2,0.3,0.4,0.3c0.1,0,0.2-0.1,0.2-0.1" fill="none" id="n_id_284" stroke="#000000" stroke-linecap="round" stroke-linejoin="round" stroke-miterlimit="10" stroke-width="0.15"/></g><g id="ARC_40_">
		
			<path d="    M412,445.9c0.1-0.1,0.2-0.2,0.2-0.4" fill="none" id="n_id_285" stroke="#000000" stroke-linecap="round" stroke-linejoin="round" stroke-miterlimit="10" stroke-width="0.15"/></g><g id="ARC_41_">
		
			<path d="    M412.2,445.5c0.3-0.9,0.4-1.8,0.6-2.7" fill="none" id="n_id_286" stroke="#000000" stroke-linecap="round" stroke-linejoin="round" stroke-miterlimit="10" stroke-width="0.15"/></g><g id="ARC_42_">
		
			<path d="    M413.1,442.8c-0.1-0.1-0.2-0.1-0.3-0.1l-0.1,0.1" fill="none" id="n_id_287" stroke="#000000" stroke-linecap="round" stroke-linejoin="round" stroke-miterlimit="10" stroke-width="0.15"/></g><g id="ARC_43_">
		
			<path d="    M414.2,444.8c-0.1-0.8-0.5-1.5-1.1-2" fill="none" id="n_id_288" stroke="#000000" stroke-linecap="round" stroke-linejoin="round" stroke-miterlimit="10" stroke-width="0.15"/></g><g id="LWPOLYLINE_37_">
		
			<line fill="none" id="n_id_289" stroke="#000000" stroke-linecap="round" stroke-linejoin="round" stroke-miterlimit="10" stroke-width="0.15" x1="387.3" x2="400.5" y1="438.2" y2="441.4"/></g><g id="LWPOLYLINE_38_">
		
			<line fill="none" id="n_id_290" stroke="#000000" stroke-linecap="round" stroke-linejoin="round" stroke-miterlimit="10" stroke-width="0.15" x1="414.2" x2="427.7" y1="444.8" y2="448"/></g><g id="LINE_221_">
		
			<line fill="none" id="n_id_291" stroke="#000000" stroke-linecap="round" stroke-linejoin="round" stroke-miterlimit="10" stroke-width="0.15" x1="383.8" x2="383.8" y1="440.2" y2="526"/></g><g id="LINE_222_">
		
			<line fill="none" id="n_id_292" stroke="#000000" stroke-linecap="round" stroke-linejoin="round" stroke-miterlimit="10" stroke-width="0.15" x1="387.3" x2="387.3" y1="440.2" y2="526"/></g><g id="LINE_223_">
		
			<line fill="none" id="n_id_293" stroke="#000000" stroke-linecap="round" stroke-linejoin="round" stroke-miterlimit="10" stroke-width="0.15" x1="387.3" x2="427.7" y1="476.6" y2="476.6"/></g><g id="LINE_224_">
		
			<line fill="none" id="n_id_294" stroke="#000000" stroke-linecap="round" stroke-linejoin="round" stroke-miterlimit="10" stroke-width="0.15" x1="387.3" x2="427.7" y1="466.8" y2="466.8"/></g><g id="LINE_225_">
		
			<line fill="none" id="n_id_295" stroke="#000000" stroke-linecap="round" stroke-linejoin="round" stroke-miterlimit="10" stroke-width="0.15" x1="387.3" x2="400.5" y1="456.9" y2="456.9"/></g><g id="LINE_226_">
		
			<line fill="none" id="n_id_296" stroke="#000000" stroke-linecap="round" stroke-linejoin="round" stroke-miterlimit="10" stroke-width="0.15" x1="406.8" x2="423.7" y1="456.9" y2="456.9"/></g><g id="LINE_227_">
		
			<line fill="none" id="n_id_297" stroke="#000000" stroke-linecap="round" stroke-linejoin="round" stroke-miterlimit="10" stroke-width="0.15" x1="387.3" x2="383.8" y1="526" y2="526"/></g><g id="LINE_228_">
		
			<line fill="none" id="n_id_298" stroke="#000000" stroke-linecap="round" stroke-linejoin="round" stroke-miterlimit="10" stroke-width="0.15" x1="387.3" x2="424.3" y1="407.6" y2="407.6"/></g><g id="LWPOLYLINE_39_">
		
			<line fill="none" id="n_id_299" stroke="#000000" stroke-linecap="round" stroke-linejoin="round" stroke-miterlimit="10" stroke-width="0.15" x1="426.2" x2="427.7" y1="407.6" y2="407.6"/></g><g id="LINE_229_">
		
			<line fill="none" id="n_id_300" stroke="#000000" stroke-linecap="round" stroke-linejoin="round" stroke-miterlimit="10" stroke-width="0.15" x1="387.3" x2="424.3" y1="397.8" y2="397.8"/></g><g id="LWPOLYLINE_40_">
		
			<line fill="none" id="n_id_301" stroke="#000000" stroke-linecap="round" stroke-linejoin="round" stroke-miterlimit="10" stroke-width="0.15" x1="426.2" x2="427.7" y1="397.8" y2="397.8"/></g><g id="LINE_230_">
		
			<line fill="none" id="n_id_302" stroke="#000000" stroke-linecap="round" stroke-linejoin="round" stroke-miterlimit="10" stroke-width="0.15" x1="387.3" x2="424.3" y1="387.9" y2="387.9"/></g><g id="LWPOLYLINE_41_">
		
			<line fill="none" id="n_id_303" stroke="#000000" stroke-linecap="round" stroke-linejoin="round" stroke-miterlimit="10" stroke-width="0.15" x1="426.2" x2="427.7" y1="387.9" y2="387.9"/></g><g id="LINE_231_">
		
			<line fill="none" id="n_id_304" stroke="#000000" stroke-linecap="round" stroke-linejoin="round" stroke-miterlimit="10" stroke-width="0.15" x1="387.3" x2="427.7" y1="516.1" y2="516.1"/></g></g>
  <g id="_x33_60border">
	<g id="MTEXT_24_">
		</g></g>
  <g id="_x33_60text">
	<g id="MTEXT_6_">
		</g><g id="MTEXT_10_">
		<g id="n_id_379">
			<path d="M262.2,177.1c0.1,0.3,0.3,0.8,0.3,1.5c0,1.5-1,2.7-2.8,2.7c-1.7,0-2.9-1.2-2.9-2.9c0-0.7,0.1-1.1,0.2-1.3l0.6,0.2     c-0.1,0.3-0.2,0.7-0.2,1.1c0,1.3,0.8,2.1,2.3,2.1c1.3,0,2.2-0.8,2.2-2.1c0-0.4-0.1-0.9-0.2-1.2L262.2,177.1z" id="n_id_380"/><path d="M256.9,176.3v-0.7h4.9v-2.3h0.6v3.1h-5.5V176.3z" id="n_id_381"/><path d="M259.6,168c1.9,0,2.9,1.1,2.9,2.6s-1.1,2.5-2.8,2.5c-1.7,0-2.9-1.1-2.9-2.6C256.8,169,258,168,259.6,168z M259.7,172.3     c1.2,0,2.2-0.6,2.2-1.8c0-1.1-1-1.8-2.3-1.8c-1.1,0-2.2,0.6-2.2,1.8C257.4,171.7,258.5,172.3,259.7,172.3z" id="n_id_382"/><path d="M261.6,167.2c0.2-0.3,0.4-0.8,0.4-1.3c0-0.7-0.4-1.1-0.9-1.1s-0.8,0.3-1.1,1c-0.3,0.9-0.8,1.5-1.6,1.5     c-0.9,0-1.5-0.7-1.5-1.8c0-0.6,0.1-1,0.3-1.2l0.6,0.2c-0.1,0.2-0.3,0.5-0.3,1c0,0.7,0.4,1,0.8,1c0.5,0,0.8-0.3,1.1-1.1     c0.4-0.9,0.8-1.4,1.6-1.4c0.8,0,1.6,0.6,1.6,1.9c0,0.5-0.2,1.1-0.4,1.4L261.6,167.2z" id="n_id_383"/><path d="M259.8,160.3v2.1h2V160h0.6v3.1h-5.5v-3h0.6v2.3h1.7v-2.1H259.8z" id="n_id_384"/><path d="M257.5,157.9v1.7h-0.6v-4.1h0.6v1.7h4.9v0.7L257.5,157.9L257.5,157.9z" id="n_id_385"/></g></g><g id="MTEXT_14_">
		<g id="n_id_407">
			<path d="M404.2,249l-1.5-5.9h0.8l0.7,3c0.2,0.7,0.3,1.5,0.4,2l0,0c0.1-0.6,0.3-1.3,0.5-2l0.8-3h0.8l0.7,3c0.2,0.7,0.3,1.4,0.4,2     l0,0c0.1-0.6,0.3-1.3,0.5-2l0.8-3h0.8l-1.7,5.9h-0.8l-0.7-3c-0.2-0.7-0.3-1.3-0.4-1.9l0,0c-0.1,0.6-0.2,1.2-0.5,1.9l-0.8,3H404.2     z" id="n_id_408"/></g></g><g id="MTEXT_15_">
		<g id="n_id_409">
			<path d="M404.3,211.6c0.5-0.1,1-0.1,1.6-0.1c1.1,0,1.9,0.3,2.4,0.7c0.5,0.5,0.8,1.2,0.8,2.1c0,1-0.3,1.7-0.8,2.3     c-0.5,0.5-1.5,0.8-2.6,0.8c-0.5,0-1,0-1.4-0.1V211.6z M405.1,216.8c0.2,0,0.5,0,0.8,0c1.6,0,2.5-0.9,2.5-2.5     c0-1.4-0.8-2.3-2.4-2.3c-0.4,0-0.7,0-0.9,0.1V216.8z" id="n_id_410"/></g></g><g id="MTEXT_22_">
		<g id="n_id_454">
			<path d="M225.9,301l-0.6,1.8h-0.8l2-5.9h0.9l2,5.9h-0.8L228,301H225.9z M227.8,300.4l-0.6-1.7c-0.1-0.4-0.2-0.7-0.3-1.1l0,0     c-0.1,0.3-0.2,0.7-0.3,1.1l-0.6,1.7H227.8z" id="n_id_455"/><path d="M242.2,302.9l-1.9-5.9h0.8l0.9,2.9c0.3,0.8,0.5,1.5,0.6,2.2l0,0c0.2-0.7,0.4-1.4,0.7-2.2l1-2.9h0.8l-2.1,5.9H242.2z" id="n_id_458"/></g></g></g>
  <g id="_x33_60hatch">
	<g id="LINE_33_">
		
			<line fill="none" id="n_id_473" stroke="#000000" stroke-linecap="round" stroke-linejoin="round" stroke-miterlimit="10" stroke-width="0.15" x1="407.5" x2="407.5" y1="471.4" y2="524.9"/></g><g id="HATCH">
		<polygon id="n_id_474" points="190.8,28.5 213.2,28.5 213.2,25 182.7,25 182.7,210.4 186.1,210.4 186.1,180.8 237.4,180.8 237.4,185.7     264.5,185.7 264.5,206.4 268,206.4 268,179.3 264.5,179.3 264.5,182.3 240.8,182.3 240.8,152.7 264.5,152.7 264.5,155.7     268,155.7 268,152.7 271.9,152.7 271.9,149.3 226.3,149.3 226.3,152.7 237.4,152.7 237.4,177.4 186.1,177.4 186.1,152.7     194.7,152.7 194.7,149.3 190.8,149.3   "/></g><g id="HATCH_1_">
		<polygon id="n_id_475" points="186.1,276 186.1,241.9 182.7,241.9 182.7,640.3 250.7,640.3 250.7,634.9 254.1,634.9 254.1,631.5 188.1,631.5     188.1,440.2 192.8,440.2 192.8,282.9 309.4,282.9 309.4,308.5 312.8,308.5 312.8,285.8 324.7,285.8 324.7,280.4 312.8,280.4     312.8,273.5 309.4,273.5 309.4,279.4 268,279.4 268,243.9 309.4,243.9 309.4,249.8 312.8,249.8 312.8,236 307.4,236 307.4,240.5     268,240.5 268,236 264.5,236 264.5,279.4 226.5,279.4 226.5,240.5 223.1,240.5 223.1,276   "/></g><g id="HATCH_2_">
		<polygon id="n_id_476" points="268.4,25 268.4,28.5 309.4,28.5 309.4,149.3 303.5,149.3 303.5,152.7 307.4,152.7 307.4,200.5 312.8,200.5     312.8,196.6 324.7,196.6 324.7,191.2 312.8,191.2 312.8,28.5 347.3,28.5 347.3,25   "/></g><g id="HATCH_3_">
		<polygon id="n_id_477" points="433.1,25 402.6,25 402.6,28.5 429.7,28.5 429.7,191.2 372,191.2 372,196.6 383.8,196.6 383.8,200.5 387.3,200.5     387.3,194.6 424,194.6 424,266.6 387.3,266.6 387.3,259.7 383.8,259.7 383.8,280.4 372,280.4 372,285.8 383.8,285.8 383.8,290.8     387.3,290.8 387.3,272 429.7,272 429.7,326.3 387.3,326.3 387.3,322.3 383.8,322.3 383.8,332.7 387.3,332.7 387.3,329.7     427.7,329.7 427.7,631.5 359.7,631.5 359.7,634.9 365.1,634.9 365.1,640.3 433.1,640.3   "/></g></g>
  <g id="_x33_60walls">
	<g id="LINE_35_">
		
			<line fill="none" id="n_id_479" stroke="#000000" stroke-linecap="round" stroke-linejoin="round" stroke-miterlimit="10" stroke-width="0.15" x1="234.4" x2="234.4" y1="687.7" y2="640.3"/></g><g id="LINE_190_">
		
			<line fill="none" id="n_id_480" stroke="#000000" stroke-linecap="round" stroke-linejoin="round" stroke-miterlimit="10" stroke-width="0.15" x1="234.4" x2="381.4" y1="687.7" y2="687.7"/></g><g id="LWPOLYLINE_11_">
		
			<rect fill="none" height="2" id="n_id_481" stroke="#000000" stroke-linecap="round" stroke-linejoin="round" stroke-miterlimit="10" stroke-width="0.15" width="2" x="235.9" y="684.2"/></g><g id="LWPOLYLINE_12_">
		
			<rect fill="none" height="2" id="n_id_482" stroke="#000000" stroke-linecap="round" stroke-linejoin="round" stroke-miterlimit="10" stroke-width="0.15" width="2" x="235.9" y="643.5"/></g><g id="LINE_191_">
		
			<line fill="none" id="n_id_483" stroke="#000000" stroke-linecap="round" stroke-linejoin="round" stroke-miterlimit="10" stroke-width="0.15" x1="381.4" x2="381.4" y1="687.7" y2="640.3"/></g><g id="LWPOLYLINE_13_">
		
			<rect fill="none" height="2" id="n_id_484" stroke="#000000" stroke-linecap="round" stroke-linejoin="round" stroke-miterlimit="10" stroke-width="0.15" width="2" x="377.9" y="684.2"/></g><g id="LWPOLYLINE_14_">
		
			<rect fill="none" height="2" id="n_id_485" stroke="#000000" stroke-linecap="round" stroke-linejoin="round" stroke-miterlimit="10" stroke-width="0.15" width="2" x="377.9" y="643.5"/></g><g id="LWPOLYLINE_15_">
		
			<rect fill="none" height="2" id="n_id_486" stroke="#000000" stroke-linecap="round" stroke-linejoin="round" stroke-miterlimit="10" stroke-width="0.15" width="2" x="342.4" y="684.2"/></g><g id="LWPOLYLINE_16_">
		
			<rect fill="none" height="2" id="n_id_487" stroke="#000000" stroke-linecap="round" stroke-linejoin="round" stroke-miterlimit="10" stroke-width="0.15" width="2" x="306.9" y="684.2"/></g><g id="LWPOLYLINE_17_">
		
			<rect fill="none" height="2" id="n_id_488" stroke="#000000" stroke-linecap="round" stroke-linejoin="round" stroke-miterlimit="10" stroke-width="0.15" width="2" x="271.4" y="684.2"/></g><g id="LINE_192_">
		
			<line fill="none" id="n_id_489" stroke="#000000" stroke-linecap="round" stroke-linejoin="round" stroke-miterlimit="10" stroke-width="0.15" x1="238.1" x2="377.7" y1="684" y2="684"/></g><g id="LINE_193_">
		
			<line fill="none" id="n_id_490" stroke="#000000" stroke-linecap="round" stroke-linejoin="round" stroke-miterlimit="10" stroke-width="0.15" x1="235.7" x2="380.1" y1="686.4" y2="686.4"/></g><g id="LINE_194_">
		
			<line fill="none" id="n_id_491" stroke="#000000" stroke-linecap="round" stroke-linejoin="round" stroke-miterlimit="10" stroke-width="0.15" x1="238.1" x2="238.1" y1="684" y2="642.8"/></g><g id="LINE_195_">
		
			<line fill="none" id="n_id_492" stroke="#000000" stroke-linecap="round" stroke-linejoin="round" stroke-miterlimit="10" stroke-width="0.15" x1="235.7" x2="235.7" y1="686.4" y2="642.8"/></g><g id="LINE_196_">
		
			<line fill="none" id="n_id_493" stroke="#000000" stroke-linecap="round" stroke-linejoin="round" stroke-miterlimit="10" stroke-width="0.15" x1="377.7" x2="377.7" y1="684" y2="643.3"/></g><g id="LINE_197_">
		
			<line fill="none" id="n_id_494" stroke="#000000" stroke-linecap="round" stroke-linejoin="round" stroke-miterlimit="10" stroke-width="0.15" x1="380.1" x2="380.1" y1="686.4" y2="643.3"/></g><g id="LINE_198_">
		
			<line fill="none" id="n_id_495" stroke="#000000" stroke-linecap="round" stroke-linejoin="round" stroke-miterlimit="10" stroke-width="0.15" x1="380.1" x2="377.7" y1="643.3" y2="643.3"/></g><g id="LINE_199_">
		
			<line fill="none" id="n_id_496" stroke="#000000" stroke-linecap="round" stroke-linejoin="round" stroke-miterlimit="10" stroke-width="0.15" x1="235.7" x2="238.1" y1="642.8" y2="642.8"/></g><g id="LWPOLYLINE_19_">
		
			<polygon fill="none" id="n_id_497" points="    182.7,25 213.2,25 213.2,28.5 190.8,28.5 190.8,149.3 194.7,149.3 194.7,152.7 186.1,152.7 186.1,177.4 237.4,177.4 237.4,152.7     226.3,152.7 226.3,149.3 271.9,149.3 271.9,152.7 268,152.7 268,155.7 264.5,155.7 264.5,152.7 240.8,152.7 240.8,182.3     264.5,182.3 264.5,179.3 268,179.3 268,206.4 264.5,206.4 264.5,185.7 237.4,185.7 237.4,180.8 186.1,180.8 186.1,276 223.1,276     223.1,240.5 226.5,240.5 226.5,279.4 264.5,279.4 264.5,236 268,236 268,240.5 307.4,240.5 307.4,236 312.8,236 312.8,249.8     309.4,249.8 309.4,243.9 268,243.9 268,279.4 309.4,279.4 309.4,273.5 312.8,273.5 312.8,280.4 324.7,280.4 324.7,285.8     312.8,285.8 312.8,308.5 309.4,308.5 309.4,282.9 192.8,282.9 192.8,440.2 188.1,440.2 188.1,631.5 254.1,631.5 254.1,634.9     250.7,634.9 250.7,640.3 182.7,640.3   " stroke="#000000" stroke-linecap="round" stroke-linejoin="round" stroke-miterlimit="10" stroke-width="0.15"/></g><g id="LWPOLYLINE_20_">
		
			<polygon fill="none" id="n_id_498" points="    312.8,28.5 347.3,28.5 347.3,25 268.4,25 268.4,28.5 309.4,28.5 309.4,149.3 303.5,149.3 303.5,152.7 307.4,152.7 307.4,200.5     312.8,200.5 312.8,196.6 324.7,196.6 324.7,191.2 312.8,191.2   " stroke="#000000" stroke-linecap="round" stroke-linejoin="round" stroke-miterlimit="10" stroke-width="0.15"/></g><g id="LWPOLYLINE_21_">
		
			<polygon fill="none" id="n_id_499" points="    433.1,25 402.6,25 402.6,28.5 429.7,28.5 429.7,191.2 372,191.2 372,196.6 383.8,196.6 383.8,200.5 387.3,200.5 387.3,194.6     424,194.6 424,266.6 387.3,266.6 387.3,259.7 383.8,259.7 383.8,280.4 372,280.4 372,285.8 383.8,285.8 383.8,290.8 387.3,290.8     387.3,272 429.7,272 429.7,326.3 387.3,326.3 387.3,322.3 383.8,322.3 383.8,332.7 387.3,332.7 387.3,329.7 427.7,329.7     427.7,631.5 359.7,631.5 359.7,634.9 365.1,634.9 365.1,640.3 433.1,640.3   " stroke="#000000" stroke-linecap="round" stroke-linejoin="round" stroke-miterlimit="10" stroke-width="0.15"/></g><g id="LWPOLYLINE_23_">
		
			<rect fill="none" height="72" id="n_id_501" stroke="#000000" stroke-linecap="round" stroke-linejoin="round" stroke-miterlimit="10" stroke-width="0.15" width="3.5" x="383.8" y="368.2"/></g><g id="LWPOLYLINE_24_">
		
			<rect fill="none" height="3.5" id="n_id_502" stroke="#000000" stroke-linecap="round" stroke-linejoin="round" stroke-miterlimit="10" stroke-width="0.15" width="55.2" x="213.2" y="25"/></g><g id="LWPOLYLINE_25_">
		
			<rect fill="none" height="3.5" id="n_id_503" stroke="#000000" stroke-linecap="round" stroke-linejoin="round" stroke-miterlimit="10" stroke-width="0.15" width="55.2" x="347.3" y="25"/></g><g id="LWPOLYLINE_26_">
		
			<rect fill="none" height="1.5" id="n_id_504" stroke="#000000" stroke-linecap="round" stroke-linejoin="round" stroke-miterlimit="10" stroke-width="0.15" width="30.6" x="254.1" y="631.7"/></g><g id="LWPOLYLINE_27_">
		
			<rect fill="none" height="1.5" id="n_id_505" stroke="#000000" stroke-linecap="round" stroke-linejoin="round" stroke-miterlimit="10" stroke-width="0.15" width="30.6" x="282.7" y="633.2"/></g><g id="LWPOLYLINE_28_">
		
			<rect fill="none" height="3.5" id="n_id_506" stroke="#000000" stroke-linecap="round" stroke-linejoin="round" stroke-miterlimit="10" stroke-width="0.15" width="32.5" x="327.1" y="631.5"/></g><g id="LWPOLYLINE_42_">
		
			<rect fill="none" height="31.6" id="n_id_507" stroke="#000000" stroke-linecap="round" stroke-linejoin="round" stroke-miterlimit="10" stroke-width="0.15" width="3.5" x="182.7" y="210.4"/></g></g>
</svg>