25
2
1.60595454026
3
rectangle
37
151
43
367
167.026943934
0.0
0.0
0.0
0.0
0.0
0.0
0.0
0.0
0.100985221675
0.0738916256158
0.0566502463054
0.0492610837438
0.0443349753695
0.0418719211823
0.0418719211823
0.0394088669951
0.0369458128079
0.0369458128079
0.0369458128079
0.0369458128079
0.0381773399015
0.0381773399015
0.0406403940887
0.129310344828
0.156403940887
0.150011525807
0.0184729064039
0.0172413793103
0.0197044334975
0.0221674876847
0.0246305418719
0.0295566502463
0.0369458128079
0.051724137931
0.0788177339901
0.0812807881773
0.0480295566502
0.0492610837438
0.0369458128079
0.0246305418719
0.0209359605911
0.0295566502463
0.0381773399015
0.0258620689655
0.0184729064039
0.0147783251232
0.012315270936
0.00985221674877
0.00985221674877
0.00862068965517
0.00862068965517
2
rectangle
10
179
11
399
211.404824921
0.0
0.0
0.0
0.0
0.0
0.0
0.0
0.0
2.05487600446e-05
0.000152493429804
0.000186020354088
0.000123292560267
0.000103825313909
9.51732044169e-05
8.86841222976e-05
8.43580675513e-05
7.7868985432e-05
7.7868985432e-05
7.7868985432e-05
7.57059580589e-05
7.89504991186e-05
7.57059580589e-05
0.00016330856667
0.000337432270205
0.000279030531131
0.0
0.0
0.0
0.0
0.0
0.0
0.0
0.0
2.05487600446e-05
0.000152493429804
0.000186020354088
0.000123292560267
0.000103825313909
9.51732044169e-05
8.86841222976e-05
8.43580675513e-05
7.7868985432e-05
7.7868985432e-05
7.7868985432e-05
7.57059580589e-05
7.89504991186e-05
7.57059580589e-05
0.00016330856667
0.000337432270205
0.000279030531131
0.0345954790828
3.8934492716e-05
4.10975200891e-05
4.54235748353e-05
4.97496295816e-05
5.62387117009e-05
6.48908211933e-05
8.43580675513e-05
0.000116803478148
0.000173042189849
0.000137352238193
9.84177454766e-05
9.733623179e-05
7.35429306858e-05
4.75866022085e-05
4.65050885219e-05
6.05647664471e-05
8.32765538648e-05
5.8401739074e-05
4.21790337757e-05
3.24454105967e-05
2.81193558504e-05
2.37933011042e-05
2.27117874177e-05
2.05487600446e-05
1.83857326714e-05
3.8934492716e-05
4.10975200891e-05
4.54235748353e-05
4.97496295816e-05
5.62387117009e-05
6.48908211933e-05
8.43580675513e-05
0.000116803478148
0.000173042189849
0.000137352238193
9.84177454766e-05
9.733623179e-05
7.35429306858e-05
4.75866022085e-05
4.65050885219e-05
6.05647664471e-05
8.32765538648e-05
5.8401739074e-05
4.21790337757e-05
3.24454105967e-05
2.81193558504e-05
2.37933011042e-05
2.27117874177e-05
2.05487600446e-05
1.83857326714e-05
1
2
3
1
1
0.544481358435
floor
