chair 001 : 1564,785,1716,824
chair 002 : 1695,1681,1852,1841
bath 001 : 1801,1283,2023,1599
chair 001 : 2302,1208,2372,1231
chair 002 : 2297,1241,2377,1290
chair 002 : 1596,952,1739,1101
chair 002 : 1564,829,1709,936
sink 003 : 2025,1486,2120,1598
table 001 : 2076,901,2391,1599
chair 002 : 1182,1770,1338,1921
chair 001 : 1978,2156,2204,2219
chair 002 : 1950,1650,2113,1807
bath 002 : 1360,215,1481,709
chair 001 : 1382,411,1452,434
chair 002 : 1377,351,1457,400
chair 002 : 1498,214,1651,354
chair 002 : 1539,478,1704,639
No Objects Detected
